Atestbymjbeforelive	1	1	1	905	206.99400593081157	14	-6.5	196	91.17584433873503	-4.247706334050147	206.95041793189142	1500	1450	0	2020-05-30 00:31:29.415617
Atestbymjbeforelive	2	2	1	889	245.9203395538615	12	142.5	199	59.502781064491565	124.80372143327342	211.89819376930149	1450	1400	0	2020-05-30 00:31:34.952977
Atestbymjbeforelive	3	3	1	693	104.89431752920395	10	28.5	96	70.90383653381409	34.3166610453661	99.12206931160647	1400	1350	0	2020-05-30 00:31:40.368375
Atestbymjbeforelive	4	4	1	822	295.05060156290494	9	68.5	-286	283.7859513903471	70.30918153789204	-286.5510015234702	1350	1300	0	2020-05-30 00:31:45.794927
Atestbymjbeforelive	5	5	1	707	116.2065533115838	13	106.5	-38	338.0443585109484	107.77851009539248	-43.448311752878844	1300	1250	0	2020-05-30 00:31:50.928774
Atestbymjbeforelive	6	6	1	807	231.49921286666276	4	8.5	-240	267.4879288647131	-10.146579694172196	-231.2767443527218	1250	1200	0	2020-05-30 00:31:56.228735
Atestbymjbeforelive	7	7	1	854	236.3568651618779	13	-117.5	-219	243.5283494735553	-105.35724319274222	-211.57603601536613	1200	1150	0	2020-05-30 00:32:01.974994
Atestbymjbeforelive	8	8	0	711	102.94476016932579	7	-82.5	-129	236.18241936755868	-57.293964798097335	-85.52792084480008	1150	1350	0	2020-05-30 00:32:07.580727
Atestbymjbeforelive	9	8	1	994	134.70190298680365	8	12.5	-117	273.88780705859966	9.133189754662416	-134.39191758871362	1350	1300	0	2020-05-30 00:32:13.270935
