A2JV0ESAFE7VXL	1	1	0	0	138.49648873675335	3	0	0	262.01378462038883	-19.241989068058693	-137.1532837708028	1500	1700	0	2020-05-30 21:29:57.197619
A2JV0ESAFE7VXL	2	1	1	1361	169.88020505815348	13	159	-31.5	349.7155306350209	167.150819314974	-30.329650062821162	1700	1650	0	2020-05-30 21:30:03.219563
A2JV0ESAFE7VXL	3	2	1	1250	222.49052691141168	6	194	122.5	28.80748224861703	194.95593595876866	107.21108897757777	1650	1600	0	2020-05-30 21:30:09.275067
A2JV0ESAFE7VXL	4	3	0	0	129.7106961668373	12	0	0	297.3364811748136	59.56513091363988	-115.22525712415018	1600	1800	0	2020-05-30 21:30:19.506716
A2JV0ESAFE7VXL	5	3	1	1631	258.8973365989858	3	-35	-248.5	259.50025471399914	-47.179160502524375	-254.56228650828388	1800	1750	0	2020-05-30 21:30:25.133158
A2JV0ESAFE7VXL	6	4	1	1144	201.25215113801437	3	-62	-171.5	249.26772858397393	-71.2435974900335	-188.22002591211242	1750	1700	0	2020-05-30 21:30:30.359878
A2JV0ESAFE7VXL	7	5	1	1021	225.42283007479043	12	206	-60.5	346.1690068561721	218.88671931776216	-53.88929787290838	1700	1650	0	2020-05-30 21:30:49.385134
A2JV0ESAFE7VXL	8	6	1	1590	235.54146852840674	6	216	124.5	32.84963021191107	197.87769399629005	127.76619903256503	1650	1600	0	2020-05-30 21:31:03.306728
A2JV0ESAFE7VXL	9	7	1	1122	164.98126386939884	14	-39	-159.5	247.83680373694992	-62.238518451977136	-152.79130946767592	1600	1550	0	2020-05-30 21:31:16.406397
A2JV0ESAFE7VXL	10	8	0	0	292.12532706485786	0	0	0	273.30994069672766	16.866509034698712	-291.63800778659254	1550	1750	0	2020-05-30 21:31:22.446271
A2JV0ESAFE7VXL	11	8	1	1163	140.6478524044532	8	-21	-166.5	263.3197557256134	-16.361323106040047	-139.69296865699653	1750	1700	0	2020-05-30 21:31:28.375347
A2JV0ESAFE7VXL	12	9	1	1368	271.96837874606774	14	167	-218.5	307.74189803391573	166.47333112170492	-215.06610393785382	1700	1650	0	2020-05-30 21:31:35.031822
A2JV0ESAFE7VXL	13	10	1	1086	152.59557919956558	13	112	-79.5	330.6638556476607	133.02677978965048	-74.76153188670449	1650	1600	0	2020-05-30 21:31:40.418093
A2JV0ESAFE7VXL	14	11	1	1366	180.98591906449036	2	-142	106.5	147.05677213271656	-151.88516011436442	98.42154762374007	1600	1550	0	2020-05-30 21:31:46.695806
A2JV0ESAFE7VXL	15	12	0	0	261.77354685847945	14	0	0	335.37293820459877	237.96246560619406	-109.08370546277493	1550	1750	0	2020-05-30 21:31:53.244344
A2JV0ESAFE7VXL	16	12	1	1084	137.22279952981575	9	-81	-75.5	215.1843665730977	-112.15248911543985	-79.06905776605124	1750	1700	0	2020-05-30 21:31:58.972528
A2JV0ESAFE7VXL	17	13	1	1215	197.0437047943194	1	-21	-179.5	264.11569999615296	-20.200914275104672	-196.00547099895138	1700	1650	0	2020-05-30 21:32:05.119287
A2JV0ESAFE7VXL	18	14	0	0	221.73305037816297	1	0	0	39.02268981693222	172.2636711487084	139.60935940106097	1650	1850	0	2020-05-30 21:32:11.259058
A2JV0ESAFE7VXL	19	14	1	1178	246.7117368544209	9	251	44.5	10.37097098845467	242.68115908221458	44.41324271248253	1850	1800	0	2020-05-30 21:32:20.675575
A2JV0ESAFE7VXL	20	15	1	1534	107.06829641668345	12	105	-35.5	338.9640195092758	99.93275070509274	-38.43260899398552	1800	1750	0	2020-05-30 21:32:26.212219
A2JV0ESAFE7VXL	21	16	1	1220	174.2449289766143	9	-172	-32.5	195.63081921710983	-167.80096404388794	-46.948181434504775	1750	1700	0	2020-05-30 21:32:32.141193
A2JV0ESAFE7VXL	22	17	1	1655	293.60069450809016	0	-272	45.5	170.26871055165722	-289.37616495607887	49.62663570044945	1700	1650	0	2020-05-30 21:32:38.370882
A2JV0ESAFE7VXL	23	18	0	0	211.00024616037427	3	0	0	80.30772034383303	35.523275393530206	207.9884631056587	1650	1850	0	2020-05-30 21:32:44.955024
A2JV0ESAFE7VXL	24	18	1	1075	175.83901185233083	13	63	-155.5	288.9992347232703	57.24536190980191	-166.2598166395595	1850	1800	0	2020-05-30 21:32:51.067742
A2JV0ESAFE7VXL	25	19	1	1141	121.2179988747406	10	-40	-118.5	251.19398636804328	-39.07644645763879	-114.74682820644718	1800	1750	0	2020-05-30 21:32:56.919613
A2JV0ESAFE7VXL	26	20	1	1412	209.13486906776495	1	145	-149.5	316.46257606821905	151.60701197039918	-144.05800006038686	1750	1700	0	2020-05-30 21:33:02.915112
A2JV0ESAFE7VXL	27	21	1	1256	205.86622995880268	13	-85	205.5	112.260153235145	-77.98472676716311	190.52371775845006	1700	1650	0	2020-05-30 21:33:14.911181
A2JV0ESAFE7VXL	28	22	0	330	139.35206394364536	4	-6	0.5	70.48151351352956	46.55905537153169	131.3440218977037	1650	1850	0	2020-05-30 21:33:22.687735
A2JV0ESAFE7VXL	29	22	1	1342	286.9787235664927	11	256	-116.5	333.0859761580867	255.89512934567915	-129.901772724669	1850	1800	0	2020-05-30 21:33:32.114067
A2JV0ESAFE7VXL	30	23	1	1490	287.66745530851273	8	-110	-262.5	248.2460312843575	-106.61582221041165	-267.1808962071822	1800	1750	0	2020-05-30 21:34:00.146745
A2JV0ESAFE7VXL	31	24	1	1120	279.2574463386698	6	-128	-238.5	239.49414910268555	-141.75843754263028	-240.6018842841162	1750	1700	0	2020-05-30 21:34:06.506100
A2JV0ESAFE7VXL	32	25	1	1114	233.2088578476891	6	154	-155.5	313.3640683159943	160.12859958350452	-169.544103330223	1700	1650	0	2020-05-30 21:34:12.314576
A2JV0ESAFE7VXL	33	26	1	1483	289.62978170106584	9	246	55.5	10.418487941184482	284.8547048761827	52.3756389756715	1650	1600	0	2020-05-30 21:34:18.772994
A2JV0ESAFE7VXL	34	27	1	1318	202.80954487909736	5	-160	-19.5	187.4769406594056	-201.0851187646905	-26.391030776703623	1600	1550	0	2020-05-30 21:34:25.153270
A2JV0ESAFE7VXL	35	28	0	0	255.67251009828334	1	0	0	50.99733092273006	160.90917989948207	198.68736307081264	1550	1750	0	2020-05-30 21:34:31.662276
A2JV0ESAFE7VXL	36	28	1	1359	232.04112521990896	11	-234	48.5	168.4181520491822	-227.3165137192069	46.586332586576084	1750	1700	0	2020-05-30 21:34:38.176099
A2JV0ESAFE7VXL	37	29	0	0	231.93743392580228	12	0	0	68.96398578252584	83.25503114475214	216.47995991585978	1700	1900	0	2020-05-30 21:34:44.647706
A2JV0ESAFE7VXL	38	29	1	1078	106.2484934757291	14	106	5.5	0.2105425094549762	106.2477761331307	0.39042621094555013	1900	1850	0	2020-05-30 21:34:51.815306
A2JV0ESAFE7VXL	39	30	1	1210	191.90653180589652	2	-126	141.5	129.06365137642348	-120.93630191749114	149.00512685236373	1850	1800	0	2020-05-30 21:34:57.855016
A2JV0ESAFE7VXL	40	31	1	1372	190.64154896235053	2	166	65.5	19.20561622370534	180.03122763328096	62.713294185667415	1800	1750	0	2020-05-30 21:35:18.980684
A2JV0ESAFE7VXL	41	32	1	1161	165.25633144925814	10	-132	54.5	156.41259106287998	-151.44927837838492	66.1269322041597	1750	1700	0	2020-05-30 21:35:24.870010
A2JV0ESAFE7VXL	42	33	1	1464	161.74485010937673	8	115	129.5	50.77670522577844	102.27843725495337	125.30170712958906	1700	1650	0	2020-05-30 21:35:38.600572
A2JV0ESAFE7VXL	43	34	1	1582	271.6094889410789	7	211	199.5	45.478853933338776	190.44509211378934	193.6553158903838	1650	1600	0	2020-05-30 21:35:45.135345
A2JV0ESAFE7VXL	44	35	1	1121	108.49658793511293	8	-69	-70.5	233.71122414699224	-64.2142792389757	-87.45304989181649	1600	1550	0	2020-05-30 21:35:51.055975
A2JV0ESAFE7VXL	45	36	1	1154	157.80617078333754	6	145	72.5	25.13621439254484	142.86200507501337	67.03159734965851	1550	1500	0	2020-05-30 21:35:57.132240
A2JV0ESAFE7VXL	46	37	1	1097	133.3963151612978	11	-124	75.5	152.45618209312744	-118.276835818047	61.68603575756057	1500	1450	0	2020-05-30 21:36:02.856225
A2JV0ESAFE7VXL	47	38	0	0	242.23781984661014	4	0	0	73.0310071362604	70.69810868750015	231.69147328300446	1450	1650	0	2020-05-30 21:36:13.861775
A2JV0ESAFE7VXL	48	38	1	1250	161.63544033896855	11	92	-140.5	302.8307683961919	87.63219350431697	-135.81831332774755	1650	1600	0	2020-05-30 21:36:19.928138
A2JV0ESAFE7VXL	49	39	1	1430	111.00248813044882	1	14	-104.5	266.8598262803522	-6.08059833533475	-110.83581864647708	1600	1550	0	2020-05-30 21:36:26.166204
A2JV0ESAFE7VXL	50	40	1	1467	147.52485427216277	5	20	152.5	85.18156645162505	12.391857143487186	147.00348466807944	1550	1500	0	2020-05-30 21:36:31.688457
A2JV0ESAFE7VXL	51	41	1	1164	207.42907604988176	11	211	22.5	4.5307537762746986	206.7808761264301	16.38569068710896	1500	1450	0	2020-05-30 21:36:37.729024
A2JV0ESAFE7VXL	52	42	1	1059	128.30184827141395	10	-113	-13.5	186.7688243791263	-127.40755702887999	-15.122125571281853	1450	1400	0	2020-05-30 21:36:43.668293
A2JV0ESAFE7VXL	53	43	1	1176	127.67578685119773	0	-139	6.5	177.27295925834662	-127.53119808649015	6.074542180023675	1400	1350	0	2020-05-30 21:36:48.785368
A2JV0ESAFE7VXL	54	44	0	202	181.60473750978193	12	5	-5.5	288.2579241629528	56.895883383297345	-172.46199332035746	1350	1550	0	2020-05-30 21:36:59.419907
A2JV0ESAFE7VXL	55	44	1	1328	169.37568642529848	9	-160	16.5	171.30593161974068	-167.4294820420682	25.60257204200002	1550	1500	0	2020-05-30 21:37:08.327985
A2JV0ESAFE7VXL	56	45	1	1130	109.28201073497483	12	80	-90.5	309.03811945982926	68.82988600894302	-84.88229887482468	1500	1450	0	2020-05-30 21:37:13.446889
A2JV0ESAFE7VXL	57	46	0	0	197.26780429247034	11	0	0	45.53698299805782	138.17598356374495	140.79056849293588	1450	1650	0	2020-05-30 21:37:19.591059
A2JV0ESAFE7VXL	58	46	1	1187	157.38860013522788	2	-130	93.5	140.97849871800216	-122.27673685596525	99.09374892688075	1650	1600	0	2020-05-30 21:37:25.524199
A2JV0ESAFE7VXL	59	47	0	0	238.7392738958853	3	0	0	67.24008886676896	92.36117747106782	220.1496168438466	1600	1800	0	2020-05-30 21:37:31.869782
A2JV0ESAFE7VXL	60	47	1	1478	209.40530854760885	8	-135	-145.5	229.7899410324157	-135.19034408867887	-159.91921120710882	1800	1750	0	2020-05-30 21:37:44.452616
A2JV0ESAFE7VXL	61	48	1	1517	161.23039754893148	13	-57	144.5	111.70108517710965	-59.61725393964061	149.80328476533114	1750	1700	0	2020-05-30 21:37:50.637176
A2JV0ESAFE7VXL	62	49	1	1305	151.97949900453239	3	-135	-11.5	188.73490298918364	-150.2167738335012	-23.080055821496792	1700	1650	0	2020-05-30 21:37:56.734641
A2JV0ESAFE7VXL	63	50	1	1091	107.28481858166963	13	45	86.5	60.425094894935604	52.95160131431979	93.30680691327451	1650	1600	0	2020-05-30 21:38:02.774562
A2JV0ESAFE7VXL	64	51	1	1339	162.67857365431132	8	-145	98.5	148.477729057079	-138.67323595476424	85.05323013287311	1600	1550	0	2020-05-30 21:38:19.452480
A2JV0ESAFE7VXL	65	52	0	0	273.76085180207207	13	0	0	194.00000384423407	-265.6289800816391	-66.22876203119182	1550	1750	0	2020-05-30 21:38:26.118360
A2JV0ESAFE7VXL	66	52	1	1313	187.1970721183624	10	-104	-141.5	235.9470348730917	-104.82269277717337	-155.09657278170172	1750	1700	0	2020-05-30 21:38:32.138158
A2JV0ESAFE7VXL	67	53	1	1307	201.95204922454818	11	193	-74.5	341.165987899033	191.13908998430173	-65.19569361520236	1700	1650	0	2020-05-30 21:38:40.917443
A2JV0ESAFE7VXL	68	54	1	1441	149.6240380614073	12	38	-151.5	276.4270967350759	16.74875018118933	-148.6836646480358	1650	1600	0	2020-05-30 21:39:04.885067
A2JV0ESAFE7VXL	69	55	1	1107	152.7889912169909	3	-121	112.5	138.90835999455146	-115.15084440167871	100.42290013082723	1600	1550	0	2020-05-30 21:39:20.970132
A2JV0ESAFE7VXL	70	56	0	0	152.7292592570468	4	0	0	325.6778062684683	126.13603278988955	-86.1157817431516	1550	1750	0	2020-05-30 21:39:27.503781
A2JV0ESAFE7VXL	71	56	1	1382	265.84473807298394	4	-16	-258.5	264.9207598621331	-23.536137875852777	-264.8008213261097	1750	1700	0	2020-05-30 21:39:33.950001
A2JV0ESAFE7VXL	72	57	1	1299	121.26936115436342	0	61	-98.5	301.3014543529226	63.00438098865392	-103.61807724052775	1700	1650	0	2020-05-30 21:39:39.888500
A2JV0ESAFE7VXL	73	58	1	1116	148.55715407566538	4	-110	85.5	145.43096450176267	-122.32836786652592	84.29115281079558	1650	1600	0	2020-05-30 21:39:45.020666
A2JV0ESAFE7VXL	74	59	0	0	248.61885040850714	10	0	0	61.7396529899724	117.71573978040603	218.98478802510323	1600	1800	0	2020-05-30 21:39:50.637457
A2JV0ESAFE7VXL	75	59	1	1222	205.68053910271215	10	-200	-97.5	204.61850227048222	-186.98451416838896	-85.68124431165697	1800	1750	0	2020-05-30 21:39:56.520168
A2JV0ESAFE7VXL	76	60	1	1537	208.73762291482348	6	194	9.5	5.889053100554564	207.63599726129956	21.416999356507336	1750	1700	0	2020-05-30 21:40:02.825304
A2JV0ESAFE7VXL	77	61	1	1187	237.8558684149136	7	141	204.5	58.918780844538205	122.79371701464756	203.70841220023132	1700	1650	0	2020-05-30 21:40:16.525336
A2JV0ESAFE7VXL	78	62	1	1185	117.6539733668164	6	-17	-126.5	271.6206831194814	3.3275467001108567	-117.60690830881545	1650	1600	0	2020-05-30 21:40:23.074046
A2JV0ESAFE7VXL	79	63	1	1167	168.22751509964291	14	9	161.5	85.88199799092065	12.080557662662093	167.79319701096253	1600	1550	0	2020-05-30 21:40:29.157165
A2JV0ESAFE7VXL	80	64	1	1494	172.87028231377897	4	32	175.5	82.36390884691421	22.97113104046667	171.33727453758377	1550	1500	0	2020-05-30 21:40:40.879126
A2JV0ESAFE7VXL	81	65	0	0	112.35230062167724	3	0	0	190.1304982010008	-110.60069385783336	-19.7617300140843	1500	1700	0	2020-05-30 21:40:47.529725
A2JV0ESAFE7VXL	82	65	1	1174	236.53102233826004	0	-178	-104.5	205.64836430441767	-213.225023350477	-102.38170708466924	1700	1650	0	2020-05-30 21:40:53.765986
A2JV0ESAFE7VXL	83	66	1	1406	248.6185464315054	8	-36	-238.5	261.4254942065982	-37.06787510046832	-245.83969220866408	1650	1600	0	2020-05-30 21:41:00.115081
A2JV0ESAFE7VXL	84	67	1	1035	127.02300266252794	7	-74	-111.5	231.01299696836745	-79.9157710578114	-98.73354415617852	1600	1550	0	2020-05-30 21:41:06.261849
A2JV0ESAFE7VXL	85	68	1	1365	214.14656601443815	12	142	-144.5	316.43795349548293	155.17670829278993	-147.57689839263628	1550	1500	0	2020-05-30 21:41:12.290285
A2JV0ESAFE7VXL	86	69	1	1312	200.79281974873345	0	116	-183.5	302.37448917201914	107.51467729526003	-169.58287245103338	1500	1450	0	2020-05-30 21:41:17.622828
A2JV0ESAFE7VXL	87	70	0	0	180.55669509428952	1	0	0	78.5262098181234	35.91627447535025	176.94841443534762	1450	1650	0	2020-05-30 21:41:23.656659
A2JV0ESAFE7VXL	88	70	1	1537	191.7859522995159	9	-68	-159.5	246.476008867832	-76.54810810839389	-175.84720254942312	1650	1600	0	2020-05-30 21:41:29.858356
A2JV0ESAFE7VXL	89	71	1	1205	129.44026608604383	11	-101	-48.5	204.39400368295955	-117.884730903329	-53.46001032805306	1600	1550	0	2020-05-30 21:41:35.727780
A2JV0ESAFE7VXL	90	72	1	1143	114.09231418032846	14	-88	-54.5	205.02069707541185	-103.38532832889221	-48.2548447448537	1550	1500	0	2020-05-30 21:41:41.460203
A2JV0ESAFE7VXL	91	73	1	1412	233.69781993644256	3	201	-87.5	339.9271795710583	219.50235282702033	-80.20840446267587	1500	1450	0	2020-05-30 21:41:47.537995
A2JV0ESAFE7VXL	92	74	0	0	262.3362908465408	10	0	0	93.97560124833126	-18.188212150038577	261.70502179726327	1450	1650	0	2020-05-30 21:41:53.730705
A2JV0ESAFE7VXL	93	74	1	1223	146.38865743626482	2	0	170.5	85.14422236485477	12.391491366701405	145.86325777145203	1650	1600	0	2020-05-30 21:41:59.472655
A2JV0ESAFE7VXL	94	75	1	1434	204.56050569535688	11	-185	-65.5	200.94388079700545	-191.04539507547142	-73.12084183594425	1600	1550	0	2020-05-30 21:42:18.711344
A2JV0ESAFE7VXL	95	76	1	1471	231.6830694996408	5	126	-206.5	302.4443478723122	124.29336974446919	-195.52033891731074	1550	1500	0	2020-05-30 21:42:28.430064
A2JV0ESAFE7VXL	96	77	1	1320	260.2596207042857	10	-189	-155.5	218.51449941225775	-203.6402955156244	-162.06696212198162	1500	1450	0	2020-05-30 21:42:40.297818
A2JV0ESAFE7VXL	97	78	1	1392	159.15184622148422	8	128	101.5	34.68726093805874	130.86588305016403	90.57279287516617	1450	1400	0	2020-05-30 21:42:46.849791
A2JV0ESAFE7VXL	98	79	0	0	118.93990200466308	1	0	0	80.4658494535199	19.700663199866852	117.29699125878834	1400	1600	0	2020-05-30 21:42:53.539523
A2JV0ESAFE7VXL	99	79	1	1516	119.0559562798657	9	37	-83.5	286.1857926790777	33.18720244428666	-114.33691582177309	1600	1550	0	2020-05-30 21:43:00.278796
A2JV0ESAFE7VXL	100	80	1	1236	231.72451358553997	13	115	184.5	57.9773171958677	122.87307178614017	196.46490380292644	1550	1500	0	2020-05-30 21:43:06.088547
A2JV0ESAFE7VXL	101	81	1	1294	224.81867210349557	3	159	159.5	42.49986897981611	165.75405915442337	151.88491432729907	1500	1450	0	2020-05-30 21:43:18.159821
A2JV0ESAFE7VXL	102	82	1	1361	290.40096958926495	8	277	70.5	15.61270665836922	279.68601712136785	78.15660538413319	1450	1400	0	2020-05-30 21:43:28.030415
A2JV0ESAFE7VXL	103	83	0	148	229.9160065677798	14	1	5.5	307.5535258090805	140.13433830928932	-182.27379763063314	1400	1600	0	2020-05-30 21:43:33.134480
A2JV0ESAFE7VXL	104	83	1	1278	132.5766829155362	13	82	-96.5	308.6362171446739	82.7773645750564	-103.55908828729048	1600	1550	0	2020-05-30 21:43:39.359718
A2JV0ESAFE7VXL	105	84	0	0	132.2193087220032	3	0	0	220.94173314651113	-99.87534120961193	-86.6421480411698	1550	1750	0	2020-05-30 21:43:45.583569
A2JV0ESAFE7VXL	106	84	1	1159	178.4988663329301	13	85	149.5	64.16138597196985	77.79654661008553	160.65348616723523	1750	1700	0	2020-05-30 21:43:52.038683
A2JV0ESAFE7VXL	107	85	1	1144	122.60685725433156	9	98	92.5	39.1683042498406	95.05636148530114	77.4385536213054	1700	1650	0	2020-05-30 21:43:58.791658
A2JV0ESAFE7VXL	108	86	1	1110	198.5895952096291	2	186	102.5	27.520681824987385	176.1180108075954	91.7620487712652	1650	1600	0	2020-05-30 21:44:04.416225
A2JV0ESAFE7VXL	109	87	0	0	187.85723794448216	11	0	0	268.5849537526324	-4.639079162025583	-187.79994886223545	1600	1800	0	2020-05-30 21:44:16.391861
A2JV0ESAFE7VXL	110	87	1	1112	141.49548066276537	1	126	-43.5	347.2328491909088	137.99717663139592	-31.268998860697863	1800	1750	0	2020-05-30 21:44:22.042521
A2JV0ESAFE7VXL	111	88	1	1185	194.24762440917186	6	33	195.5	81.26295865747348	29.506183719457198	191.99355382647707	1750	1700	0	2020-05-30 21:44:43.612638
A2JV0ESAFE7VXL	112	89	1	1112	145.83713065021718	9	73	119.5	68.12551579433334	54.33520303299364	135.33718774842293	1700	1650	0	2020-05-30 21:44:49.515327
A2JV0ESAFE7VXL	113	90	0	0	128.9347033853466	7	0	0	272.78917993975114	6.274110774652872	-128.78196019262438	1650	1850	0	2020-05-30 21:44:56.191577
A2JV0ESAFE7VXL	114	90	1	1212	107.47122668306513	3	-24	116.5	100.39433026557647	-19.390153727638076	105.70755177933756	1850	1800	0	2020-05-30 21:45:02.138929
A2JV0ESAFE7VXL	115	91	1	1008	108.47310319191736	14	139	-33.5	344.2120898231129	104.38100149738828	-29.513058846662727	1800	1750	0	2020-05-30 21:45:11.550105
A2JV0ESAFE7VXL	116	92	1	1505	137.45989744017305	1	-29	117.5	107.80494372531638	-42.03213796507072	130.87598245036463	1750	1700	0	2020-05-30 21:45:17.893399
A2JV0ESAFE7VXL	117	93	1	1362	222.84369924347402	13	-204	83.5	156.26292553163216	-203.9916376571209	89.70354540642076	1700	1650	0	2020-05-30 21:45:24.445350
A2JV0ESAFE7VXL	118	94	1	1614	244.7896200808558	0	23	251.5	86.54271858489611	14.761874846149741	244.34411216633873	1650	1600	0	2020-05-30 21:45:30.482696
A2JV0ESAFE7VXL	119	95	0	0	299.52286314059916	10	0	0	52.361932391642476	182.91005529437854	237.18738840028885	1600	1800	0	2020-05-30 21:45:38.564901
A2JV0ESAFE7VXL	120	95	0	0	151.6848720442558	11	0	0	261.8991803999073	-21.37473349802788	-150.1713060973052	1800	2000	0	2020-05-30 21:45:47.360452
A2JV0ESAFE7VXL	121	95	0	228	193.75652779798975	0	2	7.5	71.47225555497738	61.56881592767214	183.71410661568044	2000	2000	0	2020-05-30 21:45:57.800466
A2JV0ESAFE7VXL	122	95	1	1118	181.4888097206497	3	157	13.5	1.0456038147158786	181.45858955385685	3.3118470591364995	2000	1950	0	2020-05-30 21:46:04.867789
A2JV0ESAFE7VXL	123	96	1	1635	236.76835046118313	11	-152	166.5	136.14249306209544	-170.72541103344855	164.04903476573605	1950	1900	0	2020-05-30 21:46:18.169712
A2JV0ESAFE7VXL	124	97	0	343	261.91345254618477	11	4	5.5	220.4661478795038	-199.26101688197554	-169.98148068487828	1900	2000	0	2020-05-30 21:46:23.391544
A2JV0ESAFE7VXL	125	97	1	1888	277.5068059943447	6	94	-266.5	287.5693811351926	83.76833280490489	-264.56170129531137	2000	1950	0	2020-05-30 21:46:29.737826
A2JV0ESAFE7VXL	126	98	1	1234	192.108375112099	14	167	-131.5	319.06148343191603	145.1211937145111	-125.87877868444022	1950	1900	0	2020-05-30 21:46:35.684119
A2JV0ESAFE7VXL	127	99	0	1189	264.48164006790444	2	-189	48.5	172.04352107897395	-261.93560676884846	36.60977792398816	1900	2000	0	2020-05-30 21:46:41.495611
A2JV0ESAFE7VXL	128	99	0	0	265.97643679236114	14	0	0	117.675248976843	-123.53528921789733	235.54722933333633	2000	2000	0	2020-05-30 21:46:49.836292
A2JV0ESAFE7VXL	129	99	1	1463	152.66075621425114	2	114	-119.5	310.3715256977563	98.88468571165308	-116.30617102980655	2000	1950	0	2020-05-30 21:46:57.113410
A2JV0ESAFE7VXL	130	100	1	1366	257.0860144949058	13	203	-133.5	328.6874105504781	219.64006286076233	-133.60936207989047	1950	1900	0	2020-05-30 21:47:12.244795
A2JV0ESAFE7VXL	131	101	0	1394	250.52399105596007	13	-173	104.5	158.94973927638432	-233.805448270121	89.98490125468014	1900	2000	0	2020-05-30 21:47:23.355288
A2JV0ESAFE7VXL	132	101	1	1574	296.8671288548097	5	287	40.5	8.249301611879076	293.79548498782503	42.59466158178591	2000	1950	0	2020-05-30 21:47:31.189029
A2JV0ESAFE7VXL	133	102	1	1717	207.20873076403672	9	-98	-172.5	241.66646281107938	-98.34198915332738	-182.38506318832663	1950	1900	0	2020-05-30 21:47:47.810561
A2JV0ESAFE7VXL	134	103	0	0	269.670490926409	3	0	0	187.67897644530862	-267.2521659443598	-36.03405992306193	1900	2000	0	2020-05-30 21:47:55.015701
A2JV0ESAFE7VXL	135	103	1	1270	144.18557653131106	12	50	134.5	63.82716795492573	63.597424552111974	129.4018858827219	2000	1950	0	2020-05-30 21:48:00.907529
A2JV0ESAFE7VXL	136	104	1	1518	136.56293988275388	12	-55	-135.5	251.3327382552806	-43.70993389148558	-129.37881676929422	1950	1900	0	2020-05-30 21:48:07.055949
A2JV0ESAFE7VXL	137	105	0	0	112.396891644312	14	0	0	239.93206316364598	-56.31382271474488	-97.27185935590775	1900	2000	0	2020-05-30 21:48:13.401660
A2JV0ESAFE7VXL	138	105	1	1195	245.8478978988256	2	160	-164.5	311.35671272418784	162.4427603517096	-184.53600870992204	2000	1950	0	2020-05-30 21:48:19.334371
A2JV0ESAFE7VXL	139	106	1	1400	127.90933467512934	9	120	-64.5	329.84258844315985	110.59660952665699	-64.25875705491363	1950	1900	1	2020-05-30 21:48:25.579400
A2JV0ESAFE7VXL	1	1	0	207	266.72593547617316	4	2.5	2.5	81.28701041824378	40.40495666841405	263.6478032001467	1500	1700	0	2020-05-30 21:50:26.433250
A2JV0ESAFE7VXL	2	1	0	0	214.8314550199719	13	0	0	233.78652250714197	-126.92145040269502	-173.3306074923712	1700	1900	0	2020-05-30 21:50:37.625179
A2JV0ESAFE7VXL	3	1	1	1138	267.3769798603082	2	-111.5	-208.5	233.6346257024451	-158.53646228203024	-215.30592069499173	1900	1850	0	2020-05-30 21:50:43.765779
A2JV0ESAFE7VXL	4	2	0	0	233.9403208594658	2	0	0	240.55544727821925	-115.00062944288925	-203.72267657668618	1850	2000	0	2020-05-30 21:50:50.972109
A2JV0ESAFE7VXL	5	2	0	0	268.08677031188154	5	0	0	129.76522222360504	-171.47989135821075	206.0707724934125	2000	2000	0	2020-05-30 21:51:04.432329
A2JV0ESAFE7VXL	6	2	1	1843	250.9135121697656	13	46.5	-245.5	282.600843362982	54.73869121368404	-244.86989662590224	2000	1950	1	2020-05-30 21:51:38.678991
A2JV0ESAFE7VXL	1	1	1	1069	103.47461402546823	6	64	-73.5	319.2986798976261	78.44610314918816	-67.47743806952482	1500	1450	0	2020-05-30 21:53:08.423197
A2JV0ESAFE7VXL	2	2	1	1205	247.92667803502525	11	147	-171.5	311.78845910239215	165.21394944121855	-184.85667040038766	1450	1400	0	2020-05-30 21:53:13.745687
A2JV0ESAFE7VXL	3	3	0	0	266.19638891043735	11	0	0	20.805964191930943	248.8373780773142	94.55409425595802	1400	1600	0	2020-05-30 21:53:19.989926
A2JV0ESAFE7VXL	4	3	1	1482	183.33991478424218	0	-44	190.5	106.22681273745876	-51.232590974031	176.0362064325996	1600	1550	0	2020-05-30 21:53:26.743264
A2JV0ESAFE7VXL	5	4	1	1337	201.2684733204324	6	159	142.5	42.896888897165596	147.4452300400274	136.99964412793565	1550	1500	0	2020-05-30 21:53:33.000823
A2JV0ESAFE7VXL	6	5	0	0	120.14413216994649	2	0	0	256.64223636957075	-27.75698842430837	-116.89380688677387	1500	1700	0	2020-05-30 21:53:39.226186
A2JV0ESAFE7VXL	7	5	1	1077	116.08954112754084	13	0	-115.5	268.46780621125146	-3.1040763566766962	-116.04803431844469	1700	1650	0	2020-05-30 21:53:46.291543
A2JV0ESAFE7VXL	8	6	1	1298	110.74116396326117	9	107	4.5	1.2139758350390473	110.71630759583412	2.346194425562365	1650	1600	0	2020-05-30 21:53:54.846633
A2JV0ESAFE7VXL	9	7	1	1427	278.681812342895	7	-74	259.5	103.28028984509987	-64.01737667695949	271.2292904796988	1600	1550	0	2020-05-30 21:53:59.147523
A2JV0ESAFE7VXL	10	8	1	1135	219.73560201157443	14	-134	-187.5	233.17884010834658	-131.69178181758065	-175.9005667787906	1550	1500	0	2020-05-30 21:54:05.139954
A2JV0ESAFE7VXL	11	9	0	0	266.2196823117755	10	0	0	224.20018439111337	-190.85511691278438	-185.59968641781182	1500	1700	0	2020-05-30 21:54:11.265132
A2JV0ESAFE7VXL	12	9	1	1437	140.402617003229	3	92	-94.5	313.6873840295838	96.9793454711501	-101.52783565772852	1700	1650	0	2020-05-30 21:54:17.633340
A2JV0ESAFE7VXL	13	10	0	0	245.78475530524386	10	0	0	93.46731571014884	-14.864851894860234	245.33483674073372	1650	1850	0	2020-05-30 21:54:23.835923
A2JV0ESAFE7VXL	14	10	1	1258	259.12284812683345	6	156	188.5	45.03779124660991	183.10662970542208	183.34833672352588	1850	1800	0	2020-05-30 21:54:29.772489
A2JV0ESAFE7VXL	15	11	1	1643	184.55769263150296	13	-104	-149.5	236.35446250957628	-102.2548102368522	-153.64080087297668	1800	1750	0	2020-05-30 21:54:36.373391
A2JV0ESAFE7VXL	16	12	1	1231	200.08922384150102	7	-104	152.5	127.61764404591123	-122.13228485067329	158.49101707872376	1750	1700	0	2020-05-30 21:54:42.233379
A2JV0ESAFE7VXL	17	13	1	1546	184.72509017951322	13	38	193.5	81.12865736268404	28.487605828734225	182.51524663976969	1700	1650	0	2020-05-30 21:54:48.812387
A2JV0ESAFE7VXL	18	14	0	0	298.56015123081886	9	0	0	210.56267497016967	-257.0822214393419	-151.81203945268177	1650	1850	0	2020-05-30 21:54:55.265021
A2JV0ESAFE7VXL	19	14	0	1802	274.0070931053271	3	-170	-50.5	184.58002773094637	-273.1321264729281	-21.879866553701817	1850	2000	0	2020-05-30 21:55:07.035435
A2JV0ESAFE7VXL	20	14	1	1384	175.62572568494784	3	31	-150.5	282.0289828460713	36.60153513147605	-171.76938943939885	2000	1950	0	2020-05-30 21:55:13.276157
A2JV0ESAFE7VXL	21	15	1	1053	125.40872943588485	10	123	20.5	11.085444723194389	123.06879569006104	24.112671899252142	1950	1900	0	2020-05-30 21:55:19.623108
A2JV0ESAFE7VXL	22	16	1	1231	139.053683171363	3	117	87.5	34.48089523081866	114.6240376689619	78.72265742456997	1900	1850	0	2020-05-30 21:55:29.975504
A2JV0ESAFE7VXL	23	17	1	1100	104.6828576935047	4	98	51.5	22.96246669584132	96.38785253148056	40.83971815828449	1850	1800	0	2020-05-30 21:55:37.412775
A2JV0ESAFE7VXL	24	18	0	0	223.99134371378753	6	0	0	117.38143277093661	-103.01631937116154	198.89635492368117	1800	2000	0	2020-05-30 21:55:44.987746
A2JV0ESAFE7VXL	25	18	1	1691	190.46366657777963	0	-140	33.5	163.40596824281607	-182.53129828976924	54.394240787999735	2000	1950	0	2020-05-30 21:55:54.513063
A2JV0ESAFE7VXL	26	19	1	1117	131.67776069651333	11	14	-128.5	271.3983162436515	3.213306035335163	-131.63854802591644	1950	1900	0	2020-05-30 21:56:00.751195
A2JV0ESAFE7VXL	27	20	1	1204	110.09729986708648	11	-55	100.5	113.82401947214889	-44.47147343802483	100.71595448723212	1900	1850	0	2020-05-30 21:56:07.115063
A2JV0ESAFE7VXL	28	21	1	1579	188.88034972501652	2	40	-155.5	285.97792111142684	51.99251095354376	-181.58349406537528	1850	1800	0	2020-05-30 21:56:13.341076
A2JV0ESAFE7VXL	29	22	1	1117	109.48010378486752	8	-31	-110.5	255.43217747096497	-27.53707619848982	-105.96038202641556	1800	1750	0	2020-05-30 21:56:25.420368
A2JV0ESAFE7VXL	30	23	1	1304	235.41912083337664	7	212	66.5	19.358988816158114	222.10856391781272	78.03812073805267	1750	1700	0	2020-05-30 21:56:31.764658
A2JV0ESAFE7VXL	31	24	1	1597	267.79979859679025	6	103	-251.5	290.11298042312825	92.08896980567252	-251.4683951684811	1700	1650	0	2020-05-30 21:56:38.506088
A2JV0ESAFE7VXL	32	25	1	1176	119.00592233553735	14	106	34.5	17.630821671535763	113.41596105344242	36.04482388992878	1650	1600	0	2020-05-30 21:56:44.675815
A2JV0ESAFE7VXL	33	26	1	1216	190.2637134524289	14	48	179.5	78.54055977946813	37.800489948253045	186.4709189562276	1600	1550	0	2020-05-30 21:56:52.027441
A2JV0ESAFE7VXL	34	27	1	1071	166.71233465551575	7	155	45.5	10.04314240799916	164.15775499694882	29.07290836250135	1550	1500	0	2020-05-30 21:56:58.804241
A2JV0ESAFE7VXL	35	28	1	1236	169.2897641061796	0	75	140.5	67.08927608179721	65.90388886034592	155.9349276596142	1500	1450	0	2020-05-30 21:57:04.889501
A2JV0ESAFE7VXL	36	29	0	0	235.86530722564322	7	0	0	344.1852169633315	226.93726515679236	-64.28001894681404	1450	1650	0	2020-05-30 21:57:11.156464
A2JV0ESAFE7VXL	37	29	0	1341	240.54191976541702	1	-124	139.5	142.927399776301	-191.9217351335136	145.0050438701143	1650	1850	1	2020-05-30 21:57:19.041280
A2JV0ESAFE7VXL	1	1	0	75	284.4683706277917	2	-1	8.5	217.5193093580638	-225.62555774694096	-173.24942014047983	1500	1700	0	2020-05-30 21:58:38.749820
A2JV0ESAFE7VXL	2	1	0	238	202.23470460512914	5	1	-8.5	248.3475525314527	-74.61965085974937	-187.96484632051002	1700	1900	0	2020-05-30 21:59:21.634800
A2JV0ESAFE7VXL	1	1	0	0	175.9859727094656	4	0	0	306.03987308806614	103.54101589561044	-142.30362123924223	1500	1700	0	2020-05-30 22:03:29.481029
A2JV0ESAFE7VXL	2	1	0	171	294.55109707587803	4	-1.5	-4.5	213.8483706729963	-244.62896687409847	-164.0640647878583	1700	1900	0	2020-05-30 22:03:56.509220
A2JV0ESAFE7VXL	1	1	0	222	174.32019170353044	3	2.5	1.5	124.0179299325476	-97.52383429149208	144.4874768990074	1500	1700	0	2020-05-30 22:06:04.524453
