A2OBYPE0QRJDYS	1	1	1	1350	263.8869374480829	11	254	-43.5	351.69047055912296	261.116590640347	-38.1371452535434	1500	1450	0	2020-05-31 03:45:57.647102
A2OBYPE0QRJDYS	2	2	0	901	205.9946554156163	6	-125	-35.5	211.0807296965659	-176.42221964122874	-106.34377497841868	1450	1650	0	2020-05-31 03:46:02.575203
A2OBYPE0QRJDYS	3	2	0	76	113.34482719553608	1	-1	-0.5	170.6297111438566	-111.8324357499424	18.454163926359325	1650	1850	0	2020-05-31 03:46:07.033583
A2OBYPE0QRJDYS	4	2	0	59	136.99226914471518	6	-2	-1.5	185.31964725332014	-136.40223863492284	-12.700830712975044	1850	2000	0	2020-05-31 03:46:11.434829
A2OBYPE0QRJDYS	5	2	0	72	239.5644026440674	5	-2	2.5	354.2199969335255	238.3464376076076	-24.12630709353722	2000	2000	0	2020-05-31 03:46:19.249239
A2OBYPE0QRJDYS	6	2	0	48	150.18611600161083	14	-7	-2.5	79.07673706388965	28.45938546615472	147.4650223562799	2000	2000	0	2020-05-31 03:46:28.256974
A2OBYPE0QRJDYS	7	2	0	0	187.07865130185087	0	0	0	233.41006754868323	-111.5145535915035	-150.20960725002644	2000	2000	0	2020-05-31 03:46:36.985548
A2OBYPE0QRJDYS	8	2	0	134	198.98626906161735	12	0	-2.5	143.08936181486078	-159.10408071939884	119.50492363705102	2000	2000	0	2020-05-31 03:46:41.508001
A2OBYPE0QRJDYS	9	2	0	220	135.33149700833684	2	-7	0.5	125.3780513380329	-78.35272438691112	110.34248802553904	2000	2000	0	2020-05-31 03:46:46.200537
A2OBYPE0QRJDYS	10	2	1	890	107.48828204758377	0	88	66.5	31.879883365125103	91.27444547733876	56.76888567116	2000	1950	0	2020-05-31 03:46:51.236407
A2OBYPE0QRJDYS	11	3	1	1562	229.75495069648758	9	-98	-220.5	246.56825149457313	-91.36352016967822	-210.80807515783223	1950	1900	0	2020-05-31 03:46:56.638990
A2OBYPE0QRJDYS	12	4	0	145	203.74863953208026	7	1	0.5	248.07143008988913	-76.09000920634735	-189.0074564935245	1900	2000	0	2020-05-31 03:47:00.795841
A2OBYPE0QRJDYS	13	4	0	165	179.4908701931921	6	-2	-1.5	278.04730469406064	25.127042006692264	-177.72339250279705	2000	2000	0	2020-05-31 03:47:05.037593
A2OBYPE0QRJDYS	14	4	0	182	178.7796684611314	6	-3	-1.5	227.14420837540092	-121.59796579664173	-131.05763834737297	2000	2000	0	2020-05-31 03:47:09.254886
A2OBYPE0QRJDYS	15	4	1	1412	147.50485983219562	9	0	-157.5	272.5113355763707	6.463226540798443	-147.36319206911202	2000	1950	0	2020-05-31 03:47:14.710111
A2OBYPE0QRJDYS	16	5	1	769	114.3468144335948	12	-25	-106.5	257.0147807428175	-25.69369330463059	-111.42274496474472	1950	1900	0	2020-05-31 03:47:19.394256
A2OBYPE0QRJDYS	17	6	1	993	294.7045406185215	1	29	-290.5	276.68797684381144	34.321975683777254	-292.6991087214582	1900	1850	0	2020-05-31 03:47:24.611885
A2OBYPE0QRJDYS	18	7	0	42	172.61464806940415	8	-8	-1.5	204.41360646701588	-157.18040115345988	-71.34520461363667	1850	2000	0	2020-05-31 03:47:28.961729
A2OBYPE0QRJDYS	19	7	1	1399	236.89218592008373	4	-42	-241.5	261.3993906350169	-35.426245500108905	-234.2282836887158	2000	1950	0	2020-05-31 03:47:34.299581
A2OBYPE0QRJDYS	20	8	1	1548	288.93325234301994	11	289	-36.5	352.27372371708367	286.31021469359723	-38.84437245755831	1950	1900	0	2020-05-31 03:47:40.238049
A2OBYPE0QRJDYS	21	9	1	1833	275.51569300787685	9	-275	-64.5	192.32643648569345	-269.16427861984346	-58.817414161708314	1900	1850	0	2020-05-31 03:47:46.275266
A2OBYPE0QRJDYS	22	10	1	1097	138.66197360145065	13	-47	124.5	108.54777964832974	-44.107731053155014	131.4596933831505	1850	1800	0	2020-05-31 03:47:51.686826
A2OBYPE0QRJDYS	23	11	1	1242	251.09710654599772	7	-254	-48.5	191.11019002329635	-246.39114715977888	-48.38553003802197	1800	1750	0	2020-05-31 03:47:57.208064
A2OBYPE0QRJDYS	24	12	1	1089	242.0932525925385	11	-12	-254.5	268.1714099543008	-7.72507448769766	-241.96996957266035	1750	1700	0	2020-05-31 03:48:02.613601
A2OBYPE0QRJDYS	25	13	1	1188	181.69746432635566	12	177	10.5	5.241712095918993	180.93763332603365	16.599439418278017	1700	1650	0	2020-05-31 03:48:07.788241
A2OBYPE0QRJDYS	26	14	1	1322	264.3053871751129	11	177	171.5	44.16681770050336	189.5900189504427	184.15472408862368	1650	1600	0	2020-05-31 03:48:13.238757
A2OBYPE0QRJDYS	27	15	1	1091	213.9138029225308	11	10	-217.5	273.70899827408425	13.83787633233897	-213.4657543012233	1600	1550	0	2020-05-31 03:48:18.812616
A2OBYPE0QRJDYS	28	16	1	1356	147.38037856811047	13	49	-152.5	289.5079452919832	49.215846006177784	-138.9200363114542	1550	1500	0	2020-05-31 03:48:24.213994
A2OBYPE0QRJDYS	29	17	1	1141	256.58168201629724	11	241	-77.5	343.0139777926174	245.38857659293615	-74.95736137301647	1500	1450	0	2020-05-31 03:48:29.495154
A2OBYPE0QRJDYS	30	18	1	1013	160.1528225966517	7	165	-3.5	359.85654247459365	160.15232059426708	-0.40099120400256644	1450	1400	0	2020-05-31 03:48:34.345130
A2OBYPE0QRJDYS	31	19	0	0	235.2630208632327	1	0	0	163.53762043485955	-225.61865159121413	66.67018103962366	1400	1600	0	2020-05-31 03:48:39.769767
A2OBYPE0QRJDYS	32	19	1	1003	210.25306314991917	5	15	-204.5	275.1276146218697	18.79122970325705	-209.41165261313262	1600	1550	0	2020-05-31 03:48:45.475543
A2OBYPE0QRJDYS	33	20	1	1054	185.81627465661842	13	-53	171.5	104.19596562308992	-45.569420339949204	180.1419325341684	1550	1500	0	2020-05-31 03:48:50.882274
A2OBYPE0QRJDYS	34	21	1	1141	220.94720325550622	10	41	222.5	80.3470974554756	37.048221316782566	217.818952168292	1500	1450	0	2020-05-31 03:48:56.320417
A2OBYPE0QRJDYS	35	22	1	1001	150.69476900105695	11	-62	-135.5	243.6883525310338	-66.79597255268959	-135.08223959878018	1450	1400	0	2020-05-31 03:49:01.696950
A2OBYPE0QRJDYS	36	23	1	1068	248.55950777669435	6	-230	70.5	163.84630925585788	-238.74609660979152	69.15294830866347	1400	1350	0	2020-05-31 03:49:06.746431
A2OBYPE0QRJDYS	37	24	1	1308	246.5475619806427	8	152	187.5	48.139561810330356	164.52573967612955	183.62184320668746	1350	1300	0	2020-05-31 03:49:12.099455
A2OBYPE0QRJDYS	38	25	1	1140	101.0928634892164	2	-72	54.5	143.17808809612723	-80.92506214336198	60.58796386694591	1300	1250	0	2020-05-31 03:49:17.534402
A2OBYPE0QRJDYS	39	26	0	0	157.32971391846212	5	0	0	156.61956780579692	-144.41140370016723	62.43384789529205	1250	1450	0	2020-05-31 03:49:22.800254
A2OBYPE0QRJDYS	40	26	1	1090	274.6084141362602	0	-40	-272.5	262.38910971489526	-36.3704536119516	-272.1892195118915	1450	1400	0	2020-05-31 03:49:28.359453
A2OBYPE0QRJDYS	41	27	1	1062	227.59214241825015	4	68	-215.5	288.5455285454501	72.3875280241943	-215.77355972656972	1400	1350	0	2020-05-31 03:49:33.409103
A2OBYPE0QRJDYS	42	28	1	857	103.42524424666664	13	98	-32.5	343.9685898796686	99.40308245388835	-28.562358903776232	1350	1300	0	2020-05-31 03:49:38.337710
A2OBYPE0QRJDYS	43	29	0	0	197.51284543487833	11	0	0	137.88573108461233	-146.51677776370678	132.45436174593382	1300	1500	0	2020-05-31 03:49:43.556159
A2OBYPE0QRJDYS	44	29	1	992	140.30362864549355	13	134	-32.5	349.2920287113618	137.86051540379395	-26.0688799853935	1500	1450	0	2020-05-31 03:49:51.739514
A2OBYPE0QRJDYS	45	30	1	1331	289.45957055689865	4	94	-277.5	288.21612264733204	90.48570490474039	-274.9530508921049	1450	1400	0	2020-05-31 03:49:53.941550
A2OBYPE0QRJDYS	46	31	1	1213	187.49317370545882	0	-154	-100.5	211.67456924183693	-159.56498860464055	-98.45153425796006	1400	1350	0	2020-05-31 03:51:30.065714
A2OBYPE0QRJDYS	47	32	1	1104	222.45688412902322	14	35	-228.5	279.35699031715706	36.16822713324972	-219.4969809414957	1350	1300	0	2020-05-31 03:51:34.978365
A2OBYPE0QRJDYS	48	33	1	1248	262.4063208927568	12	-88	243.5	109.06798936044386	-85.72549825668715	248.00850024367148	1300	1250	0	2020-05-31 03:51:43.083593
A2OBYPE0QRJDYS	49	34	1	1185	208.8396123401122	14	184	85.5	24.408849378010757	190.17349555299768	86.3019424550938	1250	1200	0	2020-05-31 03:51:48.352205
A2OBYPE0QRJDYS	50	35	1	967	154.2846071566039	2	-95	120.5	127.52874852854839	-93.98392220222173	122.35506680540175	1200	1150	0	2020-05-31 03:51:53.647843
A2OBYPE0QRJDYS	51	36	1	1071	186.4256328628557	14	138	-129.5	316.46819780712644	135.15712710290262	-128.40197654867347	1150	1100	0	2020-05-31 03:52:01.845376
A2OBYPE0QRJDYS	52	37	0	0	271.7491489261623	5	0	0	354.4617509211296	270.48062188693	-26.226572893787456	1100	1300	0	2020-05-31 03:52:04.000507
A2OBYPE0QRJDYS	53	37	0	0	100.56915542593123	13	0	0	30.127985635916012	86.98290201958623	50.479003351256566	1300	1500	0	2020-05-31 03:52:09.387631
A2OBYPE0QRJDYS	54	37	1	925	151.1049004942274	10	34	-156.5	282.82847980327034	33.55030219708745	-147.33318762537675	1500	1450	0	2020-05-31 03:52:14.537771
A2OBYPE0QRJDYS	55	38	1	1156	202.02096497435159	1	-188	66.5	160.4738967618358	-190.40260090520144	67.52273585765595	1450	1400	0	2020-05-31 03:52:19.861048
A2OBYPE0QRJDYS	56	39	1	950	178.96386549296048	7	-87	154.5	117.59656998123394	-82.90375465057193	158.60338148040924	1400	1350	0	2020-05-31 03:52:24.635496
A2OBYPE0QRJDYS	57	40	1	1204	196.23832267203966	14	181	-49.5	346.43576675733254	190.76476450941652	-46.02481837880957	1350	1300	0	2020-05-31 03:52:30.021621
A2OBYPE0QRJDYS	58	41	1	810	205.3920318169106	4	212	24.5	5.68258276907609	204.38267704113144	20.337356253440817	1300	1250	0	2020-05-31 03:52:35.445330
A2OBYPE0QRJDYS	59	42	0	0	247.28000652810866	8	0	0	219.05616777670124	-192.02001147116914	-155.80666488681908	1250	1450	0	2020-05-31 03:52:40.432113
A2OBYPE0QRJDYS	60	42	1	1002	259.92164704535554	5	-113	-239.5	244.32792298608524	-112.60322863657885	-234.2643282776717	1450	1400	0	2020-05-31 03:52:45.632400
A2OBYPE0QRJDYS	61	43	1	871	113.80840344787177	12	-91	63.5	145.0555643102952	-93.28964762652357	65.18737869459561	1400	1350	0	2020-05-31 03:52:50.617937
A2OBYPE0QRJDYS	62	44	1	1014	122.49584499143253	5	49	-111.5	294.10154001499075	50.02179025401774	-111.81704941532004	1350	1300	0	2020-05-31 03:52:55.525509
A2OBYPE0QRJDYS	63	45	1	970	155.86467033276872	8	-77	130.5	118.62417507237994	-74.66888227171367	136.81503381659354	1300	1250	0	2020-05-31 03:53:01.665438
A2OBYPE0QRJDYS	64	46	1	1108	186.67734427562368	6	110	-151.5	307.0642666672204	112.51238539585766	-148.9610485943682	1250	1200	0	2020-05-31 03:53:05.961066
A2OBYPE0QRJDYS	65	47	1	1015	108.70400327749037	8	34	98.5	66.65391035942461	43.077677611664896	99.8041783701369	1200	1150	0	2020-05-31 03:53:11.064739
A2OBYPE0QRJDYS	66	48	1	1154	299.0989516620408	9	-276	-115.5	202.16487064254497	-276.99615935401283	-112.84197175013445	1150	1100	0	2020-05-31 03:53:16.435895
A2OBYPE0QRJDYS	67	49	1	917	214.12700572906877	8	179	-118.5	328.31285313800345	182.2068717593913	-112.47679967954896	1100	1050	0	2020-05-31 03:53:22.024717
A2OBYPE0QRJDYS	68	50	0	0	299.3003387317949	0	0	0	68.42601883838516	110.05341990555388	278.332422710792	1050	1250	0	2020-05-31 03:53:27.394641
A2OBYPE0QRJDYS	69	50	1	1185	199.7604105091296	10	188	-68.5	339.3206463566271	186.89011566974767	-70.54293920531174	1250	1200	0	2020-05-31 03:53:32.901125
A2OBYPE0QRJDYS	70	51	1	1014	156.90527478242274	8	15	160.5	83.45892863538809	17.873928280120918	155.88389250459676	1200	1150	0	2020-05-31 03:53:38.195229
A2OBYPE0QRJDYS	71	52	1	1066	129.32584228354526	13	-116	39.5	164.76662853384389	-124.78180045081189	33.98052028151108	1150	1100	0	2020-05-31 03:53:43.338780
A2OBYPE0QRJDYS	72	53	1	1054	193.6588115381049	4	-117	-157.5	232.17255269726306	-118.76814179071857	-152.96360280122525	1100	1050	0	2020-05-31 03:53:48.353678
A2OBYPE0QRJDYS	73	54	1	1021	213.9092924927716	3	-207	8.5	176.77803837625464	-213.57116485616407	12.022601912202713	1050	1000	0	2020-05-31 03:53:56.265188
A2OBYPE0QRJDYS	74	55	0	0	254.266926689018	5	0	0	331.00259385410055	222.3924453681816	-123.26098430176036	1000	1200	0	2020-05-31 03:54:06.594482
A2OBYPE0QRJDYS	75	55	1	942	232.3872950264282	13	-149	188.5	127.32820323481084	-140.9149824302947	184.78858897770152	1200	1150	0	2020-05-31 03:54:11.510909
A2OBYPE0QRJDYS	76	56	1	808	136.05029606263642	6	106	-80.5	320.952647285908	105.66014110796058	-85.70657874268979	1150	1100	0	2020-05-31 03:54:16.681083
A2OBYPE0QRJDYS	77	57	0	0	217.54066997736712	7	0	0	336.7507863600381	199.87563397427937	-85.87009978788689	1100	1300	0	2020-05-31 03:54:22.432949
A2OBYPE0QRJDYS	1	1	1	1166	156.57724590226843	4	130	64.5	27.41741516735969	138.98977963950443	72.09906441904384	1500	1450	0	2020-06-02 02:02:52.339035
A2OBYPE0QRJDYS	2	2	1	1282	153.8335947722931	11	-144	-75.5	210.55838998440385	-132.46787478171723	-78.21148912647918	1450	1400	0	2020-06-02 02:12:29.461331
A2OBYPE0QRJDYS	3	3	1	889	282.9428526770981	1	-193	199.5	134.1198347589764	-196.9738803235711	203.1205266617077	1400	1350	0	2020-06-02 02:12:37.536305
A2OBYPE0QRJDYS	4	4	1	897	177.70815144605288	2	-156	63.5	157.10707420947327	-163.71069220514386	69.13028531755033	1350	1300	0	2020-06-02 02:12:42.384326
A2OBYPE0QRJDYS	5	5	1	1020	299.63982433175875	10	-253	135.5	151.43254936143344	-263.160106644307	143.28566779871676	1300	1250	0	2020-06-02 02:12:47.523752
A2OBYPE0QRJDYS	6	6	1	781	107.4873341582737	13	80	-63.5	321.681146822849	84.33159462854121	-66.64614881491495	1250	1200	0	2020-06-02 02:12:56.108961
A2OBYPE0QRJDYS	7	7	1	871	137.93303094617372	6	-138	1.5	181.6792679595402	-137.8737927352317	-4.042066649684137	1200	1150	0	2020-06-02 02:13:02.479027
A2OBYPE0QRJDYS	8	8	1	726	106.69964423448243	14	-86	55.5	145.84091294906318	-88.29200596925874	59.91106543610703	1150	1100	0	2020-06-02 02:13:07.372231
A2OBYPE0QRJDYS	9	9	1	1031	169.67928034817814	13	155	-20.5	359.0811528390772	169.6574615512187	-2.7210144197312953	1100	1050	0	2020-06-02 02:13:12.189238
A2OBYPE0QRJDYS	10	10	1	1026	285.6873314589577	3	273	-90.5	341.1694400440486	270.39655641646016	-92.21146151244137	1050	1000	0	2020-06-02 02:13:20.180494
A2OBYPE0QRJDYS	11	11	0	0	258.17210592317474	12	0	0	2.097359512383612	257.9991516403737	9.448493512428472	1000	1200	0	2020-06-02 02:15:15.462920
A2OBYPE0QRJDYS	12	11	1	864	264.2135207532781	8	-18	-256.5	267.9169312710026	-9.603738512989006	-264.0389228038492	1200	1150	0	2020-06-02 02:15:20.662088
A2OBYPE0QRJDYS	13	12	1	916	264.304481101756	0	27	258.5	85.52946267711116	20.60159597500519	263.50034719854006	1150	1100	0	2020-06-02 02:15:30.150422
A2OBYPE0QRJDYS	14	13	0	0	284.58869741834997	12	0	0	231.60469409817648	-176.75336479255472	-223.0447818999208	1100	1300	0	2020-06-02 02:21:39.456367
A2OBYPE0QRJDYS	15	13	1	1220	109.16466612944427	5	27	100.5	68.38119707742904	40.21950085983803	101.48554617155354	1300	1250	0	2020-06-02 02:21:51.140060
A2OBYPE0QRJDYS	16	14	1	936	228.81766108139345	12	-200	119.5	140.16911511243757	-175.71786061477087	146.56314503901518	1250	1200	0	2020-06-02 02:24:11.986708
A2OBYPE0QRJDYS	17	15	1	990	224.28838778238458	2	79	-184.5	295.42641346362626	96.29856180560094	-202.56324416881304	1200	1150	0	2020-06-02 02:24:21.879710
A2OBYPE0QRJDYS	18	16	0	1030	180.26164182907132	14	-102	-27.5	196.3168902204262	-173.00115581168734	-50.64444296003934	1150	1350	0	2020-06-02 02:24:38.987579
A2OBYPE0QRJDYS	19	16	1	876	246.41748988542722	8	225	-39.5	351.71063623346026	243.8430603876846	-35.526626946596394	1350	1300	0	2020-06-02 02:24:44.056383
A2OBYPE0QRJDYS	20	17	1	939	257.60193968659075	4	-119	204.5	117.04863438335303	-117.14361891791096	229.42565653629325	1300	1250	0	2020-06-02 02:24:54.896648
A2OBYPE0QRJDYS	21	18	1	847	291.1028793083809	1	246	130.5	27.19995814887417	258.91176436322667	133.06233357321966	1250	1200	0	2020-06-02 02:26:01.382506
A2OBYPE0QRJDYS	22	19	1	880	129.83556646941565	4	-113	-37.5	196.5696571288737	-124.44398043075009	-37.02661279384245	1200	1150	0	2020-06-02 02:26:15.404127
A2OBYPE0QRJDYS	23	20	1	723	162.35407281611103	9	112	57.5	27.658972664171422	143.801264818861	75.36604803540442	1150	1100	0	2020-06-02 02:26:37.855567
A2OBYPE0QRJDYS	24	21	1	718	158.4558020202757	4	141	-116.5	320.9652753128671	123.0828280048404	-99.79408120835468	1100	1050	0	2020-06-02 02:26:53.766270
A2OBYPE0QRJDYS	25	22	1	970	234.38665847707068	10	-135	-201.5	238.32395654887347	-123.0801525476524	-199.470252721787	1050	1000	0	2020-06-02 02:27:01.300412
A2OBYPE0QRJDYS	26	23	1	928	142.08120622682125	2	-124	-59.5	200.73268452420876	-132.88034529021033	-50.29794228815912	1000	950	0	2020-06-02 02:27:10.163853
A2OBYPE0QRJDYS	27	24	1	684	135.68578002189219	10	86	-95.5	315.8895263407988	97.42226427760384	-94.44328098480077	950	900	0	2020-06-02 02:27:17.826904
A2OBYPE0QRJDYS	28	25	0	0	234.55586858198262	5	0	0	183.8620939029887	-234.0232059185924	-15.798562524242302	900	1100	0	2020-06-02 02:27:29.725557
A2OBYPE0QRJDYS	29	25	1	1088	247.6681048096498	0	-96	232.5	108.23159498047785	-77.48512630529501	235.2350852688777	1100	1050	0	2020-06-02 02:27:35.055113
A2OBYPE0QRJDYS	30	26	1	903	247.10352472970843	14	-32	219.5	91.07966585163547	-4.656075040187003	247.0596545352271	1050	1000	0	2020-06-02 02:27:48.249256
A2OBYPE0QRJDYS	31	27	1	886	204.7790270956614	2	-186	-58.5	197.52749026276018	-195.27166185149406	-61.67193864312506	1000	950	0	2020-06-02 02:27:59.746112
A2OBYPE0QRJDYS	32	28	1	767	131.87515991227045	11	-74	107.5	134.52847983862716	-92.47926401890959	94.01406026976878	950	900	0	2020-06-02 02:28:16.769919
A2OBYPE0QRJDYS	33	29	0	0	140.97979572255286	5	0	0	173.3359368657213	-140.0272843425356	16.360392465567955	900	1100	0	2020-06-02 02:28:38.540807
A2OBYPE0QRJDYS	34	29	0	0	183.02246493348267	7	0	0	106.54020160995398	-52.10430517852152	175.44903548378767	1100	1300	0	2020-06-02 02:44:57.583852
A2OBYPE0QRJDYS	35	29	1	748	148.37422883658252	3	128	-27.5	345.7356062863586	143.7997090796215	-36.55893121340908	1300	1250	0	2020-06-02 02:45:03.306509
A2OBYPE0QRJDYS	36	30	1	870	122.8375666907643	1	-79	19.5	167.85085843413043	-120.08638489378302	25.852039641973487	1250	1200	0	2020-06-02 02:45:08.351625
A2OBYPE0QRJDYS	37	31	1	1062	237.40706525462681	12	200	103.5	25.190081036791156	214.82983121603007	101.04582253862186	1200	1150	0	2020-06-02 02:45:17.983384
A2OBYPE0QRJDYS	38	32	0	0	295.9818675513142	9	0	0	286.8507349407258	85.79904086306026	-283.27334944562404	1150	1350	0	2020-06-02 02:45:30.275368
A2OBYPE0QRJDYS	39	32	0	52	172.7322001484604	0	-1	-2.5	158.55662669122992	-160.7755623556891	63.147696057256994	1350	1550	0	2020-06-02 02:45:32.719811
A2OBYPE0QRJDYS	40	32	1	687	148.10187348608488	7	109	-131.5	306.43098133264925	87.95089398232332	-119.15873941007607	1550	1500	0	2020-06-02 02:45:37.249873
A2OBYPE0QRJDYS	41	33	0	1011	288.0870736778531	8	292	-226.5	316.06334008916195	207.4536049819867	-199.89288081431656	1500	1700	0	2020-06-02 02:45:46.981669
A2OBYPE0QRJDYS	42	33	1	696	197.11939001597165	13	-186	8.5	177.75101794330826	-196.96755557129134	7.735371519132219	1700	1650	0	2020-06-02 02:45:56.858495
A2OBYPE0QRJDYS	43	34	1	709	266.4128446595206	2	-127	-250.5	239.17478267382933	-136.515500389335	-228.77788781485708	1650	1600	0	2020-06-02 02:46:03.038584
A2OBYPE0QRJDYS	44	35	1	681	163.25753603790534	9	-150	5.5	185.6489231807799	-162.4647107539618	-16.06987345312609	1600	1550	0	2020-06-02 02:46:08.778972
A2OBYPE0QRJDYS	45	36	1	886	134.1695076454708	9	-86	117.5	112.73310852929237	-51.848339639620875	123.74654119789597	1550	1500	0	2020-06-02 02:46:23.869046
A2OBYPE0QRJDYS	46	37	1	834	145.91487444247346	0	79	133.5	48.57056082319961	96.55146283626651	109.40276782485824	1500	1450	0	2020-06-02 02:46:28.792865
A2OBYPE0QRJDYS	47	38	1	1388	151.03447753419417	3	87	135.5	53.5078874451999	89.82203442745983	121.4224671769571	1450	1400	0	2020-06-02 02:46:36.146748
A2OBYPE0QRJDYS	48	39	1	675	130.51875966509448	8	12	-161.5	268.24446578253463	-3.9984498158777315	-130.45749891663797	1400	1350	0	2020-06-02 02:46:48.963840
A2OBYPE0QRJDYS	49	40	1	1072	161.2417117675785	5	-162	19.5	176.34212460898914	-160.91322911428765	10.286997120230886	1350	1300	0	2020-06-02 02:46:56.558075
A2OBYPE0QRJDYS	50	41	0	2	182.03355521667146	9	-1	-0.5	301.72435752685476	95.71930497408931	-154.83549295978057	1300	1500	0	2020-06-02 02:47:00.633078
A2OBYPE0QRJDYS	51	41	1	776	215.0457076178127	14	-35	-181.5	263.0659470458207	-25.961790710040546	-213.47281276072096	1500	1450	0	2020-06-02 02:47:05.587234
A2OBYPE0QRJDYS	52	42	1	855	191.88386595678185	5	26	-199.5	282.0751269212357	40.14096702551976	-187.6382710983459	1450	1400	0	2020-06-02 02:47:51.909459
A2OBYPE0QRJDYS	53	43	1	1006	231.44569465688605	6	-194	-85.5	203.71902630700257	-211.89526097695418	-93.09945193564246	1400	1350	0	2020-06-02 02:48:08.058385
A2OBYPE0QRJDYS	54	44	1	931	197.43838178220247	1	184	-86.5	336.26075742016366	180.73254370927958	-79.48372314598811	1350	1300	0	2020-06-02 02:48:13.684000
A2OBYPE0QRJDYS	55	45	1	987	117.72307673229409	4	32	109.5	85.63419598710423	8.96154454110957	117.38148710403745	1300	1250	0	2020-06-02 02:48:19.820451
A2OBYPE0QRJDYS	56	46	0	0	296.5901902319356	14	0	0	93.39066774131359	-17.54146521147105	296.0710015183022	1250	1450	0	2020-06-02 02:48:25.227504
A2OBYPE0QRJDYS	57	46	1	783	196.97979661835498	3	139	85.5	31.205556159456684	168.4795819728004	102.05719344602282	1450	1400	0	2020-06-02 02:48:32.282218
A2OBYPE0QRJDYS	58	47	1	715	157.27570913398296	0	67	-99.5	303.5599108591859	86.94336918054323	-131.05914405005464	1400	1350	0	2020-06-02 02:48:41.120635
A2OBYPE0QRJDYS	59	48	1	792	287.7592539659353	11	-279	85.5	162.19456361718898	-273.9756959806996	87.9926488686577	1350	1300	0	2020-06-02 02:48:47.776208
A2OBYPE0QRJDYS	60	49	0	970	203.90866560832768	9	-79	104.5	134.81750215139766	-143.72521254360706	144.64372502623044	1300	1500	0	2020-06-02 02:48:56.171974
A2OBYPE0QRJDYS	61	49	1	755	142.00191158517526	10	174	16.5	4.954642171581511	141.47130471470155	12.264291099121875	1500	1450	0	2020-06-02 02:49:08.858241
A2OBYPE0QRJDYS	62	50	1	732	188.22274089442664	7	-124	180.5	119.599684851605	-92.97019178491344	163.6592301988705	1450	1400	0	2020-06-02 02:49:13.622247
A2OBYPE0QRJDYS	63	51	1	695	134.33861254698974	10	-79	50.5	149.25184042228224	-115.45367118093641	68.68269528705495	1400	1350	0	2020-06-02 02:49:21.120754
A2OBYPE0QRJDYS	64	52	1	797	136.35008869172523	7	105	-118.5	298.5203623898386	65.10322050463743	-119.8036617393888	1350	1300	0	2020-06-02 02:49:26.455641
A2OBYPE0QRJDYS	65	53	1	1028	286.18395925888757	7	-123	-240.5	242.87648200099216	-130.47420653492415	-254.71109117228207	1300	1250	0	2020-06-02 02:49:32.650023
A2OBYPE0QRJDYS	66	54	0	0	263.0287629423635	8	0	0	308.3769009289118	163.2966150871464	-206.19977118336098	1250	1450	0	2020-06-02 02:50:00.189990
A2OBYPE0QRJDYS	67	54	1	782	192.29378927530752	10	-33	-177.5	255.91314400642642	-46.802868170406235	-186.51110670649066	1450	1400	0	2020-06-02 02:50:05.408401
A2OBYPE0QRJDYS	68	55	1	833	158.17443155927853	7	-116	-86.5	213.61660311830835	-131.7214731952303	-87.57056753486938	1400	1350	0	2020-06-02 02:50:15.893921
A2OBYPE0QRJDYS	69	56	1	850	222.4386671276908	13	-116	183.5	122.25054469963892	-118.69829011893695	188.12144097998055	1350	1300	0	2020-06-02 02:50:24.693314
A2OBYPE0QRJDYS	70	57	1	941	254.47634110492365	11	111	-217.5	294.7962656124491	106.72557449893094	-231.0148478561986	1300	1250	0	2020-06-02 02:50:29.791102
A2OBYPE0QRJDYS	71	58	1	853	209.0034601423987	2	21	-169.5	276.9781812291903	25.39211538734688	-207.45526464192443	1250	1200	0	2020-06-02 02:51:56.643943
A2OBYPE0QRJDYS	72	59	1	818	194.2292712105895	10	112	193.5	60.09100800678937	96.84733423147854	168.36152662426477	1200	1150	0	2020-06-02 02:52:02.407337
A2OBYPE0QRJDYS	73	60	0	0	289.57880446993033	10	0	0	339.875352571123	271.89895573108083	-99.63353788048421	1150	1350	0	2020-06-02 02:52:08.499045
A2OBYPE0QRJDYS	74	60	1	936	130.0128926718251	2	48	-166.5	289.25825154117945	42.881711164958354	-122.73757007722045	1350	1300	0	2020-06-02 02:52:13.956325
A2OBYPE0QRJDYS	75	61	0	0	289.61829891339886	12	0	0	262.7198654789099	-36.7006316304165	-287.2835232021136	1300	1500	0	2020-06-02 02:52:24.948997
A2OBYPE0QRJDYS	76	61	0	248	164.94233794011592	14	0	3.5	202.21646484601303	-152.69734338994627	-62.36582531165793	1500	1700	0	2020-06-02 02:52:36.838642
A2OBYPE0QRJDYS	77	61	1	900	121.99581458051884	11	-141	46.5	162.84328904264788	-116.5671847551441	35.98708398056771	1700	1650	0	2020-06-02 02:52:41.761579
