A1UOG38V6W8SF6	1	1	0	0	210.9534428945375	3	0	0	201.39270752596087	-196.41922511183117	-76.94701472784166	1500	1700	0	2020-05-31 03:56:08.105215
A1UOG38V6W8SF6	2	1	0	0	129.85558584324215	10	0	0	170.11603567253349	-127.92819214002988	22.29015097470701	1700	1900	0	2020-05-31 03:56:14.037067
A1UOG38V6W8SF6	3	1	0	0	163.53790099972665	8	0	0	194.75246267026378	-158.14687324205127	-41.643865660610366	1900	2000	0	2020-05-31 03:56:21.093625
A1UOG38V6W8SF6	4	1	0	0	263.5087166087075	14	0	0	250.7664417803474	-86.80496576757241	-248.80060620275566	2000	2000	0	2020-05-31 03:56:27.119801
A1UOG38V6W8SF6	5	1	0	0	254.20443496823256	11	0	0	77.43577356671479	55.29807429618079	248.11694367102874	2000	2000	0	2020-05-31 03:57:00.502405
A1UOG38V6W8SF6	6	1	0	0	109.63326002665754	0	0	0	317.95252755190415	81.41258031762825	-73.4264493905189	2000	2000	0	2020-05-31 03:57:08.063440
A1UOG38V6W8SF6	7	1	0	0	190.50283561262233	9	0	0	59.954786006777866	95.38157953823564	164.90507773031442	2000	2000	0	2020-05-31 03:57:14.268006
A1UOG38V6W8SF6	8	1	0	0	230.15834902370506	5	0	0	78.70930749425659	45.06197684861992	225.7039739743456	2000	2000	0	2020-05-31 03:57:21.362874
A1UOG38V6W8SF6	9	1	0	0	136.1667258495591	6	0	0	97.38260313453728	-17.496673580396248	135.03793408598213	2000	2000	0	2020-05-31 03:57:27.353411
A1UOG38V6W8SF6	10	1	0	0	278.27499882061136	11	0	0	160.2001631815618	-261.82386333426	94.26154866823475	2000	2000	0	2020-05-31 03:57:36.962243
A1UOG38V6W8SF6	11	1	0	0	195.75421892881013	0	0	0	59.28382836635052	99.98843408791696	168.29149496357448	2000	2000	0	2020-05-31 03:57:41.897825
A1UOG38V6W8SF6	12	1	0	0	215.10109318410065	7	0	0	204.19315960809615	-196.20855967333367	-88.15146850683213	2000	2000	0	2020-05-31 03:57:49.005802
A1UOG38V6W8SF6	13	1	0	0	180.86655826425067	11	0	0	37.038120505929356	144.37400424447188	108.94429217160852	2000	2000	0	2020-05-31 03:57:53.915679
A1UOG38V6W8SF6	14	1	0	0	154.80951813993195	8	0	0	127.8457357549722	-94.9814588649386	122.24773772387732	2000	2000	0	2020-05-31 03:58:01.013950
A1UOG38V6W8SF6	15	1	0	0	174.48569590089596	7	0	0	359.3803937393214	174.47549327572403	-1.886881080703044	2000	2000	0	2020-05-31 03:58:07.020156
A1UOG38V6W8SF6	16	1	0	0	184.13643873128098	8	0	0	259.5731278664951	-33.325091397624945	-181.09573808342023	2000	2000	0	2020-05-31 03:58:11.986781
A1UOG38V6W8SF6	17	1	0	0	182.12721674034884	14	0	0	350.9430334538938	179.8565123136939	-28.66981088078653	2000	2000	0	2020-05-31 03:58:19.326232
A1UOG38V6W8SF6	18	1	0	0	203.71720551259853	9	0	0	174.9425721373358	-202.92410205033252	17.958525243698062	2000	2000	0	2020-05-31 03:58:24.013133
A1UOG38V6W8SF6	19	1	0	0	262.13889997533306	13	0	0	87.32599259093686	12.22964295969427	261.8534680185773	2000	2000	0	2020-05-31 03:58:31.111438
A1UOG38V6W8SF6	20	1	0	0	135.2378191249322	4	0	0	62.66693080720714	62.09611591734023	120.13883680828663	2000	2000	0	2020-05-31 03:58:37.126610
A1UOG38V6W8SF6	21	1	0	0	226.10973681357382	2	0	0	32.98587212243285	189.66194125789073	123.10142615011422	2000	2000	0	2020-05-31 03:58:42.045361
A1UOG38V6W8SF6	22	1	0	0	204.36449287092853	6	0	0	169.70729390524872	-201.07581693545953	36.51522682565955	2000	2000	0	2020-05-31 03:58:49.114792
A1UOG38V6W8SF6	23	1	0	0	140.9009265949092	7	0	0	79.17706997568308	26.457589102460357	138.394606449057	2000	2000	0	2020-05-31 03:58:54.056623
A1UOG38V6W8SF6	24	1	0	0	285.7706819676722	14	0	0	96.71124528964252	-33.39677987181151	283.81250459847996	2000	2000	0	2020-05-31 03:59:01.165385
A1UOG38V6W8SF6	25	1	0	0	125.60125797357719	14	0	0	320.02273427505327	96.24817279293956	-80.69674862449874	2000	2000	0	2020-05-31 03:59:07.159234
A1UOG38V6W8SF6	26	1	0	0	253.5469655476583	9	0	0	281.1687453186326	49.11184797887258	-248.7450303554335	2000	2000	0	2020-05-31 03:59:12.113139
A1UOG38V6W8SF6	27	1	0	0	207.06706499023682	7	0	0	336.19692257655873	189.45352457683742	-83.57111599760177	2000	2000	0	2020-05-31 03:59:19.203230
A1UOG38V6W8SF6	28	1	0	0	132.85118039867086	9	0	0	48.43818744451693	88.13714778140661	99.40462420973525	2000	2000	0	2020-05-31 03:59:24.124198
A1UOG38V6W8SF6	29	1	0	0	201.64287766392738	13	0	0	81.95197027464633	28.230642233600953	199.65690809903876	2000	2000	0	2020-05-31 03:59:31.228921
A1UOG38V6W8SF6	30	1	0	0	255.7753298410324	1	0	0	190.36162536553593	-251.60418550225523	-46.00383889454946	2000	2000	0	2020-05-31 03:59:37.464395
A1UOG38V6W8SF6	31	1	0	0	206.15146235828058	0	0	0	203.39230117879143	-189.20745766841495	-81.84719540162963	2000	2000	0	2020-05-31 03:59:42.156954
A1UOG38V6W8SF6	32	1	0	0	277.2804836031932	1	0	0	96.90275047282306	-33.32481512272846	275.2706364366833	2000	2000	0	2020-05-31 03:59:49.210910
A1UOG38V6W8SF6	33	1	0	0	266.3180824791073	6	0	0	244.08793325259012	-116.37866631944122	-239.54399821547767	2000	2000	0	2020-05-31 03:59:54.179029
A1UOG38V6W8SF6	34	1	0	0	212.01922397929485	13	0	0	200.98684414195083	-197.9544385343081	-75.93544364359262	2000	2000	0	2020-05-31 04:00:01.282888
A1UOG38V6W8SF6	35	1	0	0	232.3194952050836	11	0	0	327.4598920802487	195.84884742623808	-124.96230157195002	2000	2000	0	2020-05-31 04:00:07.291417
A1UOG38V6W8SF6	36	1	0	0	120.30291255158167	2	0	0	340.3155800683354	113.27267189537226	-40.52274139389945	2000	2000	0	2020-05-31 04:00:12.214536
A1UOG38V6W8SF6	37	1	0	0	219.60505042757603	0	0	0	140.85807258787884	-170.32231469790696	138.62426659587908	2000	2000	0	2020-05-31 04:00:19.315726
A1UOG38V6W8SF6	38	1	0	0	200.3610242755137	8	0	0	73.82783078601587	55.80547838852332	192.43255605681966	2000	2000	0	2020-05-31 04:00:24.246215
A1UOG38V6W8SF6	39	1	0	0	258.8869778635633	1	0	0	257.3895563059719	-56.52049620372084	-252.64184296393637	2000	2000	0	2020-05-31 04:00:31.619575
A1UOG38V6W8SF6	40	1	0	0	152.72241060333513	12	0	0	165.85205282322127	-148.090005408361	37.32941197829533	2000	2000	0	2020-05-31 04:00:37.392850
A1UOG38V6W8SF6	41	1	0	0	276.9881421326305	2	0	0	356.24890675982	276.394743545203	-18.121165047196982	2000	2000	0	2020-05-31 04:00:42.321030
A1UOG38V6W8SF6	42	1	0	0	204.3562440998401	5	0	0	245.39728979642211	-85.07836819119963	-185.80405207776312	2000	2000	0	2020-05-31 04:00:49.412003
A1UOG38V6W8SF6	43	1	0	0	215.54040275227504	3	0	0	12.327449808826128	210.57077426421685	46.01754278947513	2000	2000	0	2020-05-31 04:00:54.352533
A1UOG38V6W8SF6	44	1	0	0	180.50962054425187	4	0	0	167.34796708499033	-176.1265317315201	39.53691856044985	2000	2000	0	2020-05-31 04:01:01.417777
A1UOG38V6W8SF6	45	1	0	0	133.73229997121697	6	0	0	359.944627813057	133.7322375195015	-0.12924248216103412	2000	2000	0	2020-05-31 04:01:07.484835
A1UOG38V6W8SF6	46	1	0	0	146.34396346731893	6	0	0	276.8306444937816	17.4054246044564	-145.30521958161916	2000	2000	0	2020-05-31 04:01:12.400687
A1UOG38V6W8SF6	47	1	0	0	208.65918581430674	12	0	0	139.85841194133664	-159.51027896713447	134.5181278806553	2000	2000	0	2020-05-31 04:01:19.472250
A1UOG38V6W8SF6	48	1	0	0	247.3642115721969	12	0	0	226.84011465397342	-169.2061651805375	-180.4392607822124	2000	2000	0	2020-05-31 04:01:24.422099
A1UOG38V6W8SF6	49	1	0	0	214.49097084857812	6	0	0	301.6632912578724	112.5919814052292	-182.5634747117016	2000	2000	0	2020-05-31 04:01:31.515715
A1UOG38V6W8SF6	50	1	0	0	118.24737028215102	14	0	0	288.92541829539647	38.35200927146215	-111.85510253665595	2000	2000	0	2020-05-31 04:01:37.539501
A1UOG38V6W8SF6	51	1	0	0	227.78261883273933	0	0	0	233.56989741549313	-135.26681468273068	-183.26977461624384	2000	2000	0	2020-05-31 04:01:42.462953
A1UOG38V6W8SF6	52	1	0	0	247.4948102014209	9	0	0	330.87249555600323	216.19628496447152	-120.4692800850009	2000	2000	0	2020-05-31 04:01:49.557117
A1UOG38V6W8SF6	53	1	0	0	167.57623778222955	5	0	0	334.66311848293685	151.45662206198156	-71.71253100275028	2000	2000	0	2020-05-31 04:01:54.504596
A1UOG38V6W8SF6	54	1	0	0	262.8441675396174	4	0	0	356.0435697097116	262.2177591817261	-18.135688002079647	2000	2000	0	2020-05-31 04:02:01.572098
A1UOG38V6W8SF6	55	1	0	0	258.8453698054235	7	0	0	143.92000399321248	-209.19767447213763	152.43771995525248	2000	2000	0	2020-05-31 04:02:07.585248
A1UOG38V6W8SF6	56	1	0	0	100.35641301827552	6	0	0	192.62732053824425	-97.92905562819949	-21.93877156232106	2000	2000	0	2020-05-31 04:02:12.521099
A1UOG38V6W8SF6	57	1	0	0	153.0023668856912	10	0	0	24.033450595629418	139.73826117637196	62.313262119934926	2000	2000	0	2020-05-31 04:02:19.611766
A1UOG38V6W8SF6	58	1	0	0	259.6343497901576	3	0	0	317.6027773884067	191.73685853053314	-175.06276780572233	2000	2000	0	2020-05-31 04:02:24.540644
A1UOG38V6W8SF6	59	1	0	0	123.16732955819138	11	0	0	240.31032561979694	-61.005039326179755	-106.99801982890799	2000	2000	0	2020-05-31 04:02:31.646868
A1UOG38V6W8SF6	60	1	0	0	237.43548439226174	0	0	0	117.34097915546988	-109.05055526038437	210.91132175867142	2000	2000	0	2020-05-31 04:02:37.643733
A1UOG38V6W8SF6	61	1	0	0	246.22185267550444	13	0	0	83.86441147739401	26.316602996796924	244.8114318034736	2000	2000	0	2020-05-31 04:02:42.575144
A1UOG38V6W8SF6	62	1	0	0	199.32772024442255	12	0	0	1.0495671703182285	199.2942775877483	3.651161269556325	2000	2000	0	2020-05-31 04:02:49.669542
A1UOG38V6W8SF6	63	1	0	0	148.54584732414028	4	0	0	98.96570949055901	-23.149878476400836	146.7308825154905	2000	2000	0	2020-05-31 04:02:54.636807
A1UOG38V6W8SF6	64	1	0	0	288.58000333571385	2	0	0	11.631978460554198	282.65339815542455	58.18483338836367	2000	2000	0	2020-05-31 04:03:01.711923
A1UOG38V6W8SF6	65	1	0	0	211.22935598934566	12	0	0	212.5851402178998	-177.98018664888073	-113.75805022987731	2000	2000	0	2020-05-31 04:03:07.748383
A1UOG38V6W8SF6	66	1	0	0	232.0675185321056	0	0	0	151.75448476835578	-204.43472486628366	109.82611905414883	2000	2000	0	2020-05-31 04:03:12.675080
A1UOG38V6W8SF6	67	1	0	0	185.76296806175216	9	0	0	321.329373400015	145.03459396010828	-116.07259305252933	2000	2000	0	2020-05-31 04:03:19.772576
A1UOG38V6W8SF6	68	1	0	0	255.0816796248363	3	0	0	232.6271011519099	-154.83458214314226	-202.7138758269551	2000	2000	0	2020-05-31 04:03:24.719905
A1UOG38V6W8SF6	69	1	0	0	210.5533413444662	1	0	0	77.24005116398234	46.50424064351332	205.3535126397635	2000	2000	0	2020-05-31 04:03:31.803254
A1UOG38V6W8SF6	70	1	0	0	118.21311350731966	7	0	0	75.27451597881833	30.04837155184608	114.330379043265	2000	2000	0	2020-05-31 04:03:38.052147
A1UOG38V6W8SF6	71	1	0	0	150.4233019679976	13	0	0	116.05557738705676	-66.07234906038015	135.1355410859729	2000	2000	0	2020-05-31 04:03:42.747045
A1UOG38V6W8SF6	72	1	0	0	240.30201888853307	12	0	0	342.6754861721677	229.40035282388973	-71.55793740864677	2000	2000	0	2020-05-31 04:03:49.826738
A1UOG38V6W8SF6	73	1	0	0	131.77523330394735	3	0	0	312.61342612397317	89.21821624166779	-96.97846154154416	2000	2000	0	2020-05-31 04:03:55.849187
A1UOG38V6W8SF6	74	1	0	0	246.32274054367076	13	0	0	344.947685117074	237.8711867490233	-63.97023545021405	2000	2000	0	2020-05-31 04:04:00.785019
A1UOG38V6W8SF6	75	1	0	0	283.8010153964401	4	0	0	209.09047569556094	-248.0003842374881	-137.98125147319357	2000	2000	0	2020-05-31 04:04:08.137468
A1UOG38V6W8SF6	76	1	0	0	273.9872577554253	11	0	0	196.45342613439212	-262.7675575977029	-77.60301596249809	2000	2000	0	2020-05-31 04:04:12.796291
A1UOG38V6W8SF6	77	1	0	0	115.47094137932189	11	0	0	240.00459661161705	-57.72744784149103	-100.00540019786294	2000	2000	0	2020-05-31 04:04:19.850542
A1UOG38V6W8SF6	78	1	0	0	262.34846422548253	4	0	0	101.28376426470214	-51.3332681668134	257.2773061519094	2000	2000	0	2020-05-31 04:04:24.811994
A1UOG38V6W8SF6	79	1	0	0	187.471495921049	4	0	0	297.8054483310378	87.4499700932212	-165.82540370392775	2000	2000	0	2020-05-31 04:04:31.904667
A1UOG38V6W8SF6	80	1	0	0	144.9481347989101	7	0	0	305.9030360322545	84.99980091064064	-117.40952102293267	2000	2000	0	2020-05-31 04:04:37.901541
A1UOG38V6W8SF6	81	1	0	0	213.6256746145685	7	0	0	30.362948566686985	184.32493205790834	107.9826295122367	2000	2000	0	2020-05-31 04:04:42.831941
A1UOG38V6W8SF6	82	1	0	0	237.15185773049998	5	0	0	74.53326606711869	63.243383488431775	228.56350992659011	2000	2000	0	2020-05-31 04:04:49.904606
A1UOG38V6W8SF6	83	1	0	0	197.5274150325684	0	0	0	175.05070417571145	-196.7909216002706	17.041504193136223	2000	2000	0	2020-05-31 04:04:54.861854
A1UOG38V6W8SF6	84	1	0	0	152.9496832967627	8	0	0	293.07579570296184	59.94840015380217	-140.71174414234093	2000	2000	0	2020-05-31 04:05:01.962096
A1UOG38V6W8SF6	85	1	0	0	266.6323058195252	6	0	0	356.2556943644647	266.06315741280093	-17.41214444483852	2000	2000	0	2020-05-31 04:05:08.217739
A1UOG38V6W8SF6	86	1	0	0	201.16094484188332	1	0	0	276.4477865367368	22.589917065582227	-199.88852237347032	2000	2000	0	2020-05-31 04:05:12.889963
A1UOG38V6W8SF6	87	1	0	0	109.70333299351007	7	0	0	128.74465266906665	-68.65790598942897	85.56233525933995	2000	2000	0	2020-05-31 04:05:19.988589
A1UOG38V6W8SF6	88	1	0	0	291.7641331568496	1	0	0	352.45042183427705	289.2349890764403	-38.33315132779117	2000	2000	0	2020-05-31 04:05:24.906422
A1UOG38V6W8SF6	89	1	0	0	182.87907005984817	10	0	0	241.90394375382783	-86.12711054977113	-161.32846957156184	2000	2000	0	2020-05-31 04:05:32.005614
A1UOG38V6W8SF6	90	1	0	0	108.22201941795689	12	0	0	234.71283534475185	-62.51713120829772	-88.33806536474027	2000	2000	0	2020-05-31 04:05:38.257969
A1UOG38V6W8SF6	91	1	0	0	293.9265381868595	12	0	0	145.46251646732765	-242.12359157086135	166.64026000741265	2000	2000	0	2020-05-31 04:05:42.976505
A1UOG38V6W8SF6	92	1	0	0	276.36599640901125	8	0	0	24.53304951608328	251.41620348286492	114.75215290968742	2000	2000	0	2020-05-31 04:05:50.039930
A1UOG38V6W8SF6	93	1	0	0	244.59984114434005	3	0	0	340.0126953269621	229.8671966851176	-83.60714189566492	2000	2000	0	2020-05-31 04:05:54.947643
A1UOG38V6W8SF6	94	1	0	0	219.5000897822722	5	0	0	206.03684278152224	-197.22345932490538	-96.3493461645846	2000	2000	0	2020-05-31 04:06:02.020365
A1UOG38V6W8SF6	95	1	0	0	298.4895306660698	3	0	0	242.05933978588297	-139.8593186452057	-263.69560274177775	2000	2000	0	2020-05-31 04:06:08.300056
A1UOG38V6W8SF6	96	1	0	0	166.87474509253747	13	0	0	246.6068500022034	-66.25564266947217	-153.15799151253773	2000	2000	0	2020-05-31 04:06:12.986982
A1UOG38V6W8SF6	97	1	0	0	181.03156012011584	3	0	0	236.71223860523892	-99.35813513353668	-151.32873733137728	2000	2000	0	2020-05-31 04:06:20.082381
A1UOG38V6W8SF6	98	1	0	0	103.24078319900045	13	0	0	172.21883093074823	-102.29018248376123	13.97776387630878	2000	2000	0	2020-05-31 04:06:24.996977
A1UOG38V6W8SF6	99	1	0	0	249.7354357957903	9	0	0	65.6255455439299	103.0654040279507	227.47595561876113	2000	2000	0	2020-05-31 04:06:32.074805
A1UOG38V6W8SF6	100	1	0	0	221.6242056918898	5	0	0	297.1758013331344	101.22070465660349	-197.1589650444071	2000	2000	0	2020-05-31 04:06:38.093942
A1UOG38V6W8SF6	101	1	0	0	274.01691867477996	8	0	0	54.57168301568444	158.84321192063805	223.28032995935007	2000	2000	0	2020-05-31 04:06:43.030878
A1UOG38V6W8SF6	102	1	0	0	207.61702891333024	14	0	0	156.00032615630988	-189.668074395821	84.44437370115259	2000	2000	0	2020-05-31 04:06:50.138632
A1UOG38V6W8SF6	103	1	0	0	239.01418455578326	5	0	0	59.55421402485542	121.11394901871674	206.05628301985286	2000	2000	0	2020-05-31 04:06:55.050811
A1UOG38V6W8SF6	104	1	0	0	284.61313554826023	13	0	0	45.99911918490122	197.71204432207534	204.73051667154573	2000	2000	0	2020-05-31 04:07:02.779762
A1UOG38V6W8SF6	105	1	0	0	120.35249617187169	10	0	0	303.8784655758834	67.08846651358442	-99.91927239354804	2000	2000	0	2020-05-31 04:07:08.172538
A1UOG38V6W8SF6	106	1	0	0	125.06928132023324	2	0	0	27.655466780622035	110.78069842240654	58.05137368748012	2000	2000	0	2020-05-31 04:07:13.076314
A1UOG38V6W8SF6	107	1	0	0	251.06250950346856	9	0	0	225.33725923225404	-176.47995323991483	-178.5699016705131	2000	2000	0	2020-05-31 04:07:20.418196
A1UOG38V6W8SF6	108	1	0	0	264.0306847487475	13	0	0	132.53925229383688	-178.50986390394658	194.54159189717492	2000	2000	0	2020-05-31 04:07:25.107627
A1UOG38V6W8SF6	109	1	0	0	248.3666513317655	7	0	0	250.7933892521537	-81.70656964420994	-234.54217098579662	2000	2000	0	2020-05-31 04:07:32.259858
A1UOG38V6W8SF6	110	1	0	0	223.49657836353583	11	0	0	110.51589788142988	-78.32823490426301	209.32130363866622	2000	2000	0	2020-05-31 04:07:38.240938
A1UOG38V6W8SF6	111	1	0	0	113.69099932301059	7	0	0	48.94766676405457	74.6663474917386	85.73552285551033	2000	2000	0	2020-05-31 04:07:43.148172
A1UOG38V6W8SF6	112	1	0	0	228.18740572140243	14	0	0	29.085758251259037	199.41139530349614	110.92604542205913	2000	2000	0	2020-05-31 04:07:50.256880
A1UOG38V6W8SF6	113	1	0	0	273.12481719774894	13	0	0	58.16012375905041	144.08622412006682	232.02656267790903	2000	2000	0	2020-05-31 04:07:55.172191
A1UOG38V6W8SF6	114	1	0	0	274.5072282297772	4	0	0	242.67735108153735	-125.99903391339757	-243.88206535800344	2000	2000	0	2020-05-31 04:08:02.254258
A1UOG38V6W8SF6	115	1	0	0	137.585544058218	6	0	0	149.55311837818698	-118.6124045429301	69.72000733175625	2000	2000	0	2020-05-31 04:08:08.283405
A1UOG38V6W8SF6	116	1	0	0	277.7845634219932	7	0	0	292.7924554141843	107.61212708665228	-256.0935254539512	2000	2000	0	2020-05-31 04:08:13.209945
A1UOG38V6W8SF6	117	1	0	0	185.45917651849862	1	0	0	303.68926128792816	102.87207020273937	-154.31280999036437	2000	2000	0	2020-05-31 04:08:20.314300
A1UOG38V6W8SF6	118	1	0	0	259.4637987203192	6	0	0	199.52241119468638	-244.54744566287096	-86.70645688842029	2000	2000	0	2020-05-31 04:08:25.232538
A1UOG38V6W8SF6	119	1	0	0	162.78399940586525	1	0	0	178.94901374389522	-162.7566140524494	2.985807219290578	2000	2000	0	2020-05-31 04:08:32.325970
A1UOG38V6W8SF6	120	1	0	0	246.16238777559886	2	0	0	94.4645632116995	-19.16189535597779	245.41544963948553	2000	2000	0	2020-05-31 04:08:38.610993
A1UOG38V6W8SF6	121	1	0	0	257.79578669112857	6	0	0	167.9069620065934	-252.07496312178282	54.008153114596546	2000	2000	0	2020-05-31 04:08:43.282964
A1UOG38V6W8SF6	122	1	0	0	155.41362047585528	7	0	0	143.4500584963136	-124.84967975776523	92.55242240912256	2000	2000	0	2020-05-31 04:08:50.366205
A1UOG38V6W8SF6	123	1	0	0	141.26265645554068	1	0	0	315.34627422309467	100.48963874688	-99.28227743861268	2000	2000	0	2020-05-31 04:08:55.307437
A1UOG38V6W8SF6	124	1	0	0	247.99108683253007	4	0	0	177.8323267409022	-247.8136283967326	9.380017549322135	2000	2000	0	2020-05-31 04:09:02.382347
A1UOG38V6W8SF6	125	1	0	0	186.7148725916998	4	0	0	152.17323161828162	-165.12372198048857	87.15847684674739	2000	2000	0	2020-05-31 04:10:30.553434
A1UOG38V6W8SF6	126	1	0	0	200.9997236474798	9	0	0	3.4940863005863054	200.62608408338974	12.250032315381132	2000	2000	0	2020-05-31 04:10:36.616086
A1UOG38V6W8SF6	127	1	0	0	151.99661422739993	4	0	0	5.90197903186251	151.1909206073386	15.629339797268193	2000	2000	0	2020-05-31 04:10:41.523085
A1UOG38V6W8SF6	128	1	0	0	120.38959184168067	6	0	0	349.82956957608616	118.49789428572853	-21.258007283251438	2000	2000	0	2020-05-31 04:10:55.300855
A1UOG38V6W8SF6	129	1	0	0	201.6487814014484	9	0	0	346.3290988265434	195.9359257862011	-47.65861965052504	2000	2000	0	2020-05-31 04:11:00.247621
A1UOG38V6W8SF6	130	1	0	0	127.21831926513553	12	0	0	135.0922512123894	-90.1016581087854	89.81198117563993	2000	2000	0	2020-05-31 04:11:07.444882
A1UOG38V6W8SF6	131	1	0	0	162.63748024954995	6	0	0	120.59123270465172	-82.76779138360159	140.0015810317989	2000	2000	0	2020-05-31 04:11:12.334969
A1UOG38V6W8SF6	132	1	0	0	201.043893204043	12	0	0	69.1335901856636	71.60987497347676	187.8581188049153	2000	2000	0	2020-05-31 04:11:19.445137
A1UOG38V6W8SF6	133	1	0	0	278.2050922923191	7	0	0	8.191440270957475	275.36671262147536	39.63895757231263	2000	2000	0	2020-05-31 04:11:24.424394
A1UOG38V6W8SF6	134	1	0	0	171.27867932312824	1	0	0	102.73037345567761	-37.74353853988971	167.06828331303	2000	2000	0	2020-05-31 04:11:31.784374
A1UOG38V6W8SF6	135	1	0	0	174.43730021972414	11	0	0	9.729376413875057	171.92836024083576	29.47898663189717	2000	2000	0	2020-05-31 04:11:37.928393
A1UOG38V6W8SF6	136	1	0	0	221.0614295309082	14	0	0	83.51061457136493	24.9841734221202	219.6450470751893	2000	2000	0	2020-05-31 04:11:42.998297
A1UOG38V6W8SF6	137	1	0	0	263.40337232377306	11	0	0	183.54118503814362	-262.9004451977971	-16.269372032634767	2000	2000	0	2020-05-31 04:11:49.678418
A1UOG38V6W8SF6	138	1	0	0	135.61161033561442	9	0	0	329.8147782113115	117.22328844441974	-68.18511204137523	2000	2000	0	2020-05-31 04:11:54.658721
A1UOG38V6W8SF6	139	1	0	0	269.6677922614957	12	0	0	107.37326215815685	-80.52157596910571	257.36548717075635	2000	2000	0	2020-05-31 04:12:01.816393
A1UOG38V6W8SF6	140	1	0	0	194.54141295102332	6	0	0	181.72389038809783	-194.45336417180292	-5.852393975868572	2000	2000	0	2020-05-31 04:12:07.797464
A1UOG38V6W8SF6	141	1	0	0	114.90864662153979	5	0	0	54.17243894741879	67.26151824114397	93.16590166090899	2000	2000	0	2020-05-31 04:12:12.773309
A1UOG38V6W8SF6	142	1	0	0	150.93540471468071	12	0	0	233.68422954212136	-89.3892271835195	-121.61851199516298	2000	2000	0	2020-05-31 04:12:19.905441
A1UOG38V6W8SF6	143	1	0	0	154.23585350981392	6	0	0	79.9181577268793	26.999713579792335	151.8542524083865	2000	2000	0	2020-05-31 04:12:24.848414
A1UOG38V6W8SF6	144	1	0	0	128.2142172646805	1	0	0	85.80507049213415	9.378862007556235	127.87072556389879	2000	2000	0	2020-05-31 04:12:31.957246
A1UOG38V6W8SF6	145	1	0	0	283.405538627774	0	0	0	263.392381034826	-32.611261143571056	-281.5230096662163	2000	2000	0	2020-05-31 04:12:37.980214
A1UOG38V6W8SF6	146	1	0	0	222.8024574764584	4	0	0	207.44128516017244	-197.73351640391698	-102.67614887641113	2000	2000	0	2020-05-31 04:12:43.825028
A1UOG38V6W8SF6	147	1	0	0	179.15966671940186	13	0	0	133.13673852783003	-122.49895646392126	130.7371096676742	2000	2000	0	2020-05-31 04:12:50.049532
A1UOG38V6W8SF6	148	1	0	0	285.6614138361236	9	0	0	301.70888508443517	150.1446627560913	-243.0206238176354	2000	2000	0	2020-05-31 04:12:54.995027
A1UOG38V6W8SF6	149	1	0	0	291.79211149125547	1	0	0	299.2593045925494	142.6171658224002	-254.56429510304713	2000	2000	0	2020-05-31 04:13:02.095322
A1UOG38V6W8SF6	150	1	0	0	231.28224580863383	1	0	0	20.047719929237022	217.26826167136446	79.28417052973955	2000	2000	0	2020-05-31 04:13:08.131090
A1UOG38V6W8SF6	151	1	0	0	184.9746057066514	2	0	0	157.4937841476737	-170.8865717962079	70.80525641554185	2000	2000	0	2020-05-31 04:13:13.071690
A1UOG38V6W8SF6	152	1	0	0	172.70033273213392	11	0	0	233.39927261009788	-102.96999445148879	-138.64553785986095	2000	2000	0	2020-05-31 04:13:20.199612
A1UOG38V6W8SF6	153	1	0	0	294.55035979887816	12	0	0	359.8884147337858	294.54980120281886	-0.5736453856449972	2000	2000	0	2020-05-31 04:13:25.160777
A1UOG38V6W8SF6	154	1	0	0	215.08341009659023	7	0	0	235.06413277306052	-123.16948869139905	-176.3239925656101	2000	2000	0	2020-05-31 04:13:32.537695
A1UOG38V6W8SF6	155	1	0	0	266.3049753144545	4	0	0	122.54398416660693	-143.25793460197596	224.48942970841236	2000	2000	0	2020-05-31 04:13:38.310377
A1UOG38V6W8SF6	156	1	0	0	274.58246476614755	11	0	0	81.52036304909159	40.489354547400765	271.5808206140256	2000	2000	0	2020-05-31 04:13:43.299119
A1UOG38V6W8SF6	157	1	0	0	249.83426567558234	1	0	0	254.222563283074	-67.93026188338332	-240.42179565528667	2000	2000	0	2020-05-31 04:13:50.422700
A1UOG38V6W8SF6	158	1	0	0	184.58549458621803	0	0	0	330.82879229265495	161.1739858878908	-89.97083463350054	2000	2000	0	2020-05-31 04:13:55.367836
A1UOG38V6W8SF6	159	1	0	0	234.97757221625193	14	0	0	273.9077258000736	16.01367888443366	-234.43127251548617	2000	2000	0	2020-05-31 04:14:02.507900
A1UOG38V6W8SF6	160	1	0	0	273.94906022064526	7	0	0	71.45806411293204	87.11543617931139	259.7286822341019	2000	2000	0	2020-05-31 04:14:08.549129
A1UOG38V6W8SF6	161	1	0	0	112.07529110759017	5	0	0	150.45850175298435	-97.50537041334854	55.25914962616395	2000	2000	0	2020-05-31 04:14:13.490880
A1UOG38V6W8SF6	162	1	0	0	206.94545831546577	3	0	0	301.1231139051714	106.96570292934359	-177.15744724461797	2000	2000	0	2020-05-31 04:14:20.633496
A1UOG38V6W8SF6	163	1	0	0	200.16783863977258	14	0	0	94.73872250742312	-16.53627600304127	199.48362138699326	2000	2000	0	2020-05-31 04:14:25.616754
A1UOG38V6W8SF6	164	1	0	0	204.96725219649846	6	0	0	347.5492763075391	200.1467896072964	-44.19091629368684	2000	2000	0	2020-05-31 04:14:32.759770
A1UOG38V6W8SF6	165	1	0	0	197.6682567412268	1	0	0	204.37505706755778	-180.04878314659388	-81.57925845793382	2000	2000	0	2020-05-31 04:14:38.804937
A1UOG38V6W8SF6	166	1	0	0	176.02472597365724	14	0	0	11.439450821203367	172.52796767504566	34.91138100991594	2000	2000	0	2020-05-31 04:14:43.755133
A1UOG38V6W8SF6	167	1	0	0	127.27246237166088	12	0	0	340.29589229996793	119.82019834465555	-42.91153395991848	2000	2000	0	2020-05-31 04:14:50.878505
A1UOG38V6W8SF6	168	1	0	0	154.0653817258936	11	0	0	216.25377235572364	-124.2391974785943	-91.10852680303941	2000	2000	0	2020-05-31 04:14:56.888644
A1UOG38V6W8SF6	169	1	0	0	178.74635191488653	9	0	0	29.43352879337718	155.67491518814091	87.83836920187896	2000	2000	0	2020-05-31 04:15:01.852280
A1UOG38V6W8SF6	170	1	0	0	163.45925249720582	10	0	0	46.10802111311028	113.32645472360126	117.79661237372169	2000	2000	0	2020-05-31 04:15:08.980286
A1UOG38V6W8SF6	171	1	0	0	209.36563372555696	1	0	0	114.32723231673751	-86.24764861251664	190.77555318781265	2000	2000	0	2020-05-31 04:15:13.955557
A1UOG38V6W8SF6	172	1	0	0	293.7150276110109	7	0	0	193.68008105559352	-285.3827429916425	-69.46371316812119	2000	2000	0	2020-05-31 04:15:22.452992
A1UOG38V6W8SF6	173	1	0	0	104.5177203750149	5	0	0	213.26230788380556	-87.39441041751093	-57.32513323286274	2000	2000	0	2020-05-31 04:15:27.079944
A1UOG38V6W8SF6	174	1	0	0	282.248230335945	10	0	0	340.96913516003656	266.82140492844144	-92.03478364067212	2000	2000	0	2020-05-31 04:15:31.999696
A1UOG38V6W8SF6	175	1	0	0	161.89340648676932	2	0	0	296.6072879776598	72.50765649051274	-144.74845358118384	2000	2000	0	2020-05-31 04:15:39.084538
A1UOG38V6W8SF6	176	1	0	0	215.52267198674366	4	0	0	35.33189289006601	175.8268026464138	124.63931005683781	2000	2000	0	2020-05-31 04:15:44.039450
A1UOG38V6W8SF6	177	1	0	0	150.0520755650437	6	0	0	283.8233283995476	35.851768697409966	-145.7061291183216	2000	2000	0	2020-05-31 04:15:51.104680
A1UOG38V6W8SF6	178	1	0	0	134.22049924276757	2	0	0	154.47482778145715	-121.12004932870742	57.83663257477265	2000	2000	0	2020-05-31 04:15:57.123473
A1UOG38V6W8SF6	179	1	0	0	238.57808320302695	11	0	0	207.23939505378524	-212.120221038707	-109.19942129572176	2000	2000	0	2020-05-31 04:16:02.077970
A1UOG38V6W8SF6	180	1	0	0	177.41374143927294	5	0	0	339.41585988057216	166.08709681136588	-62.37557153448114	2000	2000	0	2020-05-31 04:16:09.176416
A1UOG38V6W8SF6	181	1	0	0	270.68420893260566	10	0	0	152.26668958204948	-239.58888075518283	125.96471404305768	2000	2000	0	2020-05-31 04:16:14.112058
A1UOG38V6W8SF6	182	1	0	0	174.59189199730395	7	0	0	264.84944616748646	-15.67365535969946	-173.88693245573	2000	2000	0	2020-05-31 04:16:21.234228
A1UOG38V6W8SF6	183	1	0	0	203.64190760957052	8	0	0	251.79778437561464	-63.611959430694114	-193.4516610222114	2000	2000	0	2020-05-31 04:16:27.223302
A1UOG38V6W8SF6	184	1	0	0	144.86786692855395	3	0	0	248.74183047448875	-52.52487652251722	-135.01050409032453	2000	2000	0	2020-05-31 04:16:32.156812
A1UOG38V6W8SF6	185	1	0	0	199.08194839076052	12	0	0	55.88386920284961	111.6595106132065	164.82043521566328	2000	2000	0	2020-05-31 04:16:39.273039
A1UOG38V6W8SF6	186	1	0	0	129.51232528775236	9	0	0	201.4660853967687	-120.5286180040373	-47.39509092171294	2000	2000	0	2020-05-31 04:16:44.181728
A1UOG38V6W8SF6	187	1	0	0	295.12780580417063	2	0	0	143.03009254258728	-235.79279768664964	177.48853010233358	2000	2000	0	2020-05-31 04:16:51.536416
A1UOG38V6W8SF6	188	1	0	0	197.0972731834399	11	0	0	145.89752859284494	-163.20366748742512	110.5074568298516	2000	2000	0	2020-05-31 04:16:57.298743
A1UOG38V6W8SF6	189	1	0	0	110.71262612424002	6	0	0	7.145553938986806	109.85276022707635	13.771588645404265	2000	2000	0	2020-05-31 04:17:02.233216
A1UOG38V6W8SF6	190	1	0	0	277.09123558318817	1	0	0	60.24352639293758	137.52442425806888	240.5547454728436	2000	2000	0	2020-05-31 04:17:09.325275
A1UOG38V6W8SF6	191	1	0	0	206.53588468508772	7	0	0	187.64148219605062	-204.70174828137627	-27.463902002445327	2000	2000	0	2020-05-31 04:17:14.268044
A1UOG38V6W8SF6	192	1	0	0	257.35411850325227	5	0	0	125.97998025299164	-151.19619762700225	208.25669769234912	2000	2000	0	2020-05-31 04:17:21.369748
A1UOG38V6W8SF6	193	1	0	0	288.43913744036814	14	0	0	97.13559262206684	-35.82930330517105	286.2051659771529	2000	2000	0	2020-05-31 04:17:27.377882
A1UOG38V6W8SF6	194	1	0	0	104.78546984418782	5	0	0	128.98593914588355	-65.92364639880307	81.44978536468203	2000	2000	0	2020-05-31 04:17:32.314120
A1UOG38V6W8SF6	195	1	0	0	107.65442842887731	10	0	0	113.14926433800007	-42.32195473486185	98.9865046749736	2000	2000	0	2020-05-31 04:17:39.679617
A1UOG38V6W8SF6	196	1	0	0	194.0004011842121	11	0	0	129.8176976081715	-124.2275705393682	149.00894730693705	2000	2000	0	2020-05-31 04:17:44.337242
A1UOG38V6W8SF6	197	1	0	0	287.38554409505105	13	0	0	200.37996275479398	-269.39631068750856	-100.08036142404701	2000	2000	0	2020-05-31 04:17:51.456863
A1UOG38V6W8SF6	198	1	0	0	219.39619536719226	6	0	0	226.51144799856584	-150.99057407155183	-159.17454910613827	2000	2000	0	2020-05-31 04:18:00.527317
A1UOG38V6W8SF6	199	1	0	0	204.7898194707371	10	0	0	181.01686690285376	-204.7575679700651	-3.634352465193318	2000	2000	0	2020-05-31 04:18:03.457252
A1UOG38V6W8SF6	200	1	0	0	200.10730234604102	8	0	0	245.9502720116082	-81.54960316418375	-182.73640763672142	2000	2000	0	2020-05-31 04:18:11.516531
A1UOG38V6W8SF6	201	1	0	0	127.24012372406995	1	0	0	62.47800817336202	58.796266670631184	112.84080871259586	2000	2000	0	2020-05-31 04:18:15.486057
A1UOG38V6W8SF6	202	1	0	0	212.0689797469331	0	0	0	280.89828069010906	40.095028775645524	-208.24418560522952	2000	2000	0	2020-05-31 04:18:21.556564
A1UOG38V6W8SF6	203	1	0	0	259.6747286174006	8	0	0	241.13826880703675	-125.34435221969976	-227.41978376813327	2000	2000	0	2020-05-31 04:18:27.545867
A1UOG38V6W8SF6	204	1	0	0	282.6701670152445	5	0	0	160.43200957003495	-266.34447047560786	94.67336672736563	2000	2000	0	2020-05-31 04:18:32.476154
A1UOG38V6W8SF6	205	1	0	0	282.20649148832945	10	0	0	292.06679449652165	106.02137637727564	-261.5338822967698	2000	2000	0	2020-05-31 04:18:39.554348
A1UOG38V6W8SF6	206	1	0	0	143.05424476828472	1	0	0	332.0160967234389	126.32826403902617	-67.12441173753705	2000	2000	0	2020-05-31 04:18:44.496061
A1UOG38V6W8SF6	207	1	0	0	128.86871571551598	7	0	0	195.48028713162844	-124.19366035588234	-34.39593896921864	2000	2000	0	2020-05-31 04:18:51.632468
A1UOG38V6W8SF6	208	1	0	0	151.06453545965755	0	0	0	72.90481790445415	44.40692377195463	144.39016238911134	2000	2000	0	2020-05-31 04:18:57.634593
A1UOG38V6W8SF6	209	1	0	0	294.18428472631825	14	0	0	296.6301233638153	131.8619657686102	-262.9768342717156	2000	2000	0	2020-05-31 04:19:02.555066
A1UOG38V6W8SF6	210	1	0	0	266.71457820438764	3	0	0	82.58829754710548	34.40568425619954	264.4861340743728	2000	2000	0	2020-05-31 04:19:09.648831
A1UOG38V6W8SF6	211	1	0	0	112.71037586767375	13	0	0	297.59791989712215	52.214643956600185	-99.88623421031433	2000	2000	0	2020-05-31 04:19:14.577765
A1UOG38V6W8SF6	212	1	0	0	140.8356946088702	11	0	0	24.279095619825483	128.37925021919438	57.909075187922234	2000	2000	0	2020-05-31 04:19:21.676824
A1UOG38V6W8SF6	213	1	0	0	286.3221605093105	2	0	0	95.48443185936726	-27.36532197693011	285.0114361772494	2000	2000	0	2020-05-31 04:19:27.743218
A1UOG38V6W8SF6	214	1	0	0	116.62831889389068	13	0	0	247.75823355936697	-44.14563935747949	-107.95057801482314	2000	2000	0	2020-05-31 04:19:32.678644
A1UOG38V6W8SF6	215	1	0	0	173.6540524703202	2	0	0	221.43205904282027	-130.19554984731872	-114.91235242270112	2000	2000	0	2020-05-31 04:19:39.993164
A1UOG38V6W8SF6	216	1	0	0	202.35100103877724	3	0	0	34.97440239410582	165.80807255960386	115.98970081634134	2000	2000	0	2020-05-31 04:19:44.694835
A1UOG38V6W8SF6	217	1	0	0	160.30703392989273	0	0	0	29.61053003133688	139.37159838451979	79.20797113386946	2000	2000	0	2020-05-31 04:19:51.794429
A1UOG38V6W8SF6	218	1	0	0	126.19846209158388	0	0	0	58.242906923371145	66.42067249038905	107.30492113694231	2000	2000	0	2020-05-31 04:19:58.020163
A1UOG38V6W8SF6	219	1	0	0	100.95879914716673	12	0	0	159.42362318768141	-94.51808422969737	35.48254329646886	2000	2000	0	2020-05-31 04:20:02.714954
A1UOG38V6W8SF6	220	1	0	0	298.16873654665324	10	0	0	306.4050688904163	176.96019097154468	-239.978512090441	2000	2000	0	2020-05-31 04:20:09.825874
A1UOG38V6W8SF6	221	1	0	0	194.14355658756594	4	0	0	87.8113205006973	7.414415028461037	194.00192528491863	2000	2000	0	2020-05-31 04:20:14.738996
A1UOG38V6W8SF6	222	1	0	0	262.34446054628995	11	0	0	290.7635062676997	93.00411943411034	-245.30562518541973	2000	2000	0	2020-05-31 04:20:21.835575
A1UOG38V6W8SF6	223	1	0	0	218.00389007178222	10	0	0	129.87944627501514	-139.77851014722316	167.2951409558937	2000	2000	0	2020-05-31 04:20:27.827282
A1UOG38V6W8SF6	224	1	0	0	208.5961728500974	4	0	0	214.01939492132885	-172.89456976449947	-116.70403195115554	2000	2000	0	2020-05-31 04:20:32.796101
A1UOG38V6W8SF6	225	1	0	0	285.9754312898919	7	0	0	82.76337173918607	36.02359604740914	283.6974582706951	2000	2000	0	2020-05-31 04:20:39.903410
A1UOG38V6W8SF6	226	1	0	0	138.1851686872011	0	0	0	123.84237193104082	-76.95670243526409	114.77284868556866	2000	2000	0	2020-05-31 04:20:44.845065
A1UOG38V6W8SF6	227	1	0	0	170.07861061893703	14	0	0	27.234023250101203	151.2245094402385	77.8323938641695	2000	2000	0	2020-05-31 04:20:51.955889
A1UOG38V6W8SF6	228	1	0	0	270.99618105234754	5	0	0	145.89705842861125	-224.3933879128981	151.9425470562092	2000	2000	0	2020-05-31 04:20:57.947838
A1UOG38V6W8SF6	229	1	0	0	158.14408425221544	8	0	0	118.56670972454242	-75.62159870017825	138.89177511285905	2000	2000	0	2020-05-31 04:21:02.876357
A1UOG38V6W8SF6	230	1	0	0	180.29724894644875	8	0	0	167.13319055492516	-175.77004920351465	40.14956762720806	2000	2000	0	2020-05-31 04:21:09.980130
A1UOG38V6W8SF6	231	1	0	0	132.52226292207575	11	0	0	233.39214924483838	-79.02764678213899	-106.38036103560304	2000	2000	0	2020-05-31 04:21:14.913258
A1UOG38V6W8SF6	232	1	0	0	160.83757457628542	3	0	0	242.32998232665292	-74.68953803325346	-142.44366712480186	2000	2000	0	2020-05-31 04:21:22.035851
A1UOG38V6W8SF6	233	1	0	0	233.73331805199706	14	0	0	198.7397913259107	-221.34250410118483	-75.09167627515708	2000	2000	0	2020-05-31 04:21:28.009753
A1UOG38V6W8SF6	234	1	0	0	255.06270761616884	1	0	0	200.79507437598187	-238.44695383423544	-90.55404476700762	2000	2000	0	2020-05-31 04:21:32.936034
A1UOG38V6W8SF6	235	1	0	0	141.44117849024803	8	0	0	314.00722871433305	98.26613433588086	-101.7318721708827	2000	2000	0	2020-05-31 04:21:40.034187
A1UOG38V6W8SF6	236	1	0	0	230.6530896108865	11	0	0	230.4763303821996	-146.78691903569353	-177.91696981192206	2000	2000	0	2020-05-31 04:21:44.958419
A1UOG38V6W8SF6	237	1	0	0	288.9612468382354	6	0	0	213.25111284651197	-241.65121299514854	-158.44018881672974	2000	2000	0	2020-05-31 04:21:52.074496
A1UOG38V6W8SF6	238	1	0	0	227.40612460903282	1	0	0	203.25093963885348	-208.93727623380136	-89.77059713346657	2000	2000	0	2020-05-31 04:21:58.070071
A1UOG38V6W8SF6	239	1	0	0	109.58818483425779	0	0	0	350.6053147182408	108.11831219516824	-17.8885668329127	2000	2000	0	2020-05-31 04:22:03.007662
A1UOG38V6W8SF6	240	1	0	0	167.17897701085906	2	0	0	115.82483110493331	-72.82671372244364	150.48282334800402	2000	2000	0	2020-05-31 04:22:10.104788
A1UOG38V6W8SF6	241	1	0	0	180.28975916139302	9	0	0	209.35307923964706	-157.1433541124523	-88.37626104764512	2000	2000	0	2020-05-31 04:22:15.026116
A1UOG38V6W8SF6	242	1	0	0	267.9511553853914	4	0	0	9.381061773056896	264.36760143598616	43.67600008413932	2000	2000	0	2020-05-31 04:22:22.105877
A1UOG38V6W8SF6	243	1	0	0	210.43072666192916	13	0	0	356.1401767337455	209.95341232173482	-14.165287781303757	2000	2000	0	2020-05-31 04:22:28.387401
A1UOG38V6W8SF6	244	1	0	0	251.4884882395664	7	0	0	102.1050475168232	-52.738318149400556	245.8965829689285	2000	2000	0	2020-05-31 04:22:33.085153
A1UOG38V6W8SF6	245	1	0	0	289.5522850726828	9	0	0	287.285596577417	86.03607481825415	-276.4748082930522	2000	2000	0	2020-05-31 04:22:40.160377
A1UOG38V6W8SF6	246	1	0	0	183.6975015727852	0	0	0	59.3529212898011	93.6395253381716	158.0392716337472	2000	2000	0	2020-05-31 04:22:45.109034
A1UOG38V6W8SF6	247	1	0	0	203.0238679376962	9	0	0	3.703899671285109	202.5997965054095	13.115388227184184	2000	2000	0	2020-05-31 04:22:52.188735
A1UOG38V6W8SF6	248	1	0	0	208.7936826943432	3	0	0	88.09962087294947	6.9239726273961	208.6788454446716	2000	2000	0	2020-05-31 04:22:58.197342
A1UOG38V6W8SF6	249	1	0	0	203.14149722350572	4	0	0	256.81629790277265	-46.33127846952855	-197.78746302429428	2000	2000	0	2020-05-31 04:23:03.189235
A1UOG38V6W8SF6	250	1	0	0	211.16585019853483	8	0	0	183.844508030612	-210.6906604977835	-14.158455744811231	2000	2000	0	2020-05-31 04:23:10.249603
A1UOG38V6W8SF6	251	1	0	0	148.7785249368086	2	0	0	63.53857861123199	66.294986371214	133.1916824145304	2000	2000	0	2020-05-31 04:23:15.167054
A1UOG38V6W8SF6	252	1	0	0	100.47509313946064	14	0	0	168.8943907772615	-98.59357760615318	19.353314863421748	2000	2000	0	2020-05-31 04:23:22.267767
A1UOG38V6W8SF6	253	1	0	0	106.29312364002526	11	0	0	269.814969704384	-0.34326112797652464	-106.29256937788134	2000	2000	0	2020-05-31 04:23:28.296541
A1UOG38V6W8SF6	254	1	0	0	198.14500155935963	7	0	0	203.20430897951348	-182.11620232294447	-78.07131672020772	2000	2000	0	2020-05-31 04:23:33.213529
A1UOG38V6W8SF6	255	1	0	0	247.1631736666156	12	0	0	82.94833492351732	30.342813532254834	245.29359568464153	2000	2000	0	2020-05-31 04:23:40.318326
A1UOG38V6W8SF6	256	1	0	0	257.49491339165536	7	0	0	98.82226235899844	-39.49194396276876	254.44845604683402	2000	2000	0	2020-05-31 04:23:45.236147
A1UOG38V6W8SF6	257	1	0	0	151.04099570899044	7	0	0	78.21368552364201	30.85197154813457	147.85647850654487	2000	2000	0	2020-05-31 04:23:52.326245
A1UOG38V6W8SF6	258	1	0	0	282.0374363670749	9	0	0	33.607621957201445	234.89420667926774	156.10838280191516	2000	2000	0	2020-05-31 04:23:58.326611
A1UOG38V6W8SF6	259	1	0	0	297.8669438217222	11	0	0	232.4756197985862	-181.43044494482442	-236.23655489533377	2000	2000	0	2020-05-31 04:24:03.271775
A1UOG38V6W8SF6	260	1	0	0	193.02310409538126	1	0	0	55.404064228848775	109.59569170619665	158.89211142802745	2000	2000	0	2020-05-31 04:24:10.350884
A1UOG38V6W8SF6	261	1	0	0	188.11614710701062	3	0	0	210.60574956011527	-161.90986367048157	-95.7751577842215	2000	2000	0	2020-05-31 04:24:15.301801
A1UOG38V6W8SF6	262	1	0	0	214.6087912117356	1	0	0	141.54196886902588	-168.05240467868768	133.4740519616937	2000	2000	0	2020-05-31 04:24:22.394005
A1UOG38V6W8SF6	263	1	0	0	199.3087272605806	14	0	0	15.515807484941355	192.04525701494805	53.31592651633327	2000	2000	0	2020-05-31 04:24:28.403227
A1UOG38V6W8SF6	264	1	0	0	295.52613564134253	6	0	0	201.2390618859804	-275.45312691337307	-107.05732913140677	2000	2000	0	2020-05-31 04:24:33.411781
A1UOG38V6W8SF6	265	1	0	0	172.46585723963742	8	0	0	354.5054697295459	171.67343590661966	-16.513731177984756	2000	2000	0	2020-05-31 04:24:40.483045
A1UOG38V6W8SF6	266	1	0	0	204.42907842201038	7	0	0	354.3301113144381	203.42893556863447	-20.19693733923115	2000	2000	0	2020-05-31 04:24:45.426019
A1UOG38V6W8SF6	267	1	0	0	244.44876315564574	0	0	0	346.63574569007255	237.82915708168392	-56.502122527748476	2000	2000	0	2020-05-31 04:24:52.781170
A1UOG38V6W8SF6	268	1	0	0	255.3404321171536	11	0	0	259.75905708039613	-45.39646223228488	-251.27255618265886	2000	2000	0	2020-05-31 04:24:58.535365
A1UOG38V6W8SF6	269	1	0	0	204.25656076847054	2	0	0	87.0875334664436	10.378325341842686	203.99272776268953	2000	2000	0	2020-05-31 04:25:03.530252
A1UOG38V6W8SF6	270	1	0	0	138.66838925031692	11	0	0	230.86937435393082	-87.51230704002609	-107.56634368523274	2000	2000	0	2020-05-31 04:25:10.632360
A1UOG38V6W8SF6	271	1	0	0	245.98968218895845	0	0	0	226.47002509647479	-169.4214501182545	-178.3460007492531	2000	2000	0	2020-05-31 04:25:15.514223
A1UOG38V6W8SF6	272	1	0	0	292.9637345187823	14	0	0	256.7219799481736	-67.28685206377664	-285.1319506518675	2000	2000	0	2020-05-31 04:25:22.862139
A1UOG38V6W8SF6	273	1	0	0	113.40611083494933	10	0	0	56.72338136712458	62.223857058115726	94.81106257984874	2000	2000	0	2020-05-31 04:25:27.576555
A1UOG38V6W8SF6	274	1	0	0	290.452961976963	13	0	0	193.39197223751614	-282.5550635173996	-67.27227662172128	2000	2000	0	2020-05-31 04:25:34.729046
A1UOG38V6W8SF6	275	1	0	0	144.010016929229	5	0	0	185.9413255192294	-143.2364552552025	-14.906470470275522	2000	2000	0	2020-05-31 04:25:41.060194
A1UOG38V6W8SF6	276	1	0	0	219.55677229955734	6	0	0	358.89274130097766	219.5157749045134	-4.242738581468738	2000	2000	0	2020-05-31 04:25:45.758290
A1UOG38V6W8SF6	277	1	0	0	123.53322339168788	0	0	0	60.264783424029005	61.27154921502763	107.26721091895281	2000	2000	0	2020-05-31 04:25:52.894457
A1UOG38V6W8SF6	278	1	0	0	125.77037153343889	0	0	0	167.55833879058395	-122.81676512085093	27.096652208510765	2000	2000	0	2020-05-31 04:25:58.883698
A1UOG38V6W8SF6	279	1	0	0	145.2105467920469	8	0	0	73.70420804211285	40.74552995919818	139.37684415995838	2000	2000	0	2020-05-31 04:26:03.840758
A1UOG38V6W8SF6	280	1	0	0	249.22697187282557	4	0	0	318.8832832714174	187.76051337763224	-163.89043024248298	2000	2000	0	2020-05-31 04:26:10.944489
A1UOG38V6W8SF6	281	1	0	0	258.4394182915735	14	0	0	210.1141980061168	-223.55710535492068	-129.665545046538	2000	2000	0	2020-05-31 04:26:15.872711
A1UOG38V6W8SF6	282	1	0	0	115.30175685908057	10	0	0	293.7021644901296	46.349273233007544	-105.57575481881503	2000	2000	0	2020-05-31 04:26:22.957653
A1UOG38V6W8SF6	283	1	0	0	170.02988097634687	8	0	0	359.44090796313884	170.02178604522922	-1.6591247153202584	2000	2000	0	2020-05-31 04:32:52.233019
A1UOG38V6W8SF6	284	1	0	0	287.26406600011126	2	0	0	353.26543204883023	285.2819664845688	-33.68743406099131	2000	2000	0	2020-05-31 04:38:33.644269
A1UOG38V6W8SF6	285	1	0	0	273.42687878817617	9	0	0	182.1323764778985	-273.23753826112096	-10.1737765282342	2000	2000	0	2020-05-31 04:38:39.652530
A1UOG38V6W8SF6	286	1	0	0	274.7949083235262	8	0	0	129.35148484035417	-174.2408491847791	212.49086595875656	2000	2000	0	2020-05-31 04:38:44.594934
A1UOG38V6W8SF6	287	1	0	0	200.7286398009623	7	0	0	330.2899618985323	174.3417957914828	-99.48329043887405	2000	2000	0	2020-05-31 04:38:51.702938
A1UOG38V6W8SF6	288	1	0	0	282.3949180523788	4	0	0	146.45637268231675	-235.36636884421404	156.0434624035852	2000	2000	0	2020-05-31 04:38:57.716987
A1UOG38V6W8SF6	289	1	0	0	155.13311568303908	5	0	0	298.2242963423668	73.3662418802356	-136.68825163084773	2000	2000	0	2020-05-31 04:39:02.650387
A1UOG38V6W8SF6	290	1	0	0	186.40954509464854	10	0	0	345.64731185211514	180.59136503840097	-46.209061621729724	2000	2000	0	2020-05-31 04:39:09.763640
A1UOG38V6W8SF6	291	1	0	0	190.40028264521465	2	0	0	146.51707127980316	-158.80340042677904	105.04164718943483	2000	2000	0	2020-05-31 04:39:14.684366
A1UOG38V6W8SF6	292	1	0	0	274.94087020770553	5	0	0	163.79945603773984	-264.02325334095684	76.70856409702442	2000	2000	0	2020-05-31 04:39:21.789985
A1UOG38V6W8SF6	293	1	0	0	249.9843149933996	12	0	0	13.133399337323315	243.4456453355365	56.801192856166274	2000	2000	0	2020-05-31 04:39:27.839691
A1UOG38V6W8SF6	294	1	0	0	111.4295981116888	0	0	0	145.06169445264607	-91.34655026661099	63.8150694563752	2000	2000	0	2020-05-31 04:39:32.711933
A1UOG38V6W8SF6	295	1	0	0	295.2770492479075	8	0	0	85.3731810470762	23.818666923504853	294.3148092069754	2000	2000	0	2020-05-31 04:39:39.777825
A1UOG38V6W8SF6	296	1	0	0	262.1757931582166	3	0	0	245.8074761482961	-107.44069236148033	-239.1498361760378	2000	2000	0	2020-05-31 04:39:44.729013
A1UOG38V6W8SF6	297	1	0	0	151.881401321971	5	0	0	132.8762591579148	-103.34272952763556	111.30247221559625	2000	2000	0	2020-05-31 05:09:47.546969
A1UOG38V6W8SF6	298	1	0	0	243.70328359281035	7	0	0	65.71111186834239	100.24432244748807	222.13141662304724	2000	2000	0	2020-05-31 05:09:53.589884
A1UOG38V6W8SF6	299	1	0	0	128.74488094026347	14	0	0	70.85184462370334	42.22986387885092	121.62188522258786	2000	2000	0	2020-05-31 05:09:59.619884
A1UOG38V6W8SF6	300	1	0	0	136.62838755396413	14	0	0	10.545838579153415	134.32056989786747	25.00601503455354	2000	2000	0	2020-05-31 05:10:05.641563
A1UOG38V6W8SF6	301	1	0	0	297.7025176412369	5	0	0	211.62826705830844	-253.48426266186755	-156.11699969157846	2000	2000	0	2020-05-31 05:10:11.903848
A1UOG38V6W8SF6	302	1	0	0	149.2424755015	10	0	0	203.77407480205258	-136.57808294351744	-60.16430630606069	2000	2000	0	2020-05-31 05:10:16.599788
A1UOG38V6W8SF6	303	1	0	0	196.22842834661748	3	0	0	247.1876592099167	-76.0805353954993	-180.8793747924781	2000	2000	0	2020-05-31 05:10:23.720529
A1UOG38V6W8SF6	304	1	0	0	110.67281585543473	14	0	0	140.66292046532365	-85.59769245325576	70.15345476916164	2000	2000	0	2020-05-31 05:10:29.986264
A1UOG38V6W8SF6	305	1	0	0	282.02144849551587	6	0	0	46.495497856317094	194.14682854926687	204.55587592579803	2000	2000	0	2020-05-31 05:10:35.718572
A1UOG38V6W8SF6	306	1	0	0	246.8229781759046	8	0	0	229.45128843828397	-160.45820956925417	-187.5493149479688	2000	2000	0	2020-05-31 05:10:40.682559
A1UOG38V6W8SF6	307	1	0	0	264.17157217582906	9	0	0	58.21540942075594	139.14635304494436	224.55491974156558	2000	2000	0	2020-05-31 05:10:47.820159
A1UOG38V6W8SF6	308	1	0	0	204.33152955499014	2	0	0	107.51100027109707	-61.481088955467996	194.86264308771868	2000	2000	0	2020-05-31 05:10:53.782612
A1UOG38V6W8SF6	309	1	0	0	129.61010819039655	9	0	0	2.3217519855117974	129.50370960955712	5.250651625255824	2000	2000	0	2020-05-31 05:10:59.769842
A1UOG38V6W8SF6	310	1	0	0	253.40901609783572	10	0	0	107.3196972359594	-75.44064604005644	241.91907399941013	2000	2000	0	2020-05-31 05:11:05.799261
A1UOG38V6W8SF6	311	1	0	0	264.6298929857108	10	0	0	291.3310149724756	96.26058278579187	-246.50127882704473	2000	2000	0	2020-05-31 05:11:11.787591
A1UOG38V6W8SF6	312	1	0	0	236.18724840413572	4	0	0	45.20384153580046	166.4143782222601	167.60271784674455	2000	2000	0	2020-05-31 05:11:17.793341
A1UOG38V6W8SF6	313	1	0	0	159.6109526386236	14	0	0	136.89895358042034	-116.53990475600459	109.06010637107559	2000	2000	0	2020-05-31 05:11:23.795222
A1UOG38V6W8SF6	314	1	0	0	195.650606951317	1	0	0	311.9968497959474	130.90781494505856	-145.4039338763881	2000	2000	0	2020-05-31 05:11:30.087666
A1UOG38V6W8SF6	315	1	0	0	102.09054686050271	3	0	0	321.7677435739213	80.19300423011096	-63.1788083998575	2000	2000	0	2020-05-31 05:11:34.770081
A1UOG38V6W8SF6	316	1	0	0	279.3374793887773	1	0	0	343.0521735718856	267.20601838947755	-81.42709087102253	2000	2000	0	2020-05-31 05:11:41.844578
A1UOG38V6W8SF6	317	1	0	0	116.68156909863887	5	0	0	16.10253466772135	112.10378771358118	32.362468193708025	2000	2000	0	2020-05-31 05:11:47.868958
A1UOG38V6W8SF6	318	1	0	0	254.66872785106324	6	0	0	228.66385635662522	-168.20244345395503	-191.21741280907966	2000	2000	0	2020-05-31 05:11:53.902873
A1UOG38V6W8SF6	319	1	0	0	287.4247592825751	5	0	0	120.67077504259207	-146.61659562828223	247.2176493194186	2000	2000	0	2020-05-31 05:11:59.896526
A1UOG38V6W8SF6	320	1	0	0	207.42991955818502	10	0	0	292.6258499535974	79.80073883366966	-191.46543711468019	2000	2000	0	2020-05-31 05:12:05.922682
A1UOG38V6W8SF6	321	1	0	0	258.9070701182107	7	0	0	66.62342833034648	102.72722779573701	237.65518640795287	2000	2000	0	2020-05-31 05:12:11.979203
A1UOG38V6W8SF6	322	1	0	0	177.90988437414018	2	0	0	278.43366160249394	26.093012028461242	-175.9860269490237	2000	2000	0	2020-05-31 05:12:17.935231
A1UOG38V6W8SF6	323	1	0	0	257.8927319844174	2	0	0	352.6552995781259	255.77672438730883	-32.96859827298121	2000	2000	0	2020-05-31 05:12:24.202704
A1UOG38V6W8SF6	324	1	0	0	134.08931185445763	8	0	0	160.28944739343953	-126.23281035017533	45.22412127060801	2000	2000	0	2020-05-31 05:12:29.973353
A1UOG38V6W8SF6	325	1	0	0	263.30741353963344	11	0	0	53.65581957755153	156.04504395847007	212.08662918942036	2000	2000	0	2020-05-31 05:12:35.969912
A1UOG38V6W8SF6	326	1	0	0	268.74987107053744	6	0	0	300.63466323091166	136.9447381252746	-231.2415012497334	2000	2000	0	2020-05-31 05:12:42.007071
A1UOG38V6W8SF6	327	1	0	0	205.73088646752575	9	0	0	297.1527009748188	93.88807503351671	-183.05798811637447	2000	2000	0	2020-05-31 05:12:48.023425
A1UOG38V6W8SF6	328	1	0	0	266.08489025969175	3	0	0	53.81651878202922	157.0893324325219	214.7652450011799	2000	2000	0	2020-05-31 05:12:54.043752
A1UOG38V6W8SF6	329	1	0	0	131.45944977531272	14	0	0	183.65906166477183	-131.19146606355773	-8.389646436075097	2000	2000	0	2020-05-31 05:13:00.277836
A1UOG38V6W8SF6	330	1	0	0	173.68217693781105	9	0	0	92.86570397237014	-8.683261106211953	173.46498079560166	2000	2000	0	2020-05-31 05:13:06.076140
A1UOG38V6W8SF6	331	1	0	0	271.51612666004723	5	0	0	72.90933749480749	79.79439625256583	259.52622480813636	2000	2000	0	2020-05-31 05:13:12.089548
A1UOG38V6W8SF6	332	1	0	0	286.53743841508185	13	0	0	261.7349211819976	-41.19063602487689	-283.56134277673135	2000	2000	0	2020-05-31 05:13:18.353990
A1UOG38V6W8SF6	333	1	0	0	112.57413006311481	8	0	0	163.62843776160642	-108.00969844379777	31.730739063989034	2000	2000	0	2020-05-31 05:13:24.160757
A1UOG38V6W8SF6	334	1	0	0	244.68302719412765	2	0	0	117.24492836318439	-112.01472036383085	217.53732143863266	2000	2000	0	2020-05-31 05:13:30.135404
A1UOG38V6W8SF6	335	1	0	0	192.3361116655371	1	0	0	253.72988618896673	-53.886043757999026	-184.63335055923395	2000	2000	0	2020-05-31 05:13:36.163613
A1UOG38V6W8SF6	336	1	0	0	104.00796208859542	10	0	0	248.1978506333707	-38.62883441166555	-96.5684696462506	2000	2000	0	2020-05-31 05:13:42.178916
A1UOG38V6W8SF6	337	1	0	0	157.34971281830502	10	0	0	147.1279441083597	-132.1556131848973	85.40389937073634	2000	2000	0	2020-05-31 05:13:49.034207
A1UOG38V6W8SF6	338	1	0	0	255.89053098590924	6	0	0	249.25803227774273	-90.62617463959597	-239.30495255728417	2000	2000	0	2020-05-31 05:13:54.176061
A1UOG38V6W8SF6	339	1	0	0	260.8719544840678	10	0	0	105.08681041157868	-67.90033882053496	251.88036966860696	2000	2000	0	2020-05-31 05:14:00.195929
A1UOG38V6W8SF6	340	1	0	0	253.3157850223648	8	0	0	23.658768104248278	232.02500134125407	101.6527702233834	2000	2000	0	2020-05-31 05:14:06.216449
A1UOG38V6W8SF6	341	1	0	0	130.10269915395347	7	0	0	251.2435089168515	-41.83409899756467	-123.19342713069591	2000	2000	0	2020-05-31 05:14:12.237483
A1UOG38V6W8SF6	342	1	0	0	169.4706877852948	11	0	0	139.8896005031925	-129.611940630609	109.18360162766365	2000	2000	0	2020-05-31 05:14:18.244390
A1UOG38V6W8SF6	343	1	0	0	130.470650509332	14	0	0	254.72502900427253	-34.372710626182055	-125.86146117273947	2000	2000	0	2020-05-31 05:14:24.266051
A1UOG38V6W8SF6	344	1	0	0	191.43175852712375	2	0	0	355.32204210581995	190.79406783178246	-15.612234080624395	2000	2000	0	2020-05-31 05:14:30.299420
A1UOG38V6W8SF6	345	1	0	0	140.11650121136316	11	0	0	102.32222776117135	-29.90218023837075	136.8886172357144	2000	2000	0	2020-05-31 05:14:35.234901
A1UOG38V6W8SF6	346	1	0	0	144.49375333121884	3	0	0	198.7332563693325	-136.8390556925594	-46.4060081122234	2000	2000	0	2020-05-31 05:14:42.308396
A1UOG38V6W8SF6	347	1	0	0	221.62212456015158	10	0	0	199.14005618283244	-209.37083560747539	-72.66511743321452	2000	2000	0	2020-05-31 05:14:48.308904
A1UOG38V6W8SF6	348	1	0	0	122.00757835047509	2	0	0	232.8316891050019	-73.7119128732915	-97.2234697771459	2000	2000	0	2020-05-31 05:14:54.594835
A1UOG38V6W8SF6	349	1	0	0	273.3595903623859	3	0	0	185.47445797520342	-272.1127499163144	-26.079052438169487	2000	2000	0	2020-05-31 05:15:00.342149
A1UOG38V6W8SF6	350	1	0	0	171.83522240397258	3	0	0	280.12050561072294	30.194723603175184	-169.16152731975015	2000	2000	0	2020-05-31 05:15:06.640592
A1UOG38V6W8SF6	351	1	0	0	240.49242387270175	2	0	0	63.986636121922174	105.47535313575044	216.1285631772348	2000	2000	0	2020-05-31 05:15:12.361635
A1UOG38V6W8SF6	352	1	0	0	257.3240840104511	11	0	0	333.45568371329676	230.19928868562474	-114.9955290454811	2000	2000	0	2020-05-31 05:15:18.393174
A1UOG38V6W8SF6	353	1	0	0	134.01654674337013	9	0	0	84.80366798835216	12.137721170840098	133.46576536998862	2000	2000	0	2020-05-31 05:15:25.022621
A1UOG38V6W8SF6	354	1	0	0	166.67935074746293	11	0	0	198.95017646148256	-157.64555115204112	-54.12842291776991	2000	2000	0	2020-05-31 05:15:30.454303
A1UOG38V6W8SF6	355	1	0	0	162.85751157885153	11	0	0	289.57954105373267	54.57602142280135	-153.44063009292452	2000	2000	0	2020-05-31 05:15:36.701732
A1UOG38V6W8SF6	356	1	0	0	253.9326648780799	13	0	0	255.29559708118	-64.45630575414859	-245.61592566568427	2000	2000	0	2020-05-31 05:15:41.862699
A1UOG38V6W8SF6	357	1	0	0	101.54549249832026	1	0	0	212.9669032077087	-85.19514884721086	-55.25643545894	2000	2000	0	2020-05-31 05:15:48.498970
A1UOG38V6W8SF6	358	1	0	0	142.71309497813797	10	0	0	245.52028113735474	-59.13618433477017	-129.8843300039043	2000	2000	0	2020-05-31 05:15:54.497739
A1UOG38V6W8SF6	359	1	0	0	160.73326112712994	7	0	0	82.4785303672416	21.0396130832518	159.3502931088274	2000	2000	0	2020-05-31 05:16:00.543971
A1UOG38V6W8SF6	360	1	0	0	137.1437434649656	8	0	0	230.3465273594893	-87.51729406761773	-105.58943891633491	2000	2000	0	2020-05-31 05:16:05.461620
A1UOG38V6W8SF6	361	1	0	0	149.9384645145883	9	0	0	138.7837927160157	-112.7879945006731	98.79479458710662	2000	2000	0	2020-05-31 05:16:12.573687
A1UOG38V6W8SF6	362	1	0	0	146.72510000095372	13	0	0	344.73484752943415	141.54830521979792	-38.630716530926456	2000	2000	0	2020-05-31 05:16:18.559217
A1UOG38V6W8SF6	363	1	0	0	247.21277672780943	9	0	0	298.82321330245725	119.18342273347697	-216.58593842400543	2000	2000	0	2020-05-31 05:16:24.566163
A1UOG38V6W8SF6	364	1	0	0	184.2065308018343	5	0	0	106.70434652436911	-52.9470690263632	176.43314278095446	2000	2000	0	2020-05-31 05:16:30.635296
A1UOG38V6W8SF6	365	1	0	0	270.64707005724796	6	0	0	328.18682315236714	229.98816169894408	-142.67193840735894	2000	2000	0	2020-05-31 05:16:36.592259
A1UOG38V6W8SF6	366	1	0	0	266.48138541755225	4	0	0	76.86681965617474	60.54864925561434	259.5114445402719	2000	2000	0	2020-05-31 05:16:41.546470
A1UOG38V6W8SF6	367	1	0	0	146.2987347904637	9	0	0	182.0041507095172	-146.20924329162798	-5.116344142058205	2000	2000	0	2020-05-31 05:16:48.702546
A1UOG38V6W8SF6	368	1	0	0	267.459452552971	12	0	0	237.85780929372297	-142.29437379237646	-226.46604590306777	2000	2000	0	2020-05-31 05:16:54.693481
A1UOG38V6W8SF6	369	1	0	0	154.07148894021134	6	0	0	133.899925761569	-106.83330827174164	111.01652105866354	2000	2000	0	2020-05-31 05:17:00.645847
A1UOG38V6W8SF6	370	1	0	0	299.59179546141934	0	0	0	173.21339114048558	-297.49260197803824	35.40332860245541	2000	2000	0	2020-05-31 05:17:06.704214
A1UOG38V6W8SF6	371	1	0	0	276.46488921093896	6	0	0	21.05287815743352	258.01066209523367	99.31431524002926	2000	2000	0	2020-05-31 05:17:11.661203
A1UOG38V6W8SF6	372	1	0	0	258.60689502104464	8	0	0	204.93251829355904	-234.50600185445356	-109.0158761220797	2000	2000	0	2020-05-31 05:17:18.765646
A1UOG38V6W8SF6	373	1	0	0	263.65863296909464	12	0	0	24.553674577568945	239.81661235470546	109.56216125033635	2000	2000	0	2020-05-31 05:17:24.796586
A1UOG38V6W8SF6	374	1	0	0	281.34064204741173	3	0	0	247.32861539860767	-108.44141363660373	-259.6016499873313	2000	2000	0	2020-05-31 05:17:31.125368
A1UOG38V6W8SF6	375	1	0	0	176.24857955215901	14	0	0	165.25750146655633	-170.44634667533538	44.850916369513655	2000	2000	0	2020-05-31 05:17:36.875776
A1UOG38V6W8SF6	376	1	0	0	166.1659541588284	5	0	0	149.98918647295895	-143.88825459541346	83.11013482722393	2000	2000	0	2020-05-31 05:17:41.816704
A1UOG38V6W8SF6	377	1	0	0	282.79232897720374	6	0	0	314.5507732906829	198.39042565220714	-201.5260289339496	2000	2000	0	2020-05-31 05:17:50.573671
A1UOG38V6W8SF6	378	1	0	0	253.92497916634375	8	0	0	238.42572091093274	-132.9560079670663	-216.33445169479944	2000	2000	0	2020-05-31 05:17:55.672760
A1UOG38V6W8SF6	379	1	0	0	182.3404473071184	6	0	0	322.3781294452116	144.42397026895756	-111.30927875029685	2000	2000	0	2020-05-31 05:17:59.833086
A1UOG38V6W8SF6	380	1	0	0	190.7229307622091	1	0	0	255.67180364238925	-47.19932018983128	-184.7903149305834	2000	2000	0	2020-05-31 05:18:06.929809
A1UOG38V6W8SF6	381	1	0	0	236.51573457156337	14	0	0	38.469798207776975	185.17672773884573	147.13691652287548	2000	2000	0	2020-05-31 05:18:12.939911
A1UOG38V6W8SF6	382	1	0	0	107.82151876206822	5	0	0	157.54824446107665	-99.64880224027209	41.17761673820102	2000	2000	0	2020-05-31 05:18:18.944847
A1UOG38V6W8SF6	383	1	0	0	127.83135278578817	12	0	0	114.17651645393357	-52.35322227660352	116.61901591207662	2000	2000	0	2020-05-31 05:18:24.968335
A1UOG38V6W8SF6	384	1	0	0	155.0334579171134	8	0	0	129.41237300572496	-98.43033468973391	119.77830474090179	2000	2000	0	2020-05-31 05:18:31.219727
A1UOG38V6W8SF6	385	1	0	0	289.57480498821224	0	0	0	221.47486415145448	-216.96286346566947	-191.78290737377617	2000	2000	0	2020-05-31 05:18:35.905199
A1UOG38V6W8SF6	386	1	0	0	140.11677601403053	2	0	0	331.71239310891843	123.38401359183075	-66.40102492083182	2000	2000	0	2020-05-31 05:18:43.003089
A1UOG38V6W8SF6	387	1	0	0	232.8375543137763	9	0	0	214.89097576229773	-190.9831366147463	-133.18696718378223	2000	2000	0	2020-05-31 05:18:49.000180
A1UOG38V6W8SF6	388	1	0	0	230.00490267012714	13	0	0	6.064250906609088	228.71780740666563	24.298556076073222	2000	2000	0	2020-05-31 05:18:55.029387
A1UOG38V6W8SF6	389	1	0	0	245.54172387391583	13	0	0	192.3060105135165	-239.8999660668655	-52.333014857651	2000	2000	0	2020-05-31 05:18:59.961518
A1UOG38V6W8SF6	390	1	0	0	180.81152379521566	1	0	0	246.43329056961426	-72.29143615917795	-165.73097295071716	2000	2000	0	2020-05-31 05:19:07.072969
A1UOG38V6W8SF6	391	1	0	0	192.996680331626	9	0	0	60.69929117861471	94.45127075718382	168.30530612960777	2000	2000	0	2020-05-31 05:19:13.100224
A1UOG38V6W8SF6	392	1	0	0	281.22797045147763	12	0	0	190.42305078348153	-276.5873619562805	-50.87831139417501	2000	2000	0	2020-05-31 05:19:19.116236
A1UOG38V6W8SF6	393	1	0	0	213.51873661226878	14	0	0	268.4536663706708	-5.761875049242221	-213.44097938403564	2000	2000	0	2020-05-31 05:19:25.113791
A1UOG38V6W8SF6	394	1	0	0	165.47398948971977	11	0	0	285.11346939729526	43.14427650907974	-159.7504698026017	2000	2000	0	2020-05-31 05:19:31.137434
A1UOG38V6W8SF6	395	1	0	0	184.2300098584008	0	0	0	319.23074576617273	139.5257840094068	-120.30483003182711	2000	2000	0	2020-05-31 05:19:37.372333
A1UOG38V6W8SF6	396	1	0	0	223.08385071171108	9	0	0	116.48728315301334	-99.49521240918958	199.66749148525716	2000	2000	0	2020-05-31 05:19:43.194007
A1UOG38V6W8SF6	397	1	0	0	286.10436667452683	5	0	0	160.94875314972094	-270.43357240521226	93.38839085446823	2000	2000	0	2020-05-31 05:19:49.167460
A1UOG38V6W8SF6	398	1	0	0	112.7610584568608	14	0	0	28.326485446586965	99.25883600277147	53.504577184447456	2000	2000	0	2020-05-31 05:19:55.184665
A1UOG38V6W8SF6	399	1	0	0	129.07622067678517	2	0	0	36.89067768284363	103.2328817275222	77.48317800938186	2000	2000	0	2020-05-31 05:20:00.127248
A1UOG38V6W8SF6	400	1	0	0	180.81353521959687	2	0	0	310.146942717014	116.57954806226401	-138.2126748609066	2000	2000	0	2020-05-31 05:20:07.217899
A1UOG38V6W8SF6	401	1	0	0	257.95897581362124	10	0	0	165.81931339745182	-250.09844567558235	63.194941834534546	2000	2000	0	2020-05-31 05:20:13.246883
A1UOG38V6W8SF6	402	1	0	0	193.53184054164353	10	0	0	55.53747254978974	109.51330549347401	159.5663160674244	2000	2000	0	2020-05-31 05:20:19.514023
A1UOG38V6W8SF6	403	1	0	0	170.5431058962849	2	0	0	285.44285636393727	45.4117358913686	-164.38590332532786	2000	2000	0	2020-05-31 05:20:25.247180
A1UOG38V6W8SF6	404	1	0	0	294.6724618265642	13	0	0	13.238100577137653	286.84208298151765	67.47947235828153	2000	2000	0	2020-05-31 05:20:31.525631
A1UOG38V6W8SF6	405	1	0	0	144.59813371650526	7	0	0	321.3535583118105	112.93324252749994	-90.30339421373492	2000	2000	0	2020-05-31 05:20:36.228303
A1UOG38V6W8SF6	406	1	0	0	144.28265176088905	9	0	0	289.9499023715037	49.22900632173517	-135.62443930106602	2000	2000	0	2020-05-31 05:20:43.321258
A1UOG38V6W8SF6	407	1	0	0	237.66366317536566	14	0	0	132.48452110968506	-160.51589958433743	175.26740362818342	2000	2000	0	2020-05-31 05:38:48.405710
A1UOG38V6W8SF6	408	1	0	0	296.1791346007233	14	0	0	83.11123682505999	35.52435844482045	294.0409830787492	2000	2000	0	2020-05-31 05:38:56.964474
A1UOG38V6W8SF6	409	1	0	0	184.24523355841302	5	0	0	210.79629201484798	-158.26537194947156	-94.3312150387643	2000	2000	0	2020-05-31 05:39:24.105380
A1UOG38V6W8SF6	410	1	0	0	259.5183253542337	12	0	0	82.98558063148035	31.69215188391499	257.5759474478018	2000	2000	0	2020-05-31 05:39:29.018963
A1UOG38V6W8SF6	411	1	0	0	297.1008342129609	13	0	0	3.243287772628989	296.624969379308	16.80872484044649	2000	2000	0	2020-05-31 05:39:36.113407
A1UOG38V6W8SF6	412	1	0	0	212.77375198449704	6	0	0	295.2883464095718	90.89140835004478	-192.38352689797966	2000	2000	0	2020-05-31 05:39:41.058225
A1UOG38V6W8SF6	413	1	0	0	188.60731188557963	9	0	0	39.97443268588785	144.53566772258358	121.16995854043702	2000	2000	0	2020-05-31 05:39:48.403497
A1UOG38V6W8SF6	414	1	0	0	260.4523636930169	3	0	0	138.4561266535112	-194.935079437505	172.73027690006504	2000	2000	0	2020-05-31 05:39:54.186610
A1UOG38V6W8SF6	415	1	0	0	147.7969206477262	7	0	0	2.6498193315132035	147.63888857248205	6.832886215393077	2000	2000	0	2020-05-31 05:40:00.419079
A1UOG38V6W8SF6	416	1	0	0	179.42414290910529	5	0	0	172.44095492214882	-177.8649154664775	23.602857978851713	2000	2000	0	2020-05-31 05:40:05.171908
A1UOG38V6W8SF6	417	1	0	0	243.88142905032893	4	0	0	164.1347347711097	-234.59130664271163	66.67136029282636	2000	2000	0	2020-05-31 05:40:12.295722
A1UOG38V6W8SF6	418	1	0	0	250.34279567736002	4	0	0	66.44131048161643	100.05906825518767	229.47701019374495	2000	2000	0	2020-05-31 05:40:18.550699
A1UOG38V6W8SF6	419	1	0	0	225.75985914711424	3	0	0	326.5991180801855	188.4732230838334	-124.27935541559762	2000	2000	0	2020-05-31 05:40:24.316975
A1UOG38V6W8SF6	420	1	0	0	141.65108681787615	13	0	0	94.15169906790669	-10.255173909955971	141.27937501547083	2000	2000	0	2020-05-31 05:40:30.326164
A1UOG38V6W8SF6	421	1	0	0	242.6140593153656	11	0	0	92.82937397946378	-11.975872483435229	242.3183035920734	2000	2000	0	2020-05-31 05:40:36.335432
A1UOG38V6W8SF6	422	1	0	0	229.08678064489206	13	0	0	133.06611080265134	-156.4300248886055	167.36307949960516	2000	2000	0	2020-05-31 05:40:42.343974
A1UOG38V6W8SF6	423	1	0	0	172.44377947695577	4	0	0	240.2346741928722	-85.60949303641704	-149.69259094004823	2000	2000	0	2020-05-31 05:40:51.412238
A1UOG38V6W8SF6	424	1	0	0	203.84507364247693	3	0	0	309.3547176317129	129.26215722792486	-157.62014070888935	2000	2000	0	2020-05-31 05:40:54.363578
A1UOG38V6W8SF6	425	1	0	0	221.1639383773127	9	0	0	109.85132867164478	-75.10299976887718	208.02169854195452	2000	2000	0	2020-05-31 05:41:00.400569
A1UOG38V6W8SF6	426	1	0	0	277.16558187934254	10	0	0	2.5592286546620624	276.88913607027945	12.376029442789914	2000	2000	0	2020-05-31 05:41:06.444602
A1UOG38V6W8SF6	427	1	0	0	222.9908529530381	7	0	0	144.7320012670402	-182.0631591039239	128.75529735829414	2000	2000	0	2020-05-31 05:41:12.412287
A1UOG38V6W8SF6	428	1	0	0	124.00318550167052	13	0	0	6.303317794994205	123.25353657766098	13.614541331271319	2000	2000	0	2020-05-31 05:41:18.683796
A1UOG38V6W8SF6	429	1	0	0	253.80022470040896	3	0	0	319.15120603307867	191.98421512597932	-166.0018530030306	2000	2000	0	2020-05-31 05:41:24.498306
A1UOG38V6W8SF6	430	1	0	0	128.8000420400691	8	0	0	237.31245962235266	-69.55940443351795	-108.40175314254769	2000	2000	0	2020-05-31 05:41:30.506669
A1UOG38V6W8SF6	431	1	0	0	282.31217025791307	13	0	0	170.9983977627662	-278.8352038648953	44.17115078142286	2000	2000	0	2020-05-31 05:41:36.778706
A1UOG38V6W8SF6	432	1	0	0	245.97212254627524	4	0	0	9.234134203790143	242.78453045560144	39.47096200212222	2000	2000	0	2020-05-31 05:41:41.463916
A1UOG38V6W8SF6	433	1	0	0	116.14758160317874	10	0	0	180.0780280821173	-116.14747389796955	-0.1581751799300458	2000	2000	0	2020-05-31 05:41:48.576088
A1UOG38V6W8SF6	434	1	0	0	169.65925961640949	11	0	0	286.8914072027805	49.29597298489343	-162.33967913317093	2000	2000	0	2020-05-31 05:41:54.576558
A1UOG38V6W8SF6	435	1	0	0	203.59148929070471	10	0	0	93.80407850096275	-13.50726249556681	203.14292596958177	2000	2000	0	2020-05-31 05:42:00.602670
A1UOG38V6W8SF6	436	1	0	0	282.07738863494353	9	0	0	23.72456314931073	258.2390824096622	113.49109874930572	2000	2000	0	2020-05-31 05:42:06.601660
A1UOG38V6W8SF6	437	1	0	0	277.23050267779223	13	0	0	233.3244028279068	-165.5852350984089	-222.3472094099362	2000	2000	0	2020-05-31 05:42:12.624949
A1UOG38V6W8SF6	438	1	0	0	285.6157967272893	7	0	0	253.97853659259746	-78.82922642150243	-274.5220144213425	2000	2000	0	2020-05-31 05:42:18.636786
A1UOG38V6W8SF6	439	1	0	0	145.09398350838057	4	0	0	20.080668227671012	136.27374208427136	49.816977715229804	2000	2000	0	2020-05-31 05:42:24.650723
A1UOG38V6W8SF6	440	1	0	0	265.27961192943957	7	0	0	239.36209128846303	-135.18935489149794	-228.24791527953695	2000	2000	0	2020-05-31 05:42:30.917596
A1UOG38V6W8SF6	441	1	0	0	201.97272624704033	0	0	0	180.74235104440282	-201.95577389199687	-2.6167803397545213	2000	2000	0	2020-05-31 05:42:35.627310
A1UOG38V6W8SF6	442	1	0	0	281.5857145158265	8	0	0	129.77665541749082	-180.15758755853417	216.4110862790482	2000	2000	0	2020-05-31 05:42:42.730485
A1UOG38V6W8SF6	443	1	0	0	189.57636426848956	2	0	0	39.910380943306485	145.41434553181912	121.63003742008699	2000	2000	0	2020-05-31 05:42:49.025174
A1UOG38V6W8SF6	444	1	0	0	153.28693686187904	4	0	0	24.60645990939142	139.36682274208096	63.82612107339035	2000	2000	0	2020-05-31 05:42:54.747005
A1UOG38V6W8SF6	445	1	0	0	293.64238421921505	9	0	0	203.67308120174476	-268.9327699069521	-117.90256604552545	2000	2000	0	2020-05-31 05:43:00.828687
A1UOG38V6W8SF6	446	1	0	0	218.36845579103192	13	0	0	299.5471564366769	107.68616056827207	-189.96966417463653	2000	2000	0	2020-05-31 05:43:06.881903
A1UOG38V6W8SF6	447	1	0	0	187.65793235560912	8	0	0	157.20017513956154	-172.9951552299902	72.7198449044961	2000	2000	0	2020-05-31 05:43:11.812565
A1UOG38V6W8SF6	448	1	0	0	235.57722921747848	13	0	0	188.53984976124136	-232.96534238058652	-34.98256959230535	2000	2000	0	2020-05-31 05:43:18.917961
A1UOG38V6W8SF6	449	1	0	0	222.43812248853783	0	0	0	355.3798807293354	221.71534436528415	-17.91715404882199	2000	2000	0	2020-05-31 05:43:24.898391
A1UOG38V6W8SF6	450	1	0	0	165.34194523452155	7	0	0	234.61623580670386	-95.74128111983893	-134.80195081476936	2000	2000	0	2020-05-31 05:43:30.912678
A1UOG38V6W8SF6	451	1	0	0	212.21552623714285	6	0	0	203.88335333817162	-194.04385580918802	-85.92096134710388	2000	2000	0	2020-05-31 05:43:36.947898
A1UOG38V6W8SF6	452	1	0	0	287.11075633852636	8	0	0	172.289361626352	-284.51478838968234	38.5217028810374	2000	2000	0	2020-05-31 05:43:41.856752
A1UOG38V6W8SF6	453	1	0	0	213.13741856790273	10	0	0	292.3256752978925	80.96466571448111	-197.16054904450763	2000	2000	0	2020-05-31 05:43:48.995020
A1UOG38V6W8SF6	454	1	0	0	201.6655945599843	4	0	0	187.12087125266774	-200.1101170713851	-24.999061480553912	2000	2000	0	2020-05-31 05:43:54.950846
A1UOG38V6W8SF6	455	1	0	0	269.9826839670085	13	0	0	77.78106558277047	57.14123826768126	263.86649755371684	2000	2000	0	2020-05-31 05:44:00.970350
A1UOG38V6W8SF6	456	1	0	0	153.02688932071476	7	0	0	335.2532599735171	138.9739699151636	-64.05829018318776	2000	2000	0	2020-05-31 05:44:07.230251
A1UOG38V6W8SF6	457	1	0	0	206.9196476345282	6	0	0	186.8706775860851	-205.4336944661029	-24.75354025599549	2000	2000	0	2020-05-31 05:44:11.916549
A1UOG38V6W8SF6	458	1	0	0	233.17542006189132	12	0	0	211.53174524144544	-198.74719484821708	-121.94395869006509	2000	2000	0	2020-05-31 05:44:19.002509
A1UOG38V6W8SF6	459	1	0	0	123.84066491763801	7	0	0	82.23847471661081	16.72471205436526	122.70612981404501	2000	2000	0	2020-05-31 05:44:25.004055
A1UOG38V6W8SF6	460	1	0	0	194.22380263809558	14	0	0	256.37185510650886	-45.76292156354251	-188.75550461157673	2000	2000	0	2020-05-31 05:44:31.031467
A1UOG38V6W8SF6	461	1	0	0	113.51476569172965	14	0	0	5.744858868010692	112.94463824511455	11.362689898456747	2000	2000	0	2020-05-31 05:44:37.313196
A1UOG38V6W8SF6	462	1	0	0	242.4160358328008	12	0	0	66.7875341613225	95.5463112509833	222.79236260522933	2000	2000	0	2020-05-31 05:44:43.070886
A1UOG38V6W8SF6	463	1	0	0	278.09136410851835	14	0	0	184.4681996389972	-277.2461684304711	-21.664922856068145	2000	2000	0	2020-05-31 05:44:49.337667
A1UOG38V6W8SF6	464	1	0	0	227.31168574550588	0	0	0	296.3281535045734	100.81537968768492	-203.73232854628532	2000	2000	0	2020-05-31 05:44:55.075575
A1UOG38V6W8SF6	465	1	0	0	158.33078306175895	11	0	0	189.59432776509453	-156.11613791635526	-26.389171018266598	2000	2000	0	2020-05-31 05:45:01.134975
A1UOG38V6W8SF6	466	1	0	0	102.04220742143151	13	0	0	312.8324846940213	69.37412881643559	-74.8320943606355	2000	2000	0	2020-05-31 05:45:07.148195
A1UOG38V6W8SF6	467	1	0	0	146.70254001134637	5	0	0	98.94064365954117	-22.799213698586414	144.92008522115515	2000	2000	0	2020-05-31 05:45:13.388106
A1UOG38V6W8SF6	468	1	0	0	219.64212422276535	10	0	0	84.49160579428877	21.083795314439676	218.62784888533184	2000	2000	0	2020-05-31 05:45:19.151335
A1UOG38V6W8SF6	469	1	0	0	142.10726037057873	7	0	0	330.91705823815647	124.18994742903564	-69.0748174634202	2000	2000	0	2020-05-31 05:45:25.197650
A1UOG38V6W8SF6	470	1	0	0	277.50370563223623	4	0	0	239.64305894982678	-140.24632810578998	-239.4562049571193	2000	2000	0	2020-05-31 05:45:31.204481
A1UOG38V6W8SF6	471	1	0	0	159.1240393930306	1	0	0	317.722451625648	117.73504315394318	-107.04634289079611	2000	2000	0	2020-05-31 05:45:37.212204
A1UOG38V6W8SF6	472	1	0	0	152.14410914707392	12	0	0	27.51377935524968	134.9365737724284	70.28478503001006	2000	2000	0	2020-05-31 05:45:43.236267
A1UOG38V6W8SF6	473	1	0	0	253.30013244649354	3	0	0	306.1858904408542	149.55015333050184	-204.43998810466252	2000	2000	0	2020-05-31 05:45:49.236386
A1UOG38V6W8SF6	474	1	0	0	257.984422383451	13	0	0	163.94641572419326	-247.9239311704577	71.34203911796325	2000	2000	0	2020-05-31 05:45:55.308049
A1UOG38V6W8SF6	475	1	0	0	110.52664715475248	13	0	0	73.29150443306352	31.776691618898102	105.860198379885	2000	2000	0	2020-05-31 05:46:00.213137
A1UOG38V6W8SF6	476	1	0	0	161.47302923982204	11	0	0	10.255288407870742	158.89337960006316	28.747749323288975	2000	2000	0	2020-05-31 05:46:07.313723
A1UOG38V6W8SF6	477	1	0	0	249.13388169988968	13	0	0	41.90306901538446	185.42431240702575	166.38964925510345	2000	2000	0	2020-05-31 05:46:13.327183
A1UOG38V6W8SF6	478	1	0	0	149.27644112036512	9	0	0	216.35428441388774	-120.22232293067724	-88.48756377431687	2000	2000	0	2020-05-31 05:46:19.380295
A1UOG38V6W8SF6	479	1	0	0	151.88549196955483	8	0	0	119.85167997268788	-75.60198644408825	131.73284448664123	2000	2000	0	2020-05-31 05:46:25.353447
A1UOG38V6W8SF6	480	1	0	0	121.66595337747185	11	0	0	138.60033005023627	-91.26344190598734	80.45861285606178	2000	2000	0	2020-05-31 05:46:31.383761
A1UOG38V6W8SF6	481	1	0	0	196.09246053472475	14	0	0	176.9647675408389	-195.81737485376388	10.383100882833938	2000	2000	0	2020-05-31 05:46:37.650003
A1UOG38V6W8SF6	482	1	0	0	299.59780966936523	6	0	0	193.289728520622	-291.5746098116663	-68.8701275725241	2000	2000	0	2020-05-31 05:46:43.391414
A1UOG38V6W8SF6	483	1	0	0	276.20214519288754	14	0	0	154.20536679244722	-248.68123494711648	120.18847030530831	2000	2000	0	2020-05-31 05:46:49.437393
A1UOG38V6W8SF6	484	1	0	0	201.82881866170453	12	0	0	346.17287680782624	195.98007218313884	-48.235706167432674	2000	2000	0	2020-05-31 05:46:55.408037
A1UOG38V6W8SF6	485	1	0	0	150.8155440735472	12	0	0	217.7943006378069	-119.17685234795616	-92.42405638486937	2000	2000	0	2020-05-31 05:47:01.443086
A1UOG38V6W8SF6	486	1	0	0	129.35779522107788	8	0	0	214.50922332741976	-106.59535069744263	-73.28622240331083	2000	2000	0	2020-05-31 05:47:06.371554
A1UOG38V6W8SF6	487	1	0	0	265.86358328964076	9	0	0	193.8089980211525	-258.1792769430337	-63.45790633782418	2000	2000	0	2020-05-31 05:47:13.482064
A1UOG38V6W8SF6	488	1	0	0	241.09481767532247	9	0	0	223.9323738668551	-173.62665185316004	-167.27371842629236	2000	2000	0	2020-05-31 05:47:25.844467
A1UOG38V6W8SF6	489	1	0	0	273.2815498179459	10	0	0	247.11452518932447	-106.27657278874905	-251.76992581953903	2000	2000	0	2020-05-31 05:47:31.007589
A1UOG38V6W8SF6	490	1	0	0	295.50233645233624	0	0	0	117.24217462647125	-135.2669303678941	262.7251194645023	2000	2000	0	2020-05-31 05:47:37.050403
A1UOG38V6W8SF6	491	1	0	0	257.9515243817567	3	0	0	260.74735848183394	-41.47552753016373	-254.59530542994437	2000	2000	0	2020-05-31 05:47:41.959300
A1UOG38V6W8SF6	492	1	0	0	136.53675382400996	1	0	0	100.94853987729456	-25.93205311044384	134.05153399448818	2000	2000	0	2020-05-31 05:47:49.095074
A1UOG38V6W8SF6	493	1	0	0	237.28115240189533	3	0	0	278.20882019359004	33.87931130393002	-234.85003204330818	2000	2000	0	2020-05-31 05:47:55.078147
A1UOG38V6W8SF6	494	1	0	0	159.1580015620651	13	0	0	263.0639824629793	-19.22006140242955	-157.99322359176406	2000	2000	0	2020-05-31 05:48:01.317052
A1UOG38V6W8SF6	495	1	0	0	192.80250478757463	13	0	0	299.88033509299896	96.05231386533028	-167.17284125562628	2000	2000	0	2020-05-31 05:48:07.106255
A1UOG38V6W8SF6	496	1	0	0	142.0129886877238	8	0	0	82.55425625879911	18.403077606637662	140.81553781676098	2000	2000	0	2020-05-31 05:48:13.139439
A1UOG38V6W8SF6	497	1	0	0	111.69463041063752	6	0	0	295.08370531008677	47.35202997807084	-101.16064313518767	2000	2000	0	2020-05-31 05:48:19.164446
A1UOG38V6W8SF6	498	1	0	0	193.9237918622131	14	0	0	330.9917756242778	169.59607299577806	-94.04046509152145	2000	2000	0	2020-05-31 05:48:25.154991
A1UOG38V6W8SF6	499	1	0	0	264.04681230057486	3	0	0	144.5358563805784	-215.06052283415457	153.19820692291114	2000	2000	0	2020-05-31 05:48:31.172207
A1UOG38V6W8SF6	500	1	0	0	273.2468529284129	1	0	0	319.33050884083076	207.25267137034925	-178.07350405137686	2000	2000	0	2020-05-31 05:48:36.107074
A1UOG38V6W8SF6	501	1	0	0	285.4559620493467	12	0	0	25.792857631818585	257.01684644925626	124.20727398505088	2000	2000	0	2020-05-31 05:48:43.214577
A1UOG38V6W8SF6	502	1	0	0	137.15231093656075	13	0	0	253.56842197476044	-38.79629212447671	-131.55076629435234	2000	2000	0	2020-05-31 05:48:49.253234
A1UOG38V6W8SF6	503	1	0	0	252.04472171269902	10	0	0	297.7478062879918	117.34714184098294	-223.06095589543258	2000	2000	0	2020-05-31 05:48:55.242620
A1UOG38V6W8SF6	504	1	0	0	221.48386118544323	3	0	0	59.44635814832683	112.59017373134623	190.73162701753992	2000	2000	0	2020-05-31 05:49:01.255485
A1UOG38V6W8SF6	505	1	0	0	162.3860103434904	8	0	0	291.41630308765116	59.29390299067868	-151.1735738262748	2000	2000	0	2020-05-31 05:49:07.238062
A1UOG38V6W8SF6	506	1	0	0	288.93981319629023	1	0	0	322.51997230513405	229.29266607439274	-175.81549685509557	2000	2000	0	2020-05-31 05:49:13.527104
A1UOG38V6W8SF6	507	1	0	0	114.3634936737492	5	0	0	134.02411259524072	-79.47817237594094	82.23277206227388	2000	2000	0	2020-05-31 05:49:19.260952
A1UOG38V6W8SF6	508	1	0	0	276.4135089485892	5	0	0	114.7702569293203	-115.81194909841531	250.98211166395475	2000	2000	0	2020-05-31 05:49:25.304426
A1UOG38V6W8SF6	509	1	0	0	254.4890161062321	6	0	0	236.2181160863866	-141.50425103040814	-211.5211721295088	2000	2000	0	2020-05-31 05:49:31.309155
A1UOG38V6W8SF6	510	1	0	0	127.65656999239056	1	0	0	178.7764526567392	-127.62746329283972	2.7258898834987333	2000	2000	0	2020-05-31 05:49:37.317927
A1UOG38V6W8SF6	511	1	0	0	176.04917212869287	6	0	0	52.16137699671887	107.99552611238035	139.03336774640937	2000	2000	0	2020-05-31 05:49:43.342315
A1UOG38V6W8SF6	512	1	0	0	235.85316703553184	5	0	0	351.6311824666677	233.34172944519722	-34.32715689093505	2000	2000	0	2020-05-31 05:49:49.344366
A1UOG38V6W8SF6	513	1	0	0	191.6307597487932	0	0	0	309.51266052698185	121.9248234942	-147.84006729506	2000	2000	0	2020-05-31 05:49:55.435494
A1UOG38V6W8SF6	514	1	0	0	280.812416553184	4	0	0	359.54631108222947	280.80361305824266	-2.2235520852161352	2000	2000	0	2020-05-31 05:50:23.279494
A1UOG38V6W8SF6	515	1	0	0	177.8404225335948	6	0	0	254.38854574344217	-47.859056770649374	-171.2796735516252	2000	2000	0	2020-05-31 05:50:29.077607
A1UOG38V6W8SF6	516	1	0	0	279.30268203524065	11	0	0	324.0031138541175	225.96953815527192	-164.15771690046085	2000	2000	0	2020-05-31 05:50:35.315579
A1UOG38V6W8SF6	517	1	0	0	216.8234226568515	0	0	0	114.94350491298768	-91.43973087271229	196.59901380871068	2000	2000	0	2020-05-31 05:50:41.077644
A1UOG38V6W8SF6	518	1	0	0	258.70165938711193	8	0	0	238.58858387177537	-134.83005081307144	-220.7881472529489	2000	2000	0	2020-05-31 05:50:47.131754
A1UOG38V6W8SF6	519	1	0	0	278.6619790993786	11	0	0	234.86776239294227	-160.36035371022658	-227.8970283999191	2000	2000	0	2020-05-31 05:50:53.095415
A1UOG38V6W8SF6	520	1	0	0	112.7072551725894	5	0	0	44.642915126663624	80.19120376802667	79.19782955847973	2000	2000	0	2020-05-31 05:50:59.101693
A1UOG38V6W8SF6	521	1	0	0	233.456876183696	10	0	0	351.4043567541559	230.83462990879823	-34.89250166321878	2000	2000	0	2020-05-31 05:51:05.140321
A1UOG38V6W8SF6	522	1	0	0	250.11185846194985	8	0	0	257.4548098620514	-54.32668860294455	-244.14043632452436	2000	2000	0	2020-05-31 05:51:11.119368
A1UOG38V6W8SF6	523	1	0	0	108.2794734734017	14	0	0	126.93026910570585	-65.05892159954631	86.55507550676153	2000	2000	0	2020-05-31 05:51:17.148890
A1UOG38V6W8SF6	524	1	0	0	197.21750184637227	10	0	0	45.873710024927455	137.31115390182	141.5640846001363	2000	2000	0	2020-05-31 05:51:23.177858
A1UOG38V6W8SF6	525	1	0	0	273.24165413632335	5	0	0	353.62400207774715	271.5515255355528	-30.344201002303084	2000	2000	0	2020-05-31 05:51:29.201989
A1UOG38V6W8SF6	526	1	0	0	124.65659037796289	11	0	0	265.4123974000642	-9.970438481288143	-124.257216615978	2000	2000	0	2020-05-31 05:51:35.215104
A1UOG38V6W8SF6	527	1	0	0	294.03077929373427	14	0	0	121.91632771101982	-155.44826493164075	249.5795185944213	2000	2000	0	2020-05-31 05:51:41.215089
A1UOG38V6W8SF6	528	1	0	0	166.18255071553295	5	0	0	158.03504603427461	-154.1198273671006	62.15882057001872	2000	2000	0	2020-05-31 05:51:47.276095
A1UOG38V6W8SF6	529	1	0	0	189.8226425639702	10	0	0	296.21466945018557	83.85141199002445	-170.29849188189536	2000	2000	0	2020-05-31 05:51:53.296623
A1UOG38V6W8SF6	530	1	0	0	282.0639327256339	13	0	0	69.99751000316783	96.48306546766167	265.0492033993195	2000	2000	0	2020-05-31 05:51:59.361185
A1UOG38V6W8SF6	531	1	0	0	158.67194322463575	12	0	0	53.810165930632756	93.68982913368794	128.05858613768305	2000	2000	0	2020-05-31 05:52:05.342603
A1UOG38V6W8SF6	532	1	0	0	296.32584746575003	0	0	0	315.5797906002152	211.64358014806	-207.40299626188303	2000	2000	0	2020-05-31 05:52:11.352419
A1UOG38V6W8SF6	533	1	0	0	188.24602229468866	13	0	0	225.30290475194568	-132.40447115123482	-133.81188635145327	2000	2000	0	2020-05-31 05:52:16.303752
A1UOG38V6W8SF6	534	1	0	0	296.6347493806098	7	0	0	165.3979234283602	-287.0534570889507	74.78293464005752	2000	2000	0	2020-05-31 05:52:23.393948
A1UOG38V6W8SF6	535	1	0	0	291.5932092675015	2	0	0	213.30566557661243	-243.69991933421696	-160.11542401473088	2000	2000	0	2020-05-31 05:52:31.189581
A1UOG38V6W8SF6	536	1	0	0	126.51638620700072	6	0	0	208.94373287143003	-110.71390645318256	-61.22766447248255	2000	2000	0	2020-05-31 05:52:34.350294
A1UOG38V6W8SF6	537	1	0	0	186.8650563330256	6	0	0	252.52202588633656	-56.12289132091643	-178.23795989666576	2000	2000	0	2020-05-31 05:52:41.450385
A1UOG38V6W8SF6	538	1	0	0	112.22579086645896	6	0	0	294.0043852140658	45.654188081297264	-102.51986756838754	2000	2000	0	2020-05-31 05:52:47.450276
A1UOG38V6W8SF6	539	1	0	0	284.94369167750745	8	0	0	134.634367768741	-200.1957450962845	202.7672830417913	2000	2000	0	2020-05-31 05:52:53.443568
A1UOG38V6W8SF6	540	1	0	0	273.89969005259985	2	0	0	238.13549923613823	-144.59499581010243	-232.62271470685474	2000	2000	0	2020-05-31 05:52:59.452693
A1UOG38V6W8SF6	541	1	0	0	158.15538690514282	5	0	0	311.5695962853323	104.94073378644228	-118.32399925407556	2000	2000	0	2020-05-31 05:53:05.454053
A1UOG38V6W8SF6	542	1	0	0	207.4116974372445	4	0	0	269.5521564860218	-1.6211846383326294	-207.4053615366958	2000	2000	0	2020-05-31 05:53:11.497143
A1UOG38V6W8SF6	543	1	0	0	140.04364538278958	10	0	0	55.58569737539635	79.14888119281015	115.53214798499569	2000	2000	0	2020-05-31 05:53:17.502247
A1UOG38V6W8SF6	544	1	0	0	214.0704320720402	0	0	0	95.20523794399408	-19.42124516232914	213.18762891841234	2000	2000	0	2020-05-31 05:53:23.525516
A1UOG38V6W8SF6	545	1	0	0	272.7774163152577	8	0	0	130.98003587612035	-178.88634352749034	205.93007296408203	2000	2000	0	2020-05-31 05:53:29.548781
A1UOG38V6W8SF6	546	1	0	0	297.5714016802215	8	0	0	91.24266372555275	-6.453393251041413	297.5014164898701	2000	2000	0	2020-05-31 05:53:35.562362
A1UOG38V6W8SF6	547	1	0	0	245.78291436793674	5	0	0	195.28942051068506	-237.0837047083602	-64.81171157248964	2000	2000	0	2020-05-31 05:53:40.479662
A1UOG38V6W8SF6	548	1	0	0	182.54410640646057	2	0	0	9.2517029766063	180.16949754347704	29.347963109289548	2000	2000	0	2020-05-31 05:53:47.588531
A1UOG38V6W8SF6	549	1	0	0	160.93034153152286	8	0	0	303.36839971969965	88.51494082887834	-134.40119075184103	2000	2000	0	2020-05-31 05:53:53.815127
A1UOG38V6W8SF6	550	1	0	0	166.0525292081071	5	0	0	286.4225334659221	46.94615801914724	-159.27806096148498	2000	2000	0	2020-05-31 05:53:59.619909
A1UOG38V6W8SF6	551	1	0	0	282.4936674671461	1	0	0	245.36403163729798	-117.75790846919091	-256.7795691872704	2000	2000	0	2020-05-31 05:54:04.536700
A1UOG38V6W8SF6	552	1	0	0	213.85621292635344	8	0	0	50.42081898155235	136.25719740199239	164.82856537431945	2000	2000	0	2020-05-31 05:54:11.626432
A1UOG38V6W8SF6	553	1	0	0	255.97838195683752	6	0	0	71.40553544325006	81.62324872773642	242.6161109579714	2000	2000	0	2020-05-31 05:54:17.631634
A1UOG38V6W8SF6	554	1	0	0	114.11684414180523	7	0	0	3.6487664355302396	113.88552059548168	7.262390486691332	2000	2000	0	2020-05-31 05:54:23.616026
A1UOG38V6W8SF6	555	1	0	0	119.60475144281432	8	0	0	348.96405618032	117.39293528764858	-22.895312014631877	2000	2000	0	2020-05-31 05:54:29.671696
A1UOG38V6W8SF6	556	1	0	0	110.82274450966212	3	0	0	210.5607307413621	-95.42843581250278	-56.34797546525414	2000	2000	0	2020-05-31 05:54:35.645685
A1UOG38V6W8SF6	557	1	0	0	268.9818617659405	10	0	0	150.84370173862172	-234.9002279707356	131.046269913981	2000	2000	0	2020-05-31 05:54:41.687819
A1UOG38V6W8SF6	558	1	0	0	146.57812647838637	6	0	0	76.37628355634804	34.52565931573664	142.45394347201315	2000	2000	0	2020-05-31 05:54:47.968732
A1UOG38V6W8SF6	559	1	0	0	223.35124565786487	8	0	0	235.764226952031	-125.65733535851923	-184.6510574232288	2000	2000	0	2020-05-31 05:54:53.736733
A1UOG38V6W8SF6	560	1	0	0	110.75996614997754	1	0	0	340.18769790578915	104.2038640228448	-37.54097527039811	2000	2000	0	2020-05-31 05:54:59.758635
A1UOG38V6W8SF6	561	1	0	0	272.2302655126744	11	0	0	72.34090061679751	82.58184751035476	259.4023051610716	2000	2000	0	2020-05-31 05:55:05.758762
A1UOG38V6W8SF6	562	1	0	0	156.09167749367714	0	0	0	18.47910170020869	148.04348557360038	49.47462139328904	2000	2000	0	2020-05-31 05:55:11.784643
A1UOG38V6W8SF6	563	1	0	0	223.8714011788792	10	0	0	31.78332821313809	190.30098669640145	117.9149639705272	2000	2000	0	2020-05-31 05:55:16.696601
A1UOG38V6W8SF6	564	1	0	0	147.8037516880052	7	0	0	240.50600434276973	-72.76856811105591	-128.64946369152153	2000	2000	0	2020-05-31 05:55:23.831207
A1UOG38V6W8SF6	565	1	0	0	112.91852094968124	10	0	0	58.16241638979007	59.56600759053836	95.92957371523927	2000	2000	0	2020-05-31 05:55:29.774941
A1UOG38V6W8SF6	566	1	0	0	162.3525881019023	7	0	0	131.8247118122612	-108.26546205430188	120.98327400742002	2000	2000	0	2020-05-31 05:55:35.788815
A1UOG38V6W8SF6	567	1	0	0	173.4570272454617	0	0	0	48.39153392467519	115.18183208786402	129.69381580366866	2000	2000	0	2020-05-31 05:55:42.056197
A1UOG38V6W8SF6	568	1	0	0	205.41851191982857	7	0	0	131.83296082356307	-137.00617999814312	153.05577964151882	2000	2000	0	2020-05-31 05:55:46.759660
A1UOG38V6W8SF6	569	1	0	0	253.6426139927433	12	0	0	1.7941217447646718	253.51827272444694	7.9410973980120385	2000	2000	0	2020-05-31 05:55:53.856585
A1UOG38V6W8SF6	570	1	0	0	298.9889361511377	1	0	0	195.669095415855	-287.8777791476152	-80.75127375977407	2000	2000	0	2020-05-31 05:56:00.144410
A1UOG38V6W8SF6	571	1	0	0	198.2605618318491	5	0	0	47.9654083544939	132.7511383179015	147.25619054281498	2000	2000	0	2020-05-31 05:56:05.886591
A1UOG38V6W8SF6	572	1	0	0	251.77435563357037	3	0	0	199.67945093067183	-237.06856375236887	-84.78692254757564	2000	2000	0	2020-05-31 05:56:11.892409
A1UOG38V6W8SF6	573	1	0	0	109.33280599658994	11	0	0	181.1777815304038	-109.3097071965083	-2.24730498633266	2000	2000	0	2020-05-31 05:56:16.833838
A1UOG38V6W8SF6	574	1	0	0	239.0048336817149	7	0	0	280.509969679696	43.59606214512579	-234.99509332890875	2000	2000	0	2020-05-31 05:56:23.899553
A1UOG38V6W8SF6	575	1	0	0	264.1795067531303	8	0	0	206.65132127376833	-236.11117626524836	-118.50031321042165	2000	2000	0	2020-05-31 05:56:29.925773
A1UOG38V6W8SF6	576	1	0	0	232.33501068309192	9	0	0	157.34578831643742	-214.4094804120579	89.48816624863757	2000	2000	0	2020-05-31 05:56:35.961506
A1UOG38V6W8SF6	577	1	0	0	114.89353099758448	8	0	0	91.3784771486649	-2.763952767508419	114.86028047237168	2000	2000	0	2020-05-31 05:56:41.935871
A1UOG38V6W8SF6	578	1	0	0	238.1341309651674	8	0	0	314.6555611744563	167.37095285316482	-169.39547948974075	2000	2000	0	2020-05-31 05:56:46.873702
A1UOG38V6W8SF6	579	1	0	0	275.945386062226	5	0	0	255.38016778574624	-69.64980297522712	-267.010788236249	2000	2000	0	2020-05-31 05:56:53.974833
A1UOG38V6W8SF6	580	1	0	0	112.42965975349351	0	0	0	132.757474219369	-76.32810609331042	82.54967360622736	2000	2000	0	2020-05-31 05:56:59.976824
A1UOG38V6W8SF6	581	1	0	0	184.2459624707184	14	0	0	195.91078125432801	-177.18745212392986	-50.509221896515484	2000	2000	0	2020-05-31 05:57:05.989913
A1UOG38V6W8SF6	582	1	0	0	185.57784832638058	14	0	0	252.68443735233538	-55.234313440881664	-177.16745866034077	2000	2000	0	2020-05-31 05:57:12.012906
A1UOG38V6W8SF6	583	1	0	0	109.41825901162998	12	0	0	18.717906414823116	103.63113075311726	35.11330437265139	2000	2000	0	2020-05-31 05:57:16.944534
A1UOG38V6W8SF6	584	1	0	0	274.4570526583433	14	0	0	56.30776506630109	152.25001942804758	228.3563122360837	2000	2000	0	2020-05-31 05:57:24.031120
A1UOG38V6W8SF6	585	1	0	0	133.94356494464841	4	0	0	333.04081837693815	119.387881272948	-60.724067676974045	2000	2000	0	2020-05-31 05:57:30.041627
A1UOG38V6W8SF6	586	1	0	0	253.07588679376954	2	0	0	357.69175939754996	252.87054425832818	-10.192758358253652	2000	2000	0	2020-05-31 05:57:36.029984
A1UOG38V6W8SF6	587	1	0	0	167.35571397988713	12	0	0	79.81527170725327	29.592239834040345	164.7186520808206	2000	2000	0	2020-05-31 05:57:42.074381
A1UOG38V6W8SF6	588	1	0	0	187.27631982721215	7	0	0	241.78525316105583	-88.5400452576298	-165.0244841040296	2000	2000	0	2020-05-31 05:57:46.995577
A1UOG38V6W8SF6	589	1	0	0	127.05763659211993	0	0	0	22.078149699514896	117.74075933146892	47.757267597972245	2000	2000	0	2020-05-31 05:57:54.102265
A1UOG38V6W8SF6	590	1	0	0	226.58025278203098	3	0	0	218.07333732095648	-178.36897682556162	-139.72515541938512	2000	2000	0	2020-05-31 05:58:00.093004
A1UOG38V6W8SF6	591	1	0	0	239.90096319898066	9	0	0	323.2123146076577	192.12710958496172	-143.66504761537087	2000	2000	0	2020-05-31 05:58:06.098238
A1UOG38V6W8SF6	592	1	0	0	188.30008584630286	9	0	0	146.87105040626443	-157.69052911821134	102.91073489264164	2000	2000	0	2020-05-31 05:58:12.131891
A1UOG38V6W8SF6	593	1	0	0	173.77725192720436	0	0	0	103.57893448800752	-40.800247531128846	168.9197238003001	2000	2000	0	2020-05-31 05:58:18.139828
A1UOG38V6W8SF6	594	1	0	0	250.12744427101566	14	0	0	265.6851872247392	-18.818720535791734	-249.41851201333435	2000	2000	0	2020-05-31 05:58:24.158997
A1UOG38V6W8SF6	595	1	0	0	136.0190186295001	10	0	0	45.601533503197956	95.1649198718646	97.18441981466928	2000	2000	0	2020-05-31 05:58:30.191270
A1UOG38V6W8SF6	596	1	0	0	176.89598917421665	12	0	0	80.80193644072601	28.276439137202917	174.6214018259063	2000	2000	0	2020-05-31 05:58:35.122845
A1UOG38V6W8SF6	597	1	0	0	294.74905256296324	8	0	0	89.850238130861	0.7704253114213108	294.74804567902396	2000	2000	0	2020-05-31 05:58:42.212309
A1UOG38V6W8SF6	598	1	0	0	231.53570429998274	1	0	0	100.41078828252799	-41.83950657527711	227.72403925634725	2000	2000	0	2020-05-31 05:58:48.235161
A1UOG38V6W8SF6	599	1	0	0	114.40792206485804	5	0	0	249.4430343141592	-40.1730242917135	-107.12283020185767	2000	2000	0	2020-05-31 05:58:54.476075
A1UOG38V6W8SF6	600	1	0	0	123.9465494265159	10	0	0	74.64388415871603	32.82322982538749	119.52147379684348	2000	2000	0	2020-05-31 05:59:00.220721
A1UOG38V6W8SF6	601	1	0	0	274.20658198175363	4	0	0	38.50092383362602	214.59355537586487	170.7010708614969	2000	2000	0	2020-05-31 05:59:06.277702
A1UOG38V6W8SF6	602	1	0	0	277.31383117761743	13	0	0	292.3814157870482	105.59291909110149	-256.42366583493845	2000	2000	0	2020-05-31 05:59:12.264129
A1UOG38V6W8SF6	603	1	0	0	268.16793975512155	7	0	0	315.77688320366906	192.17699440563132	-187.03488106159358	2000	2000	0	2020-05-31 05:59:18.289653
A1UOG38V6W8SF6	604	1	0	0	100.77489677403801	6	0	0	283.443303962447	23.42845617724953	-98.01370955620808	2000	2000	0	2020-05-31 05:59:24.536642
A1UOG38V6W8SF6	605	1	0	0	295.12958077425475	14	0	0	45.49233121121848	206.8872301571483	210.4736169829618	2000	2000	0	2020-05-31 05:59:30.288313
A1UOG38V6W8SF6	606	1	0	0	275.5940355267426	6	0	0	149.0813796899574	-236.4315627520358	141.60575042188648	2000	2000	0	2020-05-31 05:59:36.312618
A1UOG38V6W8SF6	607	1	0	0	279.9680992705547	9	0	0	168.6048687501866	-274.4493589028943	55.31442856034505	2000	2000	0	2020-05-31 05:59:42.345065
A1UOG38V6W8SF6	608	1	0	0	156.9071636858125	4	0	0	6.744661744127871	155.82127253690422	18.42794185214873	2000	2000	0	2020-05-31 05:59:48.909741
A1UOG38V6W8SF6	609	1	0	0	163.80596071351755	9	0	0	207.38755912231545	-145.44581700490426	-75.35188837085875	2000	2000	0	2020-05-31 05:59:54.341648
A1UOG38V6W8SF6	610	1	0	0	126.67131951755728	8	0	0	311.1943300734581	83.42763094597049	-95.31764570666878	2000	2000	0	2020-05-31 06:00:00.636836
A1UOG38V6W8SF6	611	1	0	0	195.98446540356315	13	0	0	212.02574966302723	-166.15756141428326	-103.93062813424694	2000	2000	0	2020-05-31 06:00:06.621814
A1UOG38V6W8SF6	612	1	0	0	153.24823544105368	0	0	0	50.710934740091645	97.04186682066839	118.60816898408085	2000	2000	0	2020-05-31 06:00:12.402252
A1UOG38V6W8SF6	613	1	0	0	177.09591181525047	10	0	0	230.03879489807665	-113.7431742822699	-135.74038561116637	2000	2000	0	2020-05-31 06:00:18.412479
A1UOG38V6W8SF6	614	1	0	0	227.59374139383505	6	0	0	15.708423915205048	219.0935591826765	61.61918083122248	2000	2000	0	2020-05-31 06:00:24.687179
A1UOG38V6W8SF6	615	1	0	0	170.35222143143426	5	0	0	103.98698161323335	-41.174374648513435	165.30139206591173	2000	2000	0	2020-05-31 06:00:30.441994
A1UOG38V6W8SF6	616	1	0	0	156.5873725463597	6	0	0	300.7836461778305	80.14105285508293	-134.52515336639183	2000	2000	0	2020-05-31 06:00:36.440869
A1UOG38V6W8SF6	617	1	0	0	139.8261758502143	0	0	0	225.1461520565157	-98.61950952381639	-99.1239214023383	2000	2000	0	2020-05-31 06:00:42.447331
A1UOG38V6W8SF6	618	1	0	0	275.35067624637645	2	0	0	307.4927368926317	167.59517791123628	-218.47162573258314	2000	2000	0	2020-05-31 06:00:48.467414
A1UOG38V6W8SF6	619	1	0	0	204.43778121361765	2	0	0	308.8747375949169	128.30921157593198	-159.15889108783625	2000	2000	0	2020-05-31 06:00:54.150987
A1UOG38V6W8SF6	620	1	0	0	186.24388629934572	6	0	0	61.98332677477738	87.48405818266887	164.41813995960123	2000	2000	0	2020-05-31 06:00:59.438468
A1UOG38V6W8SF6	621	1	0	0	125.56517411145163	1	0	0	263.5436670299378	-14.119294865609012	-124.76882007191199	2000	2000	0	2020-05-31 06:01:06.529400
A1UOG38V6W8SF6	622	1	0	0	296.4485810387139	14	0	0	60.815468611215124	144.55543441205717	258.81554741129514	2000	2000	0	2020-05-31 06:01:12.539362
A1UOG38V6W8SF6	623	1	0	0	152.0114790510457	13	0	0	190.73352041512297	-149.35188707895136	-28.31083872375867	2000	2000	0	2020-05-31 06:01:18.550953
A1UOG38V6W8SF6	624	1	0	0	225.47788598433715	12	0	0	136.67726496695298	-164.03528986276493	154.70197396156402	2000	2000	0	2020-05-31 06:01:24.780389
A1UOG38V6W8SF6	625	1	0	0	215.00593076948817	9	0	0	155.0510931633214	-194.94250052470522	90.69163001748974	2000	2000	0	2020-05-31 06:01:30.559659
A1UOG38V6W8SF6	626	1	0	0	115.38917476909587	10	0	0	127.31570470667702	-69.94965806546921	91.76985883402507	2000	2000	0	2020-05-31 06:01:36.584528
A1UOG38V6W8SF6	627	1	0	0	211.84135980290512	6	0	0	206.81202266754363	-189.0665470587832	-95.55418623175454	2000	2000	0	2020-05-31 06:01:42.567150
A1UOG38V6W8SF6	628	1	0	0	156.3627514754851	14	0	0	136.6397875119616	-113.68379257721548	107.35597493500288	2000	2000	0	2020-05-31 06:01:48.615134
A1UOG38V6W8SF6	629	1	0	0	204.39129547500383	10	0	0	37.16800120795031	162.87277101724396	123.48385371017028	2000	2000	0	2020-05-31 06:01:54.716209
A1UOG38V6W8SF6	630	1	0	0	114.78637362804535	7	0	0	285.0646009887716	29.833892398757566	-110.8415555422089	2000	2000	0	2020-05-31 06:02:00.642371
A1UOG38V6W8SF6	631	1	0	0	145.66310127709738	10	0	0	278.9615936495534	22.69028583652666	-143.88498880119027	2000	2000	0	2020-05-31 06:02:06.709459
A1UOG38V6W8SF6	632	1	0	0	223.60387186730992	7	0	0	99.63400742886964	-37.42099051598005	220.4503594527695	2000	2000	0	2020-05-31 06:02:12.713699
A1UOG38V6W8SF6	633	1	0	0	149.52683487434751	7	0	0	187.50112066023163	-148.2472303048936	-19.520067993432356	2000	2000	0	2020-05-31 06:02:18.719933
A1UOG38V6W8SF6	634	1	0	0	214.36256666350374	9	0	0	189.08945757205822	-211.6707925768191	-33.86422236618326	2000	2000	0	2020-05-31 06:02:25.004583
A1UOG38V6W8SF6	635	1	0	0	264.2738504438369	14	0	0	107.15375198254166	-77.94410281118853	252.51808819443085	2000	2000	0	2020-05-31 06:02:30.770024
A1UOG38V6W8SF6	636	1	0	0	155.89462436913894	7	0	0	47.20083205801779	105.91958578786073	114.38607980747892	2000	2000	0	2020-05-31 06:02:36.798723
A1UOG38V6W8SF6	637	1	0	0	233.34594101808253	9	0	0	73.5802551205878	65.96037137365664	223.82930460032205	2000	2000	0	2020-05-31 06:02:42.754910
A1UOG38V6W8SF6	638	1	0	0	296.9199668478909	11	0	0	333.6592407743042	266.0910666963928	-131.74600918938108	2000	2000	0	2020-05-31 06:02:48.791477
A1UOG38V6W8SF6	639	1	0	0	170.63907894565844	0	0	0	134.13216668203344	-118.81869588358381	122.47372278144843	2000	2000	0	2020-05-31 06:02:54.809083
A1UOG38V6W8SF6	640	1	0	0	296.0597738297962	4	0	0	337.82326152577593	274.15842881168965	-111.7521614630151	2000	2000	0	2020-05-31 06:03:00.793312
A1UOG38V6W8SF6	641	1	0	0	215.24908036947585	9	0	0	271.5459811142515	5.807245110250213	-215.17072873449715	2000	2000	0	2020-05-31 06:03:06.828987
A1UOG38V6W8SF6	642	1	0	0	247.74292377078865	1	0	0	106.74933690939427	-71.39584057498938	237.23235493306873	2000	2000	0	2020-05-31 06:03:11.750695
A1UOG38V6W8SF6	643	1	0	0	115.48948042664603	11	0	0	90.25916281929614	-0.5223853753085612	115.48829898624501	2000	2000	0	2020-05-31 06:03:18.851009
A1UOG38V6W8SF6	644	1	0	0	247.4741120377057	6	0	0	110.36636086875448	-86.12636025567821	232.00363401886628	2000	2000	0	2020-05-31 06:03:24.875141
A1UOG38V6W8SF6	645	1	0	0	288.7574672370713	3	0	0	128.96013374892968	-181.56477663919938	224.53308613459606	2000	2000	0	2020-05-31 06:03:30.868723
A1UOG38V6W8SF6	646	1	0	0	168.46707133200744	0	0	0	242.84355297500542	-76.89202904567719	-149.89586382693292	2000	2000	0	2020-05-31 06:03:36.878475
A1UOG38V6W8SF6	647	1	0	0	228.50943419707826	5	0	0	288.7996766077667	73.63953072058854	-216.31870245616847	2000	2000	0	2020-05-31 06:03:41.816880
A1UOG38V6W8SF6	648	1	0	0	294.6985408877828	7	0	0	97.45723712160732	-38.247800249384795	292.2059817619608	2000	2000	0	2020-05-31 06:16:22.011705
