AEWWOLPXYN0FD	1	1	0	0	143.12700633928696	9	0	0	336.994168773184	131.74341167995067	-55.9375850620433	1500	1700	0	2020-05-30 20:43:34.021321
AEWWOLPXYN0FD	2	1	0	349	200.6165241248298	8	0	-6	271.9828088757212	6.941258748945345	-200.49640565084604	1700	1900	0	2020-05-30 20:43:58.433828
AEWWOLPXYN0FD	3	1	0	0	204.48047531662013	7	0	0	76.81229552689793	46.650571784093096	199.08789249456652	1900	2000	0	2020-05-30 20:44:05.012612
AEWWOLPXYN0FD	4	1	0	382	299.60360451488674	3	-3	-5	22.94824292166604	275.8922075323059	116.81528008468634	2000	2000	0	2020-05-30 20:44:14.142600
AEWWOLPXYN0FD	5	1	1	1718	215.78806265610328	12	62	-188	294.3032851481775	88.81116244894788	-196.664855552132	2000	1950	0	2020-05-30 20:44:19.887563
AEWWOLPXYN0FD	6	2	0	87	225.35892803246531	14	-2	-5	190.64677634562904	-221.47933881462808	-41.63590904708408	1950	2000	0	2020-05-30 20:44:25.516742
AEWWOLPXYN0FD	7	2	1	1293	238.4486356108276	9	84	-216	288.7398815159115	76.60692528795238	-225.80772976714354	2000	1950	0	2020-05-30 20:44:30.802201
AEWWOLPXYN0FD	8	3	1	1301	244.38377741847015	14	49	239	77.08117090901337	54.6369884907232	238.1978802466238	1950	1900	0	2020-05-30 20:44:40.696051
AEWWOLPXYN0FD	9	4	0	1712	297.97015786685813	8	34	239	70.89590270701132	97.52130394505522	281.5596033809831	1900	2000	0	2020-05-30 20:44:46.375212
AEWWOLPXYN0FD	10	4	1	1654	290.7768283376165	13	-68	-279	256.88728640637066	-65.96778923193737	-283.1950117532694	2000	1950	0	2020-05-30 20:44:55.688073
AEWWOLPXYN0FD	11	5	1	1448	136.1452519502735	2	-115	-91	214.9260336416546	-111.62437891222042	-77.94567121440731	1950	1900	0	2020-05-30 20:45:01.619596
AEWWOLPXYN0FD	12	6	1	1366	136.31004359556317	2	-50	122	111.67552312231997	-50.346086815870486	126.67162084442263	1900	1850	0	2020-05-30 20:46:55.696120
AEWWOLPXYN0FD	13	7	0	0	212.93579233435162	10	0	0	97.57715438864602	-28.077958720385123	211.07647877287147	1850	2000	0	2020-05-30 20:47:03.490186
AEWWOLPXYN0FD	14	7	1	1747	163.38164895636726	1	-171	51	160.76419449941798	-154.26016083468886	53.82718639272858	2000	1950	0	2020-05-30 20:47:31.623059
AEWWOLPXYN0FD	15	8	1	1387	205.72802416772328	4	140	162	51.6726456546132	127.58298133900738	161.38959941893972	1950	1900	0	2020-05-30 20:47:37.033394
AEWWOLPXYN0FD	16	9	1	1458	232.19822153890664	11	-232	-42	188.71764762895378	-229.51569357949646	-35.19318807033345	1900	1850	0	2020-05-30 20:47:51.069246
AEWWOLPXYN0FD	17	10	0	0	296.1683367074196	1	0	0	236.9617634099675	-161.4705637748153	-248.27996435935538	1850	2000	0	2020-05-30 20:47:58.452937
AEWWOLPXYN0FD	18	10	1	1466	127.32707674171087	2	-113	-55	212.20228261103122	-107.74059905168133	-67.85387083707438	2000	1950	0	2020-05-30 20:48:03.940103
AEWWOLPXYN0FD	19	11	1	1668	293.5241381590374	11	186	-225	310.9140678020489	192.23670074149237	-221.8140450242761	1950	1900	0	2020-05-30 20:48:13.018206
AEWWOLPXYN0FD	20	12	0	0	250.5261655283084	13	0	0	72.79219511754769	74.11520389400178	239.31213125553816	1900	2000	0	2020-05-30 20:48:18.945310
AEWWOLPXYN0FD	21	12	0	0	275.3255593817041	1	0	0	359.64797603604103	275.320362840663	-1.6915833216106475	2000	2000	0	2020-05-30 20:48:24.965679
AEWWOLPXYN0FD	22	12	0	152	238.57652622107727	9	2	2	65.53726759292071	98.79484435244383	217.1597052703212	2000	2000	0	2020-05-30 20:48:29.145660
AEWWOLPXYN0FD	23	12	1	1462	171.94198588756583	13	-34	-184	259.69933054724237	-30.745584567976298	-169.17078808273402	2000	1950	0	2020-05-30 20:48:54.308044
AEWWOLPXYN0FD	24	13	0	0	266.1945204013422	0	0	0	272.38626809114754	11.083327155136075	-265.9636865267001	1950	2000	0	2020-05-30 20:49:00.307409
AEWWOLPXYN0FD	25	13	1	1845	259.6466885193372	7	-179	-188	227.93747265179408	-173.94801608527976	-192.76537697172947	2000	1950	0	2020-05-30 20:49:06.185251
AEWWOLPXYN0FD	26	14	1	1565	243.23491959744726	13	-57	-225	259.3203845264652	-45.07556863741299	-239.02179654498144	1950	1900	0	2020-05-30 20:49:12.875334
AEWWOLPXYN0FD	27	15	1	1642	163.71365925885362	6	-93	117	129.69520937154988	-104.5644845573065	125.9699598999255	1900	1850	0	2020-05-30 20:49:18.489145
AEWWOLPXYN0FD	28	16	1	1633	149.98045446001566	4	-84	-124	238.41129300052506	-78.56246475078937	-127.75787980517605	1850	1800	0	2020-05-30 20:49:24.149178
AEWWOLPXYN0FD	29	17	1	1337	246.44393276419754	9	-244	35	170.33797140318165	-242.94810460830124	41.36218639673484	1800	1750	0	2020-05-30 20:49:29.506931
AEWWOLPXYN0FD	30	18	1	1358	269.08976235694604	0	-25	266	93.35390150380135	-15.742612214940552	268.6288710581342	1750	1700	0	2020-05-30 20:49:35.721839
AEWWOLPXYN0FD	31	19	0	0	192.49370737009752	6	0	0	47.543727771182475	129.9385124780316	142.02045751257515	1700	1900	0	2020-05-30 20:49:41.430520
AEWWOLPXYN0FD	32	19	1	1681	157.43952861486704	1	-146	-80	208.53204260666325	-138.31851749624627	-75.20101653642823	1900	1850	0	2020-05-30 20:49:47.152244
AEWWOLPXYN0FD	33	20	1	1807	238.90327112330985	4	-137	191	124.81308692072743	-136.39014299368907	196.14408440628213	1850	1800	0	2020-05-30 20:49:52.982846
AEWWOLPXYN0FD	34	21	0	0	182.70751082782732	5	0	0	251.80275755632996	-57.05758193003177	-173.5697751833491	1800	2000	0	2020-05-30 20:49:58.868746
AEWWOLPXYN0FD	35	21	1	1727	142.94489878651154	1	-107	-84	221.44543837524063	-107.14954935248915	-94.61616226969112	2000	1950	0	2020-05-30 20:50:07.816882
AEWWOLPXYN0FD	36	22	0	0	163.4721065125718	12	0	0	337.8876742620173	151.44835289108767	-61.534754523230205	1950	2000	0	2020-05-30 20:50:13.798950
AEWWOLPXYN0FD	37	22	0	309	272.5413326693226	2	0	-2	183.39213452647203	-272.0638293534674	-16.126089752254106	2000	2000	0	2020-05-30 20:50:19.589980
AEWWOLPXYN0FD	38	22	0	0	111.38374337086927	3	0	0	145.65537174796498	-91.9650021865381	62.83929232683723	2000	2000	0	2020-05-30 20:50:25.632862
AEWWOLPXYN0FD	39	22	0	0	117.49399934343319	14	0	0	222.2606482368535	-86.95650496017576	-79.01522718328162	2000	2000	0	2020-05-30 20:50:31.679017
AEWWOLPXYN0FD	40	22	0	0	249.0420196716209	4	0	0	69.64901989726368	86.60934820514727	233.49678448663818	2000	2000	0	2020-05-30 20:50:37.723963
AEWWOLPXYN0FD	41	22	0	0	273.068798304664	6	0	0	92.2601781240644	-10.769101569809191	272.8563634202663	2000	2000	0	2020-05-30 20:50:43.760731
AEWWOLPXYN0FD	42	22	1	1732	276.66482021740524	3	-28	261	97.06311907049745	-34.01945146569121	274.56529217638314	2000	1950	0	2020-05-30 20:50:50.631901
AEWWOLPXYN0FD	43	23	0	0	224.56384028738188	6	0	0	100.90410043190437	-42.47977994997806	220.50937998193683	1950	2000	0	2020-05-30 20:51:30.794749
AEWWOLPXYN0FD	44	23	1	1994	149.86172502285706	2	137	-29	350.1442304359517	147.6500291424969	-25.651618292931143	2000	1950	0	2020-05-30 20:51:39.223807
AEWWOLPXYN0FD	45	24	1	1714	229.19289877086396	10	159	-166	313.8192185703986	158.6897786256051	-165.3690993104454	1950	1900	0	2020-05-30 20:51:44.981247
AEWWOLPXYN0FD	46	25	1	1677	183.63356270123649	6	-141	85	149.07135811516306	-157.52235415963645	94.38216616689306	1900	1850	0	2020-05-30 20:51:52.008273
AEWWOLPXYN0FD	47	26	1	1810	266.50957974261826	4	-271	-16	181.04636663181	-266.46513777722095	-4.866872091358254	1850	1800	0	2020-05-30 20:51:58.381495
AEWWOLPXYN0FD	48	27	0	403	281.69349716214276	14	2	-16	182.61224089048693	-281.4007769052473	-12.838578603621743	1800	2000	0	2020-05-30 20:52:02.813950
AEWWOLPXYN0FD	49	27	0	500	150.67007939836023	13	-2	4	87.63092636336776	6.228151777790327	150.54129981948802	2000	2000	0	2020-05-30 20:52:07.339912
AEWWOLPXYN0FD	50	27	0	1140	207.05799453225725	0	-103	65	40.63266057534235	157.13635764300633	134.83759937943677	2000	2000	0	2020-05-30 20:53:01.852448
AEWWOLPXYN0FD	51	27	0	0	171.23522691286047	11	0	0	286.2381442753536	47.882566973833455	-164.40426611221247	2000	2000	0	2020-05-30 20:56:18.351031
AEWWOLPXYN0FD	52	27	0	0	154.69543972443677	8	0	0	88.03782214940976	5.296736312881699	154.60473361436462	2000	2000	0	2020-05-30 20:56:24.397385
AEWWOLPXYN0FD	53	27	0	0	132.93982946085924	7	0	0	322.34870788750993	105.25419456412543	-81.20685182753711	2000	2000	0	2020-05-30 20:56:30.431767
