A21D9YDJU8K2QI	1	1	1	1381	213.97699045556038	1	183	-99.5	332.39339141886376	189.61573920953222	-99.15656250819535	1500	1450	1	2020-05-31 00:52:51.267258
A21D9YDJU8K2QI	1	1	0	180	102.4551020318624	12	2	-1.5	253.80806088010863	-28.57021999548456	-98.39100803309695	1500	1700	0	2020-05-31 00:53:34.382611
A21D9YDJU8K2QI	2	1	1	1048	155.60459579334548	3	47	-146.5	288.1683694943796	48.51913634904283	-147.84682492347756	1700	1650	0	2020-05-31 00:53:39.864655
A21D9YDJU8K2QI	3	2	1	965	271.7315928198632	0	175	-202.5	311.1470175688087	178.79759657142495	-204.62032645048214	1650	1600	0	2020-05-31 00:53:45.117378
A21D9YDJU8K2QI	4	3	0	153	261.98208399883373	1	-1	-4.5	247.48753141047513	-100.30887296977711	-242.01806201171246	1600	1800	0	2020-05-31 00:53:49.279797
A21D9YDJU8K2QI	5	3	1	1281	169.51970937777287	0	-168	38.5	166.14594692743418	-164.58818003991848	40.591413607707175	1800	1750	0	2020-05-31 00:53:54.873821
A21D9YDJU8K2QI	6	4	1	1312	249.20540866072108	9	-232	-96.5	202.95964647342277	-229.46331078217142	-97.2107232286727	1750	1700	0	2020-05-31 00:54:03.008694
A21D9YDJU8K2QI	7	5	0	0	230.08121525891875	10	0	0	264.0088339680532	-24.01475556172727	-228.82451164665773	1700	1900	0	2020-05-31 00:54:08.714055
A21D9YDJU8K2QI	8	5	1	1435	255.78348774214615	6	124	-223.5	299.65992636861324	126.57471771427147	-222.27018116942526	1900	1850	0	2020-05-31 00:54:14.160859
A21D9YDJU8K2QI	9	6	1	1649	194.16883992016733	11	-93	165.5	117.81377485792106	-90.59904378501653	171.7362852200554	1850	1800	0	2020-05-31 00:54:19.808508
A21D9YDJU8K2QI	10	7	0	0	213.84262999163926	3	0	0	88.64930777807945	5.040664907303445	213.78321285599907	1800	2000	0	2020-05-31 00:54:25.959949
A21D9YDJU8K2QI	11	7	1	1372	284.78509267779054	5	238	-151.5	328.0843893779477	241.7334693816587	-150.5572276319022	2000	1950	0	2020-05-31 00:54:32.560495
A21D9YDJU8K2QI	12	8	1	1305	143.20395505213676	13	-12	-150.5	265.6356118632786	-10.897720869270447	-142.78869851087612	1950	1900	0	2020-05-31 00:54:38.239477
A21D9YDJU8K2QI	13	9	1	1160	285.6536886405406	4	188	-211.5	312.76026766583203	193.9395239979163	-209.72718198986172	1900	1850	0	2020-05-31 00:54:43.402880
A21D9YDJU8K2QI	14	10	1	1132	141.91178479383785	3	112	87.5	39.60937825936976	109.33010172732224	90.47587258305896	1850	1800	0	2020-05-31 00:54:52.997635
A21D9YDJU8K2QI	15	11	0	37	126.78753078016172	4	-5	-1.5	179.36352692808242	-126.77970807637377	1.408396748044442	1800	2000	0	2020-05-31 00:54:57.047292
A21D9YDJU8K2QI	16	11	1	1185	224.1765300329451	11	57	-216.5	286.76507752782294	64.66332675984313	-214.64801604012484	2000	1950	0	2020-05-31 00:55:02.230075
A21D9YDJU8K2QI	17	12	1	1588	203.3078710502628	5	-186	-90.5	205.52477861166273	-183.46482309064268	-87.6056454762447	1950	1900	0	2020-05-31 00:55:07.816875
A21D9YDJU8K2QI	18	13	1	1351	169.8758464654416	9	-137	-108.5	218.9311865817493	-132.1466295060525	-106.74770031499686	1900	1850	0	2020-05-31 00:55:13.182804
A21D9YDJU8K2QI	19	14	1	1291	269.4982521645011	10	-156	-225.5	235.7089991560593	-151.83431568390984	-222.65589707106304	1850	1800	0	2020-05-31 00:55:19.313143
A21D9YDJU8K2QI	20	15	1	1174	296.70274660799345	6	273	103.5	20.675046846671297	277.5944623768922	104.75607048000299	1800	1750	0	2020-05-31 00:55:24.500150
A21D9YDJU8K2QI	21	16	1	1425	132.61626770756652	4	-137	11.5	174.0388492613779	-131.89915081161243	13.772743948119977	1750	1700	0	2020-05-31 00:55:35.639914
A21D9YDJU8K2QI	22	17	1	1373	249.57136226472838	11	175	-177.5	315.2967430257947	177.3852137392341	-175.5572579227601	1700	1650	0	2020-05-31 00:55:41.419196
A21D9YDJU8K2QI	23	18	0	683	100.98754723520807	5	-38	22.5	69.646128306258	35.12521978064141	94.6821188606646	1650	1850	0	2020-05-31 00:55:46.394983
A21D9YDJU8K2QI	24	18	1	1252	225.41426050025245	11	-136	-185.5	234.10109187833046	-132.17321145905703	-182.59745619661592	1850	1800	0	2020-05-31 00:55:55.911736
A21D9YDJU8K2QI	25	19	1	1082	155.87472482630366	2	91	-124.5	307.9627279424964	95.88613874215812	-122.89336123971664	1800	1750	0	2020-05-31 00:56:03.707534
A21D9YDJU8K2QI	26	20	1	1486	177.04577950340393	8	-158	84.5	151.0422075770716	-154.9109160042966	85.71940353664206	1750	1700	0	2020-05-31 00:56:10.204876
A21D9YDJU8K2QI	27	21	1	1291	285.53212698298114	13	-216	183.5	139.35536633560216	-216.65153335486718	185.98577535502588	1700	1650	0	2020-05-31 00:56:22.692797
A21D9YDJU8K2QI	28	22	1	1449	205.91524270245787	9	202	5.5	1.7168338383898263	205.82280752706308	6.169204072623804	1650	1600	0	2020-05-31 00:56:31.592729
A21D9YDJU8K2QI	29	23	1	1236	273.88204321110356	9	205	-187.5	318.2082058053517	204.1986325510582	-182.5220317051252	1600	1550	0	2020-05-31 00:56:40.843303
A21D9YDJU8K2QI	30	24	0	159	262.0426243884507	6	-2	-2.5	77.26150584211068	57.780809396043736	255.59286973999238	1550	1750	0	2020-05-31 00:56:45.469990
A21D9YDJU8K2QI	31	24	0	0	275.6847760164961	3	0	0	258.80652361958727	-53.51666197025598	-270.4404973720226	1750	1950	0	2020-05-31 00:56:51.222134
A21D9YDJU8K2QI	32	24	1	1266	112.98151504631093	9	-109	25.5	165.45787707707274	-109.36196053397263	28.368720985014345	1950	1900	0	2020-05-31 00:56:56.636913
A21D9YDJU8K2QI	33	25	0	0	252.96671164666472	4	0	0	344.63812647709256	243.9286917917671	-67.0145545540959	1900	2000	0	2020-05-31 00:57:02.592012
A21D9YDJU8K2QI	34	25	1	1118	280.05519282355124	3	221	-162.5	324.5966093133203	228.27117101560395	-162.24420948250003	2000	1950	0	2020-05-31 00:57:10.767603
A21D9YDJU8K2QI	35	26	1	1141	110.45611004926785	13	-88	65.5	142.17555436029926	-87.24855667413676	67.73656033115289	1950	1900	0	2020-05-31 00:57:16.887023
A21D9YDJU8K2QI	36	27	1	1250	209.24406833662505	11	170	112.5	33.606925779579015	174.26983084172397	115.81496532166786	1900	1850	0	2020-05-31 00:57:22.640278
A21D9YDJU8K2QI	37	28	1	1267	255.28369871603743	10	155	-199.5	308.307810419926	158.24679209363978	-200.31904458191917	1850	1800	0	2020-05-31 00:57:28.479830
A21D9YDJU8K2QI	38	29	1	1135	245.18712868408366	13	-180	-167.5	222.9549896402481	-179.44982113922796	-167.07629923314826	1800	1750	0	2020-05-31 00:57:33.611598
A21D9YDJU8K2QI	39	30	1	1185	194.1830072912985	3	-4	-193.5	269.34380383027553	-2.2238873636124135	-194.17027230162307	1750	1700	0	2020-05-31 00:57:38.797077
A21D9YDJU8K2QI	40	31	1	1100	162.95264498929845	9	114	108.5	43.60546288893987	117.99500524118075	112.38657947967835	1700	1650	0	2020-05-31 00:58:10.891486
A21D9YDJU8K2QI	41	32	1	1569	277.9846882354059	1	276	-22.5	356.0994685963468	277.3407778380375	-18.909781636183197	1650	1600	0	2020-05-31 00:58:17.076903
A21D9YDJU8K2QI	42	33	1	612	114.78985075549994	9	29	-105.5	285.2629914861087	30.218424495807163	-110.74094390721596	1600	1550	0	2020-05-31 00:58:21.922136
A21D9YDJU8K2QI	43	34	0	0	210.00599435422458	2	0	0	329.3122083643096	180.59697259663574	-107.17859466160489	1550	1750	0	2020-05-31 00:58:27.479898
A21D9YDJU8K2QI	44	34	1	1046	259.1884939802261	7	180	166.5	44.14901748740762	185.9756937735847	180.53176102052387	1750	1700	0	2020-05-31 00:58:32.539945
A21D9YDJU8K2QI	45	35	1	1063	271.0385841726328	13	229	138.5	31.894346672656813	230.1182152051453	143.20447318817867	1700	1650	0	2020-05-31 00:58:37.770603
A21D9YDJU8K2QI	46	36	1	929	234.12793813518812	11	-241	-24.5	184.72295912656432	-233.3329504070966	-19.277595019967315	1650	1600	0	2020-05-31 00:58:43.017847
A21D9YDJU8K2QI	47	37	0	30	254.5482371028154	9	-1	-2.5	255.06794162382445	-65.59032593193085	-245.95266649559667	1600	1800	0	2020-05-31 00:58:47.076729
A21D9YDJU8K2QI	48	37	1	1428	160.94818610452117	12	-151	55.5	159.3079351105299	-150.56589759021531	56.870283041219146	1800	1750	0	2020-05-31 00:58:52.882701
A21D9YDJU8K2QI	49	38	1	1571	297.922482158778	1	129	-274.5	296.16527983411373	131.3725084880333	-267.3930989932407	1750	1700	0	2020-05-31 00:58:58.860657
A21D9YDJU8K2QI	50	39	1	1152	125.33788826617642	14	-45	-117.5	248.51071763726662	-45.91467493129006	-116.62516392690941	1700	1650	0	2020-05-31 00:59:04.331970
A21D9YDJU8K2QI	51	40	1	1162	147.95901348773745	5	-69	127.5	117.91292064379876	-69.2639195815682	130.7454745544278	1650	1600	0	2020-05-31 00:59:10.361202
A21D9YDJU8K2QI	52	41	1	1444	134.05894803955127	9	102	77.5	37.18067814364141	106.80928996031962	81.01590663347214	1600	1550	0	2020-05-31 00:59:16.200682
A21D9YDJU8K2QI	53	42	1	1525	284.00061100836217	0	-161	-243.5	236.24850890182228	-157.78843096955796	-236.13377163228492	1550	1500	0	2020-05-31 00:59:21.729389
A21D9YDJU8K2QI	54	43	1	1078	103.06584236944225	1	85	-58.5	325.56163783263105	85.002011824055	-58.28572594714705	1500	1450	0	2020-05-31 00:59:33.515264
A21D9YDJU8K2QI	55	44	0	0	273.3871005959386	2	0	0	295.3272275101332	116.95156896282718	-247.1089583349558	1450	1650	0	2020-05-31 00:59:38.977674
A21D9YDJU8K2QI	56	44	1	1012	263.9456575997053	4	-259	44.5	169.8869529537894	-259.84479225119543	46.346457315246646	1650	1600	0	2020-05-31 00:59:43.991893
A21D9YDJU8K2QI	57	45	1	1307	295.44149557463163	14	-251	-156.5	211.21574592192553	-252.6680267317473	-153.116117946022	1600	1550	0	2020-05-31 00:59:56.453720
A21D9YDJU8K2QI	58	46	1	1347	122.25191904666461	10	44	-117.5	291.6265641364161	45.056627774434304	-113.64608222102649	1550	1500	0	2020-05-31 01:00:03.208407
A21D9YDJU8K2QI	59	47	1	892	111.48511174992231	3	15	-113.5	277.6580088991387	14.856492033069955	-110.49079050474747	1500	1450	0	2020-05-31 01:00:08.105568
A21D9YDJU8K2QI	60	48	1	1372	249.6122347315243	8	209	-133.5	327.53792698598886	210.60955597238345	-133.97717216295118	1450	1400	0	2020-05-31 01:00:14.162088
A21D9YDJU8K2QI	61	49	1	1046	160.43696764824017	7	-113	117.5	133.39211510137199	-110.21819371088964	116.584606030433	1400	1350	0	2020-05-31 01:00:19.583011
A21D9YDJU8K2QI	62	50	1	1024	257.2964936783145	10	-116	233.5	116.20330121206149	-113.61120922092536	230.8548868846273	1350	1300	0	2020-05-31 01:00:24.613789
A21D9YDJU8K2QI	63	51	1	876	146.74909710030545	5	120	77.5	33.232461554461416	122.74886210574678	80.42396627560244	1300	1250	0	2020-05-31 01:00:29.495677
A21D9YDJU8K2QI	64	52	0	0	272.2277342790429	6	0	0	199.22743221742982	-257.0425463305366	-89.64969986907445	1250	1450	0	2020-05-31 01:00:34.748779
A21D9YDJU8K2QI	65	52	1	1024	243.20191246936002	10	230	83.5	21.40149734252116	226.4322358974574	88.74464927663229	1450	1400	0	2020-05-31 01:00:44.536133
A21D9YDJU8K2QI	66	53	1	1228	194.43177540209433	11	-119	154.5	126.61627000486605	-115.9693813412682	156.06030205447496	1400	1350	0	2020-05-31 01:00:59.522961
A21D9YDJU8K2QI	67	54	0	0	215.8794497139162	9	0	0	281.52525747016585	43.13269059419582	-211.526612535843	1350	1550	0	2020-05-31 01:01:04.877755
A21D9YDJU8K2QI	68	54	0	0	167.34206050382608	2	0	0	321.2018923010484	130.419483915022	-104.8528656213339	1550	1750	0	2020-05-31 01:01:15.315928
A21D9YDJU8K2QI	69	54	1	843	138.84937625974715	2	-99	-93.5	221.41084095663678	-104.13507846325808	-91.842445095783	1750	1700	0	2020-05-31 01:01:20.165246
A21D9YDJU8K2QI	70	55	1	1034	220.49423306844562	6	-196	-106.5	207.870571241191	-194.91819318104424	-103.07572354089561	1700	1650	0	2020-05-31 01:01:25.732738
A21D9YDJU8K2QI	71	56	1	1224	262.1213777885726	2	-83	241.5	109.15486437245495	-86.00794742619415	247.60906621792472	1650	1600	0	2020-05-31 01:01:30.953986
A21D9YDJU8K2QI	72	57	1	1189	191.7233843145246	10	19	187.5	85.1548956625605	16.193393330662186	191.03829486637846	1600	1550	0	2020-05-31 01:01:36.153201
A21D9YDJU8K2QI	73	58	0	43	261.9718877887409	10	-2	-3.5	137.66148143167445	-193.643981247219	176.44058070161566	1550	1750	0	2020-05-31 01:01:40.660653
A21D9YDJU8K2QI	74	58	1	1096	259.14447206919726	5	-212	153.5	143.04958576045556	-207.09687074901524	155.7778659822654	1750	1700	0	2020-05-31 01:01:46.550868
A21D9YDJU8K2QI	75	59	1	1202	273.9849354134062	9	194	194.5	45.010315654647286	193.70172188123303	193.77148338631724	1700	1650	0	2020-05-31 01:01:51.748900
A21D9YDJU8K2QI	76	60	1	1092	285.40725631145506	3	-240	156.5	146.85269233620167	-238.96222815308698	156.05882054963953	1650	1600	0	2020-05-31 01:01:57.397635
A21D9YDJU8K2QI	77	61	1	1191	207.8699604045691	14	-154	137.5	137.84074266395112	-154.090273538536	139.5209949771585	1600	1550	0	2020-05-31 01:02:14.210883
A21D9YDJU8K2QI	78	62	1	1248	140.8496910331475	6	-59	-128.5	245.51602179896003	-58.37357286372003	-128.18409205223978	1550	1500	0	2020-05-31 01:02:19.462888
A21D9YDJU8K2QI	79	63	1	1170	201.65236466872156	1	199	-24.5	352.3921995394283	199.8773248080394	-26.697026127802758	1500	1450	0	2020-05-31 01:02:24.635756
A21D9YDJU8K2QI	80	64	0	0	241.65721239692465	6	0	0	215.39770304960942	-196.98712271112353	-139.97957632971	1450	1650	0	2020-05-31 01:02:30.092964
A21D9YDJU8K2QI	81	64	1	1279	122.41077385416244	7	100	-66.5	329.8650397870513	105.86637660032024	-61.45492544209997	1650	1600	0	2020-05-31 01:02:35.384725
A21D9YDJU8K2QI	82	65	1	1209	196.59602242988188	3	-107	-165.5	237.6500097221353	-105.19649340945404	-166.0833941416339	1600	1550	0	2020-05-31 01:02:41.328159
A21D9YDJU8K2QI	83	66	0	0	130.1617419029016	10	0	0	29.95094464960698	112.77905453617069	64.9843359058551	1550	1750	0	2020-05-31 01:02:46.885708
A21D9YDJU8K2QI	84	66	1	1617	207.89043060966273	3	-31	199.5	97.63300722623582	-27.613543815389022	206.0483519396032	1750	1700	0	2020-05-31 01:02:52.502851
A21D9YDJU8K2QI	85	67	1	886	218.79472459136844	3	26	-211.5	279.1933413460817	34.956059958547996	-215.9842711430329	1700	1650	0	2020-05-31 01:02:57.394906
A21D9YDJU8K2QI	86	68	1	1005	149.37544840865664	10	136	50.5	19.4059544237013	140.8891503366683	49.63136009318018	1650	1600	0	2020-05-31 01:03:03.670993
A21D9YDJU8K2QI	87	69	1	1087	160.78719634008462	8	-161	-38.5	193.98397740956017	-156.02200103983677	-38.85431376861644	1600	1550	0	2020-05-31 01:03:12.539081
A21D9YDJU8K2QI	88	70	1	1176	125.8389197582189	6	-126	20.5	169.1739247984773	-123.59922257268927	23.636114429877747	1550	1500	0	2020-05-31 01:03:18.089298
A21D9YDJU8K2QI	89	71	1	1343	245.63412569557465	3	169	-176.5	314.841398666997	173.2080983947489	-174.16968265661032	1500	1450	0	2020-05-31 01:03:24.035955
A21D9YDJU8K2QI	90	72	1	931	118.67950353746264	13	-99	-70.5	213.76190601026929	-98.66469747350104	-65.95530329216238	1450	1400	0	2020-05-31 01:03:29.358124
A21D9YDJU8K2QI	91	73	0	0	251.99187752886755	3	0	0	252.12542876526706	-77.34493920221777	-239.82841099487987	1400	1600	0	2020-05-31 01:03:34.775261
A21D9YDJU8K2QI	92	73	1	1380	131.81167992341213	0	121	42.5	19.35366937968297	124.36312609727663	43.68216834756397	1600	1550	0	2020-05-31 01:03:42.332062
A21D9YDJU8K2QI	93	74	1	1292	299.2379776123913	7	220	-199.5	317.46718619317807	220.5055628991016	-202.28856610323865	1550	1500	0	2020-05-31 01:03:47.628690
A21D9YDJU8K2QI	94	75	1	990	123.59461496439988	1	-101	61.5	146.95031013395214	-103.59674837633686	67.40432162738679	1500	1450	0	2020-05-31 01:03:52.629778
A21D9YDJU8K2QI	95	76	1	955	137.60237897244335	4	-111	-87.5	217.72580212131558	-108.83633505325979	-84.19659655265461	1450	1400	0	2020-05-31 01:03:57.588367
A21D9YDJU8K2QI	96	77	1	1244	280.3009298496895	5	48	-282.5	278.889237701638	43.313447260437464	-276.9342098062604	1400	1350	0	2020-05-31 01:04:02.842002
A21D9YDJU8K2QI	97	78	1	1098	113.8861012506819	9	17	112.5	80.39819391246114	18.996182028685766	112.29064576541363	1350	1300	0	2020-05-31 01:04:08.240261
A21D9YDJU8K2QI	98	79	0	0	127.47745419182799	14	0	0	92.62863140884045	-5.846393998450317	127.34331943390076	1300	1500	0	2020-05-31 01:04:13.545794
A21D9YDJU8K2QI	99	79	1	1044	299.4729194256006	1	128	266.5	64.15160791204507	130.56760375259307	269.5109094630459	1500	1450	0	2020-05-31 01:04:18.996233
A21D9YDJU8K2QI	100	80	1	890	211.45426987369984	4	-146	143.5	136.27603062966165	-152.8133606522695	146.15397720889743	1450	1400	0	2020-05-31 01:04:23.878727
A21D9YDJU8K2QI	101	81	1	1065	281.11548291864295	6	-250	-141.5	210.03872468043204	-243.35809479962074	-140.72225279635285	1400	1350	0	2020-05-31 01:04:28.945694
A21D9YDJU8K2QI	102	82	1	984	290.18631574097117	5	286	36.5	7.954259702098536	287.39439189713266	40.15670989256877	1350	1300	0	2020-05-31 01:04:34.107587
A21D9YDJU8K2QI	103	83	1	997	241.9498610865457	0	155	-179.5	311.4222515636398	160.07478560772557	-181.4271156482389	1300	1250	0	2020-05-31 01:04:39.108880
A21D9YDJU8K2QI	104	84	1	1029	288.6507475703441	14	265	-99.5	341.1940224353537	273.24131029148464	-93.05074112069777	1250	1200	0	2020-05-31 01:04:44.141441
A21D9YDJU8K2QI	105	85	1	1174	276.3898165615216	2	-51	-274.5	259.3970526498456	-50.856255122445965	-271.67070510791604	1200	1150	0	2020-05-31 01:04:49.322485
A21D9YDJU8K2QI	106	86	0	0	190.04280701659772	11	0	0	143.77733860150565	-153.31259801722803	112.30100528470639	1150	1350	0	2020-05-31 01:04:54.480840
A21D9YDJU8K2QI	107	86	1	1204	287.5613970918384	4	-182	-223.5	230.4050171219377	-183.27913049832415	-221.58591431133033	1350	1300	0	2020-05-31 01:04:59.686271
A21D9YDJU8K2QI	108	87	1	1191	153.9463514599574	1	137	71.5	28.234876340195527	135.62914395256087	72.83003802366336	1300	1250	0	2020-05-31 01:05:04.885217
A21D9YDJU8K2QI	109	88	0	0	234.77030142456874	9	0	0	81.46345293638986	34.84936016890324	232.16937034587684	1250	1450	0	2020-05-31 01:05:10.140910
A21D9YDJU8K2QI	110	88	0	0	170.42141139343894	6	0	0	18.49673463078867	161.61773735681223	54.066296645842336	1450	1650	0	2020-05-31 01:05:15.596649
A21D9YDJU8K2QI	111	88	1	1064	220.6115090293427	12	61	-212.5	287.8736656382098	67.70991057002101	-209.96382051868724	1650	1600	0	2020-05-31 01:05:20.667401
A21D9YDJU8K2QI	112	89	1	1390	173.31570062886635	11	101	-135.5	309.0791111553659	109.25697590593957	-134.54086851348836	1600	1550	0	2020-05-31 01:05:26.067320
A21D9YDJU8K2QI	113	90	0	0	234.78622266854634	9	0	0	293.72282560464754	94.45743882925872	-214.94734844789565	1550	1750	0	2020-05-31 01:05:31.616637
A21D9YDJU8K2QI	114	90	1	1627	251.8112046696773	7	-97	-231.5	247.1775798827652	-97.67159491861179	-232.09726914216097	1750	1700	0	2020-05-31 01:05:37.561843
A21D9YDJU8K2QI	115	91	1	1238	151.61900137007262	3	-81	129.5	120.46775613867503	-76.87892876366189	130.68263805345333	1700	1650	0	2020-05-31 01:05:58.707322
A21D9YDJU8K2QI	116	92	1	1545	229.1837396654308	2	-113	-200.5	241.2996441461803	-110.06066556375735	-201.0269544680382	1650	1600	0	2020-05-31 01:06:04.254130
A21D9YDJU8K2QI	117	93	1	1328	252.48482659376918	4	-257	-19.5	184.54117411928573	-251.6921993967446	-19.990608367807432	1600	1550	0	2020-05-31 01:06:10.335795
A21D9YDJU8K2QI	118	94	1	1187	291.0056195025379	1	-270	-105.5	200.531917638236	-272.52005633486215	-102.06414393556362	1550	1500	0	2020-05-31 01:06:15.889527
A21D9YDJU8K2QI	119	95	1	968	199.26334585908904	8	-46	-194.5	258.13396187519595	-40.973354402431866	-195.00529539469346	1500	1450	0	2020-05-31 01:06:20.860678
A21D9YDJU8K2QI	120	96	1	1071	257.2106986761255	13	36	-262.5	278.2552782932381	36.931287362842234	-254.54552348682898	1450	1400	0	2020-05-31 01:06:26.401390
A21D9YDJU8K2QI	121	97	1	1131	102.01459814462095	8	98	-19.5	352.96713564299563	101.24704899783958	-12.490528565179607	1400	1350	0	2020-05-31 01:06:31.913172
A21D9YDJU8K2QI	122	98	0	0	161.39363859112504	5	0	0	93.7135691020547	-10.453246204039376	161.0547615610306	1350	1550	0	2020-05-31 01:06:38.090457
A21D9YDJU8K2QI	123	98	1	1471	291.7701853891062	3	293	3.5	3.1835377864861325	291.319914433577	16.203349542817783	1550	1500	0	2020-05-31 01:06:44.207499
A21D9YDJU8K2QI	124	99	0	0	296.14520292070654	13	0	0	295.7530594659754	128.6731219101295	-266.7305923789909	1500	1700	0	2020-05-31 01:06:50.450871
A21D9YDJU8K2QI	125	99	1	1498	267.6192352281537	4	-79	-258.5	253.36649265556554	-76.60567383020121	-256.4207983006111	1700	1650	0	2020-05-31 01:06:56.770397
A21D9YDJU8K2QI	126	100	0	0	167.8117190296437	4	0	0	142.27627344779188	-132.73407363478216	102.67637868565637	1650	1850	0	2020-05-31 01:07:02.450650
A21D9YDJU8K2QI	127	100	0	0	105.61357317631108	2	0	0	43.254296487998225	76.92043404247836	72.37039219034779	1850	2000	0	2020-05-31 01:07:08.854695
A21D9YDJU8K2QI	128	100	1	1638	280.1841890034667	5	86	260.5	71.82650262129447	87.3881787386876	266.2075994111843	2000	1950	0	2020-05-31 01:07:14.493188
A21D9YDJU8K2QI	129	101	1	1756	230.12103644455087	3	-132	188.5	122.64221314675602	-124.12529020675802	193.77462100440917	1950	1900	0	2020-05-31 01:07:20.762917
A21D9YDJU8K2QI	130	102	1	1446	120.17418775831047	8	-105	-67.5	213.922435983928	-99.71979816157365	-67.06561904571275	1900	1850	0	2020-05-31 01:07:26.750013
A21D9YDJU8K2QI	131	103	1	1143	122.32921539145724	9	24	117.5	80.07258859974841	21.08960270337999	120.49757506316519	1850	1800	0	2020-05-31 01:07:32.533579
A21D9YDJU8K2QI	132	104	1	1296	162.77002499460625	11	-96	-129.5	229.53491547413327	-105.63523044665153	-123.83569406769428	1800	1750	0	2020-05-31 01:07:37.797007
A21D9YDJU8K2QI	133	105	1	1361	168.99182331256006	3	-110	125.5	129.71742975360846	-107.98608678006325	129.9893895994291	1750	1700	0	2020-05-31 01:07:47.466243
A21D9YDJU8K2QI	134	106	1	1614	107.64926005021782	6	-83	65.5	137.50256632382232	-79.37061717074099	72.72323094648023	1700	1650	0	2020-05-31 01:07:53.489027
A21D9YDJU8K2QI	135	107	1	1343	169.48398987468747	14	98	-129.5	309.42184101625867	107.62657597455338	-130.92495166253394	1650	1600	0	2020-05-31 01:07:59.533982
A21D9YDJU8K2QI	136	108	1	1108	240.7722511534725	3	-137	201.5	123.61102449791287	-133.27991410636807	200.51868097838164	1600	1550	0	2020-05-31 01:08:05.805141
A21D9YDJU8K2QI	137	109	1	1120	289.7523851506237	4	-32	282.5	96.6244531399282	-33.42615370289396	287.8178885147792	1550	1500	0	2020-05-31 01:08:13.345177
A21D9YDJU8K2QI	138	110	0	0	212.45873880404872	9	0	0	310.9061324645968	139.12259470069506	-160.5727851721864	1500	1700	0	2020-05-31 01:08:18.852087
A21D9YDJU8K2QI	139	110	1	1219	197.4320029845323	11	-174	-91.5	208.11543673688195	-174.13501342309678	-93.03973829833289	1700	1650	0	2020-05-31 01:08:25.122051
A21D9YDJU8K2QI	140	111	1	1044	111.00623241672443	4	105	37.5	23.324891230972025	101.93418771712602	43.952303805438426	1650	1600	0	2020-05-31 01:08:30.170670
A21D9YDJU8K2QI	141	112	1	1435	274.5334162939988	11	226	-142.5	329.6439582214344	236.89533855088345	-138.7414690527542	1600	1550	0	2020-05-31 01:08:35.605777
A21D9YDJU8K2QI	142	113	0	0	215.4255902523938	5	0	0	25.398582526540885	194.60382462760376	92.39878990496092	1550	1750	0	2020-05-31 01:08:41.165955
A21D9YDJU8K2QI	143	113	1	1019	149.9660100160194	6	-128	68.5	151.11918068489146	-131.31417715255304	72.43197525176807	1750	1700	0	2020-05-31 01:08:46.186522
A21D9YDJU8K2QI	144	114	1	1180	163.86454338717553	2	-165	42.5	164.3931924473127	-157.8229573846763	44.085175533757145	1700	1650	0	2020-05-31 01:08:51.374057
A21D9YDJU8K2QI	145	115	1	1167	131.31762997630204	11	54	-122.5	290.9134682433047	46.87482451259357	-122.66650223066824	1650	1600	0	2020-05-31 01:08:56.551769
A21D9YDJU8K2QI	146	116	1	1181	154.6508298763125	7	143	-26.5	351.23290053219654	152.84389985554103	-23.571624008148095	1600	1550	0	2020-05-31 01:09:01.747102
A21D9YDJU8K2QI	147	117	1	1109	174.7402162352457	4	29	166.5	79.10354206662655	33.03197085938395	171.58972017893507	1550	1500	0	2020-05-31 01:09:06.843751
A21D9YDJU8K2QI	148	118	1	998	162.39565899347608	13	9	-164.5	274.6341876227389	13.120542028681822	-161.86476280154048	1500	1450	0	2020-05-31 01:09:11.862387
A21D9YDJU8K2QI	149	119	1	1384	208.26284922079577	4	-112	191.5	119.21872243991618	-101.66244276687841	181.76402860916977	1450	1400	0	2020-05-31 01:09:17.911147
A21D9YDJU8K2QI	150	120	1	1050	263.6916267608829	11	225	-118.5	333.0503015181653	235.05596898074896	-119.50717748454258	1400	1350	0	2020-05-31 01:09:23.852314
A21D9YDJU8K2QI	151	121	1	986	215.73398806211034	2	36	215.5	80.40102296656956	35.973889003427836	212.71349960722245	1350	1300	0	2020-05-31 01:09:33.985696
A21D9YDJU8K2QI	152	122	1	1196	292.75666380781104	10	275	-81.5	345.0999523355226	282.91297434231336	-75.27757403546707	1300	1250	0	2020-05-31 01:09:39.866515
A21D9YDJU8K2QI	153	123	0	0	262.17076258656516	14	0	0	154.29848597245623	-236.2330454429476	113.69897535145763	1250	1450	0	2020-05-31 01:09:45.988412
A21D9YDJU8K2QI	154	123	1	1018	163.7911249353967	7	121	-108.5	318.71742291521434	123.08326442523123	-108.06499260181968	1450	1400	0	2020-05-31 01:09:54.420386
A21D9YDJU8K2QI	155	124	1	1157	117.17410781595191	11	-115	10.5	176.60732037226543	-116.96874812672992	6.934227003058066	1400	1350	0	2020-05-31 01:10:00.332961
A21D9YDJU8K2QI	156	125	1	1016	222.0492310920159	2	206	-76.5	339.880611415276	208.4993219796857	-76.37993036503003	1350	1300	0	2020-05-31 01:10:05.716526
A21D9YDJU8K2QI	157	126	1	1283	265.677031512422	7	21	-262.5	274.18121773667565	19.37084744206572	-264.9699140329496	1300	1250	0	2020-05-31 01:10:11.774019
A21D9YDJU8K2QI	158	127	1	977	159.5371653428365	3	149	68.5	27.309453655400617	141.75539930994205	73.1950400785902	1250	1200	0	2020-05-31 01:10:18.448962
A21D9YDJU8K2QI	159	128	0	0	123.72904971330279	6	0	0	140.6499358860154	-95.67800089951743	78.45124528539297	1200	1400	0	2020-05-31 01:10:23.659227
A21D9YDJU8K2QI	160	128	1	1245	151.91498848209855	5	153	19.5	8.323004825684821	150.31498167122277	21.99022534436834	1400	1350	0	2020-05-31 01:10:30.822321
A21D9YDJU8K2QI	161	129	1	1253	222.5359802429684	1	-217	-48.5	193.23475048731618	-216.62547504139175	-50.947679689954334	1350	1300	0	2020-05-31 01:10:36.673751
A21D9YDJU8K2QI	162	130	1	919	104.74208235981277	12	91	44.5	28.74764879206839	91.83225337620502	50.375996832998574	1300	1250	0	2020-05-31 01:10:41.928171
A21D9YDJU8K2QI	163	131	1	1177	256.18466670863063	6	12	-261.5	273.1352849824605	14.011697715826617	-255.8012036401167	1250	1200	0	2020-05-31 01:10:47.586351
A21D9YDJU8K2QI	164	132	0	0	256.5870827751748	4	0	0	14.917483311150743	247.93947521699002	66.05261293997386	1200	1400	0	2020-05-31 01:10:53.283449
A21D9YDJU8K2QI	165	132	0	0	244.46890564613128	9	0	0	331.7916141370626	215.43437996673964	-115.55550076116447	1400	1600	0	2020-05-31 01:10:59.564916
A21D9YDJU8K2QI	166	132	0	343	101.79271204964691	2	-5	-5.5	99.0039997426441	-15.930906943537929	100.5383629784107	1600	1800	0	2020-05-31 01:11:03.910917
A21D9YDJU8K2QI	167	132	1	852	128.27999437061953	8	-111	71.5	144.83447223413012	-104.86781312748214	73.88165351144806	1800	1750	0	2020-05-31 01:11:10.838795
A21D9YDJU8K2QI	168	133	1	1113	257.7019566296916	12	14	258.5	86.91795453358988	13.855578445645445	257.32920820751775	1750	1700	0	2020-05-31 01:11:15.947306
A21D9YDJU8K2QI	169	134	1	924	213.30954338843145	1	145	153.5	47.23411543243418	144.83809752256602	156.59785058111356	1700	1650	0	2020-05-31 01:11:21.999600
A21D9YDJU8K2QI	170	135	1	1195	287.41477425840526	8	97	-270.5	289.29966125099145	94.99311578877011	-271.2628990753276	1650	1600	0	2020-05-31 01:11:27.199905
A21D9YDJU8K2QI	171	136	1	1120	214.13990118345052	2	199	54.5	14.477071369861179	207.34047963596512	53.53338008370003	1600	1550	0	2020-05-31 01:11:32.318905
A21D9YDJU8K2QI	172	137	1	1296	158.52935670148676	6	-80	-141.5	244.43874148033936	-68.40159071310036	-143.01321380944046	1550	1500	0	2020-05-31 01:11:38.352538
A21D9YDJU8K2QI	173	138	1	1443	243.18855718611246	7	-253	-0.5	180.43543185293322	-243.18153445279788	-1.848147030346307	1500	1450	0	2020-05-31 01:11:45.649269
A21D9YDJU8K2QI	174	139	1	1309	118.33370847655789	13	-43	-117.5	252.65783498846994	-35.27260645244853	-112.95445894636332	1450	1400	0	2020-05-31 01:11:51.315433
A21D9YDJU8K2QI	175	140	0	0	213.6249232710338	8	0	0	278.3829448710701	31.14406721483996	-211.3425061833814	1400	1600	0	2020-05-31 01:11:58.505716
A21D9YDJU8K2QI	176	140	1	1149	167.86881591632388	13	-28	174.5	98.31682036393771	-24.281668674978164	166.10340130023593	1600	1550	0	2020-05-31 01:12:06.771502
A21D9YDJU8K2QI	177	141	1	882	208.089267389725	10	-175	116.5	146.08088491732335	-172.6779183931886	116.11838658105687	1550	1500	0	2020-05-31 01:12:13.842861
A21D9YDJU8K2QI	178	142	1	866	221.77003503419553	8	-26	217.5	96.65081890078183	-25.68500277544487	220.27761818099836	1500	1450	0	2020-05-31 01:12:19.980556
A21D9YDJU8K2QI	179	143	1	1042	178.11101518182278	4	-78	157.5	116.38265736116503	-79.14613014602193	159.56009467284878	1450	1400	0	2020-05-31 01:12:25.703949
A21D9YDJU8K2QI	180	144	1	1138	186.31973849163126	0	-27	-182.5	261.7911888955927	-26.602945143570736	-184.4107596136354	1400	1350	0	2020-05-31 01:12:31.203952
A21D9YDJU8K2QI	181	145	0	0	281.19269233689664	0	0	0	125.14658154841825	-161.8742587217006	229.9261937817711	1350	1550	0	2020-05-31 01:12:37.455628
A21D9YDJU8K2QI	182	145	1	1131	129.1470871427078	0	-10	-125.5	258.74393253012073	-25.208760221221077	-126.66289324642455	1550	1500	0	2020-05-31 01:12:42.589589
A21D9YDJU8K2QI	183	146	1	1305	140.3389730675264	10	131	-67.5	332.967772528245	125.00708406868688	-63.782884023005366	1500	1450	0	2020-05-31 01:12:49.111316
A21D9YDJU8K2QI	184	147	1	990	139.94661549209258	9	-137	-51.5	200.21789600542553	-131.32382228395392	-48.36433488040642	1450	1400	0	2020-05-31 01:12:55.146654
A21D9YDJU8K2QI	185	148	0	0	289.4632647920551	3	0	0	202.14055363775728	-268.118854224461	-109.09290386380603	1400	1600	0	2020-05-31 01:13:01.710231
A21D9YDJU8K2QI	186	148	1	1275	147.6615244448245	8	123	77.5	32.500589705904794	124.53565000966294	79.33976101577467	1600	1550	0	2020-05-31 01:13:07.379255
A21D9YDJU8K2QI	187	149	0	0	250.9826218269991	14	0	0	232.6829449711286	-152.15197986067935	-199.60473812920844	1550	1750	0	2020-05-31 01:13:13.692518
A21D9YDJU8K2QI	188	149	1	1209	130.50959407654074	9	121	-15.5	353.9007105446894	129.77081344155332	-13.866871483539517	1750	1700	0	2020-05-31 01:13:19.798515
A21D9YDJU8K2QI	189	150	1	1270	231.88040413507665	3	118	197.5	58.216456525645775	122.13411423269952	197.10854867925028	1700	1650	0	2020-05-31 01:13:27.633688
