AYN2UIUYSKVFA	1	1	0	195	117.98352480942773	4	-2	-3	274.98455605685587	10.251260197765323	-117.53732935035815	1500	1700	1	2020-05-31 02:36:47.637910
AYN2UIUYSKVFA	1	1	0	0	240.20895509066912	7	0	0	155.4648535659863	-218.51970020551076	99.74709383157388	1500	1700	0	2020-05-31 02:37:54.291074
AYN2UIUYSKVFA	2	1	0	212	138.67338643498633	3	-2	-2	34.92772892667314	113.69482654918885	79.39643897113342	1700	1900	0	2020-05-31 02:38:03.054091
AYN2UIUYSKVFA	3	1	1	1345	281.4257351243942	2	-17	-277	267.897211803765	-10.326168528608953	-281.2362256783867	1900	1850	0	2020-05-31 02:38:08.897945
AYN2UIUYSKVFA	4	2	1	882	192.30971465787275	11	3	-198	272.1558715835266	7.23434132876013	-192.17359510955563	1850	1800	0	2020-05-31 02:38:14.171515
AYN2UIUYSKVFA	5	3	1	1283	285.44253138971783	10	224	176	38.8195616340581	222.39512329361787	178.93531753509856	1800	1750	0	2020-05-31 02:38:19.458239
AYN2UIUYSKVFA	6	4	1	1076	194.88344009840148	8	119	151	52.345211073498675	119.05478262527285	154.29035601305827	1750	1700	0	2020-05-31 02:38:24.588293
AYN2UIUYSKVFA	7	5	1	1151	113.02731517219922	0	52	-100	297.20222453300494	51.668454483015964	-100.52633876936017	1700	1650	0	2020-05-31 02:38:30.085130
AYN2UIUYSKVFA	8	6	0	68	163.12828822646833	12	-1	-1	277.3067784307066	20.746974565182285	-161.80358916318698	1650	1850	0	2020-05-31 02:38:34.445853
AYN2UIUYSKVFA	9	6	1	1144	242.84332126183253	4	-141	201	125.12538295375124	-139.7241908579477	198.6203140934215	1850	1800	0	2020-05-31 02:38:39.241876
AYN2UIUYSKVFA	10	7	1	1087	140.26319772356038	7	135	-39	343.73548237436415	134.6497131211217	-39.28383117821152	1800	1750	0	2020-05-31 02:38:44.712797
AYN2UIUYSKVFA	11	8	1	1146	147.87506404130232	6	103	101	45.15352655605064	104.28290312492872	104.84326721852956	1750	1700	0	2020-05-31 02:38:51.164747
AYN2UIUYSKVFA	12	9	1	1167	184.61993429141987	0	162	-82	333.8512738258122	165.72465867204153	-81.36250761747405	1700	1650	0	2020-05-31 02:38:56.235158
AYN2UIUYSKVFA	13	10	1	1027	166.5278265557347	14	145	88	31.687217943786933	141.70324288141745	87.47404171676801	1650	1600	0	2020-05-31 02:39:01.567572
AYN2UIUYSKVFA	14	11	1	1336	293.99792097868493	5	-193	-224	228.7593940626016	-193.81005522167854	-221.07111985684378	1600	1550	0	2020-05-31 02:39:07.163205
AYN2UIUYSKVFA	15	12	1	1540	189.48563245989342	9	-187	-23	188.7087817500108	-187.30099412491862	-28.690460235817348	1550	1500	0	2020-05-31 02:39:12.724275
AYN2UIUYSKVFA	16	13	1	1462	226.13497270784524	1	25	-228	275.9557684512775	23.463917422585485	-224.91436250440745	1500	1450	0	2020-05-31 02:39:18.651064
AYN2UIUYSKVFA	17	14	1	1293	260.03894103266157	11	265	37	8.573003634016656	257.13345538954593	38.76386168611732	1450	1400	0	2020-05-31 02:39:24.561952
AYN2UIUYSKVFA	18	15	1	1384	257.5425210915737	8	-19	254	94.48765865983736	-20.15124996393309	256.7529499248154	1400	1350	0	2020-05-31 02:39:29.963298
AYN2UIUYSKVFA	19	16	0	0	197.17032117139297	8	0	0	342.9397388175889	188.49418098850663	-57.845304773182455	1350	1550	0	2020-05-31 02:39:35.244812
AYN2UIUYSKVFA	20	16	1	1251	127.39610388807954	2	88	-90	315.28109323822036	90.52350879403554	-89.63962093560261	1550	1500	0	2020-05-31 02:39:41.314118
AYN2UIUYSKVFA	21	17	1	1339	295.72400202514126	11	42	-294	278.0801226099527	41.56630289293713	-292.788196206026	1500	1450	0	2020-05-31 02:39:47.002304
AYN2UIUYSKVFA	22	18	0	0	279.8901529246417	11	0	0	209.80065977812703	-242.87740367339936	-139.10091476711412	1450	1650	0	2020-05-31 02:39:52.677774
AYN2UIUYSKVFA	23	18	1	1275	133.6736927060549	10	-135	-20	188.9445060940991	-132.04813934467688	-20.783286970101535	1650	1600	0	2020-05-31 02:39:57.802874
AYN2UIUYSKVFA	24	19	1	1253	120.10448234715776	7	-114	-48	202.4724515047897	-110.98415925293088	-45.90863834616319	1600	1550	0	2020-05-31 02:40:02.958564
AYN2UIUYSKVFA	25	20	1	1164	104.20371809281197	3	-7	-105	266.30810122284527	-6.709803422937028	-103.98746752561951	1550	1500	0	2020-05-31 02:40:08.193159
AYN2UIUYSKVFA	26	21	1	1020	163.1165852793016	9	128	-102	321.15170790290097	127.0367545955001	-102.31658406642765	1500	1450	0	2020-05-31 02:40:13.324346
AYN2UIUYSKVFA	27	22	0	0	273.87314182164494	1	0	0	8.792357330844478	270.6547981145317	41.86260943659565	1450	1650	0	2020-05-31 02:40:19.080981
AYN2UIUYSKVFA	28	22	1	1181	246.98515465430998	7	-104	-229	246.46992740230235	-98.60396911725911	-226.44850163764835	1650	1600	0	2020-05-31 02:40:24.597899
AYN2UIUYSKVFA	29	23	0	0	235.15546793373989	2	0	0	108.84399094793142	-75.95343485310819	222.55149928308913	1600	1800	0	2020-05-31 02:40:29.846540
AYN2UIUYSKVFA	30	23	1	1269	203.94295398789995	10	-162	126	141.06111967928447	-158.63026404533343	128.17631532470602	1800	1750	0	2020-05-31 02:40:35.136218
AYN2UIUYSKVFA	31	24	1	1350	217.37582487234437	1	-40	-218	260.01395181442405	-37.69478677560254	-214.08258287136297	1750	1700	0	2020-05-31 02:40:40.700392
AYN2UIUYSKVFA	32	25	1	1227	136.98146307247998	6	-108	-85	217.35042007019263	-108.89203129762323	-83.10503441642173	1700	1650	0	2020-05-31 02:40:45.768864
AYN2UIUYSKVFA	33	26	1	1308	108.94270615008908	12	-106	31	161.98571053450368	-103.60227133675951	33.69098688327658	1650	1600	0	2020-05-31 02:40:51.090746
AYN2UIUYSKVFA	34	27	1	1262	265.11186287779844	12	-263	7	178.29782554668688	-264.99487790057236	7.874930158251687	1600	1550	0	2020-05-31 02:40:56.370235
AYN2UIUYSKVFA	35	28	1	1367	230.5019737519206	5	89	-213	292.79414976243	89.30141045666183	-212.50039527958978	1550	1500	0	2020-05-31 02:41:02.005798
AYN2UIUYSKVFA	36	29	1	1316	181.66490940532523	3	96	-156	302.3135176688562	97.10929620002337	-153.5315078437685	1500	1450	0	2020-05-31 02:41:07.413608
AYN2UIUYSKVFA	37	30	1	1445	225.94821186298697	8	127	-186	304.62843103796564	128.3955521914147	-185.92250165470276	1450	1400	0	2020-05-31 02:41:12.813525
AYN2UIUYSKVFA	38	31	0	0	281.59143793238246	11	0	0	335.0811100202038	255.37672602092383	-118.64428230496742	1400	1600	0	2020-05-31 02:41:22.907755
AYN2UIUYSKVFA	39	31	1	1041	230.98284652936107	8	-208	107	152.34853987489277	-204.60162881598822	107.1972428593709	1600	1550	0	2020-05-31 02:41:28.033137
AYN2UIUYSKVFA	40	32	1	1359	163.22105433043515	0	-149	71	153.95490100658648	-146.64574646030525	71.66685162499284	1550	1500	0	2020-05-31 02:41:34.288945
AYN2UIUYSKVFA	41	33	1	1388	125.24118780483434	6	-71	99	126.14678217962822	-73.87425193350951	101.13332795883932	1500	1450	0	2020-05-31 02:41:39.541849
AYN2UIUYSKVFA	42	34	1	1447	206.1521990948903	2	200	-53	345.5271117571268	199.61016709643349	-51.521940796064655	1450	1400	0	2020-05-31 02:41:45.362959
AYN2UIUYSKVFA	43	35	1	1090	147.28104563230775	2	99	-114	311.56178019479097	97.71025726999054	-110.2016879488612	1400	1350	0	2020-05-31 02:41:50.477350
AYN2UIUYSKVFA	44	36	0	0	264.1337517120321	8	0	0	315.37292338422526	187.9824447877343	-185.5511768895575	1350	1550	0	2020-05-31 02:41:56.411266
AYN2UIUYSKVFA	45	36	1	1029	174.4194460972255	6	166	-23	351.99044508693305	172.7179575072224	-24.303298776015225	1550	1500	0	2020-05-31 02:42:01.452300
AYN2UIUYSKVFA	46	37	1	1201	121.30315921764279	9	25	126	76.7965174262731	27.706860192575782	118.09651279546681	1500	1450	0	2020-05-31 02:42:06.821908
AYN2UIUYSKVFA	47	38	1	1053	106.03899240538404	7	-102	25	164.09587133428013	-101.97998582011351	29.057708142221735	1450	1400	0	2020-05-31 02:42:11.751322
AYN2UIUYSKVFA	48	39	1	1169	201.94262191781425	8	-202	-26	187.82430563558574	-200.06257224885215	-27.491630221107027	1400	1350	0	2020-05-31 02:42:16.983773
AYN2UIUYSKVFA	49	40	1	1121	232.71891206077555	8	-143	-187	233.01017096658572	-140.02074238891194	-185.88244600179152	1350	1300	0	2020-05-31 02:42:22.081192
AYN2UIUYSKVFA	50	41	1	1286	281.2141954803586	7	-79	266	106.04736974834435	-77.73660034560315	270.2562574786629	1300	1250	0	2020-05-31 02:42:27.713437
AYN2UIUYSKVFA	51	42	1	1139	146.12764559871067	13	7	-148	273.4188573104275	8.714309461598102	-145.8675756253935	1250	1200	0	2020-05-31 02:42:32.880992
AYN2UIUYSKVFA	52	43	0	0	293.9643351821941	13	0	0	271.85779942854543	9.530040212468672	-293.8098172162702	1200	1400	0	2020-05-31 02:42:38.232703
AYN2UIUYSKVFA	53	43	1	1172	166.08570211547135	9	-146	-79	209.26935555891734	-144.88168869593667	-81.2019502709312	1400	1350	0	2020-05-31 02:42:43.792226
AYN2UIUYSKVFA	54	44	1	1149	205.45777927184955	11	-182	97	150.4217209141071	-178.68295727493586	101.41646731573476	1350	1300	0	2020-05-31 02:42:49.221619
AYN2UIUYSKVFA	55	45	1	965	141.66395388691427	11	-136	12	174.0874221556404	-140.91033390042952	14.592930855151524	1300	1250	0	2020-05-31 02:42:54.140015
AYN2UIUYSKVFA	56	46	0	0	213.074517478094	13	0	0	11.776804944876123	208.58931906352154	43.48845790711604	1250	1450	0	2020-05-31 02:42:59.634208
AYN2UIUYSKVFA	57	46	1	1098	243.27821234200013	6	-235	-66	195.24616019033377	-234.71602332676153	-63.97403374800156	1450	1400	0	2020-05-31 02:43:04.485566
AYN2UIUYSKVFA	58	47	1	1115	198.32545884539505	4	-143	-152	226.20255454936543	-137.2632303158061	-143.14954847817876	1400	1350	0	2020-05-31 02:43:09.675151
AYN2UIUYSKVFA	59	48	1	1115	191.4306966136698	7	171	75	23.375512882404685	175.71888345096042	75.95120541994494	1350	1300	0	2020-05-31 02:43:14.772915
AYN2UIUYSKVFA	60	49	1	1011	133.46570720831235	4	125	-44	338.59578408007746	124.26043925768661	-48.70768148969663	1300	1250	0	2020-05-31 02:43:19.824737
AYN2UIUYSKVFA	61	50	0	0	169.50325583717182	7	0	0	38.260455824033684	133.09462436763016	104.96273007044523	1250	1450	0	2020-05-31 02:43:25.095334
AYN2UIUYSKVFA	62	50	1	1096	262.44060028431375	4	-267	16	177.22646668903266	-262.13317631390765	12.699076863013891	1450	1400	0	2020-05-31 02:43:30.148153
AYN2UIUYSKVFA	63	51	1	1148	107.23017002913066	3	38	101	69.0481711392765	38.3436773025031	100.14026051193285	1400	1350	0	2020-05-31 02:43:35.704569
AYN2UIUYSKVFA	64	52	0	0	256.1779047352774	13	0	0	152.94340685641555	-228.1411970612883	116.52773523071362	1350	1550	0	2020-05-31 02:43:41.097703
AYN2UIUYSKVFA	65	52	1	1403	227.15429489358058	5	-51	-221	256.7199525080509	-52.17980079901486	-221.07994499088989	1550	1500	0	2020-05-31 02:43:47.200186
AYN2UIUYSKVFA	66	53	1	1212	185.33493289690384	5	-168	86	153.30688579260945	-165.58293302161798	83.25460734312682	1500	1450	0	2020-05-31 02:43:52.447379
AYN2UIUYSKVFA	67	54	1	1256	144.97243250354242	12	17	-149	277.58031451499556	19.124157900228855	-143.70550709907147	1450	1400	0	2020-05-31 02:43:58.132186
AYN2UIUYSKVFA	68	55	1	1029	149.9836339271851	6	-40	-142	254.20393450609276	-40.827670544036245	-144.319755279558	1400	1350	0	2020-05-31 02:44:03.151064
AYN2UIUYSKVFA	69	56	1	1188	165.3898251498509	13	145	-76	334.76437606010495	149.60537535717802	-70.5125941044302	1350	1300	0	2020-05-31 02:44:08.450519
AYN2UIUYSKVFA	70	57	0	0	248.61708830189176	2	0	0	348.5599875186064	243.67778816569395	-49.31117672886968	1300	1500	0	2020-05-31 02:44:13.750545
AYN2UIUYSKVFA	71	57	1	1218	178.75060293627763	2	-85	152	117.71880962620261	-83.14274815056157	158.23735804181982	1500	1450	0	2020-05-31 02:44:19.039252
AYN2UIUYSKVFA	72	58	1	1298	182.3744786557545	3	-51	174	105.92485784472845	-50.03926121286259	175.37537684130336	1450	1400	0	2020-05-31 02:44:25.198257
AYN2UIUYSKVFA	73	59	1	1052	109.54171571772942	12	-20	106	100.80018761687644	-20.526423037406477	107.60136355861518	1400	1350	0	2020-05-31 02:44:30.244146
AYN2UIUYSKVFA	74	60	1	1210	272.9965717161495	10	241	-136	330.8444973815101	238.4080967369946	-132.99890066844378	1350	1300	0	2020-05-31 02:44:35.525774
AYN2UIUYSKVFA	75	61	1	1025	216.9883833702612	0	177	117	33.49072927596927	180.96291243625078	119.73463509039179	1300	1250	0	2020-05-31 02:44:42.788036
AYN2UIUYSKVFA	76	62	1	1045	193.18894200682956	13	171	-97	331.5948261219235	169.93007908011285	-91.90068300913083	1250	1200	0	2020-05-31 02:44:47.761307
AYN2UIUYSKVFA	77	63	0	0	276.48638281229944	5	0	0	137.28600978395713	-203.1480886897476	187.5515234337803	1200	1400	0	2020-05-31 02:44:53.017535
AYN2UIUYSKVFA	78	63	1	1196	203.65396575861638	8	-113	172	122.33243539994184	-108.9204073789332	172.07929168153535	1400	1350	0	2020-05-31 02:44:58.289956
AYN2UIUYSKVFA	79	64	1	1276	116.55978333915994	13	105	-46	336.29125151863695	106.72227858556484	-46.8672417107834	1350	1300	0	2020-05-31 02:45:04.669195
AYN2UIUYSKVFA	80	65	1	1239	117.97699566856915	1	113	-23	350.1430238487066	116.23543711018269	-20.196402322848222	1300	1250	0	2020-05-31 02:45:09.920904
AYN2UIUYSKVFA	81	66	0	0	292.0694939174709	7	0	0	203.4607510116395	-267.924988541459	-116.27893099038457	1250	1450	0	2020-05-31 02:45:15.220465
AYN2UIUYSKVFA	82	66	1	1222	129.24485098984206	3	34	-127	286.3939054903788	36.47799097086593	-123.99027253021062	1450	1400	0	2020-05-31 02:45:20.762026
AYN2UIUYSKVFA	83	67	1	1202	110.94728295929306	8	-2	112	89.97312022839866	0.0520498637366464	110.94727074994285	1400	1350	0	2020-05-31 02:45:26.412258
AYN2UIUYSKVFA	84	68	1	1203	163.53801481561555	1	-21	160	97.82458395312595	-22.264173439071627	162.0153970180224	1350	1300	0	2020-05-31 02:45:31.173772
AYN2UIUYSKVFA	85	69	1	1284	249.76185848359393	5	-68	242	105.40186938268914	-66.33364576601181	240.7920957850736	1300	1250	0	2020-05-31 02:45:36.767535
AYN2UIUYSKVFA	86	70	1	1156	120.35909090064848	10	-69	98	125.26430932096973	-69.48921569561733	98.27288366807261	1250	1200	0	2020-05-31 02:45:42.274646
AYN2UIUYSKVFA	87	71	0	0	147.28693637158193	10	0	0	328.3915798713421	125.43690765415569	-77.19471370430259	1200	1400	0	2020-05-31 02:45:47.531858
AYN2UIUYSKVFA	88	71	0	0	132.38102262424025	4	0	0	258.8228205474933	-25.661217647497203	-129.87007761562086	1400	1600	0	2020-05-31 02:45:52.951242
AYN2UIUYSKVFA	89	71	1	1184	113.76628677012137	3	77	87	48.310165273629124	75.66571586299806	84.95567931810996	1600	1550	0	2020-05-31 02:45:58.123399
AYN2UIUYSKVFA	90	72	1	1395	232.48613643270005	12	-178	149	139.69502732793717	-177.29676217540458	150.38504498626867	1550	1500	0	2020-05-31 02:46:06.703337
AYN2UIUYSKVFA	91	73	1	967	105.79132816671786	8	74	-70	317.26925250776	77.70907917495536	-71.78512470601909	1500	1450	0	2020-05-31 02:46:11.713564
AYN2UIUYSKVFA	92	74	1	1417	262.1334271402706	14	-110	238	114.09972869424567	-107.03592993017521	239.28485812580408	1450	1400	0	2020-05-31 02:46:18.096786
AYN2UIUYSKVFA	93	75	1	1161	262.85035349633694	5	-98	-248	249.06340669931384	-93.92552020652869	-245.49603863826857	1400	1350	0	2020-05-31 02:46:22.902678
AYN2UIUYSKVFA	94	76	1	1200	131.45150724654684	4	106	77	34.26839503579075	108.63271072771154	74.01643680520093	1350	1300	0	2020-05-31 02:46:27.962920
AYN2UIUYSKVFA	95	77	1	1219	233.52705723615009	0	108	-208	298.1740307286049	110.26009576120413	-205.85819814645762	1300	1250	0	2020-05-31 02:46:34.194782
AYN2UIUYSKVFA	96	78	1	1074	132.37047247308413	14	-26	-134	259.3887268256167	-24.375326703515007	-130.10682315253274	1250	1200	0	2020-05-31 02:46:38.552845
AYN2UIUYSKVFA	97	79	0	0	236.10393821137828	14	0	0	162.36720750296712	-225.0111741196204	71.51951593958265	1200	1400	0	2020-05-31 02:46:43.522895
AYN2UIUYSKVFA	98	79	1	1210	212.35210761764623	0	199	54	15.27260676608047	204.85256729066276	55.93606425268852	1400	1350	0	2020-05-31 02:46:48.800005
AYN2UIUYSKVFA	99	80	1	1100	220.9493650025685	9	-117	-188	237.99475249198423	-117.10248548845293	-187.36496414075103	1350	1300	0	2020-05-31 02:46:53.814723
AYN2UIUYSKVFA	100	81	1	1142	239.4270621040617	11	211	117	28.978947362470624	209.4502637160041	115.99959093496211	1300	1250	0	2020-05-31 02:46:59.069508
AYN2UIUYSKVFA	101	82	1	1003	169.2826914584942	14	110	117	45.72623606862741	118.17412958388557	121.20851754114797	1250	1200	0	2020-05-31 02:47:04.135904
AYN2UIUYSKVFA	102	83	1	812	180.92045893690636	4	136	-120	319.90049381222116	138.39093527519225	-116.53394996994814	1200	1150	0	2020-05-31 02:47:08.911152
AYN2UIUYSKVFA	103	84	1	1005	130.0395953382794	3	19	119	81.04061323880403	20.25162769218353	128.45297945770133	1150	1100	0	2020-05-31 02:47:13.949550
AYN2UIUYSKVFA	104	85	0	0	192.80635095776879	2	0	0	130.98668995065148	-126.45854074734835	145.54218097067786	1100	1300	0	2020-05-31 02:47:19.811480
AYN2UIUYSKVFA	105	85	1	1132	288.5275513623494	0	236	-163	325.1362654588024	236.7408526464515	-164.93003541921746	1300	1250	0	2020-05-31 02:47:24.952426
AYN2UIUYSKVFA	106	86	1	933	169.63077704747604	11	34	167	79.10047494945574	32.07502615528068	166.5706853527012	1250	1200	0	2020-05-31 02:47:29.916978
AYN2UIUYSKVFA	107	87	1	967	240.17172932428602	14	-213	-99	204.48157914467455	-218.57898183094537	-99.52732422990867	1200	1150	0	2020-05-31 02:47:34.890271
AYN2UIUYSKVFA	108	88	1	884	100.27782424107356	5	-94	32	159.45347077964536	-93.89889925865498	35.194300000662075	1150	1100	0	2020-05-31 02:47:40.037636
AYN2UIUYSKVFA	109	89	0	0	153.31412056312894	7	0	0	89.69877791070435	0.8060172558748535	153.31200181404216	1100	1300	0	2020-05-31 02:47:45.155459
AYN2UIUYSKVFA	110	89	0	0	222.99465317616583	0	0	0	14.141619409073547	216.2367552829951	54.481932875409036	1300	1500	0	2020-05-31 02:47:50.498386
AYN2UIUYSKVFA	111	89	1	986	194.41577098054967	0	-146	130	139.11520023741866	-146.98359959706016	127.25295067483754	1500	1450	0	2020-05-31 02:47:55.490784
AYN2UIUYSKVFA	112	90	0	0	259.35972599808224	14	0	0	269.6627071091959	-1.5268085574474428	-259.3552319222213	1450	1650	0	2020-05-31 02:48:00.985230
AYN2UIUYSKVFA	113	90	1	800	158.87773580367463	12	-129	93	142.77385177120004	-126.50701875277154	96.11508279343126	1650	1600	0	2020-05-31 02:48:06.187587
AYN2UIUYSKVFA	114	91	1	1050	143.00901077849474	14	140	-31	349.42940172930537	140.5820928996603	-26.23456345729629	1600	1550	0	2020-05-31 02:48:16.555755
AYN2UIUYSKVFA	115	92	1	1237	264.3507690931192	11	25	-258	275.9521378972349	27.412553994642526	-262.9256187662481	1550	1500	0	2020-05-31 02:48:21.766778
AYN2UIUYSKVFA	116	93	1	1086	213.66296198327603	7	-215	51	165.5767792150998	-206.92879529934677	53.21968620189247	1500	1450	0	2020-05-31 02:48:27.284903
AYN2UIUYSKVFA	117	94	1	933	231.35979353928482	12	228	68	17.692083016598232	220.41728105353374	70.31057018335162	1450	1400	0	2020-05-31 02:48:32.228242
AYN2UIUYSKVFA	118	95	1	924	192.56600440184627	12	-69	183	109.54613172460913	-64.42598375744102	181.4688917367873	1400	1350	0	2020-05-31 02:48:37.109199
AYN2UIUYSKVFA	119	96	1	1165	186.09700733419822	1	185	-21	353.81429200721055	185.01352686388876	-20.05220726328499	1350	1300	0	2020-05-31 02:48:42.329301
AYN2UIUYSKVFA	120	97	1	1001	266.37653426217423	8	-266	18	175.70443804692184	-265.6282661355238	19.95199827993713	1300	1250	0	2020-05-31 02:48:47.437916
AYN2UIUYSKVFA	121	98	1	877	139.63337389393917	5	-93	-113	230.41449770720064	-88.97843581067296	-107.61188161950597	1250	1200	0	2020-05-31 02:48:52.445001
AYN2UIUYSKVFA	122	99	1	851	137.57600730392724	6	-129	-63	206.3408715648088	-123.29150978378182	-61.0439300907623	1200	1150	0	2020-05-31 02:48:57.192170
AYN2UIUYSKVFA	123	100	1	976	195.40442648765367	4	173	-47	345.10737960540365	188.84063344638048	-50.22056402051472	1150	1100	0	2020-05-31 02:49:02.197165
AYN2UIUYSKVFA	124	101	1	877	105.28456814872298	2	21	103	79.9769536901851	18.324177570007702	103.67769676572642	1100	1050	0	2020-05-31 02:49:07.070267
AYN2UIUYSKVFA	125	102	1	823	152.31019521411037	13	131	-78	330.412157747233	132.44890323276067	-75.20427912425734	1050	1000	0	2020-05-31 02:49:11.955624
AYN2UIUYSKVFA	126	103	1	980	252.51492149522204	5	172	181	46.637165429469015	173.3808022577544	183.58344965218302	1000	950	0	2020-05-31 02:49:17.015285
AYN2UIUYSKVFA	127	104	0	0	298.0172555966641	6	0	0	272.31302115071577	12.027639784649523	-297.774445704426	950	1150	0	2020-05-31 02:49:21.901536
AYN2UIUYSKVFA	128	104	1	1041	204.76783421984007	2	143	-142	315.739262467425	146.64881761342812	-142.9125264756991	1150	1100	0	2020-05-31 02:49:27.412225
AYN2UIUYSKVFA	129	105	0	0	227.75251872555657	3	0	0	151.36390169934984	-199.89410597672514	109.14923811736284	1100	1300	0	2020-05-31 02:49:33.036891
AYN2UIUYSKVFA	130	105	1	1003	296.0337671393909	10	-85	275	108.32326484830486	-93.06648664778959	281.0242344527886	1300	1250	0	2020-05-31 02:49:38.467398
AYN2UIUYSKVFA	131	106	1	843	147.98836380965298	10	132	63	23.49213860818791	135.7223152715768	58.99160076130262	1250	1200	0	2020-05-31 02:49:43.716638
AYN2UIUYSKVFA	132	107	1	964	103.69551491744673	3	21	-101	280.16887510276445	18.30745018210933	-102.06663059895727	1200	1150	0	2020-05-31 02:49:48.761473
AYN2UIUYSKVFA	133	108	1	1084	155.33306901111254	9	115	101	42.74973277535899	114.06506080116299	105.43967105808916	1150	1100	0	2020-05-31 02:49:53.821080
AYN2UIUYSKVFA	134	109	1	941	276.9305079119146	9	-114	261	114.66825773436975	-115.58073859124286	251.65770220490725	1100	1050	0	2020-05-31 02:49:58.775140
AYN2UIUYSKVFA	135	110	1	891	108.41876011828137	3	-68	-86	231.72567417332127	-67.15754117088886	-85.11458282495313	1050	1000	0	2020-05-31 02:50:03.708721
AYN2UIUYSKVFA	136	111	0	0	100.74818908844475	14	0	0	102.84236291195309	-22.393243107475836	98.22800144424451	1000	1200	0	2020-05-31 02:50:08.670750
AYN2UIUYSKVFA	137	111	1	911	200.197369358865	8	161	-106	328.2443573617392	170.22790283400207	-105.36340823524723	1200	1150	0	2020-05-31 02:50:13.582840
AYN2UIUYSKVFA	138	112	1	869	110.95102801566843	7	-78	75	135.89379489861807	-79.66848847156236	77.22086869745883	1150	1100	0	2020-05-31 02:50:18.779436
AYN2UIUYSKVFA	139	113	1	932	128.51396829390484	11	-109	72	147.40689226839564	-108.27522887505528	69.2265473550514	1100	1050	0	2020-05-31 02:50:23.825643
AYN2UIUYSKVFA	140	114	1	932	104.24381405691582	1	-84	56	147.3359926308472	-87.75765375927598	56.26159414556148	1050	1000	0	2020-05-31 02:50:28.685785
AYN2UIUYSKVFA	141	115	0	0	174.19785126021668	4	0	0	113.08108613600102	-68.2913852553698	160.25348072219597	1000	1200	0	2020-05-31 02:50:33.663989
AYN2UIUYSKVFA	142	115	1	1182	143.78026539386929	0	-71	-127	240.83492904767974	-70.068064594864	-125.5517066417715	1200	1150	0	2020-05-31 02:50:38.869181
AYN2UIUYSKVFA	143	116	1	1069	267.688337148086	12	-152	-229	236.53781755743515	-147.59972631207154	-223.31897957340962	1150	1100	0	2020-05-31 02:50:43.929582
AYN2UIUYSKVFA	144	117	1	1075	289.73055103110687	4	-45	281	98.59002004120774	-43.27505804288308	286.4804732476088	1100	1050	0	2020-05-31 02:50:49.034582
AYN2UIUYSKVFA	145	118	1	843	144.46810410991588	0	-44	-132	252.66454209599098	-43.04653654170141	-137.9058693344031	1050	1000	0	2020-05-31 02:50:53.912732
AYN2UIUYSKVFA	146	119	1	847	201.452996531616	2	10	204	87.49488566742977	8.805221227399349	201.2604727478892	1000	950	0	2020-05-31 02:50:58.762920
AYN2UIUYSKVFA	147	120	0	0	192.70173082779567	2	0	0	206.09981614683045	-173.0517402154915	-84.77648419472388	950	1150	0	2020-05-31 02:51:03.774016
AYN2UIUYSKVFA	148	120	1	934	170.83089648676454	12	-89	141	123.78574134521097	-94.99714807449591	141.98146728423382	1150	1100	0	2020-05-31 02:51:08.915432
AYN2UIUYSKVFA	149	121	1	959	254.8894760279822	13	256	34	8.46480003938943	252.1128334922497	37.520183612670195	1100	1050	0	2020-05-31 02:51:17.273725
AYN2UIUYSKVFA	150	122	1	926	235.57426525535118	1	-1	-231	268.55907642855203	-5.923799876872841	-235.4997729205218	1050	1000	0	2020-05-31 02:51:22.395626
AYN2UIUYSKVFA	151	123	1	909	231.85267032400233	11	-106	203	119.16725161627497	-112.99586716701336	202.4539323884453	1000	950	0	2020-05-31 02:51:27.372750
AYN2UIUYSKVFA	152	124	1	859	268.8482107399641	12	-126	-250	246.32402206438252	-107.95971904070616	-246.2195351362924	950	900	0	2020-05-31 02:51:31.954755
AYN2UIUYSKVFA	153	125	0	0	202.58382307982708	4	0	0	224.08780575561312	-145.51077243667788	-140.9497090402106	900	1100	0	2020-05-31 02:51:36.879214
AYN2UIUYSKVFA	154	125	1	857	116.28541418496398	4	7	111	85.63333772703939	8.853840840094067	115.94786351868198	1100	1050	0	2020-05-31 02:51:41.766180
AYN2UIUYSKVFA	155	126	0	0	291.22734992616984	10	0	0	250.8854167604581	-95.36484262983743	-275.1707036281408	1050	1250	0	2020-05-31 02:51:46.827222
AYN2UIUYSKVFA	156	126	1	903	134.98280609175626	9	13	128	84.18912115597371	13.666360524276405	134.28919737054494	1250	1200	0	2020-05-31 02:51:51.765705
AYN2UIUYSKVFA	157	127	1	916	152.7821407296219	0	82	131	57.14793449080358	82.8800061940772	128.3483038423014	1200	1150	0	2020-05-31 02:51:56.669177
AYN2UIUYSKVFA	158	128	1	1025	248.75618999000687	4	47	-242	281.07843467299153	47.79915069151624	-244.1206325805218	1150	1100	0	2020-05-31 02:52:01.745793
AYN2UIUYSKVFA	159	129	1	961	230.17419269107853	3	84	211	68.55514512743291	84.15296545863298	214.23920599532636	1100	1050	0	2020-05-31 02:52:06.876098
AYN2UIUYSKVFA	160	130	1	954	246.03567813851615	11	233	65	14.366144975898436	238.34212730815932	61.04576371297755	1050	1000	0	2020-05-31 02:52:11.859059
AYN2UIUYSKVFA	161	131	0	0	175.01200948412935	12	0	0	230.7101482145615	-110.8252699844137	-135.45096159331908	1000	1200	0	2020-05-31 02:52:16.710888
AYN2UIUYSKVFA	162	131	1	1036	291.3729356871563	13	46	290	80.56601359565083	47.75927095019975	287.43214797453874	1200	1150	0	2020-05-31 02:52:23.064108
AYN2UIUYSKVFA	163	132	1	967	242.05280239594305	12	161	-180	311.39273923117423	160.04938008409044	-181.58677011948808	1150	1100	0	2020-05-31 02:52:29.248461
AYN2UIUYSKVFA	164	133	1	977	103.32002355269299	3	-19	-112	262.7069460824479	-13.115894090684991	-102.4841479894865	1100	1050	0	2020-05-31 02:52:34.161861
AYN2UIUYSKVFA	165	134	1	807	207.86041286456367	10	104	-187	299.95096004152225	103.77609419768558	-180.10128680634116	1050	1000	0	2020-05-31 02:52:39.019974
AYN2UIUYSKVFA	166	135	1	972	150.30110227342405	10	-50	149	109.2008289123986	-49.431072993856226	141.940094290804	1000	950	0	2020-05-31 02:52:43.927802
AYN2UIUYSKVFA	167	136	1	921	172.70766739566295	8	25	163	84.00626801916172	18.034076662160462	171.76353063498158	950	900	0	2020-05-31 02:52:48.864627
AYN2UIUYSKVFA	168	137	1	812	180.09412016847884	11	-123	-145	230.81809714055598	-113.7806738963287	-139.59889099472034	900	850	0	2020-05-31 02:52:53.864827
AYN2UIUYSKVFA	169	138	1	846	266.8433095742086	13	235	113	26.064470348426774	239.7054019607235	117.24620307440628	850	800	0	2020-05-31 02:52:58.910482
AYN2UIUYSKVFA	170	139	0	0	136.3180803706029	8	0	0	1.9558509613972852	136.23866445559779	4.652455618400661	800	1000	0	2020-05-31 02:53:04.932851
AYN2UIUYSKVFA	171	139	1	829	164.1693042613481	14	-103	136	125.85020656282397	-96.14873453078907	133.06758173868997	1000	950	0	2020-05-31 02:53:09.412965
AYN2UIUYSKVFA	172	140	0	0	279.05240647593666	7	0	0	195.4781024085926	-268.9318781646836	-74.47073564043234	950	1150	0	2020-05-31 02:53:14.017395
AYN2UIUYSKVFA	173	140	1	1017	143.51609195743754	8	93	105	49.352454031794615	93.48696526857898	108.89010963171621	1150	1100	0	2020-05-31 02:53:19.096805
AYN2UIUYSKVFA	174	141	1	1000	133.0050729166598	1	-53	126	112.02936808155647	-49.88778090212642	123.29460141558275	1100	1050	0	2020-05-31 02:53:24.505608
AYN2UIUYSKVFA	175	142	1	1001	270.4024652671271	14	-84	262	108.28354196410595	-84.83058663137886	256.75136765812175	1050	1000	0	2020-05-31 02:53:29.504536
AYN2UIUYSKVFA	176	143	0	0	242.8613037432243	9	0	0	349.37951812862707	238.70097501276712	-44.7599975850423	1000	1200	0	2020-05-31 02:53:34.531984
AYN2UIUYSKVFA	177	143	1	933	199.54529757732934	13	160	122	39.90764412738436	153.0671202355466	128.01868023074456	1200	1150	0	2020-05-31 02:53:39.846166
AYN2UIUYSKVFA	178	144	1	907	206.31080792173407	13	-199	91	154.67162292249353	-186.47831083507998	88.2609146418387	1150	1100	0	2020-05-31 02:53:44.758990
AYN2UIUYSKVFA	179	145	1	1091	286.10567675100333	5	-176	-235	233.79726262145513	-168.9866644247601	-230.86785292834324	1100	1050	0	2020-05-31 02:53:49.937236
AYN2UIUYSKVFA	180	146	1	765	130.098979104155	2	124	5	1.4515700209013538	130.0572295944863	3.2956629303432594	1050	1000	0	2020-05-31 02:53:54.752645
AYN2UIUYSKVFA	181	147	1	997	230.36946923670038	7	-24	221	95.89483455590998	-23.6596033300584	229.15129396680993	1000	950	0	2020-05-31 02:53:59.715227
AYN2UIUYSKVFA	182	148	0	0	158.79512066422845	1	0	0	110.68258136576473	-56.08491865684046	148.56100513264732	950	1150	0	2020-05-31 02:54:04.671992
AYN2UIUYSKVFA	183	148	1	940	248.27497438115546	12	-86	-227	247.97527948999402	-93.1047530122664	-230.1563987172381	1150	1100	0	2020-05-31 02:54:09.581651
AYN2UIUYSKVFA	184	149	1	941	164.37282144928935	2	-137	103	141.04012132839668	-127.81407904186577	103.35369190251332	1100	1050	0	2020-05-31 02:54:14.501317
AYN2UIUYSKVFA	185	150	0	0	230.1045678071136	12	0	0	274.7051820851581	18.875166736945694	-229.32910893811766	1050	1250	0	2020-05-31 02:54:19.600462
AYN2UIUYSKVFA	186	150	1	875	156.48401128229665	10	23	148	79.72743433517056	27.905964505854957	153.97565694614167	1250	1200	0	2020-05-31 02:54:24.575155
