AOIQ0RAM3NSTA	1	1	0	668	141.04398426829175	1	-3	0	228.76580246944374	-92.96751017599696	-106.06812692769697	1500	1700	0	2020-05-30 23:39:43.411584
AOIQ0RAM3NSTA	2	1	1	1174	190.27496336560907	10	186	10	4.4284678642596464	189.70689949811418	14.691969459411455	1700	1650	0	2020-05-30 23:39:50.201907
AOIQ0RAM3NSTA	3	2	1	1158	148.91385522299566	14	140	-31	347.1093994799283	145.16089930580102	-33.22122198394283	1650	1600	0	2020-05-30 23:39:55.376955
AOIQ0RAM3NSTA	4	3	1	1272	145.96925509951882	7	142	36	14.88637577594484	141.07011745189914	37.49993861882691	1600	1550	0	2020-05-30 23:40:00.647312
AOIQ0RAM3NSTA	5	4	1	1163	134.1097528306643	9	-74	92	130.94514063799426	-87.88696396034968	101.29811138483315	1550	1500	0	2020-05-30 23:40:05.834643
AOIQ0RAM3NSTA	6	5	1	1204	284.9904574823485	9	263	50	9.989466768990711	280.66990518609015	49.43647619753531	1500	1450	0	2020-05-30 23:40:11.843779
AOIQ0RAM3NSTA	7	6	0	0	130.90394471180025	3	0	0	359.9792550019886	130.90393613146486	-0.04739619630768631	1450	1650	0	2020-05-30 23:40:17.396456
AOIQ0RAM3NSTA	8	6	1	1568	214.29951107374	9	-185	-74	203.21898632180478	-196.9422679039167	-84.48682476756903	1650	1600	0	2020-05-30 23:40:22.924519
AOIQ0RAM3NSTA	9	7	1	1149	174.6591315786275	3	-125	-132	226.06875324631952	-121.17757699828645	-125.78476488281349	1600	1550	0	2020-05-30 23:40:28.781672
AOIQ0RAM3NSTA	10	8	0	0	298.5836510675786	5	0	0	117.77133303376769	-139.12325981008377	264.19105826023235	1550	1750	0	2020-05-30 23:40:34.336637
AOIQ0RAM3NSTA	11	8	1	1216	113.60541470829806	3	-94	-63	217.68712836202985	-89.90288255314996	-69.45258785444145	1750	1700	0	2020-05-30 23:40:40.841488
AOIQ0RAM3NSTA	12	9	1	1508	180.6549294002039	1	161	49	14.379966072697634	174.9950209986107	44.86586834430446	1700	1650	0	2020-05-30 23:40:46.348313
AOIQ0RAM3NSTA	13	10	1	1371	201.24101749179914	7	-70	-189	251.018444569603	-65.45640955293214	-190.2982016982121	1650	1600	0	2020-05-30 23:40:51.733745
AOIQ0RAM3NSTA	14	11	1	1488	172.68861518607994	8	-166	-27	185.54476171438088	-171.88060794354666	-16.685755237411303	1600	1550	0	2020-05-30 23:40:57.232467
AOIQ0RAM3NSTA	15	12	1	1322	122.51130144004074	14	-35	121	105.96316194073165	-33.69296747339489	117.78710847698606	1550	1500	0	2020-05-30 23:41:02.560661
AOIQ0RAM3NSTA	16	13	1	1349	107.96782410145869	7	90	-31	345.2816886678241	104.42503314549963	-27.4310680390835	1500	1450	0	2020-05-30 23:41:08.955893
AOIQ0RAM3NSTA	17	14	1	1319	248.27623609713837	4	199	131	32.22680457971846	210.0277374006405	132.3987875055115	1450	1400	0	2020-05-30 23:41:15.288308
AOIQ0RAM3NSTA	18	15	0	0	293.76079524504905	2	0	0	133.8954664661964	-203.67752347920748	211.68578424726712	1400	1600	0	2020-05-30 23:41:20.698955
AOIQ0RAM3NSTA	19	15	1	1305	266.57880465643905	14	213	-150	324.8437848198441	217.95087547927108	-153.4981269262761	1600	1550	0	2020-05-30 23:41:26.862992
AOIQ0RAM3NSTA	20	16	1	1206	298.73524728835497	6	244	-142	331.087348092107	261.5002254054789	-144.4312296053673	1550	1500	0	2020-05-30 23:41:32.795560
AOIQ0RAM3NSTA	21	17	0	0	267.69187466384074	3	0	0	3.4772547837625645	267.1990418108398	16.2361268906873	1500	1700	0	2020-05-30 23:41:38.306147
AOIQ0RAM3NSTA	22	17	1	1423	215.79102675791677	11	-206	-46	191.2467738445186	-211.64703280704651	-42.08682374816291	1700	1650	0	2020-05-30 23:41:44.875908
AOIQ0RAM3NSTA	23	18	1	1201	181.75200631260645	4	-26	178	101.30494845276397	-35.62899775221304	178.22560511281912	1650	1600	0	2020-05-30 23:41:51.078552
AOIQ0RAM3NSTA	24	19	1	1374	247.06926445558693	14	-142	-202	233.7317659123504	-146.15784203701622	-199.20117130606278	1600	1550	0	2020-05-30 23:41:56.451819
AOIQ0RAM3NSTA	25	20	0	600	190.8098984624167	13	0	-4	19.14318854757898	180.25849129447715	62.57230751280209	1550	1750	0	2020-05-30 23:42:01.649846
AOIQ0RAM3NSTA	26	20	1	1181	167.87574538935718	3	-157	-59	200.28859802898464	-157.4603911595649	-58.21074734023865	1750	1700	0	2020-05-30 23:42:12.257061
AOIQ0RAM3NSTA	27	21	1	1225	108.56956561963483	2	-115	9	172.61763117266014	-107.669605203506	13.950150327410471	1700	1650	0	2020-05-30 23:42:18.479806
AOIQ0RAM3NSTA	28	22	0	0	246.71944674236946	5	0	0	4.47520781447321	245.9672460426348	19.25095517273967	1650	1850	0	2020-05-30 23:42:24.125842
AOIQ0RAM3NSTA	29	22	1	1309	100.45584928718779	10	62	63	43.21123110389629	73.21568152184614	68.78111394344953	1850	1800	0	2020-05-30 23:42:31.923335
AOIQ0RAM3NSTA	30	23	1	1300	295.8525997727794	8	233	-140	329.97031396311075	256.13918935285585	-148.05903035605175	1800	1750	0	2020-05-30 23:42:37.217810
AOIQ0RAM3NSTA	31	24	1	1323	232.79136957029826	14	24	234	85.2137990953027	19.423610425603613	231.97962217498667	1750	1700	0	2020-05-30 23:42:43.200967
AOIQ0RAM3NSTA	32	25	1	1485	216.66633545493596	6	198	-71	340.20431229942807	203.86271157754405	-73.37776057990544	1700	1650	0	2020-05-30 23:42:48.701882
AOIQ0RAM3NSTA	33	26	1	1641	205.60401086928255	3	-154	-143	221.68239390936043	-153.55382620274705	-136.72685085246647	1650	1600	0	2020-05-30 23:42:54.354919
AOIQ0RAM3NSTA	34	27	1	1431	122.20860653530261	14	-16	-122	263.56245666025995	-13.702038682625357	-121.43804036314258	1600	1550	0	2020-05-30 23:42:59.783387
AOIQ0RAM3NSTA	35	28	0	0	149.10128084775602	7	0	0	183.53024932293465	-148.8183505399922	-9.180985404487965	1550	1750	0	2020-05-30 23:43:05.349351
AOIQ0RAM3NSTA	36	28	1	1101	136.8589297088336	3	-2	143	91.19426202047083	-2.8524542010362315	136.8292006337772	1750	1700	0	2020-05-30 23:43:11.479404
AOIQ0RAM3NSTA	37	29	1	1143	128.9711135129939	14	22	-124	283.94221291693486	31.07470723106038	-125.17152508172711	1700	1650	0	2020-05-30 23:43:16.620000
AOIQ0RAM3NSTA	38	30	0	345	130.66689661571056	2	1	6	127.83538186641839	-80.15040553077026	103.19762770739386	1650	1850	0	2020-05-30 23:43:23.095948
AOIQ0RAM3NSTA	39	30	1	1555	222.4561541336796	8	-113	-184	239.29791986607313	-113.58035839919918	-191.27530603257932	1850	1800	0	2020-05-30 23:43:28.666082
AOIQ0RAM3NSTA	40	31	1	1463	257.6502557997644	9	-155	-203	232.41263653064215	-157.15903224994224	-204.16829552098838	1800	1750	0	2020-05-30 23:44:13.233938
AOIQ0RAM3NSTA	41	32	1	1258	122.44080506924146	2	90	-85	317.3517101135389	90.0584375651307	-82.95317094199257	1750	1700	0	2020-05-30 23:44:19.272998
AOIQ0RAM3NSTA	42	33	0	0	247.2137059104047	0	0	0	146.1786688894982	-205.3795360790311	137.60037263727892	1700	1900	0	2020-05-30 23:44:24.985610
AOIQ0RAM3NSTA	43	33	0	0	225.94483787994997	8	0	0	177.6382941514032	-225.7529191850375	9.310705882520056	1900	2000	0	2020-05-30 23:44:32.108103
AOIQ0RAM3NSTA	44	33	1	1697	298.4198744048364	3	293	-40	351.42337870613727	295.0827387869245	-44.50391791523527	2000	1950	0	2020-05-30 23:44:41.303477
AOIQ0RAM3NSTA	45	34	1	1364	189.55280039065778	3	171	64	21.013681919765705	176.94655795746291	67.97190421745425	1950	1900	0	2020-05-30 23:44:47.510831
AOIQ0RAM3NSTA	46	35	1	1483	197.7828065642334	5	139	-140	316.30680523476997	143.0066999624716	-136.62767778992873	1900	1850	0	2020-05-30 23:44:52.991292
AOIQ0RAM3NSTA	47	36	1	1646	193.88140167583398	14	37	191	77.98793971767499	40.35012775508416	189.63613871289002	1850	1800	0	2020-05-30 23:44:58.643643
AOIQ0RAM3NSTA	48	37	1	1461	187.6628327544792	14	141	138	43.864528916547755	135.3011960306866	130.04201301925983	1800	1750	0	2020-05-30 23:45:04.121436
AOIQ0RAM3NSTA	49	38	0	0	294.7012324597733	6	0	0	324.761585390732	240.69965967803432	-170.0367320439551	1750	1950	0	2020-05-30 23:45:10.581521
AOIQ0RAM3NSTA	50	38	1	1322	170.81061160182674	13	164	29	6.235843938863752	169.79996033282916	18.55366558822674	1950	1900	0	2020-05-30 23:45:18.970329
AOIQ0RAM3NSTA	51	39	1	1405	133.351982821902	9	138	-44	339.7560799758179	125.11457201454385	-46.142119502146485	1900	1850	0	2020-05-30 23:45:24.390693
AOIQ0RAM3NSTA	52	40	1	1539	298.0378751007463	8	15	287	88.54758570201025	7.554275654851088	297.9421217516895	1850	1800	0	2020-05-30 23:45:29.938352
AOIQ0RAM3NSTA	53	41	0	0	277.3904855851879	13	0	0	233.46632359733283	-165.12921410586333	-222.88522638785702	1800	2000	0	2020-05-30 23:45:35.747419
AOIQ0RAM3NSTA	54	41	1	1852	289.91835306732526	3	38	287	83.9499466300143	30.556592420195383	288.3035658900811	2000	1950	0	2020-05-30 23:45:42.449713
AOIQ0RAM3NSTA	55	42	1	1538	231.1758151995705	13	12	241	86.92058545542227	12.418776646725158	230.84200553578788	1950	1900	0	2020-05-30 23:45:53.600539
AOIQ0RAM3NSTA	56	43	1	1367	128.05956863575742	7	111	-44	340.27740868403316	120.54728153909731	-43.215807671613305	1900	1850	0	2020-05-30 23:46:04.566597
AOIQ0RAM3NSTA	57	44	0	1538	222.52474240147865	4	-9	-1	255.48433269683323	-55.774654158758246	-215.42156097827194	1850	2000	0	2020-05-30 23:46:12.518807
AOIQ0RAM3NSTA	58	44	1	1388	180.29505568233037	6	-11	-178	266.1697068902472	-12.043969925478612	-179.89232860777798	2000	1950	0	2020-05-30 23:46:22.878019
AOIQ0RAM3NSTA	59	45	1	1364	168.0962908973346	9	141	72	27.91642562896614	148.53516876818261	78.69985166726076	1950	1900	0	2020-05-30 23:46:29.115430
AOIQ0RAM3NSTA	60	46	1	1381	185.5051333173327	4	35	186	78.28780684092584	37.656740667391254	181.64284838492878	1900	1850	0	2020-05-30 23:46:34.503038
AOIQ0RAM3NSTA	61	47	1	1628	206.99217073558503	5	-176	106	148.17289632668675	-175.86951564220888	109.15893098415921	1850	1800	0	2020-05-30 23:46:40.741105
AOIQ0RAM3NSTA	62	48	1	1542	138.95893366728345	4	95	-107	309.72852217205593	88.81570666200814	-106.87074200208681	1800	1750	0	2020-05-30 23:46:46.316863
AOIQ0RAM3NSTA	63	49	1	1592	255.61208582253022	13	-138	-210	235.72383831624066	-143.95620140628316	-211.22062043090915	1750	1700	0	2020-05-30 23:46:51.891183
AOIQ0RAM3NSTA	64	50	0	0	298.8094048668436	8	0	0	358.9961047833516	298.76353952219085	-5.235254439810787	1700	1900	0	2020-05-30 23:46:58.193972
AOIQ0RAM3NSTA	65	50	1	1334	214.09398040898685	0	-84	193	114.08292379201214	-87.36284383145534	195.45834841480777	1900	1850	0	2020-05-30 23:47:03.559841
AOIQ0RAM3NSTA	66	51	1	1396	288.08369969085413	7	17	-281	274.63312746599496	23.27002763394363	-287.14234073275526	1850	1800	0	2020-05-30 23:47:09.705626
AOIQ0RAM3NSTA	67	52	1	1320	154.83929816989985	5	118	82	31.06458124807454	132.63321042186826	79.89768301356158	1800	1750	0	2020-05-30 23:47:15.039716
AOIQ0RAM3NSTA	68	53	1	1378	112.43014072469593	14	105	-37	340.03698422654355	105.67457309939947	-38.38516827675252	1750	1700	0	2020-05-30 23:47:20.436642
AOIQ0RAM3NSTA	69	54	1	1252	221.42491411963667	6	-56	211	105.37689985443514	-58.71466835198778	213.49843164108853	1700	1650	0	2020-05-30 23:47:25.694786
AOIQ0RAM3NSTA	70	55	1	1498	286.51691635871134	13	268	66	12.976665359643018	279.19973244395	64.33857911806503	1650	1600	0	2020-05-30 23:47:31.200455
AOIQ0RAM3NSTA	71	56	1	1240	188.8067765303029	5	170	-96	327.49762684080525	159.23381827188743	-101.45240254582079	1600	1550	0	2020-05-30 23:47:36.439120
AOIQ0RAM3NSTA	72	57	0	0	214.06511412005085	13	0	0	91.3623497804098	-5.089451344631771	214.00460408187723	1550	1750	0	2020-05-30 23:47:42.036896
AOIQ0RAM3NSTA	73	57	1	1196	169.37260749289663	1	137	-95	325.44249056547966	139.4880397361669	-96.07375780880204	1750	1700	0	2020-05-30 23:47:47.997911
AOIQ0RAM3NSTA	74	58	1	1675	252.8176616515601	6	48	-235	284.14688883292945	61.79082059027516	-245.1502896872511	1700	1650	0	2020-05-30 23:47:53.687256
AOIQ0RAM3NSTA	75	59	1	1277	187.29144599853453	3	-176	14	177.55739409529878	-187.12127571955014	7.982099805819828	1650	1600	0	2020-05-30 23:47:59.852717
AOIQ0RAM3NSTA	76	60	1	1375	165.5440296702213	14	-67	143	114.60036085599461	-68.91374780878407	150.51817538889588	1600	1550	0	2020-05-30 23:48:05.249615
AOIQ0RAM3NSTA	77	61	1	1441	109.54309007991002	6	14	-104	277.07333403016145	13.489094834825918	-108.70939658002133	1550	1500	0	2020-05-30 23:49:22.059221
AOIQ0RAM3NSTA	78	62	1	1406	144.35046471037256	10	97	-89	319.5162590380422	109.79155334043838	-93.71697539503816	1500	1450	0	2020-05-30 23:49:27.476697
AOIQ0RAM3NSTA	79	63	1	1340	254.87450944067032	9	25	253	84.22283933440505	25.655593758160347	253.57997963470734	1450	1400	0	2020-05-30 23:49:32.811035
AOIQ0RAM3NSTA	80	64	1	1293	112.57986038180321	11	58	95	58.560798849888506	58.72092340997504	96.05247585286988	1400	1350	0	2020-05-30 23:49:38.122593
AOIQ0RAM3NSTA	81	65	1	1243	130.7186785798807	12	-58	-121	240.96486232811208	-63.44377540556575	-114.2902458303345	1350	1300	0	2020-05-30 23:49:43.378303
AOIQ0RAM3NSTA	82	66	0	0	230.96690500510852	2	0	0	189.03196596057057	-228.10312564000168	-36.25845116521692	1300	1500	0	2020-05-30 23:49:49.459796
AOIQ0RAM3NSTA	83	66	1	1265	242.0823145419164	0	-18	-251	265.4593435267925	-19.164804181987975	-241.32251717284362	1500	1450	0	2020-05-30 23:49:56.141802
AOIQ0RAM3NSTA	84	67	1	1250	119.71758830363508	3	-109	-61	209.39283467656657	-104.30696521239362	-58.756769460370855	1450	1400	0	2020-05-30 23:50:01.398136
AOIQ0RAM3NSTA	85	68	0	319	177.3119499897577	11	0	2	220.4082830790676	-135.01322733663477	-114.93892314319162	1400	1600	0	2020-05-30 23:50:06.455947
AOIQ0RAM3NSTA	86	68	1	1328	277.8922794715773	8	180	-196	314.4912673253978	194.7470614216409	-198.23647761586375	1600	1550	0	2020-05-30 23:50:11.788697
AOIQ0RAM3NSTA	87	69	1	1297	288.8340554451845	7	-229	-169	216.74609499055705	-231.4411659799575	-172.80074732115506	1550	1500	0	2020-05-30 23:50:17.098544
AOIQ0RAM3NSTA	88	70	1	1323	145.96858933406924	11	-68	133	114.84762659483964	-61.33695283765328	132.4560579542123	1500	1450	0	2020-05-30 23:50:22.418995
AOIQ0RAM3NSTA	89	71	0	0	214.53486524195702	10	0	0	220.43340541997364	-163.29542277804447	-139.13954615465863	1450	1650	0	2020-05-30 23:50:28.563821
AOIQ0RAM3NSTA	90	71	1	1519	259.9932696004063	4	87	-236	290.0948218971043	89.32714147790209	-244.1662589976273	1650	1600	0	2020-05-30 23:50:34.932298
AOIQ0RAM3NSTA	91	72	1	1524	161.16748174122438	9	139	23	13.656516459257135	156.61104881707396	38.051761578460074	1600	1550	0	2020-05-30 23:50:40.421212
AOIQ0RAM3NSTA	92	73	1	1349	182.16473383109098	12	-175	38	168.64656494832298	-178.60004128712222	35.861058322231024	1550	1500	0	2020-05-30 23:50:46.732160
AOIQ0RAM3NSTA	93	74	1	1333	159.34107362272556	3	-166	-49	199.03934891360427	-150.62428239721592	-51.97983547075341	1500	1450	0	2020-05-30 23:50:52.075093
AOIQ0RAM3NSTA	94	75	0	0	219.45423120416257	8	0	0	269.40303329363576	-2.2864598484577736	-219.44231974432697	1450	1650	0	2020-05-30 23:50:57.971972
AOIQ0RAM3NSTA	95	75	0	0	109.04000876638524	11	0	0	69.62782810872314	37.95865627928449	102.2196846270057	1650	1850	0	2020-05-30 23:51:05.130716
AOIQ0RAM3NSTA	96	75	1	1740	211.9445658173647	12	-187	116	148.2749709245115	-180.27612275347502	111.44962334833276	1850	1800	0	2020-05-30 23:51:10.889265
AOIQ0RAM3NSTA	97	76	0	528	283.46161907950386	7	4	-1	280.6861208561348	52.561886928446555	-278.5457548297855	1800	2000	0	2020-05-30 23:51:18.101683
AOIQ0RAM3NSTA	98	76	0	472	246.44749274464698	6	-5	2	264.3396578182474	-24.307359906298174	-245.24583367410855	2000	2000	0	2020-05-30 23:51:22.579608
AOIQ0RAM3NSTA	99	76	1	1880	241.62227702261467	12	220	-96	335.2385977099534	219.40748607184813	-101.20118482125055	2000	1950	0	2020-05-30 23:51:29.324479
AOIQ0RAM3NSTA	100	77	1	1520	182.78930254381856	7	104	-155	303.45372295908163	100.76503171958939	-152.50684413168406	1950	1900	0	2020-05-30 23:51:35.535172
AOIQ0RAM3NSTA	101	78	1	1547	248.48112593858502	9	144	-200	304.9001209850251	142.1678811596373	-203.79196135835733	1900	1850	0	2020-05-30 23:51:41.085768
AOIQ0RAM3NSTA	102	79	1	1371	196.95236436534293	3	-157	127	143.3203130672267	-157.9533283758351	117.64769391745173	1850	1800	0	2020-05-30 23:51:47.575323
AOIQ0RAM3NSTA	103	80	1	1629	189.3884086725839	8	-178	-56	197.91953549422004	-180.20109224636388	-58.27122525527589	1800	1750	0	2020-05-30 23:51:54.420369
AOIQ0RAM3NSTA	104	81	0	0	270.7756077130149	6	0	0	291.68548401333925	100.05465982137949	-251.61179380223925	1750	1950	0	2020-05-30 23:52:00.172626
AOIQ0RAM3NSTA	105	81	1	1791	258.4150666314392	7	97	243	68.23374612381338	95.82571034302444	239.99120796267917	1950	1900	0	2020-05-30 23:52:05.969396
AOIQ0RAM3NSTA	106	82	1	1378	168.0688663424266	4	-166	4	178.2156821122815	-167.98737314293834	5.23319196701712	1900	1850	0	2020-05-30 23:52:11.354264
AOIQ0RAM3NSTA	107	83	1	1582	290.053541873482	0	238	171	37.9262043537075	228.7951206972089	178.28025661441427	1850	1800	0	2020-05-30 23:52:20.663235
AOIQ0RAM3NSTA	108	84	1	1405	156.74817095729847	9	83	140	60.847391464645156	76.35790681650704	136.89214427811442	1800	1750	0	2020-05-30 23:52:26.780448
AOIQ0RAM3NSTA	109	85	0	430	235.75254249568624	12	3	3	294.91599090112425	99.31994047369706	-213.8102212652183	1750	1950	0	2020-05-30 23:52:31.213493
AOIQ0RAM3NSTA	110	85	0	112	122.4726641280832	1	0	2	204.55408284818498	-111.39739090250777	-50.89375952652893	1950	2000	0	2020-05-30 23:52:38.503105
AOIQ0RAM3NSTA	111	85	1	1613	147.07954809577518	14	134	-38	343.2887748627318	140.86781664956442	-42.29245441496804	2000	1950	0	2020-05-30 23:52:44.132423
AOIQ0RAM3NSTA	112	86	0	262	122.40497285655238	4	3	-3	93.88985131681846	-8.303778544929813	122.12298981719245	1950	2000	0	2020-05-30 23:52:48.392643
AOIQ0RAM3NSTA	113	86	0	566	188.20072330310478	4	5	4	121.91572901242536	-99.49633556143334	159.74977765761824	2000	2000	0	2020-05-30 23:52:54.184175
AOIQ0RAM3NSTA	114	86	0	0	280.0777785002756	11	0	0	107.93738762957628	-86.2576548964539	266.46421707503936	2000	2000	0	2020-05-30 23:53:00.898499
AOIQ0RAM3NSTA	115	86	1	1767	227.3571187942294	5	114	200	61.553644088494025	108.29832249085634	199.90681031940812	2000	1950	0	2020-05-30 23:53:08.048458
AOIQ0RAM3NSTA	116	87	0	77	215.51740877998213	14	6	6	236.75519131013337	-118.15040538885843	-180.24493111787177	1950	2000	0	2020-05-30 23:53:14.724082
AOIQ0RAM3NSTA	117	87	0	0	269.8104273826682	14	0	0	127.76741246520689	-165.2474322816689	213.28608217306007	2000	2000	0	2020-05-30 23:53:21.361968
AOIQ0RAM3NSTA	118	87	0	0	113.44132082016993	8	0	0	181.76103127914354	-113.38774165233691	-3.486160123634997	2000	2000	0	2020-05-30 23:53:29.857800
AOIQ0RAM3NSTA	119	87	0	159	278.2845124860271	1	-2	4	239.86267194786504	-139.71949473861514	-240.6672654923637	2000	2000	0	2020-05-30 23:53:34.853808
AOIQ0RAM3NSTA	120	87	0	1089	227.40286883938876	8	-2	4	82.52638123686819	29.5782179442458	225.47104865065702	2000	2000	0	2020-05-30 23:53:40.271937
AOIQ0RAM3NSTA	121	87	0	0	252.679686950149	12	0	0	356.9299195835184	252.31703446329595	-13.532860631559625	2000	2000	0	2020-05-30 23:53:46.287985
AOIQ0RAM3NSTA	122	87	1	1408	210.07778123390483	10	90	-189	296.2008864305001	92.7534861612394	-188.49261251597406	2000	1950	0	2020-05-30 23:53:55.013646
AOIQ0RAM3NSTA	123	88	0	322	166.57866330998564	0	4	-4	193.5175963180511	-161.96413120913908	-38.936759903853584	1950	2000	0	2020-05-30 23:53:59.986423
AOIQ0RAM3NSTA	124	88	1	1494	283.2702413402523	6	-107	-270	247.8816102704945	-106.65737119148662	-262.4237695017092	2000	1950	0	2020-05-30 23:54:05.490404
AOIQ0RAM3NSTA	125	89	0	0	143.90621417499818	8	0	0	13.753579497552115	139.78002277184737	34.213209613865196	1950	2000	0	2020-05-30 23:54:14.385731
AOIQ0RAM3NSTA	126	89	1	1830	222.39298122963595	1	101	215	65.1810939358032	93.34981008369485	201.85254781038387	2000	1950	0	2020-05-30 23:54:20.204959
AOIQ0RAM3NSTA	127	90	1	1615	261.29774077658584	7	-122	-229	240.11646112743895	-130.1886359621578	-226.55557464176553	1950	1900	0	2020-05-30 23:54:27.197910
AOIQ0RAM3NSTA	128	91	1	1674	208.28467403059526	4	-182	-81	203.63512308022618	-190.81315947899108	-83.5035544493552	1900	1850	0	2020-05-30 23:55:32.052789
AOIQ0RAM3NSTA	129	92	1	1629	138.87100077114792	4	-107	68	142.93062783485195	-110.80604135356464	83.70887679769864	1850	1800	0	2020-05-30 23:55:39.444584
AOIQ0RAM3NSTA	130	93	1	1676	119.22758137414671	4	110	-32	342.6387961302096	113.79588231837702	-35.57686506299933	1800	1750	0	2020-05-30 23:55:47.251282
AOIQ0RAM3NSTA	131	94	0	0	216.6533072207736	2	0	0	180.3888196122957	-216.6483185514033	-1.470237582364499	1750	1950	0	2020-05-30 23:55:53.878095
AOIQ0RAM3NSTA	132	94	1	1799	222.87774356542297	0	85	-202	293.4983098133478	88.8662632585084	-204.3949016763479	1950	1900	0	2020-05-30 23:56:00.295906
AOIQ0RAM3NSTA	133	95	1	1765	273.6776571824706	13	250	-107	336.990587327027	251.90404091032642	-106.97576461018878	1900	1850	0	2020-05-30 23:56:06.824051
AOIQ0RAM3NSTA	134	96	1	1359	268.2858746023182	1	248	-98	337.9699318279845	248.69755496438265	-100.63218503972112	1850	1800	0	2020-05-30 23:56:13.917389
AOIQ0RAM3NSTA	135	97	0	0	215.68607976291173	10	0	0	43.07615608084235	157.5471552425798	147.30709038761026	1800	2000	0	2020-05-30 23:56:21.273484
AOIQ0RAM3NSTA	136	97	1	1546	228.08311139796388	10	-177	133	143.72805433189157	-183.88472341507577	134.9381865875523	2000	1950	0	2020-05-30 23:56:26.803229
AOIQ0RAM3NSTA	137	98	0	402	111.34404095600816	14	1	-7	327.8185611019549	94.23778253581992	-59.302072469220974	1950	2000	0	2020-05-30 23:56:32.520774
AOIQ0RAM3NSTA	138	98	0	0	218.44540585138125	1	0	0	87.37640027237757	9.999219007797358	218.2164314546656	2000	2000	0	2020-05-30 23:56:39.168520
AOIQ0RAM3NSTA	139	98	1	1894	174.02826570618765	13	-170	1	180.91067383035076	-174.00628401501436	-2.7659334752677456	2000	1950	0	2020-05-30 23:56:47.492520
AOIQ0RAM3NSTA	140	99	1	1643	267.39953746288904	2	-264	46	169.52567452310726	-262.9437171111151	48.611873726044024	1950	1900	0	2020-05-30 23:56:56.047418
AOIQ0RAM3NSTA	141	100	0	0	168.0941289803327	13	0	0	138.27718136832712	-125.46095097653983	111.87129201774239	1900	2000	0	2020-05-30 23:57:08.621381
AOIQ0RAM3NSTA	142	100	0	0	235.9464900856897	13	0	0	254.48373281069823	-63.11850693740137	-227.34731198267923	2000	2000	0	2020-05-30 23:57:18.082548
AOIQ0RAM3NSTA	143	100	0	0	143.19918551675306	9	0	0	181.22266329961917	-143.16658214174552	-3.055567134312131	2000	2000	0	2020-05-30 23:57:32.107373
AOIQ0RAM3NSTA	144	100	0	0	222.22288468974077	4	0	0	158.36897791260267	-206.57328984838733	81.91755856374125	2000	2000	0	2020-05-30 23:57:38.154713
AOIQ0RAM3NSTA	145	100	0	0	151.93893692750694	12	0	0	84.45815454210118	14.673154219881	151.22876412872162	2000	2000	0	2020-05-30 23:57:47.089206
AOIQ0RAM3NSTA	146	100	1	1412	277.73102323826714	10	-18	273	93.59313350296824	-17.40565667816266	277.18507244181967	2000	1950	0	2020-05-30 23:57:54.049127
AOIQ0RAM3NSTA	147	101	1	1574	256.2886770022342	10	251	38	8.29997716030804	253.6042700880356	36.99675867789241	1950	1900	0	2020-05-30 23:58:03.372934
AOIQ0RAM3NSTA	148	102	1	1327	235.20697717658518	0	109	205	59.908599076038044	117.92828300822403	203.50735165904666	1900	1850	0	2020-05-30 23:58:09.649460
AOIQ0RAM3NSTA	149	103	1	1382	256.82089686960205	11	-238	74	164.40608606182542	-247.36760896866855	69.03795406898054	1850	1800	0	2020-05-30 23:58:15.802165
AOIQ0RAM3NSTA	150	104	0	0	236.33061477915285	11	0	0	113.96097673735377	-95.97725334673807	215.964178330362	1800	2000	0	2020-05-30 23:58:22.424545
AOIQ0RAM3NSTA	151	104	0	0	285.92216456368726	6	0	0	23.46939471522174	262.26866465393846	113.8711189434101	2000	2000	0	2020-05-30 23:58:32.001682
AOIQ0RAM3NSTA	152	104	0	0	122.89430298816804	9	0	0	67.732281127349	46.568931209980576	113.72925900096133	2000	2000	0	2020-05-30 23:58:40.378174
AOIQ0RAM3NSTA	153	104	1	1854	101.12124629022591	4	-26	102	107.17429266004936	-29.85902175822474	96.6123453339706	2000	1950	0	2020-05-30 23:58:51.367622
AOIQ0RAM3NSTA	154	105	0	0	194.77466885214125	8	0	0	224.60073332623838	-138.68288690438777	-136.76340338820935	1950	2000	0	2020-05-30 23:59:00.602734
AOIQ0RAM3NSTA	155	105	0	0	182.13386232977152	2	0	0	330.61404713586256	158.69945215332675	-89.37129121476381	2000	2000	0	2020-05-30 23:59:10.767331
AOIQ0RAM3NSTA	156	105	0	608	287.24167221850644	14	-1	2	352.3879288886427	284.7103993301604	-38.04953051148577	2000	2000	0	2020-05-30 23:59:19.087128
AOIQ0RAM3NSTA	157	105	1	1550	116.77256886306675	6	13	-110	273.9048561967945	7.952194513759674	-116.50148257123168	2000	1950	0	2020-05-30 23:59:24.950650
AOIQ0RAM3NSTA	158	106	0	0	153.09222777810504	14	0	0	138.9209522102422	-115.40149297818232	100.59684699069714	1950	2000	0	2020-05-30 23:59:32.423809
AOIQ0RAM3NSTA	159	106	1	1640	135.91565802306792	10	104	76	40.209687321332275	103.7970057074008	87.7453571536486	2000	1950	0	2020-05-30 23:59:38.715307
AOIQ0RAM3NSTA	160	107	0	46	256.9847104164552	2	-7	1	241.5011768695145	-122.61786693993099	-225.8450798554857	1950	2000	0	2020-05-30 23:59:43.702383
AOIQ0RAM3NSTA	161	107	1	1995	271.2201054274212	11	-201	179	140.3261997995678	-208.7558276020564	173.15123456170323	2000	1950	0	2020-05-30 23:59:49.699866
AOIQ0RAM3NSTA	162	108	1	1383	140.31221101037107	14	131	-36	344.63786162076076	135.29895054075206	-37.171367222501104	1950	1900	0	2020-05-30 23:59:55.104214
AOIQ0RAM3NSTA	163	109	1	1510	178.18596446906616	8	-50	-177	254.6991899882549	-47.020903699285384	-171.86992915886665	1900	1850	0	2020-05-31 00:00:03.538634
AOIQ0RAM3NSTA	164	110	0	0	294.6441881173072	11	0	0	287.83160690916105	90.2260892787882	-280.489661850064	1850	2000	0	2020-05-31 00:00:10.440446
AOIQ0RAM3NSTA	165	110	1	1680	160.52557491143884	1	124	-104	321.4069906899562	125.466241396485	-100.13332347668738	2000	1950	0	2020-05-31 00:00:17.342213
AOIQ0RAM3NSTA	166	111	1	1627	287.9011954423332	4	250	-121	335.17104085975575	261.28915149317436	-120.89283539193505	1950	1900	0	2020-05-31 00:00:22.968046
AOIQ0RAM3NSTA	167	112	0	0	284.3270854254796	4	0	0	167.73461360118208	-277.83706162553966	60.402472580466856	1900	2000	0	2020-05-31 00:00:28.884751
AOIQ0RAM3NSTA	168	112	1	1532	266.674675642043	3	-107	-245	244.3518290692055	-115.4284810075923	-240.39893593996777	2000	1950	0	2020-05-31 00:00:35.220993
AOIQ0RAM3NSTA	169	113	0	0	215.14154417768322	5	0	0	226.24396185526422	-148.78956382790122	-155.39481885526598	1950	2000	0	2020-05-31 00:00:42.631063
AOIQ0RAM3NSTA	170	113	1	1482	146.7758410090259	5	-149	-6	180.83877370520827	-146.76011345537378	-2.14862804427901	2000	1950	0	2020-05-31 00:00:49.018351
AOIQ0RAM3NSTA	171	114	0	493	257.4088189061909	5	3	-6	353.6542354377472	255.83167223125736	-28.450932041651885	1950	2000	0	2020-05-31 00:00:55.918512
AOIQ0RAM3NSTA	172	114	0	0	234.6571136688923	13	0	0	30.617023430925858	201.9437403222786	119.51019513022119	2000	2000	0	2020-05-31 00:01:02.641845
AOIQ0RAM3NSTA	173	114	1	1675	299.2096341535114	4	291	46	9.425999320850584	295.1696898156486	49.00264670823319	2000	1950	0	2020-05-31 00:01:11.690196
AOIQ0RAM3NSTA	174	115	1	1426	261.17282364659235	14	-10	-256	267.94373413227316	-9.371117572142428	-261.00464740495164	1950	1900	0	2020-05-31 00:01:18.265668
AOIQ0RAM3NSTA	175	116	1	1646	199.50750264418824	13	75	185	68.70260189471011	72.46290466338019	185.88268090133263	1900	1850	0	2020-05-31 00:01:25.606417
AOIQ0RAM3NSTA	176	117	1	1843	192.8677480360418	13	133	-135	311.2066386665387	127.05676613723999	-145.10184840738873	1850	1800	0	2020-05-31 00:01:35.691771
AOIQ0RAM3NSTA	177	118	1	1705	160.7255668525577	6	-61	-141	248.66809342515566	-58.46714097659023	-149.7140650242973	1800	1750	0	2020-05-31 00:01:43.196878
AOIQ0RAM3NSTA	178	119	0	501	248.7276903527691	7	0	4	190.3385747536152	-244.68945582137783	-44.63781085650333	1750	1950	0	2020-05-31 00:01:52.605717
AOIQ0RAM3NSTA	179	119	0	0	253.3028761625064	13	0	0	202.0164570989236	-234.83107240556882	-94.95638211857354	1950	2000	0	2020-05-31 00:02:02.294211
AOIQ0RAM3NSTA	180	119	1	1449	292.4654718871126	7	280	69	14.830275837938283	282.7229418601432	74.85846907396345	2000	1950	0	2020-05-31 00:02:10.398594
AOIQ0RAM3NSTA	181	120	1	1295	201.12286134094774	11	-52	188	107.79937270252802	-61.480217864062034	191.49566095699805	1950	1900	0	2020-05-31 00:02:15.706314
AOIQ0RAM3NSTA	182	121	1	1352	158.77871481853646	14	138	69	23.773754376850775	145.30545565394334	64.00784980473902	1900	1850	0	2020-05-31 00:04:03.617143
AOIQ0RAM3NSTA	183	122	0	0	226.19655929605446	13	0	0	298.75480699029464	108.81464219702637	-198.30344697182298	1850	2000	0	2020-05-31 00:04:09.476747
AOIQ0RAM3NSTA	184	122	1	1652	268.3904387418863	13	-201	-155	215.98600301365317	-217.17095834109355	-157.70289300223138	2000	1950	0	2020-05-31 00:04:16.844666
AOIQ0RAM3NSTA	185	123	1	1434	238.65503699641786	13	-87	218	111.99634910551279	-89.38765042401789	221.28279335600214	1950	1900	0	2020-05-31 00:04:22.299003
AOIQ0RAM3NSTA	186	124	0	0	119.98308508495165	0	0	0	284.95869364175746	30.970347211213614	-115.91711823591726	1900	2000	0	2020-05-31 00:04:29.225773
AOIQ0RAM3NSTA	187	124	1	1467	297.9060358163929	14	-212	228	132.7033133061526	-202.04051918709365	218.92381045114215	2000	1950	0	2020-05-31 00:04:35.381662
AOIQ0RAM3NSTA	188	125	0	0	104.30199441341448	13	0	0	303.7303100567308	57.91727686159676	-86.7438475025929	1950	2000	0	2020-05-31 00:04:42.155608
AOIQ0RAM3NSTA	189	125	0	665	194.92784313981605	14	1	-7	272.16230103737576	7.354688881575418	-194.78904636194503	2000	2000	0	2020-05-31 00:04:49.996119
AOIQ0RAM3NSTA	190	125	1	1409	234.31217931836952	6	69	227	74.52043154479072	62.53668599050558	225.8126663459086	2000	1950	0	2020-05-31 00:04:55.409855
AOIQ0RAM3NSTA	191	126	1	1581	176.60231629208914	4	37	180	76.95644009284568	39.85768891760753	172.0457577328727	1950	1900	0	2020-05-31 00:05:04.226979
AOIQ0RAM3NSTA	192	127	0	284	104.25151832783315	9	5	1	245.71903910436424	-42.86942125710436	-95.02942594133388	1900	2000	0	2020-05-31 00:05:11.357144
AOIQ0RAM3NSTA	193	127	0	0	159.97329470850943	10	0	0	249.95575874156816	-54.83014771579591	-150.28343195894752	2000	2000	0	2020-05-31 00:05:17.362789
AOIQ0RAM3NSTA	194	127	0	0	167.2700425634085	14	0	0	15.24557636836267	161.3834131328168	43.984782649992304	2000	2000	0	2020-05-31 00:05:24.907307
AOIQ0RAM3NSTA	195	127	1	1721	168.70880621131366	6	89	133	56.7118159671862	92.59590249317166	141.02716098227899	2000	1950	0	2020-05-31 00:05:30.657172
AOIQ0RAM3NSTA	196	128	1	1605	181.78784095986146	14	-42	-182	257.114633332411	-40.5388984786613	-177.2100923508158	1950	1900	0	2020-05-31 00:05:39.403633
AOIQ0RAM3NSTA	197	129	1	1440	232.57689615164202	1	14	235	87.33742580151107	10.804118384850034	232.32581356676192	1900	1850	0	2020-05-31 00:05:50.190233
AOIQ0RAM3NSTA	198	130	1	1769	228.8969753709498	5	47	229	76.78653564874449	52.32119101510619	222.83697696910622	1850	1800	0	2020-05-31 00:05:56.673148
AOIQ0RAM3NSTA	199	131	1	1450	200.93742408033424	12	26	196	82.32688237570403	26.829409057868478	199.1382213580448	1800	1750	0	2020-05-31 00:06:02.123765
AOIQ0RAM3NSTA	200	132	0	0	294.5798119097766	1	0	0	99.02280786423059	-46.198251989219145	290.93467840383	1750	1950	0	2020-05-31 00:06:08.666610
AOIQ0RAM3NSTA	201	132	0	0	160.2788365570249	10	0	0	141.00383604754407	-124.56680345381602	100.85840037087574	1950	2000	0	2020-05-31 00:06:14.651331
AOIQ0RAM3NSTA	202	132	1	1436	274.7144716256839	9	151	251	58.28107048125175	144.43187942483226	233.68241937807264	2000	1950	0	2020-05-31 00:06:21.061583
AOIQ0RAM3NSTA	203	133	0	289	284.3737412192878	14	7	1	72.49990197817205	85.51329720181609	271.2119110524616	1950	2000	0	2020-05-31 00:06:30.389208
AOIQ0RAM3NSTA	204	133	1	1665	147.37259107586175	6	141	-21	346.7273459300917	143.4360568439127	-33.834571040328115	2000	1950	0	2020-05-31 00:06:37.591214
AOIQ0RAM3NSTA	205	134	0	14	293.63101491736734	5	1	0	112.87537006803052	-114.14257399635322	270.5376974155177	1950	2000	0	2020-05-31 00:06:45.356498
AOIQ0RAM3NSTA	206	134	0	0	247.73579851195865	6	0	0	221.9128545678556	-184.35549203974782	-165.48739655677787	2000	2000	0	2020-05-31 00:06:51.358926
AOIQ0RAM3NSTA	207	134	0	324	189.44156477483676	12	-7	-5	257.36911494728287	-41.42504935287658	-184.8568953283875	2000	2000	0	2020-05-31 00:06:58.930302
AOIQ0RAM3NSTA	208	134	1	1327	215.489562608906	7	137	158	50.163222300145506	138.04320049751388	165.4685057338127	2000	1950	0	2020-05-31 00:07:05.419814
AOIQ0RAM3NSTA	209	135	1	1394	128.99383556085016	9	-14	-124	265.0621184321678	-11.103227747556032	-128.51508839932202	1950	1900	0	2020-05-31 00:07:11.618350
AOIQ0RAM3NSTA	210	136	0	0	168.1092434701696	4	0	0	304.9284066629908	96.251355189169	-137.82740788522864	1900	2000	0	2020-05-31 00:07:17.522049
AOIQ0RAM3NSTA	211	136	1	1362	210.57826099458978	3	200	-95	334.5762355474725	190.1852950335611	-90.40330500873789	2000	1950	0	2020-05-31 00:07:25.408840
AOIQ0RAM3NSTA	212	137	1	1400	102.8013151288155	3	2	-103	270.8882834848631	1.5937134141427607	-102.78896083611124	1950	1900	0	2020-05-31 00:07:30.829595
AOIQ0RAM3NSTA	213	138	1	1456	187.3767286016509	2	30	-170	278.34371291522666	27.190443590916907	-185.3934146586278	1900	1850	0	2020-05-31 00:07:36.728938
AOIQ0RAM3NSTA	214	139	1	1520	222.69870411625772	11	66	218	71.4463831303394	70.86093492510548	211.12423052932712	1850	1800	0	2020-05-31 00:07:43.584827
AOIQ0RAM3NSTA	215	140	1	1708	109.33989011888809	5	107	5	2.5757068134427374	109.22942552869833	4.9136717311056675	1800	1750	0	2020-05-31 00:07:50.136408
AOIQ0RAM3NSTA	216	141	0	0	123.71869871091351	4	0	0	50.974006649183735	77.90231102685175	96.1121550450173	1750	1950	0	2020-05-31 00:07:55.898841
AOIQ0RAM3NSTA	217	141	1	1663	128.08267203784877	9	59	-105	298.01249023995507	60.15582398731262	-113.077175932027	1950	1900	0	2020-05-31 00:08:02.007859
AOIQ0RAM3NSTA	218	142	1	1858	225.8549231349869	5	50	217	76.073068011643	54.35973475831991	219.21556865632502	1900	1850	0	2020-05-31 00:08:08.947233
AOIQ0RAM3NSTA	219	143	1	1383	152.7121984354576	10	48	-130	288.6849177015841	48.923435741390705	-144.66344730528368	1850	1800	0	2020-05-31 00:08:15.329395
AOIQ0RAM3NSTA	220	144	0	0	247.97192532998912	1	0	0	58.77833714747715	128.53634058069363	212.0577395474771	1800	2000	0	2020-05-31 00:08:22.162063
AOIQ0RAM3NSTA	221	144	1	1605	184.991387422835	6	-169	65	161.36209985109167	-175.28992418132017	59.12068928160821	2000	1950	0	2020-05-31 00:08:29.546210
AOIQ0RAM3NSTA	222	145	1	1250	144.97323351501797	6	0	-120	270.6432827488435	1.6276385745476987	-144.96409634275162	1950	1900	0	2020-05-31 00:08:37.339438
AOIQ0RAM3NSTA	223	146	1	1308	124.79199296806254	4	129	27	11.388799945080441	122.33481285966269	24.642140157305338	1900	1850	0	2020-05-31 00:08:42.664329
AOIQ0RAM3NSTA	224	147	1	1557	226.41979546442283	1	205	98	27.69857471792637	200.4732617576706	105.2444540030094	1850	1800	0	2020-05-31 00:08:49.674609
AOIQ0RAM3NSTA	225	148	1	1318	107.0371190781282	2	-94	46	154.86668617670978	-96.90305884423601	45.461434724125546	1800	1750	0	2020-05-31 00:08:56.191203
AOIQ0RAM3NSTA	226	149	0	446	257.40618685053585	5	-1	3	25.511734781339115	232.30833514592535	110.86380135401001	1750	1950	0	2020-05-31 00:09:01.339354
AOIQ0RAM3NSTA	227	149	1	1253	147.5722880540846	4	141	-2	359.2342850087527	147.55910981488424	-1.9721339094109487	1950	1900	0	2020-05-31 00:09:07.204300
AOIQ0RAM3NSTA	228	150	1	1483	184.60895752555527	6	-34	-178	258.4694911376838	-36.901428496841866	-180.88325454160963	1900	1850	0	2020-05-31 00:09:13.348846
