A1BZ52X6PJ73QD	1	1	0	1275	153.9373891301824	6	-135	61	310.20300689103755	99.36624155160604	-117.57155188277936	1500	1700	0	2020-05-30 17:04:17.336596
A1BZ52X6PJ73QD	2	1	0	0	176.17742118936025	2	0	0	214.06340462893368	-145.94859117451722	-98.67873363145107	1700	1900	0	2020-05-30 17:04:25.208568
A1BZ52X6PJ73QD	3	1	0	0	223.37761195516381	1	0	0	260.9583908679892	-35.10417127088674	-220.60202782879398	1900	2000	0	2020-05-30 17:04:45.082154
A1BZ52X6PJ73QD	4	1	0	0	110.90448178794267	9	0	0	273.376467690923	6.531871975477815	-110.71196289989656	2000	2000	0	2020-05-30 17:05:04.644477
A1BZ52X6PJ73QD	5	1	0	0	138.7639180270758	5	0	0	55.39669098751121	78.80281941958889	114.21707664683365	2000	2000	0	2020-05-30 17:05:11.541186
A1BZ52X6PJ73QD	6	1	1	1528	227.51105940537275	14	-106	-199	240.60745162924064	-111.66025371180886	-198.22530083914495	2000	1950	0	2020-05-30 17:05:17.523415
A1BZ52X6PJ73QD	7	2	1	1295	100.12981660587337	4	-101	13	170.87079947797605	-98.86147962970274	15.886724613705116	1950	1900	0	2020-05-30 17:05:33.261016
A1BZ52X6PJ73QD	8	3	0	112	122.68023559855048	5	-8	-2	357.1636610493575	122.52994669802776	-6.070615182527383	1900	2000	0	2020-05-30 17:06:24.884067
A1BZ52X6PJ73QD	9	3	1	1719	253.50492635169886	7	-229	132	153.1345152699023	-226.14411854700936	114.5582180865975	2000	1950	0	2020-05-30 17:06:42.681380
A1BZ52X6PJ73QD	10	4	1	1480	292.95560165270854	1	198	-212	314.156250669296	204.07799541660165	-210.1788674592238	1950	1900	0	2020-05-30 17:06:49.229151
A1BZ52X6PJ73QD	11	5	0	362	200.22030772658565	3	2	-4	159.47547077712974	-187.51075789828514	70.19891237433349	1900	2000	0	2020-05-30 17:06:56.803384
A1BZ52X6PJ73QD	12	5	1	1917	132.57642766970474	2	-26	-117	258.4168344386256	-26.620033800256078	-129.8764142334307	2000	1950	0	2020-05-30 17:08:41.894906
A1BZ52X6PJ73QD	13	6	1	1612	117.96805234338893	1	-67	-90	234.18970635770634	-69.02350611202894	-95.66721997473981	1950	1900	0	2020-05-30 17:08:46.111688
A1BZ52X6PJ73QD	14	7	1	1558	232.07583562194372	0	149	185	52.30880729522019	141.89242119924356	183.64567592469987	1900	1850	0	2020-05-30 17:08:52.763984
A1BZ52X6PJ73QD	15	8	1	1427	273.3984793894998	9	144	-240	302.1575685778298	145.51619477022265	-231.45575298982175	1850	1800	0	2020-05-30 17:08:57.788098
A1BZ52X6PJ73QD	16	9	1	1313	154.3039689438813	1	-15	-146	263.87610507833455	-16.460953880175065	-153.42343963420007	1800	1750	0	2020-05-30 17:09:02.846968
A1BZ52X6PJ73QD	17	10	1	1509	170.33406053955474	10	86	-151	302.13746632919646	90.60961367553948	-144.23449687734967	1750	1700	0	2020-05-30 17:09:23.107813
A1BZ52X6PJ73QD	18	11	1	1485	149.5706698531908	7	62	-138	295.2497392479764	63.801556508248865	-135.28025231886923	1700	1650	0	2020-05-30 17:09:28.398069
A1BZ52X6PJ73QD	19	12	1	1445	164.7018687865479	8	150	-61	338.33196548742023	153.06382223158155	-60.81259660333573	1650	1600	0	2020-05-30 17:09:35.278813
A1BZ52X6PJ73QD	20	13	0	0	265.8926646946476	8	0	0	209.16277079582053	-232.1878155396877	-129.56746294239244	1600	1800	0	2020-05-30 17:09:39.761290
A1BZ52X6PJ73QD	21	13	0	0	227.5772181959327	6	0	0	79.93664980429199	39.766147448379	224.07597764801326	1800	2000	0	2020-05-30 17:09:46.887477
A1BZ52X6PJ73QD	22	13	1	1653	296.6592563415753	8	-209	219	131.91160453704217	-198.16342685577328	220.76677881853757	2000	1950	0	2020-05-30 17:09:53.510943
A1BZ52X6PJ73QD	23	14	0	0	281.86674088278266	4	0	0	139.0904659626579	-213.01924186325425	184.5851083156118	1950	2000	0	2020-05-30 17:10:03.760700
A1BZ52X6PJ73QD	24	14	0	0	149.07506643846136	2	0	0	181.02523078075026	-149.05120143858093	-2.6673551220704197	2000	2000	0	2020-05-30 17:10:13.130570
A1BZ52X6PJ73QD	25	14	1	1316	249.1535841474048	7	-172	-174	225.1092460935799	-175.8419491990936	-176.5137881168531	2000	1950	0	2020-05-30 17:10:18.225123
A1BZ52X6PJ73QD	26	15	1	1669	212.68445848997234	8	41	-212	282.3139932815051	45.35900233535953	-207.791337139722	1950	1900	0	2020-05-30 17:10:23.524583
A1BZ52X6PJ73QD	27	16	1	1367	130.3970828400769	13	117	20	10.811823739533706	128.0823470054373	24.460408802401997	1900	1850	0	2020-05-30 17:10:28.954763
A1BZ52X6PJ73QD	28	17	1	1403	156.45886969529084	13	-59	139	111.32604704737031	-56.90013970076566	145.74550424751135	1850	1800	0	2020-05-30 17:10:34.321873
A1BZ52X6PJ73QD	29	18	1	1380	267.6795934825426	7	236	133	30.327190027096016	231.04925442984012	135.16141015243318	1800	1750	0	2020-05-30 17:10:40.655624
A1BZ52X6PJ73QD	30	19	1	1654	197.00172710617036	3	115	-158	305.5189968310248	114.45265479054429	-160.3442243868189	1750	1700	0	2020-05-30 17:10:45.375460
A1BZ52X6PJ73QD	31	20	1	1362	146.1871234820606	11	-101	-114	229.14717350378316	-95.62366871711563	-110.57481201900617	1700	1650	0	2020-05-30 17:10:50.914954
A1BZ52X6PJ73QD	32	21	1	1489	264.0594360088147	0	261	46	10.300920627441092	259.8033695404737	47.218586602199146	1650	1600	0	2020-05-30 17:10:56.878972
A1BZ52X6PJ73QD	33	22	1	1513	114.50312082628255	14	-106	-48	206.31463497714938	-102.63753204412	-50.75925230783549	1600	1550	0	2020-05-30 17:11:02.065265
A1BZ52X6PJ73QD	34	23	1	1522	212.08516803115972	10	-217	-22	185.5841765956206	-211.07867789821412	-20.637592775011985	1550	1500	0	2020-05-30 17:11:07.309657
A1BZ52X6PJ73QD	35	24	1	1491	187.06057592718648	12	29	176	80.31630497122158	31.465247304299528	184.39522032387382	1500	1450	0	2020-05-30 17:11:12.814166
A1BZ52X6PJ73QD	36	25	0	0	285.97891778941744	13	0	0	1.4357771349788173	285.88913148490076	7.165606660675357	1450	1650	0	2020-05-30 17:11:18.278072
A1BZ52X6PJ73QD	37	25	1	1300	112.30604318662398	12	23	-107	282.30782389746145	23.939583217142648	-109.72485448441184	1650	1600	0	2020-05-30 17:11:24.043423
A1BZ52X6PJ73QD	38	26	1	1490	258.3981871409563	7	-253	-61	192.866674355542	-251.91003630875198	-57.54091348471913	1600	1550	0	2020-05-30 17:11:29.158270
A1BZ52X6PJ73QD	39	27	1	1408	208.04577125372296	1	-22	-208	263.43640545320363	-23.780868116382276	-206.68215512759596	1550	1500	0	2020-05-30 17:11:34.517838
A1BZ52X6PJ73QD	40	28	1	1428	154.1744832151684	7	82	126	58.30491912986376	81.00305805899676	131.18031811119778	1500	1450	0	2020-05-30 17:11:40.291168
A1BZ52X6PJ73QD	41	29	0	221	291.56146448109234	14	-2	-4	311.2757579590439	192.3383592126982	-219.12106960702422	1450	1650	0	2020-05-30 17:12:11.855037
A1BZ52X6PJ73QD	42	29	0	0	210.86674649628873	2	0	0	309.7838710975365	134.93223945295793	-162.0434371831816	1650	1850	0	2020-05-30 17:12:17.710624
A1BZ52X6PJ73QD	43	29	0	160	218.1963410072044	11	-2	-3	268.3562014821876	-6.259128044551209	-218.10654860653347	1850	2000	0	2020-05-30 17:12:28.829442
A1BZ52X6PJ73QD	44	29	1	1554	170.22735120584537	7	104	125	48.92675497660897	111.84333405468672	128.32934086205685	2000	1950	0	2020-05-30 17:12:33.791817
A1BZ52X6PJ73QD	46	31	1	1322	159.89620475676546	9	-119	-112	225.28449750151856	-112.50089066753496	-113.62370304927052	1900	1850	0	2020-05-30 17:13:12.399296
A1BZ52X6PJ73QD	47	32	1	1116	246.86121561378945	11	-241	-37	189.17890313129655	-243.70017452896295	-39.37873422128803	1850	1800	0	2020-05-30 17:13:12.666293
A1BZ52X6PJ73QD	48	33	0	0	262.198005203355	2	0	0	149.1915690911008	-225.1978136121959	134.28975641092387	1800	2000	0	2020-05-30 17:13:12.711107
A1BZ52X6PJ73QD	49	33	0	0	103.99130006731956	2	0	0	80.49172210541056	17.178333178720248	102.56264114623889	2000	2000	0	2020-05-30 17:13:15.521306
A1BZ52X6PJ73QD	50	33	1	1379	134.9958993663678	7	-41	119	108.40116016979327	-42.613919373150694	128.09350772538443	2000	1950	0	2020-05-30 17:13:24.028675
A1BZ52X6PJ73QD	51	34	0	0	234.85327296230759	12	0	0	134.44764370442053	-164.45769787487552	167.65955216093212	1950	2000	0	2020-05-30 17:13:30.356962
A1BZ52X6PJ73QD	52	34	1	1293	171.96899537768564	6	149	-77	333.10558690714845	153.36911125198304	-77.78978779368995	2000	1950	0	2020-05-30 17:13:39.768150
A1BZ52X6PJ73QD	53	35	1	1549	244.1795456580844	2	-204	-144	216.09695537846204	-197.30224751248866	-143.8592146659684	1950	1900	0	2020-05-30 17:13:45.020905
A1BZ52X6PJ73QD	54	36	1	1543	113.31083014708679	2	91	-61	328.60278520511577	96.719419098323	-59.03133234058762	1900	1850	0	2020-05-30 17:13:51.319132
A1BZ52X6PJ73QD	55	37	0	0	169.2590017551098	9	0	0	8.630746992265506	167.34231156580816	25.400008561972065	1850	2000	0	2020-05-30 17:13:56.399517
A1BZ52X6PJ73QD	56	37	1	1434	256.0164444477624	3	-26	243	94.98417700683875	-22.242869211910897	255.04837697365582	2000	1950	0	2020-05-30 17:14:03.976678
A1BZ52X6PJ73QD	57	38	1	1375	251.6281363246807	7	-136	-215	236.37420089787994	-139.343242495532	-209.52369737350347	1950	1900	1	2020-05-30 17:15:27.907394
A1BZ52X6PJ73QD	1	1	1	1432	184.83061215488289	4	190	5	1.8378982467829186	184.73552883677849	5.927864281891281	1500	1450	0	2020-05-30 17:17:16.713679
A1BZ52X6PJ73QD	2	2	1	1395	117.58470013454345	12	121	22	10.601581544196224	115.57756118489468	21.63305471454342	1450	1400	0	2020-05-30 17:17:24.219991
A1BZ52X6PJ73QD	3	3	0	0	248.69622111920023	3	0	0	254.5172273547001	-66.38911435034673	-239.67122458640446	1400	1600	0	2020-05-30 17:17:34.507796
A1BZ52X6PJ73QD	4	3	1	1364	263.7210904437426	5	133	-223	299.5960252188228	130.2469798368452	-229.31318712236566	1600	1550	0	2020-05-30 17:17:49.233827
A1BZ52X6PJ73QD	5	4	0	0	229.3115798055132	10	0	0	119.61674870355397	-113.32486922080005	199.35213730730055	1550	1750	0	2020-05-30 17:17:54.300444
A1BZ52X6PJ73QD	6	4	1	1531	189.18066777224033	7	163	109	34.146971887884845	156.56600325477672	106.19045005826098	1750	1700	0	2020-05-30 17:17:59.151649
A1BZ52X6PJ73QD	7	5	1	1374	188.28877197660452	1	-155	-109	215.41872024302472	-153.44376634307847	-109.12228105620098	1700	1650	0	2020-05-30 17:18:04.496115
A1BZ52X6PJ73QD	8	6	0	0	129.77095257898975	14	0	0	43.97886280139179	93.3826610367117	90.11203444025118	1650	1850	0	2020-05-30 17:18:11.016906
A1BZ52X6PJ73QD	9	6	1	1457	233.27371454935118	0	162	-167	312.5176257784608	157.6503379098837	-171.93893350998684	1850	1800	0	2020-05-30 17:18:15.562280
A1BZ52X6PJ73QD	10	7	1	1335	117.22178529900798	12	93	-52	332.5538010310816	104.02777312524564	-54.02933802379171	1800	1750	0	2020-05-30 17:18:21.392768
A1BZ52X6PJ73QD	11	8	1	1599	152.5264591578139	12	-31	-148	258.66791286724197	-29.970729803463566	-149.55292072797525	1750	1700	0	2020-05-30 17:18:28.747350
A1BZ52X6PJ73QD	12	9	1	1235	138.7258249248322	4	-148	2	179.25542319962653	-138.7141112019852	1.8027352879687424	1700	1650	0	2020-05-30 17:18:34.381229
A1BZ52X6PJ73QD	13	10	1	1395	123.25453476158606	7	69	102	57.334973335633435	66.52374627373217	103.76064533821642	1650	1600	0	2020-05-30 17:18:40.488407
A1BZ52X6PJ73QD	14	11	1	1347	117.38149068704024	10	-105	52	148.525062845709	-100.11099219317317	61.287874804157894	1600	1550	0	2020-05-30 17:18:45.241899
A1BZ52X6PJ73QD	15	12	1	1462	251.65083944112303	8	-240	-58	193.43434166613721	-244.76486707792952	-58.466270923887116	1550	1500	0	2020-05-30 17:18:50.207154
A1BZ52X6PJ73QD	16	13	1	1488	166.85110285857814	9	5	162	86.57255784918269	9.97510635443441	166.5526576742069	1500	1450	0	2020-05-30 17:18:55.790702
A1BZ52X6PJ73QD	17	14	0	0	269.35184268813055	14	0	0	328.36442974382385	229.3265548394856	-141.27896660488366	1450	1650	0	2020-05-30 17:19:01.176861
A1BZ52X6PJ73QD	18	14	1	1394	188.7991855596757	4	108	159	55.37452770688037	107.27751633233044	155.35979839573503	1650	1600	0	2020-05-30 17:19:09.981085
A1BZ52X6PJ73QD	19	15	0	0	294.79389509590214	14	0	0	100.62795328575561	-54.369097528303044	289.7368492611384	1600	1800	0	2020-05-30 17:19:15.133836
A1BZ52X6PJ73QD	20	15	1	1377	124.00062877689852	0	32	-112	286.9704810544233	36.19317643438843	-118.60105360685218	1800	1750	0	2020-05-30 17:19:20.596310
A1BZ52X6PJ73QD	21	16	1	1331	232.94275654744507	3	234	-13	356.80870413940704	232.58151656912722	-12.967882569142274	1750	1700	0	2020-05-30 17:19:25.364788
A1BZ52X6PJ73QD	22	17	1	1445	261.7233055199979	6	236	121	27.617211206388728	231.90369548630824	121.3250372845926	1700	1650	0	2020-05-30 17:19:32.733894
A1BZ52X6PJ73QD	23	18	1	1517	108.55930412109798	2	64	-83	309.3115691769961	68.77634819901212	-83.99366904514461	1650	1600	0	2020-05-30 17:19:39.028910
A1BZ52X6PJ73QD	24	19	1	1508	117.2544118366897	10	23	-109	283.7158054296016	27.801741629809182	-113.91075567090833	1600	1550	0	2020-05-30 17:19:43.736849
A1BZ52X6PJ73QD	25	20	1	1284	217.2803208284432	6	68	-195	291.7701908272116	80.58595174500765	-201.78365196581834	1550	1500	0	2020-05-30 17:19:49.344764
A1BZ52X6PJ73QD	26	21	1	1402	164.5447007498591	6	120	110	42.32569382206115	121.65270422075996	110.79520793173761	1500	1450	0	2020-05-30 17:19:55.108349
A1BZ52X6PJ73QD	27	22	0	0	247.36557450012265	8	0	0	59.88068558016124	124.1286269377325	213.96684654948055	1450	1650	0	2020-05-30 17:20:00.114157
A1BZ52X6PJ73QD	28	22	0	0	155.30259018862404	10	0	0	182.2372378523999	-155.18421175879976	-6.062585265025214	1650	1850	0	2020-05-30 17:20:05.847218
A1BZ52X6PJ73QD	29	22	1	1382	292.46578041695574	9	-97	267	109.14655765160363	-95.92457661470175	276.2873654660835	1850	1800	0	2020-05-30 17:20:10.961313
A1BZ52X6PJ73QD	30	23	1	1438	268.4156839570643	5	219	-151	327.32049670035923	225.92655241115202	-144.9281625832247	1800	1750	0	2020-05-30 17:20:16.600624
A1BZ52X6PJ73QD	31	24	1	1403	192.50898461597777	8	171	-87	333.2390667295227	171.8899322437841	-86.6807957456672	1750	1700	0	2020-05-30 17:20:21.832305
A1BZ52X6PJ73QD	32	25	1	1347	160.218429897661	9	100	122	53.97075685275816	94.24017432929558	129.57135031038183	1700	1650	0	2020-05-30 17:20:27.702379
A1BZ52X6PJ73QD	33	26	1	1484	256.07542403500787	1	-100	-236	249.3449883109637	-90.32810389694615	-239.61522581232518	1650	1600	0	2020-05-30 17:20:32.674463
A1BZ52X6PJ73QD	34	27	1	1496	233.47851302014683	7	193	-115	331.13680351380464	204.47459318329322	-112.70473275167114	1600	1550	0	2020-05-30 17:20:39.563523
A1BZ52X6PJ73QD	35	28	1	1364	161.33467072775582	2	-50	150	107.76760360828672	-49.23238791735963	153.6393437853339	1550	1500	0	2020-05-30 17:20:44.443132
A1BZ52X6PJ73QD	36	29	1	1440	147.84368810383154	11	66	-130	299.17286954218264	72.0658531340114	-129.0901581229573	1500	1450	0	2020-05-30 17:20:49.190513
A1BZ52X6PJ73QD	37	30	1	1341	206.10066805717344	11	-174	-108	210.05399402931263	-178.39122312089776	-103.21849101320586	1450	1400	0	2020-05-30 17:20:54.385325
A1BZ52X6PJ73QD	38	31	0	0	208.38450394972492	8	0	0	7.983070314869147	206.3650806056635	28.940542375548564	1400	1600	0	2020-05-30 17:21:10.291180
A1BZ52X6PJ73QD	39	31	0	0	270.9501087456688	13	0	0	108.4144363377378	-85.58991701556162	257.0765013270544	1600	1800	0	2020-05-30 17:21:15.483987
A1BZ52X6PJ73QD	40	31	1	1205	279.5224909598604	10	36	-276	278.4948590385803	41.29124947739615	-276.4558837662904	1800	1750	0	2020-05-30 17:21:20.376125
A1BZ52X6PJ73QD	41	32	1	1258	216.01731874292597	5	-216	-20	185.08565336110385	-215.1669218455188	-19.148831306564787	1750	1700	0	2020-05-30 17:21:26.678120
A1BZ52X6PJ73QD	42	33	1	1347	106.88294920936113	5	3	-99	272.47302122688404	4.6118883449337424	-106.78340375538109	1700	1650	0	2020-05-30 17:21:31.320021
A1BZ52X6PJ73QD	43	34	1	1316	241.81507343974147	10	-115	-218	242.26280970031894	-112.54476157480717	-214.0285176903708	1650	1600	0	2020-05-30 17:21:37.125662
A1BZ52X6PJ73QD	44	35	1	1341	244.33543212035366	12	-232	80	160.14238627899954	-229.8071680924448	82.9968004369492	1600	1550	0	2020-05-30 17:21:41.718645
A1BZ52X6PJ73QD	45	36	1	1321	139.2295894647056	7	3	-135	271.61424151283785	3.922111769726886	-139.17433535597084	1550	1500	0	2020-05-30 17:21:47.290114
A1BZ52X6PJ73QD	46	37	1	1344	262.923984284451	1	-68	245	104.18050573861908	-64.41046785998404	254.91236365085985	1500	1450	0	2020-05-30 17:21:52.410012
A1BZ52X6PJ73QD	47	38	1	1293	250.8862407593015	2	-66	234	106.4867288069253	-71.19982151816293	240.57117703107315	1450	1400	0	2020-05-30 17:21:58.177204
A1BZ52X6PJ73QD	48	39	1	1359	159.59914900107984	7	-131	-98	216.1184414414979	-128.92422464687354	-94.07673815067871	1400	1350	0	2020-05-30 17:22:03.093746
A1BZ52X6PJ73QD	49	40	1	1238	272.1772525291494	2	168	-221	308.4212978662872	169.14157330781813	-213.24067382484128	1350	1300	0	2020-05-30 17:22:08.900045
A1BZ52X6PJ73QD	50	41	0	0	129.2715275080492	2	0	0	91.96098502787532	-4.423537714085421	129.19582090128296	1300	1500	0	2020-05-30 17:22:14.379681
A1BZ52X6PJ73QD	51	41	1	1379	253.57699147070556	5	120	-225	300.1270627502975	127.27519156180126	-219.322402449547	1500	1450	0	2020-05-30 17:22:19.065053
A1BZ52X6PJ73QD	52	42	0	0	214.81153345613916	14	0	0	309.669686954247	137.1272339309184	-165.34847026880283	1450	1650	0	2020-05-30 17:22:24.600636
A1BZ52X6PJ73QD	53	42	1	1327	289.4384862967166	2	-239	164	143.22866252672478	-231.84918146831225	173.26452147571413	1650	1600	0	2020-05-30 17:22:31.354323
A1BZ52X6PJ73QD	54	43	1	1395	202.07286779301916	7	-173	114	146.26894405055936	-168.05455893462434	112.21011148458891	1600	1550	0	2020-05-30 17:22:37.256062
A1BZ52X6PJ73QD	55	44	1	1292	175.321033129885	1	2	171	88.52767311857234	4.504720320800441	175.26315115437586	1550	1500	0	2020-05-30 17:22:42.052823
A1BZ52X6PJ73QD	56	45	1	1421	198.40754745541727	14	185	60	20.20181955998129	186.2019231697042	68.51568211130372	1500	1450	0	2020-05-30 17:22:47.551038
A1BZ52X6PJ73QD	57	46	1	1353	101.99142190917647	4	51	77	58.851675423622886	52.75560765600682	87.28743325302398	1450	1400	0	2020-05-30 17:22:53.577607
A1BZ52X6PJ73QD	58	47	0	0	156.77033651780255	1	0	0	324.3112432645391	127.32855702513953	-91.45696790185451	1400	1600	0	2020-05-30 17:22:58.624604
A1BZ52X6PJ73QD	59	47	1	1442	289.27243083721044	3	148	-253	300.0988511580662	145.06821192873616	-250.2673632942737	1600	1550	0	2020-05-30 17:23:03.875407
A1BZ52X6PJ73QD	60	48	1	1385	157.50091025690662	5	-154	-60	199.74404665967046	-148.24160838712564	-53.20678786162755	1550	1500	0	2020-05-30 17:23:09.110002
A1BZ52X6PJ73QD	61	49	1	1404	281.1542906531223	11	260	73	15.17714768930869	271.3479077197928	73.60739180782868	1500	1450	0	2020-05-30 17:23:14.598074
A1BZ52X6PJ73QD	62	50	0	0	128.91124766975463	10	0	0	325.0023416037854	105.60093382226177	-73.93613833328808	1450	1650	0	2020-05-30 17:23:20.655414
A1BZ52X6PJ73QD	63	50	1	1330	256.10857843581425	7	-103	-235	247.23542980991263	-99.10005240969834	-236.1583865985044	1650	1600	0	2020-05-30 17:23:25.690540
A1BZ52X6PJ73QD	64	51	0	665	232.02652332526475	10	-3	-11	38.41549030893116	181.79869702944436	144.17191572843137	1600	1800	0	2020-05-30 17:23:30.702977
A1BZ52X6PJ73QD	65	51	1	1455	196.16742278480444	6	-92	-173	243.20141541126128	-88.4431596159643	-175.09844453671562	1800	1750	0	2020-05-30 17:23:38.089500
A1BZ52X6PJ73QD	66	52	1	1170	222.11574776553675	7	-11	-222	267.7213514404183	-8.831197086723101	-221.94011661585427	1750	1700	0	2020-05-30 17:23:44.679657
A1BZ52X6PJ73QD	67	53	0	0	151.43378321881636	11	0	0	257.0782841849096	-33.86355394603884	-147.598951263575	1700	1900	0	2020-05-30 17:23:50.324323
A1BZ52X6PJ73QD	68	53	1	1299	244.7171143396825	10	-79	236	109.19638959317047	-80.46473389707177	231.11013099735518	1900	1850	0	2020-05-30 17:23:57.523740
A1BZ52X6PJ73QD	69	54	1	1215	186.80162716583453	3	170	82	23.316561649566125	171.54591345610274	73.93813284303815	1850	1800	0	2020-05-30 17:24:03.705488
A1BZ52X6PJ73QD	70	55	0	1757	161.5184408254206	2	285	63	7.5761664799147255	160.1084606914154	21.29524692743405	1800	2000	0	2020-05-30 17:24:08.843914
A1BZ52X6PJ73QD	71	55	1	1265	151.71337092993718	10	18	-151	275.1688626191464	13.668062953470766	-151.09642938873395	2000	1950	0	2020-05-30 17:24:13.875773
A1BZ52X6PJ73QD	72	56	1	1185	222.3636146042311	9	-28	-225	264.0359478596394	-23.10457379734147	-221.16002299127712	1950	1900	0	2020-05-30 17:24:19.001861
A1BZ52X6PJ73QD	73	57	1	1695	285.656241533866	7	-236	144	148.1084906658766	-242.53642833893235	150.91576874484764	1900	1850	0	2020-05-30 17:24:26.509159
A1BZ52X6PJ73QD	74	58	1	1296	297.6684525007711	5	123	-270	294.25723167032044	122.29229979597379	-271.38736342139345	1850	1800	0	2020-05-30 17:24:30.388648
A1BZ52X6PJ73QD	75	59	1	1187	160.57070627241555	1	-44	-167	255.19433130745017	-41.03246494706957	-155.23945546538695	1800	1750	0	2020-05-30 17:24:35.679025
A1BZ52X6PJ73QD	76	60	1	1558	198.69825402282981	1	-186	46	164.52987947970468	-191.49935383391212	52.999939933127536	1750	1700	0	2020-05-30 17:24:41.044970
A1BZ52X6PJ73QD	77	61	0	0	255.67933457870654	3	0	0	354.3693783748618	254.44570859612253	-25.08592249902853	1700	1900	0	2020-05-30 17:24:56.897591
A1BZ52X6PJ73QD	78	61	1	1271	234.8187495280749	5	-236	35	172.3979633698083	-232.75488960411067	31.064553679508112	1900	1850	0	2020-05-30 17:25:05.860646
A1BZ52X6PJ73QD	79	62	1	1353	287.94823404668875	11	57	-281	282.0586106482227	60.15589237010463	-281.5944852154655	1850	1800	0	2020-05-30 17:25:10.787454
A1BZ52X6PJ73QD	80	63	0	0	274.94558527641476	10	0	0	152.8372495921172	-244.62275980080747	125.51804750882125	1800	2000	0	2020-05-30 17:25:17.099596
A1BZ52X6PJ73QD	81	63	0	0	132.79795857710644	4	0	0	306.69496359409453	79.35403992802812	-106.48114457192784	2000	2000	0	2020-05-30 17:25:22.795601
A1BZ52X6PJ73QD	82	63	1	1380	134.73074995723277	11	-44	136	105.06533180472135	-35.01925404551383	130.10006468151406	2000	1950	0	2020-05-30 17:25:30.519808
A1BZ52X6PJ73QD	83	64	1	1467	258.8042240966972	6	-16	-255	266.88452221276395	-14.065635362990145	-258.4217179575449	1950	1900	0	2020-05-30 17:25:36.022223
A1BZ52X6PJ73QD	84	65	1	1368	279.20131105678934	8	-148	-237	239.09588113367883	-143.39861284567988	-239.56253866112883	1900	1850	0	2020-05-30 17:25:41.401122
A1BZ52X6PJ73QD	85	66	1	1387	199.20769566613745	8	-197	-33	190.17147131036623	-196.0768797744424	-35.179016906833894	1850	1800	0	2020-05-30 17:25:47.078709
A1BZ52X6PJ73QD	86	67	1	1422	280.8958449960975	14	-175	230	127.984511159753	-172.8769064853279	221.39568862137946	1800	1750	0	2020-05-30 17:25:52.439685
A1BZ52X6PJ73QD	87	68	1	1426	233.0653630547929	2	-171	162	135.81577307842815	-167.13175557360165	162.43903390117873	1750	1700	0	2020-05-30 17:25:58.561553
A1BZ52X6PJ73QD	88	69	1	1343	177.6103545747867	3	53	-170	287.7317017277384	54.093031170331	-169.1726397234111	1700	1650	0	2020-05-30 17:26:03.259825
A1BZ52X6PJ73QD	89	70	1	1378	266.24306548457616	8	-251	-89	200.59918446129345	-249.22069360619747	-93.6718516795208	1650	1600	0	2020-05-30 17:26:08.627227
A1BZ52X6PJ73QD	90	71	0	0	108.337645033853	9	0	0	94.11102738654726	-7.766662357333869	108.05889268037271	1600	1800	0	2020-05-30 17:26:14.102091
A1BZ52X6PJ73QD	91	71	1	1612	174.27204880708734	9	65	164	69.43196030994127	61.22515996325412	163.16319064940404	1800	1750	0	2020-05-30 17:26:20.581058
A1BZ52X6PJ73QD	92	72	0	0	163.07900328015066	4	0	0	170.69206422865784	-160.93179487326228	26.37648023746967	1750	1950	0	2020-05-30 17:26:26.854565
A1BZ52X6PJ73QD	93	72	1	1934	247.997584645793	5	-218	130	148.0241439632504	-210.36923957804072	131.33006140828604	1950	1900	0	2020-05-30 17:26:33.703383
A1BZ52X6PJ73QD	94	73	1	1609	233.65020643392228	3	221	73	17.654710381542856	222.64563392507083	70.86141870381832	1900	1850	0	2020-05-30 17:26:38.836644
A1BZ52X6PJ73QD	95	74	0	0	262.90275106008323	4	0	0	40.573992149721676	199.6921567033557	170.9997048714486	1850	2000	0	2020-05-30 17:26:44.637773
A1BZ52X6PJ73QD	96	74	0	0	210.35028527109586	14	0	0	332.41009489436925	186.43034322280462	-97.42160766205143	2000	2000	0	2020-05-30 17:26:51.491716
A1BZ52X6PJ73QD	97	74	0	0	197.19789266757175	8	0	0	187.62616137364174	-195.45368684739557	-26.169928740663018	2000	2000	0	2020-05-30 17:26:58.222620
A1BZ52X6PJ73QD	98	74	0	0	135.64129784494475	11	0	0	131.67825468357836	-90.19426554984983	101.30921055355324	2000	2000	0	2020-05-30 17:27:06.637636
A1BZ52X6PJ73QD	99	74	0	0	294.146426132804	14	0	0	172.0721396301254	-291.3351254941508	40.57049001439982	2000	2000	0	2020-05-30 17:27:14.174667
A1BZ52X6PJ73QD	100	74	0	0	294.6062696225466	0	0	0	155.16118232065364	-267.35315483106336	123.75437245927955	2000	2000	0	2020-05-30 17:27:22.836314
A1BZ52X6PJ73QD	101	74	1	1534	272.68600195707285	4	225	-153	325.06332271625377	223.54401812218214	-156.15930207682868	2000	1950	0	2020-05-30 17:27:29.606796
A1BZ52X6PJ73QD	102	75	0	0	194.77103976028934	1	0	0	27.0257004715665	173.50258632236057	88.50203652321245	1950	2000	0	2020-05-30 17:27:35.868022
A1BZ52X6PJ73QD	103	75	0	0	171.56362009664093	8	0	0	184.95828180585093	-170.92161081731632	-14.828307262745573	2000	2000	0	2020-05-30 17:27:46.121451
A1BZ52X6PJ73QD	104	75	1	1461	227.6894962572922	7	144	-184	306.9987344550101	137.0229429392521	-181.84394357296023	2000	1950	0	2020-05-30 17:27:57.050623
A1BZ52X6PJ73QD	105	76	0	0	152.98699457896817	3	0	0	49.402443010522326	99.55503871953123	116.16288037001266	1950	2000	0	2020-05-30 17:28:03.019830
A1BZ52X6PJ73QD	106	76	0	0	258.0200900414497	1	0	0	188.0739352040994	-255.46250552265712	-36.2391381945567	2000	2000	0	2020-05-30 17:28:14.163267
A1BZ52X6PJ73QD	107	76	1	1463	145.70925685878439	4	-50	-141	250.56139755782553	-48.49153696751837	-137.40363305556008	2000	1950	0	2020-05-30 17:28:19.696991
A1BZ52X6PJ73QD	108	77	1	1196	196.8081934907122	2	-184	43	168.61469518822818	-192.9353698619283	38.85110141705804	1950	1900	0	2020-05-30 17:28:26.516490
A1BZ52X6PJ73QD	109	78	0	0	216.1842868711366	12	0	0	70.93663739910068	70.60872623656537	204.32829874795036	1900	2000	0	2020-05-30 17:28:35.012743
A1BZ52X6PJ73QD	110	78	0	0	173.37750867434582	9	0	0	321.77835501813274	136.20939614281295	-107.26957125174461	2000	2000	0	2020-05-30 17:29:12.400008
A1BZ52X6PJ73QD	111	78	0	0	126.30062937901836	9	0	0	234.6646259742168	-73.04740782237054	-103.03361195245188	2000	2000	0	2020-05-30 17:29:18.834062
A1BZ52X6PJ73QD	112	78	1	1402	288.4380027849476	13	286	-63	348.4796281606283	282.62706048317096	-57.6057821161336	2000	1950	0	2020-05-30 17:29:25.236241
A1BZ52X6PJ73QD	113	79	0	0	169.43762354650573	10	0	0	51.46428847879683	105.5600296059859	132.53749817568902	1950	2000	0	2020-05-30 17:29:30.161425
A1BZ52X6PJ73QD	114	79	1	1710	186.2219315573306	9	-26	-189	264.6342710619346	-17.41413577385491	-185.4059213406974	2000	1950	0	2020-05-30 17:29:35.655607
A1BZ52X6PJ73QD	115	80	0	119	297.37125181252145	0	-4	-4	45.7449171560527	207.52171813728742	212.98919668822236	1950	2000	0	2020-05-30 17:29:45.650282
A1BZ52X6PJ73QD	116	80	1	1819	188.34102790853535	1	185	52	18.385251639928875	178.72758025608297	59.40366023612613	2000	1950	0	2020-05-30 17:29:55.246345
A1BZ52X6PJ73QD	117	81	1	1808	160.9122804909923	6	-109	-111	226.7201589364563	-110.31538523518452	-117.14639470860641	1950	1900	0	2020-05-30 17:30:02.058756
A1BZ52X6PJ73QD	118	82	1	1756	213.77714025725936	1	52	-209	284.6027743944875	53.89668381204286	-206.8714895064968	1900	1850	0	2020-05-30 17:30:07.823222
A1BZ52X6PJ73QD	119	83	0	0	241.86624075088412	1	0	0	229.38028342588228	-157.46349894653966	-183.58792148308052	1850	2000	0	2020-05-30 17:30:13.892362
A1BZ52X6PJ73QD	120	83	0	0	298.20585940332944	1	0	0	259.0357010471952	-56.717950994110616	-292.76237568633707	2000	2000	0	2020-05-30 17:30:20.324103
A1BZ52X6PJ73QD	121	83	1	1758	283.54613175698415	13	-243	-135	208.31981740411263	-249.60943767303422	-134.51222048163748	2000	1950	0	2020-05-30 17:30:25.509119
A1BZ52X6PJ73QD	122	84	0	0	116.10102388583141	5	0	0	84.69061211371026	10.743261403637183	115.60289824114062	1950	2000	0	2020-05-30 17:30:31.600923
A1BZ52X6PJ73QD	123	84	1	1693	233.808643299332	12	-19	-239	265.036444725294	-20.229606676511736	-232.9318456012142	2000	1950	0	2020-05-30 17:30:37.132089
A1BZ52X6PJ73QD	124	85	1	1370	148.21031327211756	8	-22	-155	261.8318848732426	-21.057440468330764	-146.7067863499911	1950	1900	0	2020-05-30 17:30:42.978376
A1BZ52X6PJ73QD	125	86	0	0	180.85188206790053	5	0	0	142.65564244362753	-143.7779868571912	109.70548638420578	1900	2000	0	2020-05-30 17:30:49.071478
A1BZ52X6PJ73QD	126	86	0	0	140.71831078974543	13	0	0	196.14219148712294	-135.1704470065342	-39.122797031566094	2000	2000	0	2020-05-30 17:30:54.495484
A1BZ52X6PJ73QD	127	86	0	0	280.64300039267073	14	0	0	164.4829448966698	-270.4138050221349	75.07907646509378	2000	2000	0	2020-05-30 17:31:00.524338
A1BZ52X6PJ73QD	128	86	1	1786	237.79891907245175	5	-92	-216	246.92802318121272	-93.19034969600864	-218.77816306835123	2000	1950	0	2020-05-30 17:31:06.303831
A1BZ52X6PJ73QD	129	87	1	1742	193.6119883486367	7	-201	-18	185.47490146610295	-192.72874755208292	-18.472463271532753	1950	1900	0	2020-05-30 17:31:12.107855
A1BZ52X6PJ73QD	130	88	0	0	181.76298208618556	13	0	0	27.28787581297137	161.53535524842323	83.33133061237362	1900	2000	0	2020-05-30 17:31:18.113485
A1BZ52X6PJ73QD	131	88	1	1953	106.65943218414755	12	-94	48	150.50233879773583	-92.83378816761409	52.51782790915218	2000	1950	0	2020-05-30 17:31:25.445939
A1BZ52X6PJ73QD	132	89	0	0	130.2399863902718	10	0	0	129.38606184220424	-82.64280839281712	100.66091732090615	1950	2000	0	2020-05-30 17:31:30.502331
A1BZ52X6PJ73QD	133	89	0	0	117.07477211354828	8	0	0	141.3246867356794	-91.40024297332742	73.16076714917615	2000	2000	0	2020-05-30 17:31:35.918289
A1BZ52X6PJ73QD	134	89	1	1823	138.7231762318153	14	-133	-21	189.06146107210614	-136.991906195597	-21.848049357781044	2000	1950	0	2020-05-30 17:31:42.700775
A1BZ52X6PJ73QD	135	90	0	0	210.27042010791405	10	0	0	134.67429358095117	-147.83602776059365	149.52644738750286	1950	2000	0	2020-05-30 17:31:47.742060
A1BZ52X6PJ73QD	136	90	0	0	262.79850050432026	8	0	0	108.85009663944291	-84.90842844377443	248.7038613422149	2000	2000	0	2020-05-30 17:31:54.382029
A1BZ52X6PJ73QD	137	90	1	1451	192.37738151519875	0	-62	172	108.73946602204101	-61.80418955679524	182.17930472990628	2000	1950	0	2020-05-30 17:32:00.317993
A1BZ52X6PJ73QD	138	91	1	1463	200.0776003226065	0	-174	-111	212.8705387124731	-168.04498681929175	-108.59064672317187	1950	1900	0	2020-05-30 17:32:17.746893
A1BZ52X6PJ73QD	139	92	1	1619	234.4012827596175	5	-187	-127	213.4910220671652	-195.48417627612034	-129.3441076547396	1900	1850	0	2020-05-30 17:32:22.827457
A1BZ52X6PJ73QD	140	93	1	1778	103.54695937937603	12	-37	87	112.8101716136096	-40.1430062061239	95.44900130147643	1850	1800	0	2020-05-30 17:32:28.117355
A1BZ52X6PJ73QD	141	94	0	0	256.1477691993898	10	0	0	130.00792310865063	-164.67574494723112	196.19780501294693	1800	2000	0	2020-05-30 17:32:34.321577
A1BZ52X6PJ73QD	142	94	1	1647	156.88826062444528	7	-141	-73	206.4037235354019	-140.522126355885	-69.76717226736766	2000	1950	0	2020-05-30 17:32:39.640386
A1BZ52X6PJ73QD	143	95	1	1913	257.7551770796824	13	-248	-31	187.78757470584492	-255.37796520180225	-34.92601037572884	1950	1900	0	2020-05-30 17:32:45.719314
A1BZ52X6PJ73QD	144	96	1	1735	263.21648252346	1	229	107	25.281681580811224	238.00538064768224	112.41154502440935	1900	1850	0	2020-05-30 17:32:51.301771
A1BZ52X6PJ73QD	145	97	0	0	216.97230850023857	10	0	0	77.96589648454865	45.23739533373112	212.20405443662574	1850	2000	0	2020-05-30 17:32:58.637041
A1BZ52X6PJ73QD	146	97	1	1709	154.1506793056568	6	-123	-92	216.54768165658544	-123.83873169136153	-91.79542724706072	2000	1950	0	2020-05-30 17:33:03.191022
A1BZ52X6PJ73QD	147	98	1	1781	298.91215380671866	0	-290	-64	191.97357366902477	-292.40883897135205	-62.012471203761486	1950	1900	0	2020-05-30 17:33:08.613725
A1BZ52X6PJ73QD	148	99	1	1758	241.87626456267122	13	175	144	37.18298144859809	192.70510977407275	146.18094275846593	1900	1850	0	2020-05-30 17:33:14.414572
A1BZ52X6PJ73QD	149	100	1	1500	145.10414882134395	3	37	138	72.31562588884697	44.07875694980788	138.2471597933444	1850	1800	0	2020-05-30 17:33:20.218922
A1BZ52X6PJ73QD	150	101	1	1645	271.52037856591517	5	122	243	62.940483825350604	123.5189076594479	241.79825356522878	1800	1750	0	2020-05-30 17:33:25.542702
A1BZ52X6PJ73QD	151	102	0	0	186.8814519452579	6	0	0	268.64334490219125	-4.424583914872485	-186.8290666313676	1750	1950	0	2020-05-30 17:33:31.317741
A1BZ52X6PJ73QD	152	102	1	1710	147.7431697571767	2	-122	-66	208.87651310407273	-129.37316259556465	-71.34864406503827	1950	1900	0	2020-05-30 17:33:37.260564
A1BZ52X6PJ73QD	153	103	1	1628	292.2476717748302	10	-214	-202	223.12540472814814	-213.29966475130885	-199.7797654288045	1900	1850	0	2020-05-30 17:33:43.557288
A1BZ52X6PJ73QD	154	104	1	1597	237.55437577777144	7	-37	228	98.6547575857985	-35.7472370199814	234.84934851219816	1850	1800	0	2020-05-30 17:33:48.358404
A1BZ52X6PJ73QD	155	105	0	0	224.24697433854624	0	0	0	293.385526948904	89.0072234920974	-205.8261879990504	1800	2000	0	2020-05-30 17:33:54.143157
A1BZ52X6PJ73QD	156	105	1	1880	294.1687948250059	10	301	29	5.924563126073492	292.5975386233338	30.363798187366356	2000	1950	0	2020-05-30 17:34:00.168192
A1BZ52X6PJ73QD	157	106	0	69	205.63358999622795	5	0	3	87.93190307188036	7.42075351959822	205.49964903117998	1950	2000	0	2020-05-30 17:34:04.089289
A1BZ52X6PJ73QD	158	106	1	1805	288.1423725138293	11	1	278	87.92817833207312	10.416989301249258	287.9540122516025	2000	1950	0	2020-05-30 17:34:10.058645
A1BZ52X6PJ73QD	159	107	0	0	247.08731801659556	11	0	0	121.37185350279205	-128.63125186364263	210.9647927229242	1950	2000	0	2020-05-30 17:34:16.436753
A1BZ52X6PJ73QD	160	107	1	1916	250.60927986421672	9	-149	196	125.46433989376885	-145.40253906953538	204.11543985253428	2000	1950	0	2020-05-30 17:34:21.822100
A1BZ52X6PJ73QD	161	108	1	1575	156.60884319998985	13	139	39	14.223418228799085	151.80799999061625	38.47935689805713	1950	1900	0	2020-05-30 17:34:27.586328
A1BZ52X6PJ73QD	162	109	1	1789	128.0054553404982	11	-114	-51	206.0483892561894	-115.00310903237303	-56.21104437578437	1900	1850	0	2020-05-30 17:34:33.315608
A1BZ52X6PJ73QD	163	110	1	1603	107.28140596380729	12	-93	-40	204.42326438418308	-97.68142040882844	-44.35809027094087	1850	1800	0	2020-05-30 17:34:38.807272
A1BZ52X6PJ73QD	164	111	0	0	183.80557978776358	2	0	0	332.31920399319574	162.76891694222397	-85.38601078965638	1800	2000	0	2020-05-30 17:34:45.077494
A1BZ52X6PJ73QD	165	111	1	1843	124.99339717406187	14	90	-88	315.55785698370255	89.24001835569034	-87.51896057991564	2000	1950	0	2020-05-30 17:34:51.069511
A1BZ52X6PJ73QD	166	112	1	1866	166.69355792275638	2	-102	129	128.20474853688623	-103.09555205814732	130.98873767913474	1950	1900	0	2020-05-30 17:34:56.568413
A1BZ52X6PJ73QD	167	113	1	1636	212.35269879167998	6	-213	7	177.03461871657348	-212.06835309313655	10.98554962096721	1900	1850	0	2020-05-30 17:35:02.307103
A1BZ52X6PJ73QD	168	114	1	1660	298.76756884732083	8	-147	-260	240.48350242475644	-147.19505722301972	-259.99168318246365	1850	1800	0	2020-05-30 17:35:07.916066
A1BZ52X6PJ73QD	169	115	1	1530	109.48434289270277	8	-52	-95	243.83623830993167	-48.27583658310785	-98.26629605743763	1800	1750	0	2020-05-30 17:35:13.473367
A1BZ52X6PJ73QD	170	116	1	1707	243.99490007108128	12	-220	-83	202.56462633040172	-225.31643170562214	-93.62700926625105	1750	1700	0	2020-05-30 17:35:18.950831
A1BZ52X6PJ73QD	171	117	0	0	123.95896372633203	11	0	0	299.8033364955675	61.61064105249203	-107.56371877732326	1700	1900	0	2020-05-30 17:35:24.846262
A1BZ52X6PJ73QD	172	117	1	1782	140.824242427233	3	-98	106	134.94753054487137	-99.48654521656573	99.6689248265291	1900	1850	0	2020-05-30 17:35:31.189529
A1BZ52X6PJ73QD	173	118	1	1486	296.1318409482766	0	-78	288	104.34963377754173	-73.3928274200082	286.8929418907204	1850	1800	0	2020-05-30 17:35:36.495450
A1BZ52X6PJ73QD	174	119	1	1576	201.38697818877233	13	-175	97	151.41641559991635	-176.84195093033404	96.35164438222314	1800	1750	0	2020-05-30 17:35:41.992721
A1BZ52X6PJ73QD	175	120	1	1661	289.0958161293457	14	-294	1	180.0446122735157	-289.0957284948208	-0.2250989589079685	1750	1700	0	2020-05-30 17:35:47.349262
A1BZ52X6PJ73QD	176	121	1	1562	271.9127586867445	13	-102	-251	249.32958967768627	-95.98294652551466	-254.40877011792642	1700	1650	0	2020-05-30 17:36:19.983407
A1BZ52X6PJ73QD	177	122	1	1464	249.73639865136352	12	-249	-65	195.56655278009208	-240.5759148139897	-67.01863936819916	1650	1600	0	2020-05-30 17:36:25.352284
A1BZ52X6PJ73QD	178	123	1	1599	253.12366837416397	6	-139	213	124.1390689300802	-142.0538894282581	209.50485433396994	1600	1550	0	2020-05-30 17:36:31.173481
A1BZ52X6PJ73QD	179	124	1	1425	182.15303472942554	3	-8	174	91.88218594747592	-5.982713300993336	182.05475880266746	1550	1500	0	2020-05-30 17:36:36.403648
A1BZ52X6PJ73QD	180	125	1	1418	171.02583944701584	7	161	1	358.68117419574287	170.98053486089216	-3.9362999427991068	1500	1450	0	2020-05-30 17:36:42.173759
A1BZ52X6PJ73QD	181	126	0	0	234.92933038611937	1	0	0	137.24300594660895	-172.49442773409544	159.49126206898407	1450	1650	0	2020-05-30 17:36:47.322779
A1BZ52X6PJ73QD	182	126	1	1612	234.4301605543439	4	229	-29	354.3929822694004	233.30851546006846	-22.904951241040873	1650	1600	0	2020-05-30 17:36:53.578420
A1BZ52X6PJ73QD	183	127	0	0	232.1720801907743	8	0	0	298.985664582832	112.50844827830933	-203.09043277840127	1600	1800	0	2020-05-30 17:36:58.645755
A1BZ52X6PJ73QD	184	127	1	1422	199.70591719697842	14	172	-96	332.0217485927156	176.3654345883639	-93.68931020102524	1800	1750	0	2020-05-30 17:37:03.980602
A1BZ52X6PJ73QD	185	128	1	1718	267.5314017765886	6	-103	246	112.20327977267036	-101.09845419855948	247.6936686619346	1750	1700	0	2020-05-30 17:37:09.848849
A1BZ52X6PJ73QD	186	129	1	1592	152.0906670691016	13	-134	-70	207.9805125154078	-134.31236600299158	-71.35656485708054	1700	1650	0	2020-05-30 17:37:16.286224
A1BZ52X6PJ73QD	187	130	1	1527	242.4433651511706	13	-18	239	94.2916235737367	-18.142750120341464	241.76357443563472	1650	1600	0	2020-05-30 17:37:21.246555
A1BZ52X6PJ73QD	188	131	1	1585	100.55389271115286	10	23	98	77.61456821167114	21.567501614605437	98.21368648752592	1600	1550	0	2020-05-30 17:37:26.777391
A1BZ52X6PJ73QD	189	132	0	0	134.55276395479743	13	0	0	219.6771399336636	-103.55912029386536	-85.90666383835516	1550	1750	0	2020-05-30 17:37:32.290165
A1BZ52X6PJ73QD	190	132	1	1734	265.09472660839424	14	-8	-254	269.29522738535377	-3.260742655150246	-265.0746718057313	1750	1700	0	2020-05-30 17:37:38.228303
A1BZ52X6PJ73QD	191	133	0	0	125.72787012438549	8	0	0	42.67491987846135	92.4365604004855	85.22311674271094	1700	1900	0	2020-05-30 17:37:44.360285
A1BZ52X6PJ73QD	192	133	1	1900	230.51600988618662	7	-163	161	135.8853362453093	-165.4985471601554	160.46140252947532	1900	1850	0	2020-05-30 17:37:49.575506
A1BZ52X6PJ73QD	193	134	1	1388	157.90980981504077	4	-115	103	142.60710919517766	-125.45776115596355	95.89503741881303	1850	1800	0	2020-05-30 17:37:54.968956
A1BZ52X6PJ73QD	194	135	1	1745	113.98448784766502	9	82	-89	315.7615936401915	81.66340264099146	-79.52076545777086	1800	1750	0	2020-05-30 17:38:00.791189
A1BZ52X6PJ73QD	195	136	1	1696	119.95146461981135	13	-9	-118	267.318103883197	-5.612628200997234	-119.82008291231993	1750	1700	0	2020-05-30 17:38:06.312479
A1BZ52X6PJ73QD	196	137	0	0	204.5527832220637	9	0	0	18.834134236667907	193.60043416737665	66.03569499971853	1700	1900	0	2020-05-30 17:38:12.075881
A1BZ52X6PJ73QD	197	137	1	1533	118.41702926633153	2	46	104	68.19784857308461	43.98040433053807	109.94688197118464	1900	1850	0	2020-05-30 17:38:17.659162
A1BZ52X6PJ73QD	198	138	1	1710	255.99992862531428	11	239	83	19.03025200086614	242.00864799385306	83.47321577819633	1850	1800	0	2020-05-30 17:38:23.288006
A1BZ52X6PJ73QD	199	139	1	1769	163.47439383988376	5	156	53	19.351689188171246	154.23848213349805	54.16980773892434	1800	1750	0	2020-05-30 17:38:30.288589
A1BZ52X6PJ73QD	200	140	1	1616	107.93454706806997	0	-85	74	139.408710838641	-81.96228265186699	70.2285602392992	1750	1700	0	2020-05-30 17:38:34.752243
A1BZ52X6PJ73QD	201	141	1	1700	222.00647805650604	6	-160	155	137.44293794935197	-163.53089018555661	150.148340830571	1700	1650	0	2020-05-30 17:38:40.413810
A1BZ52X6PJ73QD	202	142	1	1418	255.00598745413598	14	-230	115	152.00873919234286	-225.17518048597253	119.68371539423667	1650	1600	0	2020-05-30 17:38:46.180538
A1BZ52X6PJ73QD	203	143	1	1495	185.5539693200119	8	-10	-178	268.95700122384653	-3.3775938826023033	-185.52322601220615	1600	1550	0	2020-05-30 17:38:52.141923
A1BZ52X6PJ73QD	204	144	0	0	125.14391858056362	14	0	0	6.50115331926151	124.33919022106672	14.16919662042008	1550	1750	0	2020-05-30 17:38:56.939150
A1BZ52X6PJ73QD	205	144	1	1751	168.95438477289588	12	31	163	78.06905013323973	34.928400096334606	165.30454016964603	1750	1700	0	2020-05-30 17:39:02.719795
A1BZ52X6PJ73QD	206	145	1	1682	146.64457862186393	5	142	22	11.124016165683646	143.88940268990405	28.292617989975174	1700	1650	0	2020-05-30 17:39:08.829435
A1BZ52X6PJ73QD	207	146	1	1420	242.33116500858083	0	-202	119	150.8278152885722	-211.59359283480455	118.12089148696339	1650	1600	0	2020-05-30 17:39:14.167072
A1BZ52X6PJ73QD	208	147	1	1595	238.53203328486296	4	64	-221	287.81618629335725	72.98228020615382	-227.09275126899453	1600	1550	0	2020-05-30 17:39:20.105761
A1BZ52X6PJ73QD	209	148	0	0	276.70780537458427	9	0	0	49.12259327922477	181.08940583543648	209.2219793649496	1550	1750	0	2020-05-30 17:39:25.566917
A1BZ52X6PJ73QD	210	148	1	1703	198.96647386782482	9	130	-143	315.0372088193179	140.78187997375431	-140.59914649261302	1750	1700	0	2020-05-30 17:39:30.723997
A1BZ52X6PJ73QD	211	149	1	1299	107.29804163866099	13	22	108	78.52885098224282	21.33884152099379	105.1547601491903	1700	1650	0	2020-05-30 17:39:36.038656
A1BZ52X6PJ73QD	212	150	1	1306	248.68990923032234	4	110	-215	297.0794608335448	113.21005242976797	-221.42753889666741	1650	1600	0	2020-05-30 17:39:41.336193
