A2FWZR12905V6J	1	1	1	1037	129.56644173806558	7	24	126.5	75.46082098644197	32.52661445820495	125.41723237478506	1500	1450	0	2020-05-31 08:25:42.655289
A2FWZR12905V6J	2	2	1	1005	120.9377438181948	8	42	105.5	68.81263640476229	43.709191200212764	112.76277969462512	1450	1400	0	2020-05-31 08:25:48.206805
A2FWZR12905V6J	3	3	1	1007	145.46255963586052	14	136	42.5	18.860640772853152	137.65233297764422	47.023307855020526	1400	1350	0	2020-05-31 08:25:53.222980
A2FWZR12905V6J	4	4	1	959	246.35736332347798	0	208	98.5	24.722226680966727	223.77772714993804	103.03144808894038	1350	1300	0	2020-05-31 08:25:59.149999
A2FWZR12905V6J	5	5	1	957	269.4371002624744	12	-195	153.5	141.83604547874367	-211.843784661039	166.4889242512487	1300	1250	0	2020-05-31 08:26:04.544477
A2FWZR12905V6J	6	6	1	949	121.75960296090742	9	100	-61.5	330.5630957742826	106.04012641607252	-59.840559011937486	1250	1200	0	2020-05-31 08:26:10.492282
A2FWZR12905V6J	7	7	1	935	159.54146337211213	5	124	100.5	42.826941266831184	117.00935262833218	108.4540913585726	1200	1150	0	2020-05-31 08:26:15.907106
A2FWZR12905V6J	8	8	1	1154	149.1557774564499	9	-153	-16.5	185.32219482827952	-148.51274327676532	-13.835137623009027	1150	1100	0	2020-05-31 08:26:21.069688
A2FWZR12905V6J	9	9	0	0	284.3909323492138	2	0	0	92.30989730242302	-11.462203984572414	284.1598498772674	1100	1300	0	2020-05-31 08:26:26.180900
A2FWZR12905V6J	10	9	1	1107	221.6048960462224	13	193	86.5	24.254007196450615	202.04456675285596	91.031439609114	1300	1250	0	2020-05-31 08:26:31.759705
A2FWZR12905V6J	11	10	1	1157	247.3903014772662	13	64	237.5	73.8769376501614	68.7006226336774	237.6598108952326	1250	1200	0	2020-05-31 08:26:42.719812
A2FWZR12905V6J	12	11	1	1120	275.7308189601736	0	-281	12.5	174.7018238829512	-274.552797112131	25.460677963343553	1200	1150	0	2020-05-31 08:26:48.760413
A2FWZR12905V6J	13	12	1	907	132.94139221350076	7	147	-9.5	355.46061360329367	132.52437682314928	-10.521564108998986	1150	1100	0	2020-05-31 08:26:53.688704
A2FWZR12905V6J	14	13	0	0	264.15799377500934	5	0	0	336.05372585116464	241.42097750644174	-107.21640403908366	1100	1300	0	2020-05-31 08:26:59.189293
A2FWZR12905V6J	15	13	1	1232	253.72835572353512	10	-167	183.5	130.574403553664	-165.0337913208478	192.72240715712235	1300	1250	0	2020-05-31 08:27:04.923714
A2FWZR12905V6J	16	14	1	1175	268.86802430469805	11	-144	229.5	120.117356571836	-134.9106597405758	232.5706954495219	1250	1200	0	2020-05-31 08:27:10.402572
A2FWZR12905V6J	17	15	1	1001	289.53986249550474	10	-281	-83.5	196.35498774328016	-277.8237736429695	-81.53087005972542	1200	1150	0	2020-05-31 08:27:15.912406
A2FWZR12905V6J	18	16	1	1000	124.69638413302451	14	-108	-71.5	214.04931288296453	-103.31793522995827	-69.81828181550269	1150	1100	0	2020-05-31 08:27:21.321803
A2FWZR12905V6J	19	17	0	0	284.92624481814124	8	0	0	231.03698166165563	-179.16693654975302	-221.54497022849364	1100	1300	0	2020-05-31 08:27:26.429215
A2FWZR12905V6J	20	17	1	1292	112.9874055368258	14	-106	50.5	151.5202421379252	-99.31430630839733	53.8778467686392	1300	1250	0	2020-05-31 08:27:32.194245
A2FWZR12905V6J	21	18	1	1249	286.130919131007	1	273	-24.5	355.01164943970923	285.0471691181145	-24.87999719662176	1250	1200	0	2020-05-31 08:27:38.061720
A2FWZR12905V6J	22	19	0	0	282.00417961384824	1	0	0	82.78700138525957	35.40796821526435	279.77246666987514	1200	1400	0	2020-05-31 08:27:43.850880
A2FWZR12905V6J	23	19	1	1064	229.20199178123877	12	-229	-6.5	180.64694707079266	-229.18738091333435	-2.587946400765338	1400	1350	0	2020-05-31 08:27:49.270464
A2FWZR12905V6J	24	20	1	938	158.26311743530067	8	-35	142.5	103.44999246479725	-36.81146212416358	153.92248242742528	1350	1300	0	2020-05-31 08:27:54.786601
A2FWZR12905V6J	25	21	1	1212	199.15352052692003	2	165	97.5	30.742248522564644	171.16758674062135	101.80266198709256	1300	1250	0	2020-05-31 08:28:00.020624
A2FWZR12905V6J	26	22	1	1218	298.2384348575415	6	306	47.5	11.234616263393171	292.52347848364553	58.104892755293925	1250	1200	0	2020-05-31 08:28:05.503093
A2FWZR12905V6J	27	23	1	1045	161.1066163575769	0	60	144.5	65.97115829896191	65.60204296969877	147.14521328398442	1200	1150	0	2020-05-31 08:28:10.953739
A2FWZR12905V6J	28	24	1	926	105.13901653215471	12	33	101.5	80.2031105752034	17.890034637748464	103.60578872827938	1150	1100	0	2020-05-31 08:28:15.917802
A2FWZR12905V6J	29	25	1	1096	225.6696739613494	10	-186	122.5	146.37031190333818	-187.90033048349346	124.98106876649629	1100	1050	0	2020-05-31 08:28:21.425757
A2FWZR12905V6J	30	26	1	814	113.35219675960624	11	-29	-110.5	258.9965233804824	-21.635370415146653	-111.26828504667395	1050	1000	0	2020-05-31 08:28:26.422276
A2FWZR12905V6J	31	27	0	0	235.74452441183874	1	0	0	79.94778948069842	41.14814754691725	232.12563568813584	1000	1200	0	2020-05-31 08:28:32.094570
A2FWZR12905V6J	32	27	1	864	206.6000675841826	5	-20	-198.5	263.5868767567012	-23.07651388331859	-205.30723911441072	1200	1150	0	2020-05-31 08:28:36.981239
A2FWZR12905V6J	33	28	1	972	121.34462376435549	11	42	-118.5	294.1152911226412	49.57826600562057	-110.75429227072382	1150	1100	0	2020-05-31 08:28:41.986867
A2FWZR12905V6J	34	29	0	0	263.57435992282626	13	0	0	167.29067646274024	-257.1164602823993	57.98766300323656	1100	1300	0	2020-05-31 08:28:47.073567
A2FWZR12905V6J	35	29	1	1004	271.06288278611305	14	265	66.5	13.399980062485177	263.68345571141555	62.818163045444116	1300	1250	0	2020-05-31 08:28:52.140808
A2FWZR12905V6J	36	30	1	996	294.32926413472103	13	-162	220.5	125.2604608380019	-169.9146005095352	240.33048965907642	1250	1200	0	2020-05-31 08:28:57.492869
A2FWZR12905V6J	37	31	0	0	253.94150478353592	2	0	0	21.853175868785293	235.69346195472696	94.52449335237011	1200	1400	0	2020-05-31 08:29:20.721151
A2FWZR12905V6J	38	31	1	862	261.09911078200366	10	84	-241.5	290.8101097133942	92.76117842897148	-244.06578913813698	1400	1350	0	2020-05-31 08:29:27.573809
A2FWZR12905V6J	39	32	1	1345	247.22137115559576	9	-210	140.5	146.13543527881808	-205.28201355505334	137.75957776806567	1350	1300	0	2020-05-31 08:29:32.946003
A2FWZR12905V6J	40	33	1	1056	273.6731967103538	6	-51	-265.5	260.68011905041146	-44.32034478211151	-270.06059622991796	1300	1250	0	2020-05-31 08:29:38.005115
A2FWZR12905V6J	41	34	1	1162	170.19365252716585	11	-160	-97.5	213.2526544111846	-142.32627210392414	-93.32262121017288	1250	1200	0	2020-05-31 08:29:43.177370
A2FWZR12905V6J	42	35	1	927	182.0970066288096	14	-144	-122.5	220.19743022031443	-139.09024196637313	-117.52967460564373	1200	1150	0	2020-05-31 08:29:48.598009
A2FWZR12905V6J	43	36	1	1036	227.37999225202742	9	193	-130.5	329.4792295665308	195.87538354103864	-115.47508388904971	1150	1100	0	2020-05-31 08:29:53.640373
A2FWZR12905V6J	44	37	0	0	245.27964897213462	6	0	0	89.16370699605358	3.5799909306076954	245.25352161555264	1100	1300	0	2020-05-31 08:29:58.813142
A2FWZR12905V6J	45	37	1	909	123.02279064705064	14	68	97.5	54.312921684765804	71.76633533290644	99.920969428208	1300	1250	0	2020-05-31 08:30:03.689883
A2FWZR12905V6J	46	38	1	1018	231.2415147276457	9	-54	221.5	103.17897864579705	-52.72159849828994	225.1512184850908	1250	1200	0	2020-05-31 08:30:09.080286
A2FWZR12905V6J	47	39	1	1054	210.74760122844623	12	197	-62.5	344.2915538861146	202.87656737939488	-57.05830204184172	1200	1150	0	2020-05-31 08:30:14.546317
A2FWZR12905V6J	48	40	0	0	295.964340809825	1	0	0	331.6114220671274	260.3726672784555	-140.71590231845494	1150	1350	0	2020-05-31 08:30:19.723020
A2FWZR12905V6J	49	40	1	915	111.87196240899335	12	-114	-8.5	179.94629774443868	-111.87191326946112	0.10485546905645643	1350	1300	0	2020-05-31 08:30:25.228852
A2FWZR12905V6J	50	41	1	964	181.70159707031326	4	-26	160.5	97.72082985824841	-24.41096418248003	180.05436736048406	1300	1250	0	2020-05-31 08:30:30.211147
A2FWZR12905V6J	51	42	1	793	118.69515905369923	9	-49	105.5	111.73862946553245	-43.96149459846633	110.25392408187552	1250	1200	0	2020-05-31 08:30:35.411439
A2FWZR12905V6J	52	43	1	849	100.32742517296502	7	87	10.5	8.82659133324272	99.13927489877743	15.394687862426274	1200	1150	0	2020-05-31 08:30:40.277798
A2FWZR12905V6J	53	44	1	991	184.05218597597548	5	132	105.5	40.968925785964416	138.97141553808464	120.67374538761973	1150	1100	0	2020-05-31 08:30:45.279806
A2FWZR12905V6J	54	45	1	1013	194.13588853638123	3	2	199.5	91.94303694376727	-6.582350542003493	194.02426621212211	1100	1050	0	2020-05-31 08:30:50.343093
A2FWZR12905V6J	55	46	1	799	165.77911722271324	2	-2	-136.5	272.1609012389459	6.250850994453375	-165.66122832149722	1050	1000	0	2020-05-31 08:30:55.179535
A2FWZR12905V6J	56	47	0	0	199.75013013162135	0	0	0	82.8055982433532	25.0159663517658	198.17748589354693	1000	1200	0	2020-05-31 08:31:00.803045
A2FWZR12905V6J	57	47	1	853	119.23433844521018	7	136	7.5	8.23852825373037	118.00385164282248	17.085621496617243	1200	1150	0	2020-05-31 08:31:06.742984
A2FWZR12905V6J	58	48	1	871	139.42486888860122	13	-110	74.5	145.2885556166695	-114.6114689615514	79.39461724247421	1150	1100	0	2020-05-31 08:31:11.625880
A2FWZR12905V6J	59	49	0	0	252.63420123265962	11	0	0	106.99006728626651	-73.82120836510971	241.60808932645241	1100	1300	0	2020-05-31 08:31:16.692326
A2FWZR12905V6J	60	49	1	1269	191.95734553712316	9	-175	106.5	150.03593699802335	-166.30010461581566	95.87438505892625	1300	1250	0	2020-05-31 08:31:22.299969
A2FWZR12905V6J	61	50	1	1063	204.43426102361565	8	-142	153.5	133.52874791611467	-140.79764585984026	148.2207475375793	1250	1200	0	2020-05-31 08:31:28.138100
A2FWZR12905V6J	62	51	1	936	186.89763432008021	11	180	12.5	4.9530608264729725	186.19971473056887	16.136664732750646	1200	1150	0	2020-05-31 08:31:33.692511
A2FWZR12905V6J	63	52	1	918	136.4342161814534	13	-140	-54.5	202.40967477345546	-126.13093258873941	-52.01233689560999	1150	1100	0	2020-05-31 08:31:38.593255
A2FWZR12905V6J	64	53	1	1018	172.1922482962436	7	-183	-39.5	193.21832797070047	-167.63015370617302	-39.37387384751483	1100	1050	0	2020-05-31 08:31:43.703619
A2FWZR12905V6J	65	54	1	981	206.3081750715686	0	152	99.5	31.16446137870021	176.53489539611607	106.76372890098656	1050	1000	0	2020-05-31 08:31:48.624226
A2FWZR12905V6J	66	55	1	973	224.933679577629	12	202	93.5	28.16496823388932	198.29978061463677	106.17135779728164	1000	950	0	2020-05-31 08:31:53.661676
A2FWZR12905V6J	67	56	1	942	213.19815813545398	5	-139	-171.5	230.3237517464782	-136.11611056754165	-164.09100851757483	950	900	0	2020-05-31 08:31:58.576392
A2FWZR12905V6J	68	57	0	0	188.88690881730352	14	0	0	141.59037722077903	-148.00972760652525	117.35154390291818	900	1100	0	2020-05-31 08:32:03.481318
A2FWZR12905V6J	69	57	0	0	204.98370629860352	2	0	0	19.269102879647136	193.50032359415746	67.64572874076006	1100	1300	0	2020-05-31 08:32:09.023784
A2FWZR12905V6J	70	57	1	991	258.6557485680348	10	242	71.5	16.18485399974479	248.4045494574393	72.09699075645982	1300	1250	0	2020-05-31 08:32:14.659331
A2FWZR12905V6J	71	58	1	1222	283.78627464341537	14	-41	-279.5	262.50670743109526	-37.008603859222916	-281.36277812884043	1250	1200	0	2020-05-31 08:32:21.084072
A2FWZR12905V6J	72	59	1	1194	268.7406297246857	8	-185	-197.5	225.28396579792079	-189.0841850452153	-190.96779055800846	1200	1150	0	2020-05-31 08:32:26.285308
A2FWZR12905V6J	73	60	1	963	232.96103048784985	12	-225	97.5	155.5252127707241	-212.0280065129227	96.51407244602686	1150	1100	0	2020-05-31 08:32:31.710420
A2FWZR12905V6J	74	61	1	1083	219.46601742709416	0	-194	116.5	149.73081905647146	-189.5455147524538	110.62472889249001	1100	1050	0	2020-05-31 08:32:42.600104
A2FWZR12905V6J	75	62	1	997	145.6038631806785	14	-13	-153.5	262.78629423260213	-18.283557836269956	-144.45136373875297	1050	1000	0	2020-05-31 08:32:47.621017
A2FWZR12905V6J	76	63	1	947	210.55456698160452	8	197	35.5	6.870065034455264	209.04277962561187	25.18614625560748	1000	950	0	2020-05-31 08:32:52.556789
A2FWZR12905V6J	77	64	0	0	252.39656493018984	14	0	0	299.2303235549469	123.25068967628191	-220.25733468577246	950	1150	0	2020-05-31 08:32:57.519762
A2FWZR12905V6J	78	64	1	852	149.884762278512	7	-157	-32.5	190.71805478767243	-147.26990888784323	-27.87500492291267	1150	1100	0	2020-05-31 08:33:02.526184
A2FWZR12905V6J	79	65	1	1089	189.41566557475238	2	206	29.5	8.642778802961741	187.26474798058334	28.464162185018708	1100	1050	0	2020-05-31 08:33:07.645219
A2FWZR12905V6J	80	66	1	954	178.67454844511502	12	-157	75.5	153.14889132321383	-159.4104436134123	80.70256953183618	1050	1000	0	2020-05-31 08:33:12.601925
A2FWZR12905V6J	81	67	0	691	161.63601864778036	12	-32	202.5	89.34187939831361	1.8565705121042924	161.6253559013535	1000	1200	0	2020-05-31 08:33:17.303806
A2FWZR12905V6J	82	67	1	884	123.51535087826493	6	24	-144.5	281.3605812624462	24.330409548545706	-121.09530574626308	1200	1150	0	2020-05-31 08:33:23.021488
A2FWZR12905V6J	83	68	0	0	266.39887598139427	10	0	0	300.1109362929922	133.6458860667702	-230.449860623907	1150	1350	0	2020-05-31 08:33:28.770162
A2FWZR12905V6J	84	68	1	990	141.3951730933313	7	-41	-128.5	257.76174624598013	-29.972570545807365	-138.181909050967	1350	1300	0	2020-05-31 08:33:34.173061
A2FWZR12905V6J	85	69	1	1100	192.81579756743534	6	40	-172.5	283.9832694730986	46.59173094452974	-187.10195722963124	1300	1250	0	2020-05-31 08:33:39.445011
A2FWZR12905V6J	86	70	1	902	237.22345831340883	0	194	61.5	17.447734196316294	226.30901120994062	71.12805789105012	1250	1200	0	2020-05-31 08:33:44.344789
A2FWZR12905V6J	87	71	1	805	118.63656259575963	0	-81	-56.5	212.25206365276563	-100.3319614604723	-63.309805670463824	1200	1150	0	2020-05-31 08:33:49.172980
A2FWZR12905V6J	88	72	1	985	136.67131739892994	2	-57	114.5	115.06047150001093	-57.89049418270365	123.80524901166916	1150	1100	0	2020-05-31 08:33:54.666873
A2FWZR12905V6J	89	73	1	837	185.78763129819788	2	-184	-11.5	182.70915401418483	-185.5799831742047	-8.781445692880858	1100	1050	0	2020-05-31 08:33:59.489691
A2FWZR12905V6J	90	74	1	829	155.92510071875336	7	-68	150.5	110.06066822184793	-53.4846413352234	146.46511589930174	1050	1000	0	2020-05-31 08:34:04.901083
A2FWZR12905V6J	91	75	1	820	136.80253000959667	9	118	-38.5	341.0110010786888	129.35788255444803	-44.51371067498444	1000	950	0	2020-05-31 08:34:09.747818
A2FWZR12905V6J	92	76	0	0	214.39751125191893	0	0	0	140.86764163704692	-166.30602755835923	135.3092680815877	950	1150	0	2020-05-31 08:34:14.731025
A2FWZR12905V6J	93	76	1	963	104.97556170321118	4	97	-63.5	325.2664952446576	86.27007174463535	-59.81089596453282	1150	1100	0	2020-05-31 08:34:20.140541
A2FWZR12905V6J	94	77	0	0	280.8151109194828	6	0	0	319.8384653730738	214.60710274250928	-181.11023707451625	1100	1300	0	2020-05-31 08:34:25.267538
