ASZK8AX39SQJR	1	1	0	562	243.24155943355828	0	19	-106.5	180.10622501476928	-243.24114139533387	-0.4509638172457337	1500	1700	0	2020-05-31 02:34:33.842736
ASZK8AX39SQJR	2	1	0	0	240.9667353867202	5	0	0	231.54726406632565	-149.84970440943758	-188.70620989076593	1700	1900	0	2020-05-31 02:34:43.326405
ASZK8AX39SQJR	3	1	0	0	130.68468909155527	9	0	0	110.36722784666468	-45.482961021959234	122.51444086160375	1900	2000	0	2020-05-31 02:34:49.287686
ASZK8AX39SQJR	4	1	0	0	147.4377415835025	5	0	0	246.92613439432327	-57.783433518909824	-135.64277516332888	2000	2000	0	2020-05-31 02:34:55.348064
ASZK8AX39SQJR	5	1	0	0	212.52721731304018	10	0	0	196.6096423489399	-203.65940912169438	-60.75082859539041	2000	2000	0	2020-05-31 02:35:01.421479
ASZK8AX39SQJR	6	1	0	0	166.1651978508296	4	0	0	269.6900972835912	-0.8987537221795668	-166.16276724510885	2000	2000	0	2020-05-31 02:35:07.473011
ASZK8AX39SQJR	7	1	0	0	213.7442626573211	0	0	0	114.51705439635688	-88.6961911248137	194.4726086081852	2000	2000	0	2020-05-31 02:35:13.545163
ASZK8AX39SQJR	8	1	0	0	135.19847836740792	4	0	0	172.39900661491924	-134.01052274045077	17.883186172871852	2000	2000	0	2020-05-31 02:35:19.596607
ASZK8AX39SQJR	9	1	0	0	246.22233959037843	10	0	0	294.69090797267506	102.85271002955496	-223.71133309006927	2000	2000	0	2020-05-31 02:35:25.661658
ASZK8AX39SQJR	10	1	0	0	165.12475576432422	11	0	0	291.79928402558943	61.320107285500924	-153.31676166917427	2000	2000	0	2020-05-31 02:35:31.739643
ASZK8AX39SQJR	11	1	0	0	177.47005014973246	11	0	0	169.4003764249478	-174.44180018227897	32.64470936176968	2000	2000	0	2020-05-31 02:35:37.801024
ASZK8AX39SQJR	12	1	0	0	192.60979120848907	2	0	0	325.6278862066409	158.97788227399838	-108.74081394330499	2000	2000	0	2020-05-31 02:35:43.860898
ASZK8AX39SQJR	13	1	0	0	187.4461531022706	14	0	0	194.743870045596	-181.27414599174313	-47.70476189862051	2000	2000	0	2020-05-31 02:35:49.931427
ASZK8AX39SQJR	14	1	0	0	275.0391382493019	14	0	0	223.167494526087	-200.60168569308973	-188.16346953117508	2000	2000	0	2020-05-31 02:35:55.998311
ASZK8AX39SQJR	15	1	0	0	127.23103152609742	7	0	0	126.30290407210215	-75.32764457608599	102.53526878988352	2000	2000	0	2020-05-31 02:36:02.049330
ASZK8AX39SQJR	16	1	0	0	205.60208968231387	6	0	0	15.814431925604566	197.8199230732771	56.03121734370025	2000	2000	0	2020-05-31 02:36:08.474830
ASZK8AX39SQJR	17	1	0	0	189.91867140002316	1	0	0	139.21527514170913	-143.8005745040126	124.05843993322621	2000	2000	0	2020-05-31 02:36:14.491112
