A2UTYQIPNBON1V	1	1	0	0	223.7812312985445	9	0	0	158.91261367728146	-208.7952211246331	80.5145646265832	1500	1700	0	2020-05-31 12:42:09.729901
A2UTYQIPNBON1V	2	1	0	0	234.0560455867341	12	0	0	323.2822111531748	187.6169992894043	-139.93603557818483	1700	1900	0	2020-05-31 12:42:16.644747
A2UTYQIPNBON1V	3	1	0	126	140.17701187848334	12	-97	13	108.2868150486344	-43.983896831953295	133.0977515912893	1900	2000	0	2020-05-31 12:42:21.511932
A2UTYQIPNBON1V	4	1	0	0	256.34763149283754	6	0	0	324.59116604130776	208.93318174573508	-148.52957192960352	2000	2000	0	2020-05-31 12:42:27.532091
A2UTYQIPNBON1V	5	1	1	1667	212.49756118896136	12	-156	149	134.79568214138692	-149.72168765895572	150.79333458681282	2000	1950	0	2020-05-31 12:42:33.874427
A2UTYQIPNBON1V	6	2	0	724	100.51241221794017	7	-8	1	347.74378686496044	98.22154259010308	-21.337140883672642	1950	2000	0	2020-05-31 12:42:43.394080
A2UTYQIPNBON1V	7	2	1	1856	111.40592809352121	10	-115	23	167.65230263639475	-108.82887426773813	23.823453569868143	2000	1950	0	2020-05-31 12:42:50.302384
A2UTYQIPNBON1V	8	3	0	0	282.6093238736559	10	0	0	202.5343235229461	-261.032135058498	-108.30629901869513	1950	2000	0	2020-05-31 12:43:08.538614
A2UTYQIPNBON1V	9	3	1	1774	240.6393389842789	4	-16	-243	267.7435658138103	-9.474458471738286	-240.45275233080199	2000	1950	0	2020-05-31 12:43:27.200303
A2UTYQIPNBON1V	10	4	0	0	196.98911046020402	13	0	0	45.88885145671408	137.11476587405136	141.43638364723037	1950	2000	0	2020-05-31 12:43:37.369509
A2UTYQIPNBON1V	11	4	0	0	127.31710876856309	8	0	0	130.44242960059648	-82.58852937065919	96.8957223079424	2000	2000	0	2020-05-31 12:43:48.733914
A2UTYQIPNBON1V	12	4	0	0	140.99198678806695	13	0	0	99.7572569027516	-23.89452248398818	138.95248156729204	2000	2000	0	2020-05-31 12:43:56.380122
A2UTYQIPNBON1V	13	4	1	1987	157.03491366786912	9	-157	-24	188.0377611828242	-155.49222319756169	-21.95751888886279	2000	1950	0	2020-05-31 12:44:03.488867
A2UTYQIPNBON1V	14	5	0	0	275.0803582845631	1	0	0	219.61590010806182	-211.90439147292585	-175.40163165846715	1950	2000	0	2020-05-31 12:44:10.762949
A2UTYQIPNBON1V	15	5	1	1928	244.9726360193261	3	-152	199	126.99022988966647	-147.39484916957116	195.66898281673718	2000	1950	0	2020-05-31 12:44:18.452777
A2UTYQIPNBON1V	16	6	1	1944	253.99541382687886	4	-246	68	163.6789035522795	-243.75987736478982	71.37781470590203	1950	1900	0	2020-05-31 12:44:29.927241
A2UTYQIPNBON1V	17	7	0	0	265.2921072618336	12	0	0	298.17095547897225	125.24545216771287	-233.86636972153434	1900	2000	0	2020-05-31 12:44:37.674025
A2UTYQIPNBON1V	18	7	0	0	230.72929790757976	5	0	0	276.11518904399077	24.57905345070411	-229.41638791592922	2000	2000	0	2020-05-31 12:44:48.387755
A2UTYQIPNBON1V	19	7	0	0	164.76824706486246	11	0	0	260.1609841314018	-28.155676891613332	-162.34479695882658	2000	2000	0	2020-05-31 12:44:55.516731
A2UTYQIPNBON1V	20	7	0	0	114.34712716730262	8	0	0	21.862946942094315	106.12296964388553	42.58146081780456	2000	2000	0	2020-05-31 12:45:02.468750
A2UTYQIPNBON1V	21	7	0	0	275.2226243202639	5	0	0	278.50364393412036	40.69780547089472	-272.19695363391986	2000	2000	0	2020-05-31 12:45:09.797791
A2UTYQIPNBON1V	22	7	1	1962	180.59362253414508	1	181	0	1.3718088528258665	180.5418626131296	4.323464373289735	2000	1950	0	2020-05-31 12:45:17.292670
A2UTYQIPNBON1V	23	8	0	0	145.84923763346063	4	0	0	293.750154895469	58.740658576969835	-133.49732262560747	1950	2000	0	2020-05-31 12:45:25.522572
A2UTYQIPNBON1V	24	8	1	1744	138.83385834387374	14	61	-125	297.66864118805614	64.46852773501725	-122.957916192192	2000	1950	0	2020-05-31 12:45:35.596555
A2UTYQIPNBON1V	25	9	0	0	247.00252739270417	8	0	0	311.707531599422	164.33781990958573	-184.3999172606868	1950	2000	0	2020-05-31 12:45:42.984942
A2UTYQIPNBON1V	26	9	0	0	224.7988652337562	8	0	0	107.28425581423592	-66.79055423114148	214.64750563629067	2000	2000	0	2020-05-31 12:46:08.886253
A2UTYQIPNBON1V	27	9	0	0	149.82408683625187	12	0	0	97.51699333493023	-19.600022811129385	148.536514373133	2000	2000	0	2020-05-31 12:46:16.365063
A2UTYQIPNBON1V	28	9	0	0	188.81627813629967	7	0	0	92.9486146673776	-9.71276998877065	188.56629865484902	2000	2000	0	2020-05-31 12:46:23.798526
A2UTYQIPNBON1V	29	9	0	0	154.41670820041833	2	0	0	69.73877963971378	53.474626269573825	144.86194847779228	2000	2000	0	2020-05-31 12:46:33.019197
A2UTYQIPNBON1V	30	9	0	0	248.70300301223298	8	0	0	91.57634235530324	-6.841544434652035	248.60888354411523	2000	2000	0	2020-05-31 12:46:40.317227
A2UTYQIPNBON1V	31	9	1	1769	208.02322888768802	5	65	199	70.57724192803306	69.17516185255418	196.18476174140633	2000	1950	0	2020-05-31 12:46:47.396228
A2UTYQIPNBON1V	32	10	0	0	114.10879376698237	8	0	0	224.46266202993806	-81.44025167079569	-79.92685545392847	1950	2000	0	2020-05-31 12:47:05.747758
A2UTYQIPNBON1V	33	10	0	0	299.8226100134942	12	0	0	137.07488302991447	-219.54343263197276	204.19176933332616	2000	2000	0	2020-05-31 12:47:13.475614
A2UTYQIPNBON1V	34	10	0	0	254.8783264169749	6	0	0	315.4523850862371	181.64355611744313	-178.79759449759746	2000	2000	0	2020-05-31 12:47:30.299967
A2UTYQIPNBON1V	35	10	0	0	159.58121906929193	12	0	0	193.8647511094246	-154.9316747728001	-38.24057572444008	2000	2000	0	2020-05-31 12:47:38.445184
A2UTYQIPNBON1V	36	10	0	0	100.71062735006433	5	0	0	340.8488406647593	95.13693495037896	-33.03928070480484	2000	2000	0	2020-05-31 12:47:47.516316
A2UTYQIPNBON1V	37	10	0	0	287.44826456138253	1	0	0	74.75834890592238	75.56745444754212	277.3374562291744	2000	2000	0	2020-05-31 12:47:57.448674
A2UTYQIPNBON1V	38	10	0	0	163.39790212660873	12	0	0	306.734861701994	97.73038948385853	-130.949018288455	2000	2000	0	2020-05-31 12:48:05.358408
A2UTYQIPNBON1V	39	10	0	0	291.75085000836174	11	0	0	215.32820397505992	-238.02581775869115	-168.70764227179498	2000	2000	0	2020-05-31 12:48:21.327823
A2UTYQIPNBON1V	40	10	0	0	168.5482398387354	5	0	0	354.80243507974615	167.8552115487943	-15.268828004970974	2000	2000	0	2020-05-31 12:48:31.239937
A2UTYQIPNBON1V	41	10	0	0	140.60998261146108	14	0	0	99.52336994831066	-23.26390486242606	138.67212387696156	2000	2000	0	2020-05-31 12:48:38.623177
A2UTYQIPNBON1V	42	10	0	0	149.07359542656198	11	0	0	21.594209840842204	138.61066877614965	54.86364328798091	2000	2000	0	2020-05-31 12:48:54.959554
A2UTYQIPNBON1V	43	10	1	1763	134.02082077179412	0	-26	129	100.23869585362289	-23.822119959988488	131.8866445132231	2000	1950	0	2020-05-31 12:49:06.767828
A2UTYQIPNBON1V	44	11	0	0	185.93059362507637	7	0	0	233.49207525468208	-110.61642524921004	-149.4462850353237	1950	2000	0	2020-05-31 12:49:17.734860
A2UTYQIPNBON1V	45	11	0	0	198.8139677924754	13	0	0	13.053242984570046	193.67673512459587	44.903408120816195	2000	2000	0	2020-05-31 12:49:25.770154
A2UTYQIPNBON1V	46	11	0	666	144.004916446101	11	-4	-5	241.73811527565132	-68.18667038476934	-126.83845608681678	2000	2000	0	2020-05-31 12:49:42.437841
A2UTYQIPNBON1V	47	11	0	0	241.36669013951942	9	0	0	69.299919092215	85.31737192317252	225.78490905512228	2000	2000	0	2020-05-31 12:49:50.387385
A2UTYQIPNBON1V	48	11	1	1944	175.40436607657233	0	119	-128	313.3266328533498	120.35485821605383	-127.59858832494102	2000	1950	0	2020-05-31 12:49:56.730339
A2UTYQIPNBON1V	49	12	1	1882	269.98528011791257	5	42	262	80.47281515464036	44.686760867334634	266.2614220714923	1950	1900	0	2020-05-31 12:50:03.374552
A2UTYQIPNBON1V	50	13	0	0	139.72332892230943	2	0	0	169.1350549045281	-137.21867953799793	26.337096099989928	1900	2000	0	2020-05-31 12:50:10.524635
A2UTYQIPNBON1V	51	13	0	0	247.71171908207918	4	0	0	57.662595433725905	132.50200180984834	209.29480473003113	2000	2000	0	2020-05-31 12:50:17.711582
A2UTYQIPNBON1V	52	13	0	0	296.55618051404247	6	0	0	62.38229030533685	137.4745283898792	262.76666882437286	2000	2000	0	2020-05-31 12:50:27.945209
A2UTYQIPNBON1V	53	13	0	489	190.09455957321438	13	0	-3	68.76186869025	68.86079749773013	177.18389358886702	2000	2000	0	2020-05-31 12:50:34.278979
A2UTYQIPNBON1V	54	13	0	0	100.86042594148745	12	0	0	196.79875454523668	-96.55628594291105	-29.14977128570778	2000	2000	0	2020-05-31 12:50:41.480065
A2UTYQIPNBON1V	55	13	1	2001	132.3530532016259	11	98	85	40.25806648425765	101.00410709324036	85.53070233600123	2000	1950	0	2020-05-31 12:50:48.370697
A2UTYQIPNBON1V	56	14	0	0	247.60608297618694	7	0	0	22.117657257775612	229.38540577859104	93.22611191399919	1950	2000	0	2020-05-31 12:50:54.954503
A2UTYQIPNBON1V	57	14	1	1983	221.04230891576327	14	76	-207	290.95949585067063	79.06857644783251	-206.41672061469484	2000	1950	0	2020-05-31 12:51:11.517797
A2UTYQIPNBON1V	58	15	0	0	137.21649733123996	13	0	0	317.0244949572091	100.39379178601605	-93.53851458452952	1950	2000	0	2020-05-31 12:51:18.606714
A2UTYQIPNBON1V	59	15	0	0	127.09883060655346	8	0	0	189.88804675613778	-125.21079948642243	-21.82586615748131	2000	2000	0	2020-05-31 12:51:25.265876
A2UTYQIPNBON1V	60	15	1	1685	119.23928384322089	8	80	-85	314.69754698943626	83.86865191072872	-84.75881097632987	2000	1950	0	2020-05-31 12:51:49.175090
A2UTYQIPNBON1V	61	16	0	0	138.14340600973338	7	0	0	179.0792848145695	-138.12557006304402	2.2198015067021655	1950	2000	0	2020-05-31 12:52:17.922344
A2UTYQIPNBON1V	62	16	0	0	200.36990507794607	0	0	0	30.267317111914693	173.05612176163027	100.99345316291009	2000	2000	0	2020-05-31 12:52:56.858790
A2UTYQIPNBON1V	63	16	0	0	177.0445660340668	2	0	0	53.73135796880256	104.73460903887099	142.74256559157777	2000	2000	0	2020-05-31 12:53:38.836570
A2UTYQIPNBON1V	64	16	0	0	299.0851175693947	12	0	0	71.29381707964697	95.921144606782	283.28614785905694	2000	2000	0	2020-05-31 12:53:46.606210
A2UTYQIPNBON1V	65	16	1	1928	128.73457751355414	9	-93	92	134.44874798147555	-90.14908742807097	91.90067183366669	2000	1950	0	2020-05-31 12:54:11.432223
A2UTYQIPNBON1V	66	17	0	0	233.14864941595448	12	0	0	83.60511015960607	25.968166163652402	231.6979651843766	1950	2000	0	2020-05-31 12:54:29.564035
A2UTYQIPNBON1V	67	17	0	0	174.42750190514386	12	0	0	161.83569312203514	-165.73515854424127	54.376563363127026	2000	2000	0	2020-05-31 12:54:41.550640
A2UTYQIPNBON1V	68	17	0	0	187.23141694908887	12	0	0	58.85258323958521	96.843911413778	160.24000847118012	2000	2000	0	2020-05-31 12:54:53.751588
A2UTYQIPNBON1V	69	17	1	1997	118.91621199648065	5	4	115	86.99933695903508	6.224967909158421	118.75316943190138	2000	1950	0	2020-05-31 12:55:00.912800
A2UTYQIPNBON1V	70	18	0	0	198.18935812002195	6	0	0	228.42055467330076	-131.52993317623154	-148.2528190311482	1950	2000	0	2020-05-31 12:55:25.384224
A2UTYQIPNBON1V	71	18	0	0	103.18568305643518	9	0	0	247.1662994972496	-40.042003505807024	-95.09954333783118	2000	2000	0	2020-05-31 12:55:33.644071
A2UTYQIPNBON1V	72	18	0	0	208.2399003089361	4	0	0	108.01558605277275	-64.40354028659307	198.03040190644674	2000	2000	0	2020-05-31 12:55:40.989812
A2UTYQIPNBON1V	73	18	0	0	201.9160318642541	14	0	0	204.2632598909676	-184.08017636002018	-82.97332459935754	2000	2000	0	2020-05-31 12:55:53.984515
A2UTYQIPNBON1V	74	18	0	0	274.32736179136987	11	0	0	280.02784951068276	47.767756184924	-270.1365264018748	2000	2000	0	2020-05-31 12:56:01.564232
A2UTYQIPNBON1V	75	18	1	1886	152.46767478694665	4	37	146	74.51465175306798	40.70764126662547	146.93290917097454	2000	1950	0	2020-05-31 12:56:08.593751
A2UTYQIPNBON1V	76	19	0	0	142.28303836490022	2	0	0	14.791635235713727	137.56787401814532	36.32551506139133	1950	2000	0	2020-05-31 12:56:16.283451
A2UTYQIPNBON1V	77	19	0	689	118.73202584550654	0	-3	-1	339.77047398827864	111.40803572253051	-41.055371607444954	2000	2000	0	2020-05-31 12:56:23.454890
A2UTYQIPNBON1V	78	19	0	0	151.99514670966386	3	0	0	185.73520411233625	-151.23431331845663	-15.189045341532584	2000	2000	0	2020-05-31 12:56:32.903144
A2UTYQIPNBON1V	79	19	1	1581	181.61378098449455	14	76	172	65.99747989081747	73.87627706908471	165.90919543502037	2000	1950	0	2020-05-31 12:56:44.134492
A2UTYQIPNBON1V	80	20	0	0	202.57881722306576	11	0	0	49.3109058247103	132.07208778697748	153.60709884339724	1950	2000	0	2020-05-31 12:57:01.323631
A2UTYQIPNBON1V	81	20	0	0	142.00982510868454	12	0	0	46.41581013741211	97.90436964006932	102.8665389365261	2000	2000	0	2020-05-31 12:57:25.620483
A2UTYQIPNBON1V	82	20	0	0	257.08500960172864	3	0	0	291.8414737432957	95.6458621875236	-238.63061666166425	2000	2000	0	2020-05-31 12:57:32.919247
A2UTYQIPNBON1V	83	20	1	1944	190.1026171791702	1	126	139	47.549697739408565	128.30984647209348	140.26969864043318	2000	1950	0	2020-05-31 12:57:40.753928
A2UTYQIPNBON1V	84	21	0	0	291.1103204473527	0	0	0	69.69210518118261	101.03416859051487	273.0152293337934	1950	2000	0	2020-05-31 12:57:48.499879
A2UTYQIPNBON1V	85	21	0	0	104.64396553883644	3	0	0	195.49431459768454	-100.84088636841483	-27.954877215356138	2000	2000	0	2020-05-31 12:57:55.898233
A2UTYQIPNBON1V	86	21	0	0	114.6736701649933	3	0	0	267.91146364731605	-4.179140167734229	-114.5974930640636	2000	2000	0	2020-05-31 12:58:03.603842
A2UTYQIPNBON1V	87	21	0	0	242.6479939480871	8	0	0	144.15531749103965	-196.69225684989763	142.09224138680062	2000	2000	0	2020-05-31 12:58:11.963134
A2UTYQIPNBON1V	88	21	0	0	128.20015436553885	6	0	0	303.0751781497311	69.96382285769859	-107.42598880384841	2000	2000	0	2020-05-31 12:58:36.527546
A2UTYQIPNBON1V	89	21	1	1863	261.64554421978744	9	-91	-247	250.57668205961792	-87.00891024203565	-246.75461565807058	2000	1950	0	2020-05-31 12:58:53.453587
A2UTYQIPNBON1V	90	22	0	0	221.28010119929166	0	0	0	351.7108333559461	218.96840256966155	-31.90175328817225	1950	2000	0	2020-05-31 12:59:01.023528
A2UTYQIPNBON1V	91	22	0	0	229.13151506578595	1	0	0	315.788455402347	164.23462364976314	-159.77559134912676	2000	2000	0	2020-05-31 12:59:07.873052
A2UTYQIPNBON1V	92	22	1	1951	194.55554711270446	7	188	39	11.275574995055173	190.80025552371316	38.04107522677988	2000	1950	0	2020-05-31 12:59:16.840144
A2UTYQIPNBON1V	93	23	0	0	213.93548711207026	2	0	0	80.51212562060292	35.26488449792602	211.00895849993364	1950	2000	0	2020-05-31 12:59:29.683581
A2UTYQIPNBON1V	94	23	0	0	152.6441505340958	11	0	0	144.96622644914973	-124.98713722496299	87.62677798814678	2000	2000	0	2020-05-31 12:59:39.616727
A2UTYQIPNBON1V	95	23	0	0	164.889430753574	11	0	0	327.5016452399016	139.06887933837513	-88.59103325848578	2000	2000	0	2020-05-31 12:59:52.618236
A2UTYQIPNBON1V	96	23	0	0	283.3027747037514	9	0	0	38.73137442358104	221.00107100322901	177.25402328373332	2000	2000	0	2020-05-31 13:00:01.806097
A2UTYQIPNBON1V	97	23	0	0	285.5742176947372	2	0	0	58.226075770744714	150.37451536675874	242.77590271724577	2000	2000	0	2020-05-31 13:00:10.077974
A2UTYQIPNBON1V	98	23	0	0	104.8462935055301	6	0	0	125.9560298676441	-61.56199220360162	84.86970235467693	2000	2000	0	2020-05-31 13:00:17.515769
A2UTYQIPNBON1V	99	23	0	0	189.12186138541878	13	0	0	205.2473123257902	-171.05602475272622	-80.66545016102171	2000	2000	0	2020-05-31 13:00:24.771494
A2UTYQIPNBON1V	100	23	1	1988	107.16112425838453	11	-109	15	169.9200753109538	-105.50704564566857	18.75552908994411	2000	1950	0	2020-05-31 13:00:32.592181
A2UTYQIPNBON1V	101	24	0	0	137.06265220697048	1	0	0	139.01719135542058	-103.46947252610202	89.89014898852471	1950	2000	0	2020-05-31 13:00:39.598236
A2UTYQIPNBON1V	102	24	0	0	229.39563312209108	14	0	0	299.5788217543385	113.23437366242169	-199.50020831258314	2000	2000	0	2020-05-31 13:01:18.311203
A2UTYQIPNBON1V	103	24	0	0	132.49376492623367	10	0	0	10.07908066347638	130.44900756244255	23.187370922592223	2000	2000	0	2020-05-31 13:01:24.978728
A2UTYQIPNBON1V	104	24	0	0	130.50406682490552	6	0	0	230.90656365279645	-82.29415512855437	-101.28664023214924	2000	2000	0	2020-05-31 13:01:32.016171
A2UTYQIPNBON1V	105	24	0	0	288.3832379347117	14	0	0	318.4639082132783	215.86586241208622	-191.22453128925383	2000	2000	0	2020-05-31 13:01:38.909678
A2UTYQIPNBON1V	106	24	0	0	180.34856289099508	7	0	0	231.5985658444237	-112.026647275027	-141.33518471054506	2000	2000	0	2020-05-31 13:02:01.008822
A2UTYQIPNBON1V	107	24	1	1953	125.73438207944925	12	-39	-124	253.34498180981106	-36.03653804802479	-120.45954824095179	2000	1950	0	2020-05-31 13:02:06.981912
A2UTYQIPNBON1V	108	25	0	0	179.5388193057634	2	0	0	74.08082692679602	49.24409299739421	172.65343015003077	1950	2000	0	2020-05-31 13:02:14.539139
A2UTYQIPNBON1V	109	25	1	1961	248.5771056079098	14	63	235	74.14649178665218	67.90598007175353	239.1220510594967	2000	1950	0	2020-05-31 13:02:21.591631
A2UTYQIPNBON1V	110	26	1	1806	214.75917283466413	3	-68	204	107.16364510000913	-63.375830131670135	205.1950449493136	1950	1900	0	2020-05-31 13:02:28.722874
A2UTYQIPNBON1V	111	27	0	0	106.40854183068629	14	0	0	162.1004616189923	-101.25803642744847	32.704553710308154	1900	2000	0	2020-05-31 13:02:35.545081
A2UTYQIPNBON1V	112	27	0	0	132.27034234530302	1	0	0	115.79308271541483	-57.553788977228464	119.09242141508551	2000	2000	0	2020-05-31 13:02:42.381988
A2UTYQIPNBON1V	113	27	0	0	174.90926846194697	7	0	0	307.9592216505494	107.58677485082275	-137.90699065345385	2000	2000	0	2020-05-31 13:02:49.441657
A2UTYQIPNBON1V	114	27	0	0	218.7218645339803	9	0	0	321.83838167027756	171.9746548326804	-135.14426410470134	2000	2000	0	2020-05-31 13:02:56.693669
A2UTYQIPNBON1V	115	27	0	0	226.73116944507376	11	0	0	226.7660857717536	-155.30597032078396	-165.1880104022399	2000	2000	0	2020-05-31 13:03:21.627505
A2UTYQIPNBON1V	116	27	1	1986	194.52597884728527	2	-26	-194	263.18980476177813	-23.067018022260356	-193.1534859277854	2000	1950	0	2020-05-31 13:03:29.635989
A2UTYQIPNBON1V	117	28	0	0	277.7811718316309	8	0	0	135.70351501997695	-198.81786791373176	193.99441956507914	1950	2000	0	2020-05-31 13:03:36.412404
A2UTYQIPNBON1V	118	28	0	0	129.89678826227095	6	0	0	255.41796595966096	-32.703582581441964	-125.71257410136846	2000	2000	0	2020-05-31 13:03:43.788810
A2UTYQIPNBON1V	119	28	1	2124	209.78402548101377	14	-69	-202	251.63226535028866	-66.10601769186306	-199.09628769000622	2000	1950	0	2020-05-31 13:03:51.011122
A2UTYQIPNBON1V	120	29	0	0	196.53385226300566	14	0	0	70.17919304334568	66.64061581772872	184.89073370174833	1950	2000	0	2020-05-31 13:03:58.489598
A2UTYQIPNBON1V	121	29	0	0	233.02408424580327	13	0	0	28.053390152751234	205.64602401121454	109.58985649673146	2000	2000	0	2020-05-31 13:04:11.739398
A2UTYQIPNBON1V	122	29	0	0	208.29840649330302	14	0	0	122.37611383331888	-111.53853811179353	175.91867627836814	2000	2000	0	2020-05-31 13:04:22.834147
A2UTYQIPNBON1V	123	29	0	0	217.44514596502603	10	0	0	264.0980928824419	-22.358937579853823	-216.29255515170115	2000	2000	0	2020-05-31 13:04:30.092757
A2UTYQIPNBON1V	124	29	0	0	138.70026644623545	5	0	0	241.26473350050176	-66.68199841852811	-121.6193857868396	2000	2000	0	2020-05-31 13:04:37.919567
A2UTYQIPNBON1V	125	29	0	0	226.5758867433394	6	0	0	59.973505960181285	113.37866521813632	196.1680675514859	2000	2000	0	2020-05-31 13:04:48.602356
A2UTYQIPNBON1V	126	29	0	0	278.97541120157666	1	0	0	25.19070356244338	252.44376848620607	118.7409946377896	2000	2000	0	2020-05-31 13:04:55.525565
A2UTYQIPNBON1V	127	29	1	1786	173.37228741139785	7	-140	-108	218.78711398631637	-135.1400347720681	-108.60534537519119	2000	1950	0	2020-05-31 13:05:01.813060
A2UTYQIPNBON1V	128	30	0	0	194.09507778407374	7	0	0	228.67993425421244	-128.1541341654174	-145.77179808288653	1950	2000	0	2020-05-31 13:05:09.008428
A2UTYQIPNBON1V	129	30	1	1638	230.00831593179547	14	-223	-77	199.1557282298217	-217.27280140125757	-75.47420200989417	2000	1950	0	2020-05-31 13:05:15.674751
A2UTYQIPNBON1V	130	31	1	1748	106.9214569196197	6	-22	102	99.51936273884002	-17.68276733945436	105.4491236996914	1950	1900	0	2020-05-31 13:06:05.950626
A2UTYQIPNBON1V	131	32	0	0	143.05995748923942	14	0	0	15.128550838105275	138.10188562790998	37.336585580883785	1900	2000	0	2020-05-31 13:06:14.707127
A2UTYQIPNBON1V	132	32	0	0	268.6026564254896	2	0	0	71.1771070933463	86.66301115850833	254.237899487409	2000	2000	0	2020-05-31 13:06:21.533366
A2UTYQIPNBON1V	133	32	0	0	108.16133300486963	2	0	0	210.21629594686905	-93.46563646725636	-54.43389345950719	2000	2000	0	2020-05-31 13:06:28.416795
A2UTYQIPNBON1V	134	32	1	1896	213.51867396615597	4	-150	152	132.98832236903402	-145.58755548258895	156.18734846609598	2000	1950	0	2020-05-31 13:06:35.724100
A2UTYQIPNBON1V	135	33	0	0	282.34012655817793	8	0	0	357.6190821965069	282.0963883279156	-11.72922662556085	1950	2000	0	2020-05-31 13:06:52.089929
A2UTYQIPNBON1V	136	33	0	0	275.874852718312	13	0	0	1.2651881227892403	275.8075969684246	6.091290245373503	2000	2000	0	2020-05-31 13:07:01.571459
A2UTYQIPNBON1V	137	33	0	0	210.5630070643233	2	0	0	211.85104814804575	-178.85703169286379	-111.1167951211165	2000	2000	0	2020-05-31 13:07:09.323450
A2UTYQIPNBON1V	138	33	0	0	274.4051354675381	12	0	0	128.88668234497035	-172.26664543193212	213.59396349753646	2000	2000	0	2020-05-31 13:07:33.461785
A2UTYQIPNBON1V	139	33	1	1881	282.0347141389925	14	-262	111	156.17805706858655	-258.0067814548589	113.91260115881781	2000	1950	0	2020-05-31 13:07:40.665552
A2UTYQIPNBON1V	140	34	0	0	142.80690703564034	8	0	0	240.00882990469432	-71.38439309426333	-123.68541191122625	1950	2000	0	2020-05-31 13:07:47.708607
A2UTYQIPNBON1V	141	34	0	0	261.90962906513624	6	0	0	108.56736320760508	-83.39710438183351	248.27721759711025	2000	2000	0	2020-05-31 13:07:56.635831
A2UTYQIPNBON1V	142	34	1	1990	245.81594245692946	1	-21	242	94.58382652616189	-19.645007878687352	245.02969459115516	2000	1950	0	2020-05-31 13:08:15.407433
A2UTYQIPNBON1V	143	35	0	0	102.17725173200564	12	0	0	176.45783995641432	-101.9820530014175	6.312815308697346	1950	2000	0	2020-05-31 13:08:27.694815
A2UTYQIPNBON1V	144	35	0	0	236.33362445915168	7	0	0	264.56045474467055	-22.403345816638804	-235.2693608318334	2000	2000	0	2020-05-31 13:08:50.941753
A2UTYQIPNBON1V	145	35	1	1825	155.67536811115033	11	-85	-134	237.85589823121074	-82.82715271298328	-131.8123021952136	2000	1950	0	2020-05-31 13:09:31.441848
A2UTYQIPNBON1V	146	36	0	0	161.72973825448108	0	0	0	208.1274831176694	-142.6295910258415	-76.24505229629102	1950	2000	0	2020-05-31 13:09:39.036688
A2UTYQIPNBON1V	147	36	0	0	287.452694585937	9	0	0	340.1065372148254	270.29951752650544	-97.81217945457698	2000	2000	0	2020-05-31 13:10:32.092501
A2UTYQIPNBON1V	148	36	0	0	152.80987136249834	3	0	0	227.60105006811182	-103.03799299379456	-112.8451540192756	2000	2000	0	2020-05-31 13:10:49.825014
A2UTYQIPNBON1V	149	36	0	0	188.46698073135315	11	0	0	143.81390429711826	-152.11238127981133	111.27275626754981	2000	2000	0	2020-05-31 13:10:56.981704
A2UTYQIPNBON1V	150	36	0	0	205.45181295711302	10	0	0	160.7453142577663	-193.95926066104147	67.75140331525785	2000	2000	0	2020-05-31 13:11:04.640036
A2UTYQIPNBON1V	151	36	1	1983	212.77706753586986	13	214	-1	1.1758584059740862	212.73226069011693	4.366432277758625	2000	1950	0	2020-05-31 13:11:10.737145
A2UTYQIPNBON1V	152	37	1	1727	243.9973181105106	14	237	-29	354.1145358763498	242.7111749312375	-25.01952854511715	1950	1900	0	2020-05-31 13:11:19.344807
A2UTYQIPNBON1V	153	38	0	0	119.46625976762869	14	0	0	201.36207422004392	-111.25858541077604	-43.51682887412168	1900	2000	0	2020-05-31 13:11:26.068250
A2UTYQIPNBON1V	154	38	0	518	228.6508386876208	6	-2	-4	90.8755820328953	-3.4940579503957343	228.6241404392626	2000	2000	0	2020-05-31 13:12:05.422607
A2UTYQIPNBON1V	155	38	0	0	170.4823168339387	10	0	0	158.24224540005642	-158.33705291210666	63.19492090489705	2000	2000	0	2020-05-31 13:12:12.542087
A2UTYQIPNBON1V	156	38	0	0	230.85007030733874	6	0	0	261.7925452203174	-32.95562802044037	-228.48562655598624	2000	2000	0	2020-05-31 13:12:20.132540
A2UTYQIPNBON1V	157	38	0	0	122.0517175278454	10	0	0	129.370792257899	-77.42186094792707	94.35293953479567	2000	2000	0	2020-05-31 13:12:28.530250
A2UTYQIPNBON1V	158	38	1	1873	103.64671752974192	3	63	-83	309.1687024961758	65.4638782282277	-80.35622379137715	2000	1950	0	2020-05-31 13:12:42.007388
A2UTYQIPNBON1V	159	39	0	0	205.52510725047284	8	0	0	54.07746282313533	120.57971827922714	166.4364781230983	1950	2000	0	2020-05-31 13:12:48.702840
A2UTYQIPNBON1V	160	39	1	1901	100.62608702041894	12	-50	87	117.71651229725249	-46.800910465550544	89.08021199254324	2000	1950	0	2020-05-31 13:12:54.622972
A2UTYQIPNBON1V	161	40	0	0	119.91770025397939	10	0	0	89.96972495242508	0.06336442129201102	119.9176835131223	1950	2000	0	2020-05-31 13:13:02.420582
A2UTYQIPNBON1V	162	40	0	92	151.97859454546074	3	-3	-3	53.41781781359627	90.57547120581204	122.0392445726319	2000	2000	0	2020-05-31 13:13:07.577380
A2UTYQIPNBON1V	163	40	0	0	290.8101251480371	6	0	0	165.7479385694128	-281.85958646850054	71.59401095359092	2000	2000	0	2020-05-31 13:13:13.670670
A2UTYQIPNBON1V	164	40	1	1858	224.4318475762332	1	-220	46	167.26169433296593	-218.90798406589371	49.4868539986934	2000	1950	0	2020-05-31 13:13:20.892163
A2UTYQIPNBON1V	165	41	1	1932	182.36193591470018	13	184	0	0.40583134164170254	182.35736136568505	1.291675772853738	1950	1900	0	2020-05-31 13:13:28.430457
A2UTYQIPNBON1V	166	42	0	0	214.6411820713809	3	0	0	77.15443331326041	47.71987602094908	209.26932520927414	1900	2000	0	2020-05-31 13:13:37.362404
A2UTYQIPNBON1V	167	42	0	0	137.02062799680297	10	0	0	299.66623175626484	67.81789938722	-119.06042591618413	2000	2000	0	2020-05-31 13:13:44.906762
A2UTYQIPNBON1V	168	42	0	0	167.9966307514781	13	0	0	258.74970054422016	-32.77537795192953	-164.76845130047394	2000	2000	0	2020-05-31 13:13:52.418620
A2UTYQIPNBON1V	169	42	0	0	292.5911544501692	3	0	0	9.484411759485889	288.59157056373346	48.21295533402232	2000	2000	0	2020-05-31 13:14:00.357122
A2UTYQIPNBON1V	170	42	0	0	295.042244655245	4	0	0	37.05266694168969	235.46789803330893	177.77737518306614	2000	2000	0	2020-05-31 13:14:07.448906
A2UTYQIPNBON1V	171	42	1	1898	271.7850906743298	1	126	238	61.09713613614174	131.3608392586423	237.93164022911878	2000	1950	0	2020-05-31 13:14:13.586209
A2UTYQIPNBON1V	172	43	1	1806	121.70643999987033	2	11	-122	275.6865398905151	12.05940252941486	-121.10750739766539	1950	1900	0	2020-05-31 13:14:24.575440
A2UTYQIPNBON1V	173	44	0	0	164.53542868579305	7	0	0	257.799999495484	-34.77041739281634	-160.81954286450085	1900	2000	0	2020-05-31 13:14:41.967098
A2UTYQIPNBON1V	174	44	0	0	105.51334600466919	12	0	0	176.73516004120617	-105.34209291549014	6.009130160454111	2000	2000	0	2020-05-31 13:14:57.946321
A2UTYQIPNBON1V	175	44	1	1647	276.57483291751856	12	-247	-126	207.22354865660375	-245.9382045079787	-126.52287448024948	2000	1950	0	2020-05-31 13:15:03.618223
A2UTYQIPNBON1V	176	45	0	0	221.98304321806722	9	0	0	27.157180058941172	197.51113008296232	101.32040746910484	1950	2000	0	2020-05-31 13:15:12.419339
A2UTYQIPNBON1V	177	45	1	1810	133.3408806086532	12	75	-107	305.85006935102115	78.09324951250285	-108.07976138976753	2000	1950	0	2020-05-31 13:15:34.347187
A2UTYQIPNBON1V	178	46	0	0	221.79735613560806	2	0	0	350.80552719376	218.94763358384714	-35.440103509712955	1950	2000	0	2020-05-31 13:15:42.668152
A2UTYQIPNBON1V	179	46	0	0	129.81002539121383	11	0	0	354.46817243445446	129.20547451459953	-12.513514595218588	2000	2000	0	2020-05-31 13:15:49.340868
A2UTYQIPNBON1V	180	46	1	1584	188.68389240596116	7	-117	-149	232.64860106301376	-114.47484964924642	-149.9903998636138	2000	1950	0	2020-05-31 13:15:56.494986
A2UTYQIPNBON1V	181	47	1	1828	133.635675002072	14	120	-61	333.0312359192027	119.10331566988074	-60.60440437542595	1950	1900	0	2020-05-31 13:16:03.286671
A2UTYQIPNBON1V	182	48	0	0	254.9170871470923	11	0	0	106.49902710435333	-72.39621406609639	244.42076325151717	1900	2000	0	2020-05-31 13:16:21.847206
A2UTYQIPNBON1V	183	48	0	0	121.98066136805146	8	0	0	158.35616001516954	-113.38035902926708	44.99084278141202	2000	2000	0	2020-05-31 13:16:28.477435
A2UTYQIPNBON1V	184	48	0	0	216.2214706697299	2	0	0	272.05274734569804	7.744952714517757	-216.08271584287058	2000	2000	0	2020-05-31 13:16:47.750059
A2UTYQIPNBON1V	185	48	0	0	183.29941416303762	0	0	0	1.45943979713004	183.2399528213934	4.668503242616582	2000	2000	0	2020-05-31 13:16:53.751644
A2UTYQIPNBON1V	186	48	1	1935	209.47844353337533	2	-40	203	100.86371811372874	-39.4811545275014	205.72422497688763	2000	1950	0	2020-05-31 13:17:05.607012
A2UTYQIPNBON1V	187	49	1	1933	160.7251744361228	5	142	-78	332.88508782300653	143.06054738272326	-73.25477103969203	1950	1900	0	2020-05-31 13:17:14.496223
A2UTYQIPNBON1V	188	50	0	0	255.8192405763648	7	0	0	107.87754601236054	-78.53232885618209	243.46695293918737	1900	2000	0	2020-05-31 13:17:21.354125
A2UTYQIPNBON1V	189	50	1	1859	279.2193954003243	13	-246	137	150.0533890006869	-241.94107489708526	139.38431420129604	2000	1950	0	2020-05-31 13:17:32.348920
A2UTYQIPNBON1V	190	51	1	1905	283.72071000527546	8	-59	273	101.56200329190831	-56.86564662937112	277.96355789801135	1950	1900	0	2020-05-31 13:18:10.435879
A2UTYQIPNBON1V	191	52	0	0	252.00480945473439	4	0	0	265.8717250509769	-18.141741461380835	-251.35095226608036	1900	2000	0	2020-05-31 13:18:29.755188
A2UTYQIPNBON1V	192	52	0	0	228.27339145246137	13	0	0	197.13344631569313	-218.14289373105964	-67.24893426552038	2000	2000	0	2020-05-31 13:18:37.075424
A2UTYQIPNBON1V	193	52	0	0	242.4805506215503	5	0	0	221.21836398093387	-182.39478006676177	-159.77785088718593	2000	2000	0	2020-05-31 13:18:44.533848
A2UTYQIPNBON1V	194	52	0	0	109.94958542038691	4	0	0	48.41152928274024	72.98186570225228	82.23477739213119	2000	2000	0	2020-05-31 13:18:56.023947
A2UTYQIPNBON1V	195	52	0	0	137.8971426854909	4	0	0	144.44828976033327	-112.19188722579302	80.17856572387396	2000	2000	0	2020-05-31 13:19:03.521689
A2UTYQIPNBON1V	196	52	0	0	210.64281944764272	12	0	0	347.45381210391344	205.6129240634972	-45.75721629328804	2000	2000	0	2020-05-31 13:19:10.653313
A2UTYQIPNBON1V	197	52	0	0	192.70645079604384	13	0	0	334.1055366234163	173.35872003742855	-84.15777067741595	2000	2000	0	2020-05-31 13:19:20.634902
A2UTYQIPNBON1V	198	52	0	0	131.38806628085092	2	0	0	142.00161193223303	-103.53748482080557	80.88765788427013	2000	2000	0	2020-05-31 13:19:33.006140
A2UTYQIPNBON1V	199	52	0	0	157.61735890876713	1	0	0	53.36379045818374	94.05534026134842	126.47855469484574	2000	2000	0	2020-05-31 13:19:40.464696
A2UTYQIPNBON1V	200	52	0	0	282.1784429102121	7	0	0	44.884667327332	199.93152745627845	199.12824503879705	2000	2000	0	2020-05-31 13:19:48.306519
A2UTYQIPNBON1V	201	52	1	1914	138.44402636757536	7	65	121	61.787211620555226	65.44906173912942	121.99659320789875	2000	1950	0	2020-05-31 13:19:55.039007
A2UTYQIPNBON1V	202	53	0	629	174.01380518187963	8	3	3	314.1678301296502	121.24628855143368	-124.82043865641414	1950	2000	0	2020-05-31 13:20:01.321452
A2UTYQIPNBON1V	203	53	0	0	282.6413558165556	7	0	0	305.6854698468283	164.87466567645458	-229.5702085112485	2000	2000	0	2020-05-31 13:20:21.480575
A2UTYQIPNBON1V	204	53	0	0	297.1883890148505	5	0	0	117.0701821948873	-135.24495628686714	264.63132914340565	2000	2000	0	2020-05-31 13:20:31.860902
A2UTYQIPNBON1V	205	53	1	1900	136.16887494981938	13	27	-135	281.02568240960534	26.042158894153232	-133.6554094125308	2000	1950	0	2020-05-31 13:20:37.772647
A2UTYQIPNBON1V	206	54	1	1910	115.57321668001327	12	-75	84	131.43157143355987	-76.47769781096997	86.65062118242002	1950	1900	0	2020-05-31 13:20:44.491489
A2UTYQIPNBON1V	207	55	1	1665	293.5068296753009	1	46	288	80.87610501685123	46.541334130515274	289.79331131583734	1900	1850	0	2020-05-31 13:20:51.441132
A2UTYQIPNBON1V	208	56	1	1684	119.82795204853866	10	46	-110	294.37555027189313	49.45488642863822	-109.14647177292254	1850	1800	0	2020-05-31 13:20:58.147524
A2UTYQIPNBON1V	209	57	0	430	128.8839898627758	9	0	-1	276.7902485075774	15.2385944406719	-127.97995187692804	1800	2000	0	2020-05-31 13:21:07.815778
A2UTYQIPNBON1V	210	57	0	510	257.7598854293769	2	0	0	285.7504088936621	69.96822970613513	-248.0818521543948	2000	2000	0	2020-05-31 13:21:12.502108
A2UTYQIPNBON1V	211	57	0	816	123.91146086009637	8	-3	-1	239.65401201968334	-62.60260506578067	-106.93439096689656	2000	2000	0	2020-05-31 13:21:17.352328
A2UTYQIPNBON1V	212	57	0	0	221.211225362947	6	0	0	128.0700180396895	-136.4041506798247	174.15026242843334	2000	2000	0	2020-05-31 13:21:23.784442
A2UTYQIPNBON1V	213	57	0	0	240.4617350319271	11	0	0	188.25832660264714	-237.96827261788923	-34.53906834039782	2000	2000	0	2020-05-31 13:21:32.714370
A2UTYQIPNBON1V	214	57	0	0	126.00904638948114	9	0	0	143.26175750058874	-100.98069817518085	75.37359198047707	2000	2000	0	2020-05-31 13:21:40.921677
A2UTYQIPNBON1V	215	57	1	2084	265.1103051726815	8	255	62	13.646749228356345	257.6259279078459	62.548822358008394	2000	1950	0	2020-05-31 13:21:49.561638
A2UTYQIPNBON1V	216	58	0	0	111.4569995005977	5	0	0	353.3590036338806	110.70915327311926	-12.889768005097027	1950	2000	0	2020-05-31 13:21:57.993263
A2UTYQIPNBON1V	217	58	1	1951	167.05035796020854	6	152	61	22.14771539378542	154.72454621872345	62.97727282158162	2000	1950	0	2020-05-31 13:22:04.930784
A2UTYQIPNBON1V	218	59	1	2024	127.97034803801614	3	-91	92	132.6380354875268	-86.68256754984806	94.14107743135834	1950	1900	0	2020-05-31 13:22:12.367680
A2UTYQIPNBON1V	219	60	0	0	188.81698467262356	7	0	0	319.7389661477293	144.08775663382596	-122.0269318187305	1900	2000	0	2020-05-31 13:22:20.374129
A2UTYQIPNBON1V	220	60	1	1921	133.12077798705485	12	133	-25	348.4066358721004	130.4049186196366	-26.75254626544378	2000	1950	0	2020-05-31 13:22:27.679557
A2UTYQIPNBON1V	221	61	0	0	166.40895825325924	3	0	0	115.37949930286017	-71.32485783895122	150.34861502916607	1950	2000	0	2020-05-31 13:23:02.050548
A2UTYQIPNBON1V	222	61	1	1937	137.23377226291086	13	64	119	61.583384990950805	65.30670810199562	120.69855892424408	2000	1950	0	2020-05-31 13:23:15.849507
A2UTYQIPNBON1V	223	62	0	0	194.89662657590156	4	0	0	324.84399908300253	159.3450098908732	-112.22238133965944	1950	2000	0	2020-05-31 13:23:23.668807
A2UTYQIPNBON1V	224	62	0	0	195.60926009684204	8	0	0	269.71849102274336	-0.9610749983872471	-195.60689908712695	2000	2000	0	2020-05-31 13:23:31.008903
A2UTYQIPNBON1V	225	62	0	0	111.82102210981806	2	0	0	341.55347618311	106.07559020827762	-35.38234231435191	2000	2000	0	2020-05-31 13:23:38.545058
A2UTYQIPNBON1V	226	62	1	1988	173.21523457163192	2	-28	169	98.5230396350954	-25.671727547688644	171.30230556657057	2000	1950	0	2020-05-31 13:23:45.896045
A2UTYQIPNBON1V	227	63	0	0	211.15200786210056	12	0	0	48.73803243440111	139.2553488715742	158.72340166104283	1950	2000	0	2020-05-31 13:23:54.995218
A2UTYQIPNBON1V	228	63	0	0	175.18677621093875	10	0	0	270.8514009469526	2.6031358559254936	-175.16743488130757	2000	2000	0	2020-05-31 13:24:07.027335
A2UTYQIPNBON1V	229	63	0	0	293.9856658823238	10	0	0	13.427449832939491	285.9494908222006	68.26756508619277	2000	2000	0	2020-05-31 13:24:14.743716
A2UTYQIPNBON1V	230	63	1	1975	136.96292251485383	6	-119	67	150.26662765367178	-118.93076538388343	67.92875082771309	2000	1950	0	2020-05-31 13:24:22.450336
A2UTYQIPNBON1V	231	64	0	0	192.22161570355732	14	0	0	213.81381918424566	-159.70738169511125	-106.97056499700335	1950	2000	0	2020-05-31 13:24:29.603752
A2UTYQIPNBON1V	232	64	0	0	181.91129988410756	1	0	0	208.17550623859577	-160.35579052384085	-85.89378016480464	2000	2000	0	2020-05-31 13:24:36.890071
A2UTYQIPNBON1V	233	64	0	0	235.6640949840131	10	0	0	60.21645893015772	117.06016840551172	204.5347956644717	2000	2000	0	2020-05-31 13:24:51.343634
A2UTYQIPNBON1V	234	64	0	0	177.9460808159468	12	0	0	194.1686814691428	-172.53283521084958	-43.55718599566886	2000	2000	0	2020-05-31 13:24:59.691745
A2UTYQIPNBON1V	235	64	0	0	156.93720592538438	3	0	0	2.46259914881942	156.79227160177763	6.743157244266227	2000	2000	0	2020-05-31 13:25:06.940072
A2UTYQIPNBON1V	236	64	0	0	213.98277998102685	12	0	0	292.6968361217357	82.56634677463684	-197.41182464254504	2000	2000	0	2020-05-31 13:25:14.516335
A2UTYQIPNBON1V	237	64	1	2142	292.58957392624615	1	291	-12	358.1037475329391	292.42934671944886	-9.6817326744051	2000	1950	0	2020-05-31 13:25:22.575494
A2UTYQIPNBON1V	238	65	0	0	202.47382510071085	11	0	0	14.34850031203827	196.15791775423514	50.17689860120862	1950	2000	0	2020-05-31 13:25:29.518836
A2UTYQIPNBON1V	239	65	0	0	237.38928310097572	8	0	0	258.36335685983784	-47.88245363479341	-232.51009088877638	2000	2000	0	2020-05-31 13:25:40.450397
A2UTYQIPNBON1V	240	65	0	0	218.8635603228977	3	0	0	136.05145940403034	-157.57375474200785	151.89394278153506	2000	2000	0	2020-05-31 13:25:48.458638
A2UTYQIPNBON1V	241	65	1	1869	233.6329828512841	3	67	-222	287.747432682021	71.21638516543692	-222.51426282365935	2000	1950	0	2020-05-31 13:25:55.620651
A2UTYQIPNBON1V	242	66	0	0	265.78751395337093	4	0	0	332.2070556183765	235.12584138076159	-123.93079233387593	1950	2000	0	2020-05-31 13:26:03.572261
A2UTYQIPNBON1V	243	66	0	0	235.69104312669867	8	0	0	84.15162807586665	24.01601894696499	234.4642801027277	2000	2000	0	2020-05-31 13:26:10.837962
A2UTYQIPNBON1V	244	66	0	0	280.1769698258834	0	0	0	9.995751947907952	275.9240585386462	48.63176266984099	2000	2000	0	2020-05-31 13:26:18.018455
A2UTYQIPNBON1V	245	66	0	0	285.3452440789531	1	0	0	97.31302113914919	-36.32160324828858	283.02411461914556	2000	2000	0	2020-05-31 13:26:29.110544
A2UTYQIPNBON1V	246	66	0	0	280.5673470908571	12	0	0	137.15402079378842	-205.70759767285062	190.79418364632107	2000	2000	0	2020-05-31 13:26:38.425926
A2UTYQIPNBON1V	247	66	0	0	205.49664858682303	11	0	0	71.05598516594765	66.71327636075154	194.36617848182905	2000	2000	0	2020-05-31 13:26:46.054454
A2UTYQIPNBON1V	248	66	0	0	155.0196948854561	3	0	0	339.916198314297	145.59315991757583	-53.23286191437664	2000	2000	0	2020-05-31 13:26:53.689672
A2UTYQIPNBON1V	249	66	0	0	190.1079084373763	1	0	0	177.44439460792293	-189.91883064997634	8.476710150727948	2000	2000	0	2020-05-31 13:27:01.157402
A2UTYQIPNBON1V	250	66	1	1862	127.94886818138323	2	4	126	87.01160023944239	6.670456899694572	127.77487183967864	2000	1950	0	2020-05-31 13:27:08.895507
A2UTYQIPNBON1V	251	67	0	0	113.47276094812489	9	0	0	127.40565414526544	-68.92950889349433	90.13761856678921	1950	2000	0	2020-05-31 13:27:15.914243
A2UTYQIPNBON1V	252	67	0	0	113.23723464390385	8	0	0	183.86070804911463	-112.98026395437067	-7.624386309682195	2000	2000	0	2020-05-31 13:27:22.861470
A2UTYQIPNBON1V	253	67	1	1805	253.48947413602914	5	-190	171	137.3962111384541	-186.58151679641492	171.59327226820326	2000	1950	0	2020-05-31 13:27:34.472670
A2UTYQIPNBON1V	254	68	0	0	266.3318259858712	12	0	0	288.06644853328544	82.59476462027096	-253.20099997885163	1950	2000	0	2020-05-31 13:27:43.467791
A2UTYQIPNBON1V	255	68	0	0	168.32485124946447	5	0	0	48.18694016188539	112.22257803664039	125.45656031856007	2000	2000	0	2020-05-31 13:27:51.457195
A2UTYQIPNBON1V	256	68	0	0	296.73788977342167	14	0	0	261.8576045676137	-42.0281004777922	-293.7465131663897	2000	2000	0	2020-05-31 13:28:06.076346
A2UTYQIPNBON1V	257	68	0	0	265.2515714744354	2	0	0	39.28362860516412	205.31032826332242	167.9466143691629	2000	2000	0	2020-05-31 13:29:02.470597
A2UTYQIPNBON1V	258	68	0	0	140.95162114472512	4	0	0	329.52794011414625	121.48289801144412	-71.4791227846788	2000	2000	0	2020-05-31 13:29:10.566465
A2UTYQIPNBON1V	259	68	0	0	112.61810552664345	4	0	0	226.95736874530664	-76.86662517814652	-82.30649807963239	2000	2000	0	2020-05-31 13:29:19.076532
A2UTYQIPNBON1V	260	68	1	1989	128.1522760725536	8	61	-112	299.78773335836206	63.664534311973426	-111.21975064445861	2000	1950	0	2020-05-31 13:29:26.773147
A2UTYQIPNBON1V	261	69	0	0	288.4173849645705	12	0	0	37.180916367464796	229.79114335847277	174.30036828362432	1950	2000	0	2020-05-31 13:29:33.475353
A2UTYQIPNBON1V	262	69	0	0	274.62904288511106	2	0	0	274.90566226389683	23.485008799055993	-273.6230355026792	2000	2000	0	2020-05-31 13:29:40.962452
A2UTYQIPNBON1V	263	69	0	0	259.38052426150796	10	0	0	192.02020164070117	-253.69340741608963	-54.01769524691595	2000	2000	0	2020-05-31 13:30:03.497380
A2UTYQIPNBON1V	264	69	0	0	165.31350067345966	1	0	0	15.303022862835318	159.4520617864843	43.63019020074448	2000	2000	0	2020-05-31 13:30:21.563188
A2UTYQIPNBON1V	265	69	1	1777	140.49510479618723	14	85	108	52.64944072449241	85.23699066519018	111.68495822640539	2000	1950	0	2020-05-31 13:30:35.886849
A2UTYQIPNBON1V	266	70	0	0	245.47822395902358	6	0	0	45.56343327275289	171.86401322166202	175.27783487201376	1950	2000	0	2020-05-31 13:30:56.838988
A2UTYQIPNBON1V	267	70	1	1806	196.85165581805157	7	42	192	76.66627917889474	45.398411422723804	191.54518693666446	2000	1950	0	2020-05-31 13:31:08.410683
A2UTYQIPNBON1V	268	71	0	0	181.27212293652804	10	0	0	220.73315485657878	-137.36019560756725	-118.28676687003748	1950	2000	0	2020-05-31 13:31:22.872174
A2UTYQIPNBON1V	269	71	1	1942	271.82930987118937	12	-168	-216	232.8049124883254	-164.32919529345378	-216.53426814075647	2000	1950	0	2020-05-31 13:31:47.121918
A2UTYQIPNBON1V	270	72	1	1828	176.6067500987487	3	-77	-163	245.5108712433692	-73.20713249337632	-160.7191959055891	1950	1900	0	2020-05-31 13:31:57.868250
A2UTYQIPNBON1V	271	73	0	0	217.3784554418819	7	0	0	160.4386115919469	-204.83208822781373	72.78192442173653	1900	2000	0	2020-05-31 13:32:07.614298
A2UTYQIPNBON1V	272	73	0	219	255.4242537845427	0	-4	-3	353.399543758925	253.73126360234676	-29.35975633664056	2000	2000	0	2020-05-31 13:32:24.006690
A2UTYQIPNBON1V	273	73	0	0	150.40681966758234	14	0	0	178.6684556666237	-150.36620489903703	3.4951147016152375	2000	2000	0	2020-05-31 13:32:37.518747
A2UTYQIPNBON1V	274	73	1	1790	169.65512237450145	10	-57	-163	252.0892102031493	-52.17502619426081	-161.4330424341165	2000	1950	0	2020-05-31 13:32:54.563526
A2UTYQIPNBON1V	275	74	1	1631	164.50225051980198	8	161	-1	0.946016910970986	164.47982799480758	2.715991325133982	1950	1900	0	2020-05-31 13:33:01.515175
A2UTYQIPNBON1V	276	75	0	0	217.94334064310567	12	0	0	253.70306798881396	-61.15823903381045	-209.18644680992148	1900	2000	0	2020-05-31 13:33:07.531972
A2UTYQIPNBON1V	277	75	1	1853	144.2853881750289	3	133	-54	339.2479224559013	134.92449306209383	-51.12391233811985	2000	1950	0	2020-05-31 13:33:14.781528
A2UTYQIPNBON1V	278	76	1	1910	198.2248022230071	7	-199	-26	187.1049579414848	-196.70268127060427	-24.51789952882073	1950	1900	0	2020-05-31 13:33:20.945428
A2UTYQIPNBON1V	279	77	0	0	124.57535609293333	11	0	0	323.0037231786656	99.49517460839779	-74.96485560131212	1900	2000	0	2020-05-31 13:33:26.900375
A2UTYQIPNBON1V	280	77	1	1954	166.00075032112346	10	-133	-108	219.52745239173524	-128.0396535406614	-105.65082218498524	2000	1950	0	2020-05-31 13:33:38.667185
A2UTYQIPNBON1V	281	78	0	48	164.28500922367942	7	-1	-1	228.7243022277262	-108.37602067495689	-123.467414317648	1950	2000	0	2020-05-31 13:33:49.495036
A2UTYQIPNBON1V	282	78	0	0	211.05241896251212	1	0	0	14.786895724824296	204.0627400009778	53.86577478530393	2000	2000	0	2020-05-31 13:33:55.597573
A2UTYQIPNBON1V	283	78	0	0	106.2816818833804	12	0	0	319.7240024857654	81.08646321018922	-68.70794268512702	2000	2000	0	2020-05-31 13:34:02.613676
A2UTYQIPNBON1V	284	78	0	0	273.1129170192921	3	0	0	164.27751692641186	-262.8945304277805	74.00764361836899	2000	2000	0	2020-05-31 13:34:09.595253
A2UTYQIPNBON1V	285	78	1	1825	254.40924483215085	8	-113	228	115.38451316181211	-109.06294073740602	229.84633739473495	2000	1950	0	2020-05-31 13:34:16.481542
A2UTYQIPNBON1V	286	79	0	0	150.35877184245786	13	0	0	338.7126738874437	140.10002685054005	-54.58701994476572	1950	2000	0	2020-05-31 13:34:23.811558
A2UTYQIPNBON1V	287	79	0	0	267.92353068420925	7	0	0	253.18414163823857	-77.50940757584345	-256.4669764931427	2000	2000	0	2020-05-31 13:34:31.523160
A2UTYQIPNBON1V	288	79	0	0	188.3036850807835	3	0	0	150.8627184899911	-164.47490576740086	91.685785091297	2000	2000	0	2020-05-31 13:34:39.491753
A2UTYQIPNBON1V	289	79	0	0	195.54405743223953	2	0	0	278.93980631624936	30.386908130223112	-193.1686160103353	2000	2000	0	2020-05-31 13:34:46.882565
A2UTYQIPNBON1V	290	79	1	1857	124.39318319186339	9	-125	1	178.77201956046775	-124.36461468156753	2.6658281470724488	2000	1950	0	2020-05-31 13:34:53.681734
A2UTYQIPNBON1V	291	80	0	0	229.99217818804297	14	0	0	345.80865404100484	222.97336669098706	-56.385102413378014	1950	2000	0	2020-05-31 13:35:10.570563
A2UTYQIPNBON1V	292	80	0	0	167.31902530445194	2	0	0	236.02893234142763	-93.49355409986659	-138.76098720680517	2000	2000	0	2020-05-31 13:35:17.904469
A2UTYQIPNBON1V	293	80	0	0	181.33766532770656	3	0	0	67.48912018509589	69.42673175866564	167.52097714559093	2000	2000	0	2020-05-31 13:35:30.794540
A2UTYQIPNBON1V	294	80	0	0	187.95867542272686	5	0	0	349.798976171673	184.98750803264213	-33.28791880756671	2000	2000	0	2020-05-31 13:35:37.964390
A2UTYQIPNBON1V	295	80	1	1529	104.55635131954892	11	-55	89	119.80245692037477	-51.96567465968197	90.72816133054293	2000	1950	0	2020-05-31 13:35:45.241662
A2UTYQIPNBON1V	296	81	0	0	270.87106729604034	8	0	0	73.13377142902439	78.59003727575686	259.21948448967174	1950	2000	0	2020-05-31 13:35:57.540935
A2UTYQIPNBON1V	297	81	1	2056	202.4649025055103	3	-6	-204	269.4281118890911	-2.0208355488634355	-202.4548171080408	2000	1950	0	2020-05-31 13:36:03.717306
A2UTYQIPNBON1V	298	82	0	0	140.1146392171564	5	0	0	149.10392391187747	-120.23238223552137	71.94641328742793	1950	2000	0	2020-05-31 13:36:15.576979
A2UTYQIPNBON1V	299	82	0	0	269.7159361257219	11	0	0	225.60812109107076	-188.68303704707645	-192.73141345111873	2000	2000	0	2020-05-31 13:36:22.633788
A2UTYQIPNBON1V	300	82	1	1902	195.45024416160334	10	-170	-102	211.02665106595097	-167.48671619567028	-100.74223464278202	2000	1950	0	2020-05-31 13:36:34.040202
A2UTYQIPNBON1V	301	83	0	0	159.8035730363328	7	0	0	257.2560965931006	-35.25165375720676	-155.86693960734766	1950	2000	0	2020-05-31 13:36:40.631886
A2UTYQIPNBON1V	302	83	0	0	182.05266098827715	12	0	0	354.5305359889751	181.22380040663654	-17.352392892282293	2000	2000	0	2020-05-31 13:36:49.624006
A2UTYQIPNBON1V	303	83	1	1856	197.84514388130447	4	8	196	87.29886709098179	9.32369016431085	197.62532671480648	2000	1950	0	2020-05-31 13:36:56.381050
A2UTYQIPNBON1V	304	84	0	0	151.6645371318374	11	0	0	264.04675034663353	-15.730183355852406	-150.8465881450613	1950	2000	0	2020-05-31 13:37:06.949339
A2UTYQIPNBON1V	305	84	0	0	197.8278851331531	1	0	0	20.93188724810374	184.77239045250263	70.67556765052495	2000	2000	0	2020-05-31 13:37:14.071908
A2UTYQIPNBON1V	306	84	0	0	156.31095676231985	14	0	0	69.91139325705744	53.68858528689053	146.80139990423834	2000	2000	0	2020-05-31 13:37:20.896296
A2UTYQIPNBON1V	307	84	0	0	181.95921741214374	13	0	0	157.1972707220221	-167.73813860111676	70.52002311310129	2000	2000	0	2020-05-31 13:37:33.332177
A2UTYQIPNBON1V	308	84	0	0	150.06936304434862	5	0	0	209.22327725962845	-130.96910553293444	-73.26600248709894	2000	2000	0	2020-05-31 13:37:45.874852
A2UTYQIPNBON1V	309	84	1	1857	252.92018651539968	2	-166	189	130.21810272721092	-163.3103060835838	193.12784541300803	2000	1950	0	2020-05-31 13:37:57.846007
A2UTYQIPNBON1V	310	85	0	0	228.9380006436073	4	0	0	208.8324808926134	-200.55734283170682	-110.40543634702757	1950	2000	0	2020-05-31 13:38:05.490852
A2UTYQIPNBON1V	311	85	1	1971	281.0446722184755	9	-262	-106	201.52303058870132	-261.4474761642419	-103.1083167825879	2000	1950	0	2020-05-31 13:38:52.083723
A2UTYQIPNBON1V	312	86	0	0	255.3396853739477	13	0	0	272.7283828448709	12.154493069379859	-255.05023666935304	1950	2000	0	2020-05-31 13:39:02.109995
A2UTYQIPNBON1V	313	86	0	0	218.90594266753504	13	0	0	86.18895802762583	14.549844906417547	218.42187103942072	2000	2000	0	2020-05-31 13:39:09.759558
A2UTYQIPNBON1V	314	86	0	0	250.8140799077333	0	0	0	110.17482777010713	-86.50222708225624	235.4252904633922	2000	2000	0	2020-05-31 13:39:17.052133
A2UTYQIPNBON1V	315	86	0	0	163.46910191772807	0	0	0	171.3808023193447	-161.6229181420784	24.498563489061812	2000	2000	0	2020-05-31 13:39:24.643205
A2UTYQIPNBON1V	316	86	0	336	248.4668803737038	8	-5	4	132.72511843562552	-168.5802539528216	182.5280488578197	2000	2000	0	2020-05-31 13:39:47.070353
A2UTYQIPNBON1V	317	86	1	1911	151.45759604706788	1	109	-106	316.503399119143	109.86964337849942	-104.25001133927108	2000	1950	0	2020-05-31 13:39:57.501851
A2UTYQIPNBON1V	318	87	0	0	283.3103640555493	13	0	0	116.17301117492802	-124.96342944321515	254.26148682621692	1950	2000	0	2020-05-31 13:40:03.972654
A2UTYQIPNBON1V	319	87	0	0	109.40942133689107	13	0	0	73.55371801880482	30.975587548592536	104.93299982985731	2000	2000	0	2020-05-31 13:40:14.657860
A2UTYQIPNBON1V	320	87	0	0	261.6702188571779	8	0	0	337.1333116748317	241.1059451744273	-101.68198777713499	2000	2000	0	2020-05-31 13:40:25.770520
A2UTYQIPNBON1V	321	87	1	1845	154.47354229681213	5	-38	-154	257.09521379384137	-34.49881439363565	-150.57193322514817	2000	1950	0	2020-05-31 13:40:36.172195
A2UTYQIPNBON1V	322	88	0	0	200.94425043847593	8	0	0	80.86080004079409	31.916696177734906	198.39333731095684	1950	2000	0	2020-05-31 13:40:43.880558
A2UTYQIPNBON1V	323	88	0	232	156.48728368719384	1	-2	-1	1.1938779562626323	156.4533127174256	3.260505411698854	2000	2000	0	2020-05-31 13:40:48.176502
A2UTYQIPNBON1V	324	88	1	1810	146.7267286852316	3	125	-75	329.7578100949383	126.75783240250308	-73.89982973788574	2000	1950	0	2020-05-31 13:40:54.034427
A2UTYQIPNBON1V	325	89	1	2057	120.27714506773307	13	-73	-98	235.30566233293197	-68.46154303186589	-98.89190437715557	1950	1900	0	2020-05-31 13:41:00.609261
A2UTYQIPNBON1V	326	90	1	1865	112.99194515035893	1	83	74	41.45468143372788	84.68515686153044	74.80376913097163	1900	1850	0	2020-05-31 13:41:13.813808
A2UTYQIPNBON1V	327	91	0	0	231.0690549062155	2	0	0	94.78505061780156	-19.275281362252795	230.26370027352905	1850	2000	0	2020-05-31 13:42:25.426213
A2UTYQIPNBON1V	328	91	0	0	278.3165350509064	2	0	0	278.4645813537633	40.967637610046985	-275.2848458440716	2000	2000	0	2020-05-31 13:42:31.562895
A2UTYQIPNBON1V	329	91	1	1819	152.40112785078873	1	28	-152	281.67647520577697	30.843736392524136	-149.24733731474385	2000	1950	0	2020-05-31 13:42:37.808190
A2UTYQIPNBON1V	330	92	1	1938	176.12095194186148	8	-137	-122	222.04405353123838	-130.7927246050736	-117.94851802074011	1950	1900	0	2020-05-31 13:42:43.761855
A2UTYQIPNBON1V	331	93	1	2143	251.1548628596811	2	244	42	9.982707110932934	247.3524079416408	43.53793085962317	1900	1850	0	2020-05-31 13:42:50.825854
A2UTYQIPNBON1V	332	94	1	1841	118.3647747712973	6	-101	61	148.30131422106143	-100.7074919637867	62.195023667684026	1850	1800	0	2020-05-31 13:43:09.658006
A2UTYQIPNBON1V	333	95	0	9	140.9310420934796	0	0	1	12.567767349577075	137.5542395413015	30.665775870966584	1800	2000	0	2020-05-31 13:43:36.454682
A2UTYQIPNBON1V	334	95	0	327	156.36497736701176	11	-3	0	138.25019002543092	-116.65758988847837	104.12018473090457	2000	2000	0	2020-05-31 13:43:40.795917
A2UTYQIPNBON1V	335	95	1	1819	185.80171788793803	13	-160	-98	211.31206892241332	-158.73958218460282	-96.56098289664739	2000	1950	0	2020-05-31 13:45:12.446315
A2UTYQIPNBON1V	336	96	0	0	248.5769291522105	3	0	0	315.581047474979	177.54388494959136	-173.97890281223567	1950	2000	0	2020-05-31 13:45:18.510970
A2UTYQIPNBON1V	337	96	0	0	294.48231194401717	7	0	0	191.67859747585942	-288.38608412041873	-59.609550691010895	2000	2000	0	2020-05-31 13:45:25.544892
A2UTYQIPNBON1V	338	96	0	0	261.61041337383205	4	0	0	25.202747019135625	236.70683849604256	111.39964539815959	2000	2000	0	2020-05-31 13:45:32.754848
A2UTYQIPNBON1V	339	96	1	1907	238.27752434932233	1	-111	208	117.39466645580991	-109.63557253287735	211.55665871210505	2000	1950	0	2020-05-31 13:45:38.682906
A2UTYQIPNBON1V	340	97	1	2030	151.35590401675736	10	39	144	74.74899622904941	39.81388549258368	146.0255601006663	1950	1900	0	2020-05-31 13:45:56.541578
A2UTYQIPNBON1V	341	98	0	0	265.5081723052453	0	0	0	99.5455137989343	-44.029492386834185	261.8319945328102	1900	2000	0	2020-05-31 13:46:03.453248
A2UTYQIPNBON1V	342	98	1	1706	206.43044375961028	11	-94	184	116.08995954337325	-90.78435081510766	185.39614278045022	2000	1950	0	2020-05-31 13:46:10.252919
A2UTYQIPNBON1V	343	99	0	0	213.58715718608332	6	0	0	324.39992374574115	173.66771458312013	-124.33422146098229	1950	2000	0	2020-05-31 13:46:16.511667
A2UTYQIPNBON1V	344	99	0	0	267.8503798633144	0	0	0	164.76980061024776	-258.4429833060372	70.36370067582581	2000	2000	0	2020-05-31 13:46:22.691719
A2UTYQIPNBON1V	345	99	0	0	248.5238323188862	11	0	0	266.3141195177907	-15.976699481934318	-248.00975848568908	2000	2000	0	2020-05-31 13:46:28.670698
A2UTYQIPNBON1V	346	99	0	0	143.9441698068883	8	0	0	75.70265027962057	35.54761579721427	139.4858094306655	2000	2000	0	2020-05-31 13:46:39.809153
A2UTYQIPNBON1V	347	99	0	0	253.0317735829886	3	0	0	73.16413027217523	73.28586211440354	242.18641757270663	2000	2000	0	2020-05-31 13:46:46.729998
A2UTYQIPNBON1V	348	99	1	1986	268.08756326763023	7	98	247	67.99036813736885	100.46915333352784	248.54957414411257	2000	1950	0	2020-05-31 13:46:59.723638
A2UTYQIPNBON1V	349	100	0	0	158.18083402923628	6	0	0	102.557778763269	-34.39231433484339	154.3967129471289	1950	2000	0	2020-05-31 13:47:05.738316
A2UTYQIPNBON1V	350	100	1	1880	214.96071213176361	5	212	-39	349.79584945606825	211.56063066588527	-38.08158757782853	2000	1950	0	2020-05-31 13:47:11.587459
A2UTYQIPNBON1V	351	101	0	0	126.79759262790014	9	0	0	150.92978622384607	-110.82425765413132	61.608549825828824	1950	2000	0	2020-05-31 13:47:20.074281
A2UTYQIPNBON1V	352	101	1	1875	284.6314139929949	4	-128	255	115.50239792048161	-122.5477339675641	256.8989971390834	2000	1950	0	2020-05-31 13:47:25.990068
A2UTYQIPNBON1V	353	102	0	0	187.9321877922451	6	0	0	40.20803169597227	143.5248531810006	121.32239582101852	1950	2000	0	2020-05-31 13:47:37.728784
A2UTYQIPNBON1V	354	102	0	0	255.5025137911787	14	0	0	198.3987827965295	-242.44191952335777	-80.64397194732639	2000	2000	0	2020-05-31 13:47:45.751714
A2UTYQIPNBON1V	355	102	0	0	279.64500813166705	10	0	0	103.80050313091692	-66.70707544193891	271.57226783849563	2000	2000	0	2020-05-31 13:47:57.665033
A2UTYQIPNBON1V	356	102	1	1951	278.7644619551305	5	-272	81	162.59163741162743	-265.9961218535668	83.40076982855635	2000	1950	0	2020-05-31 13:48:04.567787
A2UTYQIPNBON1V	357	103	0	0	168.25116281873287	5	0	0	43.48273571068194	122.0799735243092	115.77967807072068	1950	2000	0	2020-05-31 13:48:33.429129
A2UTYQIPNBON1V	358	103	0	0	216.8384883030521	13	0	0	246.28960804046955	-87.19375878468342	-198.5350811281253	2000	2000	0	2020-05-31 13:48:40.574046
A2UTYQIPNBON1V	359	103	0	0	289.2548517911372	8	0	0	165.48495957006327	-280.02238101412183	72.49714074289213	2000	2000	0	2020-05-31 13:48:49.032295
A2UTYQIPNBON1V	360	103	1	1944	235.43949691843466	13	-6	232	90.88886423173392	-3.652369424738125	235.4111656374668	2000	1950	0	2020-05-31 13:48:59.569158
A2UTYQIPNBON1V	361	104	1	1780	104.0834737542938	0	80	-65	320.68121528301185	80.52235914923637	-65.95088464760848	1950	1900	0	2020-05-31 13:49:09.592492
A2UTYQIPNBON1V	362	105	0	0	188.80721828743012	1	0	0	289.1731429739994	62.00881058912461	-178.3341613005185	1900	2000	0	2020-05-31 13:49:17.032257
A2UTYQIPNBON1V	363	105	1	1973	216.49487396272912	9	108	-187	300.55900619899023	110.07150253955112	-186.42503796653375	2000	1950	0	2020-05-31 13:49:33.596012
A2UTYQIPNBON1V	364	106	0	0	168.15876373334015	3	0	0	273.81572527636564	11.190587763489624	-167.78599633411886	1950	2000	0	2020-05-31 13:49:41.439290
A2UTYQIPNBON1V	365	106	0	0	185.7028739302049	11	0	0	350.2069401448522	182.9969060728562	-31.58622727867038	2000	2000	0	2020-05-31 13:49:48.697861
A2UTYQIPNBON1V	366	106	1	1835	148.09175363233783	9	61	-133	296.4591744428388	65.98376515646918	-132.5794487455615	2000	1950	0	2020-05-31 13:49:55.766265
A2UTYQIPNBON1V	367	107	1	1896	107.1173152939501	0	30	98	71.62104101300433	33.77414898705353	101.65346081655964	1950	1900	0	2020-05-31 13:50:01.674685
A2UTYQIPNBON1V	368	108	1	1518	146.2951720553943	4	-138	51	159.38827571230232	-136.93045523507453	51.500755293807735	1900	1850	0	2020-05-31 13:50:27.491958
A2UTYQIPNBON1V	369	109	1	1699	169.78971372053428	13	163	-38	347.36745121599773	165.6795599418368	-37.13260430915526	1850	1800	0	2020-05-31 13:50:33.157688
A2UTYQIPNBON1V	370	110	0	0	278.2675695014603	13	0	0	122.80098818956779	-150.74386118487763	233.8998258898975	1800	2000	0	2020-05-31 13:50:39.741466
A2UTYQIPNBON1V	371	110	0	0	200.45514777506025	9	0	0	302.4075128749386	107.43143123542775	-169.2357936496556	2000	2000	0	2020-05-31 13:50:45.756051
A2UTYQIPNBON1V	372	110	0	0	271.40201468970383	7	0	0	326.92225572303516	227.4161015595717	-148.12484710228995	2000	2000	0	2020-05-31 13:50:51.767359
A2UTYQIPNBON1V	373	110	1	1920	243.44684166568032	11	110	214	62.157526863225215	113.69996033275983	215.26421843242704	2000	1950	0	2020-05-31 13:50:57.768723
A2UTYQIPNBON1V	374	111	0	0	262.97598346971654	12	0	0	201.8050534145281	-244.16085895234434	-97.68235683846923	1950	2000	0	2020-05-31 13:51:03.711379
A2UTYQIPNBON1V	375	111	1	1816	156.98957193651347	2	85	129	54.703386704503	90.71004756924692	128.1304529251134	2000	1950	0	2020-05-31 13:51:09.540639
A2UTYQIPNBON1V	376	112	0	0	211.02008595114222	4	0	0	238.08872540896166	-111.54635357970051	-179.1281320114177	1950	2000	0	2020-05-31 13:51:15.715777
A2UTYQIPNBON1V	377	112	1	1959	247.38304997590657	3	-228	-107	205.5969889035112	-223.10369812649665	-106.87896564648695	2000	1950	0	2020-05-31 13:51:21.707422
A2UTYQIPNBON1V	378	113	0	0	256.8584292029268	0	0	0	164.2642186888067	-247.2320349595716	69.66041589270147	1950	2000	0	2020-05-31 13:51:27.689436
A2UTYQIPNBON1V	379	113	1	1857	234.60488695656574	14	225	-65	343.8903804351414	225.39255865611443	-65.09721565745348	2000	1950	0	2020-05-31 13:51:33.571660
A2UTYQIPNBON1V	380	114	1	1592	219.60888538670025	2	-220	47	168.0392254105971	-214.84111289776925	45.51218243104609	1950	1900	0	2020-05-31 13:51:40.142439
A2UTYQIPNBON1V	381	115	0	0	249.41665379400257	6	0	0	152.09085153991447	-220.40722829354246	116.74468255880262	1900	2000	0	2020-05-31 13:51:46.062673
A2UTYQIPNBON1V	382	115	1	1934	201.9190054419314	0	185	79	23.11281238241311	185.71172216969637	79.26185089577602	2000	1950	0	2020-05-31 13:51:52.014602
A2UTYQIPNBON1V	383	116	1	1765	233.6309108847886	1	113	-206	299.11249936537536	113.66750944152166	-204.11540808625304	1950	1900	0	2020-05-31 13:51:59.537309
A2UTYQIPNBON1V	384	117	0	0	112.70338446447785	4	0	0	29.74227279231758	97.85648626596928	55.91208246368644	1900	2000	0	2020-05-31 13:52:05.554446
A2UTYQIPNBON1V	385	117	0	0	291.1710719795016	0	0	0	250.4874356851923	-97.25508684416528	-274.4486131147796	2000	2000	0	2020-05-31 13:52:11.578307
A2UTYQIPNBON1V	386	117	1	2008	129.71682173987884	3	-121	49	156.5058249141088	-118.96337609108215	51.712367875656675	2000	1950	0	2020-05-31 13:52:19.574843
A2UTYQIPNBON1V	387	118	0	0	172.95548778504718	11	0	0	129.49489509828692	-110.00132778302705	133.46650756251412	1950	2000	0	2020-05-31 13:52:26.012248
A2UTYQIPNBON1V	388	118	1	1844	135.09176290493843	4	-118	75	147.2191149239628	-113.57803228280274	73.1424294615015	2000	1950	0	2020-05-31 13:52:32.815372
A2UTYQIPNBON1V	389	119	0	0	164.87743020109406	9	0	0	93.15679051342254	-9.079555613453095	164.6272415476213	1950	2000	0	2020-05-31 13:52:40.075433
A2UTYQIPNBON1V	390	119	1	1967	229.89174981191246	3	-220	87	157.7004967565664	-212.69883741538266	87.23199638737823	2000	1950	0	2020-05-31 13:52:47.547089
A2UTYQIPNBON1V	391	120	1	1867	122.29044168839964	8	57	105	61.64045571565495	58.08832465674159	107.61365464901218	1950	1900	0	2020-05-31 13:52:54.235406
A2UTYQIPNBON1V	392	121	0	0	282.4743917503971	6	0	0	145.1000395424381	-231.6720138193144	161.61639770660713	1900	2000	0	2020-05-31 13:54:21.433955
A2UTYQIPNBON1V	393	121	1	1850	113.30595781642442	2	-8	113	93.28857991533435	-6.4998006035363725	113.11937353438455	2000	1950	0	2020-05-31 13:54:30.878827
A2UTYQIPNBON1V	394	122	0	0	259.75413759856883	9	0	0	166.0899826986671	-252.13670893436233	62.444311248702896	1950	2000	0	2020-05-31 13:54:37.993506
A2UTYQIPNBON1V	395	122	1	1944	292.55083886149555	0	-271	-117	202.66957718843648	-269.94919982488585	-112.75381515704281	2000	1950	0	2020-05-31 13:54:45.995615
A2UTYQIPNBON1V	396	123	1	1918	207.72295171988375	0	125	-168	307.1329027292332	125.3952645884492	-165.60450564526914	1950	1900	0	2020-05-31 13:54:53.562004
A2UTYQIPNBON1V	397	124	0	0	237.93894376821618	11	0	0	135.45452058599713	-169.57762592312795	166.90826746392767	1900	2000	0	2020-05-31 13:54:59.619967
A2UTYQIPNBON1V	398	124	0	0	219.4171161305611	1	0	0	12.760986517190238	213.99750977389039	48.46582983531626	2000	2000	0	2020-05-31 13:55:06.538969
A2UTYQIPNBON1V	399	124	0	0	122.12285176392484	11	0	0	20.157881559103316	114.6424118463703	42.0845378850805	2000	2000	0	2020-05-31 13:55:12.609066
A2UTYQIPNBON1V	400	124	0	0	160.6396029894578	0	0	0	239.48139385494488	-81.57570445651322	-138.38528278337344	2000	2000	0	2020-05-31 13:55:18.645800
A2UTYQIPNBON1V	401	124	0	0	172.53838799022768	6	0	0	70.41653116398663	57.83137380758147	162.55776675937116	2000	2000	0	2020-05-31 13:55:24.653762
A2UTYQIPNBON1V	402	124	0	0	251.1384690357156	2	0	0	280.6590637082977	46.45170579394029	-246.80512486258525	2000	2000	0	2020-05-31 13:55:30.669814
A2UTYQIPNBON1V	403	124	0	0	129.85379229431322	2	0	0	330.26378105936175	112.75440362803154	-64.40847642742054	2000	2000	0	2020-05-31 13:55:36.702865
A2UTYQIPNBON1V	404	124	0	7	287.76279182119504	4	-3	0	3.2851537158138555	287.2899109060861	16.49034409287883	2000	2000	0	2020-05-31 13:55:40.813663
A2UTYQIPNBON1V	405	124	0	212	207.6140974411644	14	-3	0	73.37984519062076	59.38291704431325	198.94039966687893	2000	2000	0	2020-05-31 13:55:45.055344
A2UTYQIPNBON1V	406	124	0	0	233.07897289011981	13	0	0	256.2873446858179	-55.252007538871595	-226.43547263279595	2000	2000	0	2020-05-31 13:56:46.777334
A2UTYQIPNBON1V	407	124	0	0	208.71835873035167	4	0	0	8.56031435119296	206.3931775226175	31.067821668232106	2000	2000	0	2020-05-31 13:56:55.206562
A2UTYQIPNBON1V	408	124	0	0	296.2045800797207	6	0	0	4.388202894510922	295.33626447284206	22.663718746736194	2000	2000	0	2020-05-31 13:57:01.523487
A2UTYQIPNBON1V	409	124	1	1999	299.2231003252174	8	-296	56	168.51203500877966	-293.22863240081637	59.59389992761008	2000	1950	0	2020-05-31 13:57:12.567144
A2UTYQIPNBON1V	410	125	1	1944	287.39242336066513	6	148	-247	301.5068701214854	150.1915097402227	-245.0243159506182	1950	1900	0	2020-05-31 13:57:19.485102
A2UTYQIPNBON1V	411	126	0	0	276.37063323806416	10	0	0	22.12399176885313	256.0217429913836	104.08455232195854	1900	2000	0	2020-05-31 13:57:27.441341
A2UTYQIPNBON1V	412	126	0	740	107.14924854983119	2	-1	-2	248.57672599056647	-39.13679413233162	-99.74604157477626	2000	2000	0	2020-05-31 13:57:33.420574
A2UTYQIPNBON1V	413	126	0	0	259.06014773789036	5	0	0	52.95014110313075	156.08626986117406	206.7588849525029	2000	2000	0	2020-05-31 13:57:39.677417
A2UTYQIPNBON1V	414	126	1	1506	123.95884519874167	14	22	119	78.67000029015577	24.352900313313544	121.54312629406655	2000	1950	0	2020-05-31 13:57:45.233918
A2UTYQIPNBON1V	415	127	0	0	197.87747832234209	10	0	0	280.90573532324737	37.43717946903423	-194.3037673865648	1950	2000	0	2020-05-31 13:57:51.370732
A2UTYQIPNBON1V	416	127	0	298	100.53548128994106	6	-1	-3	63.19672246726843	45.33432374762597	89.7339517047228	2000	2000	0	2020-05-31 13:58:05.081189
A2UTYQIPNBON1V	417	127	1	1881	276.47037531397257	12	251	103	22.198954485570923	255.97769421604667	104.45711316174194	2000	1950	0	2020-05-31 13:58:11.013499
A2UTYQIPNBON1V	418	128	0	0	103.81372990897178	5	0	0	304.3930748103186	58.64097820293746	-85.66519826052793	1950	2000	0	2020-05-31 13:58:16.992892
A2UTYQIPNBON1V	419	128	1	1890	190.90387099866314	1	170	-73	337.9819223311836	176.98041447365085	-71.56969229365859	2000	1950	0	2020-05-31 13:58:23.983921
A2UTYQIPNBON1V	420	129	0	0	118.94635102605426	6	0	0	217.76163612408715	-94.03484852882073	-72.84011041023386	1950	2000	0	2020-05-31 13:58:30.734677
A2UTYQIPNBON1V	421	129	1	1972	103.12850129593949	3	12	-103	278.6931691825141	15.587148047495349	-101.94375211503673	2000	1950	0	2020-05-31 13:58:36.733478
A2UTYQIPNBON1V	422	130	0	0	104.05386275343793	8	0	0	284.4190138061203	25.910587758788225	-100.77622634285048	1950	2000	0	2020-05-31 13:58:42.718750
A2UTYQIPNBON1V	423	130	1	1823	230.5289812441607	2	27	228	82.02944980812872	31.96609109329617	228.30194964933102	2000	1950	0	2020-05-31 13:58:48.573465
A2UTYQIPNBON1V	424	131	0	0	257.61861250598656	3	0	0	111.17463230187448	-93.05486944952543	240.22518764950823	1950	2000	0	2020-05-31 13:58:54.712235
A2UTYQIPNBON1V	425	131	1	1908	177.53784123162686	13	137	-118	319.08298384239606	134.15806502622874	-116.28111909336153	2000	1950	0	2020-05-31 13:59:00.535848
A2UTYQIPNBON1V	426	132	1	1858	194.75160718685322	13	-58	-188	253.78315606317022	-54.38894411539487	-187.0027573590155	1950	1900	0	2020-05-31 13:59:06.483116
A2UTYQIPNBON1V	427	133	0	0	291.72407142243253	8	0	0	250.34374830715393	-98.12906333087227	-274.72462717617105	1900	2000	0	2020-05-31 13:59:23.905817
A2UTYQIPNBON1V	428	133	1	1935	238.20469588834428	1	106	214	63.32809368098929	106.92553834614499	212.85771396086554	2000	1950	0	2020-05-31 13:59:30.713090
A2UTYQIPNBON1V	429	134	0	0	182.61809408169466	3	0	0	149.88361030684544	-157.96609880588466	91.63012558149296	1950	2000	0	2020-05-31 13:59:37.967269
A2UTYQIPNBON1V	430	134	0	0	124.61770462811184	2	0	0	50.732591485408875	78.8756031974698	96.47907300039019	2000	2000	0	2020-05-31 13:59:44.035430
A2UTYQIPNBON1V	431	134	0	0	174.36254139388865	6	0	0	101.22714485351527	-33.94822528912329	171.02576952335124	2000	2000	0	2020-05-31 14:00:08.752916
A2UTYQIPNBON1V	432	134	1	1877	221.61583410998165	1	191	-113	329.0503290499311	190.06203498421968	-113.97368462026735	2000	1950	0	2020-05-31 14:00:16.641689
A2UTYQIPNBON1V	433	135	0	0	260.2676469384266	6	0	0	196.0481153720354	-250.1249866961375	-71.9495592281323	1950	2000	0	2020-05-31 14:00:27.048579
A2UTYQIPNBON1V	434	135	1	1957	232.19726869038783	6	125	-192	303.23394446685927	127.25777090448565	-194.2190292728743	2000	1950	0	2020-05-31 14:00:33.061811
A2UTYQIPNBON1V	435	136	1	2139	194.5365351949016	0	-182	-73	202.35739048627022	-179.91306256074063	-73.99833407349261	1950	1900	0	2020-05-31 14:00:47.530634
A2UTYQIPNBON1V	436	137	0	0	242.10719865365297	12	0	0	178.11039910229505	-241.97554489845817	7.98318927582481	1900	2000	0	2020-05-31 14:00:55.431729
A2UTYQIPNBON1V	437	137	0	0	107.22848575077606	12	0	0	32.33519960564378	90.60092849455779	57.35346469332443	2000	2000	0	2020-05-31 14:01:01.583246
A2UTYQIPNBON1V	438	137	1	1911	221.54818717333976	14	-219	50	166.5956110731259	-215.512798749159	51.35983659531713	2000	1950	0	2020-05-31 14:01:11.818192
A2UTYQIPNBON1V	439	138	0	0	245.08802886867812	2	0	0	296.54319858384196	109.52308270999207	-219.2551852258784	1950	2000	0	2020-05-31 14:01:21.063064
A2UTYQIPNBON1V	440	138	0	62	232.77026762052196	13	-3	-1	182.9159242546739	-232.4688900113472	-11.841142893385118	2000	2000	0	2020-05-31 14:01:25.166026
A2UTYQIPNBON1V	441	138	0	0	220.1255783498103	13	0	0	25.019876994901296	199.469240220519	93.09829455842552	2000	2000	0	2020-05-31 14:01:32.001793
A2UTYQIPNBON1V	442	138	1	1994	118.49551513924834	2	-108	52	153.486486841557	-106.03323532687449	52.897449033308675	2000	1950	0	2020-05-31 14:01:38.044973
A2UTYQIPNBON1V	443	139	0	0	128.06449541025603	0	0	0	114.72046075782492	-53.555481167779696	116.32852368001186	1950	2000	0	2020-05-31 14:01:44.884009
A2UTYQIPNBON1V	444	139	0	0	213.98442107318888	13	0	0	105.11088879490595	-55.78316808482468	206.58550438123194	2000	2000	0	2020-05-31 14:01:56.598970
A2UTYQIPNBON1V	445	139	1	1954	207.61776544389687	14	114	-175	303.2577021140024	113.85875440824479	-173.61255879837717	2000	1950	0	2020-05-31 14:02:07.104985
A2UTYQIPNBON1V	446	140	0	0	141.7876810786085	7	0	0	13.06067346143041	138.119818974461	32.04156850267039	1950	2000	0	2020-05-31 14:02:13.070979
A2UTYQIPNBON1V	447	140	1	1951	285.1308798096801	0	141	-251	300.19563209824804	143.40773300795962	-246.44236797791083	2000	1950	0	2020-05-31 14:02:19.044710
A2UTYQIPNBON1V	448	141	0	0	275.17009166530335	1	0	0	334.9001723822951	249.18580062134868	-116.72624433172224	1950	2000	0	2020-05-31 14:02:25.042622
A2UTYQIPNBON1V	449	141	1	1947	243.1052006833308	6	-11	246	92.55949392469496	-10.856285798215108	242.86267654365915	2000	1950	0	2020-05-31 14:02:31.013236
A2UTYQIPNBON1V	450	142	0	0	187.99556670702415	9	0	0	328.66966276028677	160.58273614627143	-97.75232965649536	1950	2000	0	2020-05-31 14:02:44.832281
A2UTYQIPNBON1V	451	142	0	0	227.82361347611774	9	0	0	186.25162892087445	-226.46880174681036	-24.808883342049096	2000	2000	0	2020-05-31 14:02:50.867659
A2UTYQIPNBON1V	452	142	0	0	256.4476802800074	0	0	0	183.10180467704316	-256.0719758323815	-13.87645179060946	2000	2000	0	2020-05-31 14:02:57.433066
A2UTYQIPNBON1V	453	142	1	1882	285.25367049995805	6	-284	40	171.63326281307843	-282.21770829957035	41.50688684829612	2000	1950	0	2020-05-31 14:03:03.465551
A2UTYQIPNBON1V	454	143	0	0	109.06158310135092	2	0	0	43.17108533669148	79.54013892039525	74.61766016900486	1950	2000	0	2020-05-31 14:03:09.503582
A2UTYQIPNBON1V	455	143	0	0	282.48009385086084	1	0	0	219.16546135537436	-219.01397576942762	-178.40370466910073	2000	2000	0	2020-05-31 14:03:18.991714
A2UTYQIPNBON1V	456	143	1	2142	104.26776242120002	6	-98	43	154.97731201214359	-94.48122856600583	44.1028766520051	2000	1950	0	2020-05-31 14:03:50.683616
A2UTYQIPNBON1V	457	144	0	0	284.53009385491737	8	0	0	5.511294167512322	283.2147925709371	27.326828906573724	1950	2000	0	2020-05-31 14:03:56.671913
A2UTYQIPNBON1V	458	144	0	0	231.04693984521214	10	0	0	254.69088381132462	-61.002518317547526	-222.84833670178998	2000	2000	0	2020-05-31 14:04:02.712378
A2UTYQIPNBON1V	459	144	0	0	266.224032725966	1	0	0	237.88989670128134	-141.51083862349478	-225.49926419603113	2000	2000	0	2020-05-31 14:04:15.728842
A2UTYQIPNBON1V	460	144	0	0	247.8693652176751	9	0	0	36.313119564343154	199.7313255874259	146.78766907510612	2000	2000	0	2020-05-31 14:04:23.040552
A2UTYQIPNBON1V	461	144	1	1716	268.42748172509835	4	235	127	28.531347959875735	235.82855197890854	128.2115713062173	2000	1950	0	2020-05-31 14:04:29.628245
A2UTYQIPNBON1V	462	145	0	0	201.39887493037043	7	0	0	169.81269083032686	-198.223782902826	35.620762413405714	1950	2000	0	2020-05-31 14:04:38.008546
A2UTYQIPNBON1V	463	145	1	1548	122.69881169533794	4	-6	-124	266.9348546299695	-6.560872963376661	-122.52327671673832	2000	1950	0	2020-05-31 14:04:46.557256
A2UTYQIPNBON1V	464	146	0	0	128.00198769047137	13	0	0	257.9934654751761	-26.627388998768634	-125.2018011364846	1950	2000	0	2020-05-31 14:04:54.110189
A2UTYQIPNBON1V	465	146	0	0	210.14041877473235	11	0	0	250.52317022215146	-70.06620170210839	-198.11542842963885	2000	2000	0	2020-05-31 14:05:00.155063
A2UTYQIPNBON1V	466	146	0	0	274.1831781264363	6	0	0	240.6892102960942	-134.2254611484498	-239.08145211830862	2000	2000	0	2020-05-31 14:05:07.725915
A2UTYQIPNBON1V	467	146	1	1920	250.8196439133133	2	-214	134	147.33711413709747	-211.1551642648145	135.36613452817693	2000	1950	0	2020-05-31 14:05:14.804888
A2UTYQIPNBON1V	468	147	0	0	123.161844490695	5	0	0	187.43357163791703	-122.12673399915033	-15.934264371188185	1950	2000	0	2020-05-31 14:05:21.923531
A2UTYQIPNBON1V	469	147	0	0	291.3263199091698	0	0	0	140.64935921598928	-225.2768442947437	184.7197014300904	2000	2000	0	2020-05-31 14:05:34.864818
A2UTYQIPNBON1V	470	147	0	0	274.02302393265336	9	0	0	226.69012832092113	-187.96437599705325	-199.3941097455838	2000	2000	0	2020-05-31 14:05:45.471528
A2UTYQIPNBON1V	471	147	1	2000	142.6235937833662	8	-145	-17	185.83829936970747	-141.88379599927194	-14.507857750875447	2000	1950	0	2020-05-31 14:05:55.998643
A2UTYQIPNBON1V	472	148	0	0	242.5499355501691	8	0	0	191.02888504277337	-238.07024790873095	-46.40073594315695	1950	2000	0	2020-05-31 14:06:02.652394
A2UTYQIPNBON1V	473	148	0	0	133.3060933716922	5	0	0	304.168148655149	74.86783579288513	-110.29651714225572	2000	2000	0	2020-05-31 14:06:08.676242
A2UTYQIPNBON1V	474	148	0	0	244.6546561868237	6	0	0	348.8000030097444	239.9952487628893	-47.52032581045495	2000	2000	0	2020-05-31 14:06:23.689345
A2UTYQIPNBON1V	475	148	0	0	242.89889159664924	9	0	0	275.9703319255106	25.264759073074078	-241.5813806729738	2000	2000	0	2020-05-31 14:06:31.754987
A2UTYQIPNBON1V	476	148	0	0	207.1394543432076	2	0	0	153.4563342796501	-185.30572330559107	92.56642185908184	2000	2000	0	2020-05-31 14:06:42.409508
A2UTYQIPNBON1V	477	148	0	0	108.45965118104685	1	0	0	222.69753003190655	-79.71175136392935	-73.54952500736809	2000	2000	0	2020-05-31 14:06:48.749624
A2UTYQIPNBON1V	478	148	1	1950	259.58026677505916	12	45	-260	280.94147533382977	49.269947865723516	-254.86150579544133	2000	1950	0	2020-05-31 14:06:54.672112
A2UTYQIPNBON1V	479	149	1	1648	233.65493684986888	2	227	38	9.509809241875216	230.44389423925688	38.60364130703741	1950	1900	0	2020-05-31 14:07:02.260128
A2UTYQIPNBON1V	480	150	1	1486	177.99943223143995	2	-181	-17	185.35050462908623	-177.22386899481842	-16.598136438239607	1900	1850	0	2020-05-31 14:07:07.956803
