A1N8BW04V76ZSY	1	1	0	0	171.88828777624687	6	0	0	349.0090714227673	168.73540643849248	-32.77111668354646	1500	1700	0	2020-05-30 22:55:32.262116
A1N8BW04V76ZSY	2	1	0	0	165.45107912511577	8	0	0	310.00324284660496	106.35707693846784	-126.7368603397218	1700	1900	0	2020-05-30 22:55:38.549317
A1N8BW04V76ZSY	3	1	1	1163	151.04898728942132	2	-134	75	151.67475715626293	-132.9636501624941	71.6691307092924	1900	1850	0	2020-05-30 22:55:44.195667
A1N8BW04V76ZSY	4	2	0	0	276.45176255369284	13	0	0	79.32154756736743	51.22570026450875	271.6643234792785	1850	2000	0	2020-05-30 22:55:50.478925
A1N8BW04V76ZSY	5	2	1	1300	183.6489172318869	10	-100	141	124.52876350488513	-104.09585935847451	151.29764328919714	2000	1950	0	2020-05-30 22:55:56.149348
A1N8BW04V76ZSY	6	3	1	1206	135.69755196374683	10	127	-53	336.01016966984315	123.97567672515433	-55.17116266215349	1950	1900	0	2020-05-30 22:56:02.278415
A1N8BW04V76ZSY	7	4	1	1271	284.5933066514299	6	33	280	82.43662751598958	37.458941749426934	282.1173122546857	1900	1850	0	2020-05-30 22:56:08.236893
A1N8BW04V76ZSY	8	5	1	1413	252.20275897373256	8	-209	148	144.56974427779733	-205.50030243471255	146.20484716042864	1850	1800	0	2020-05-30 22:56:14.137882
A1N8BW04V76ZSY	9	6	0	0	250.40387826909804	4	0	0	280.11713148946575	43.98621709080142	-246.51027353488973	1800	2000	0	2020-05-30 22:56:20.367792
A1N8BW04V76ZSY	10	6	1	1276	271.92568572038226	14	236	122	26.32247981238472	243.7303976674727	120.57807349330027	2000	1950	0	2020-05-30 22:56:26.315489
A1N8BW04V76ZSY	11	7	1	1163	270.03527989197283	3	175	-200	313.19370519033106	184.83024157987984	-196.86755492934677	1950	1900	0	2020-05-30 22:56:31.777362
A1N8BW04V76ZSY	12	8	1	1104	217.90418448662444	9	221	0	357.8903161876066	217.75648602123604	-8.021621560762675	1900	1850	0	2020-05-30 22:56:36.911600
A1N8BW04V76ZSY	13	9	1	1114	224.6977569019931	5	-163	151	134.9943621560443	-158.86967270782876	158.90094099939924	1850	1800	0	2020-05-30 22:56:42.562803
A1N8BW04V76ZSY	14	10	1	1050	242.6804956551309	5	134	206	56.41315532279657	134.25092126833073	202.16456937362807	1800	1750	0	2020-05-30 22:56:48.057827
A1N8BW04V76ZSY	15	11	1	1123	237.30489337957152	2	233	-14	353.9479683858387	235.9822889362242	-25.019427057992615	1750	1700	0	2020-05-30 22:56:53.258492
A1N8BW04V76ZSY	16	12	1	1100	128.62566044310856	13	100	86	38.29623030426858	100.94762377372356	79.7128457581626	1700	1650	0	2020-05-30 22:56:58.758436
A1N8BW04V76ZSY	17	13	1	976	177.8785451958968	8	168	53	18.855027127793313	168.33346117189382	57.48584774445989	1650	1600	0	2020-05-30 22:57:04.378611
A1N8BW04V76ZSY	18	14	1	1194	218.070006370221	5	162	147	41.36193483975663	163.6724988409596	144.10357664355283	1600	1550	0	2020-05-30 22:57:09.946014
A1N8BW04V76ZSY	19	15	1	1023	119.5784969949119	10	-116	31	164.5002126804477	-115.2295998721263	31.955535621732647	1550	1500	0	2020-05-30 22:57:15.327563
A1N8BW04V76ZSY	20	16	1	1049	286.7523373892071	5	-265	88	160.98295692556377	-271.1018797113755	93.4380747614835	1500	1450	0	2020-05-30 22:57:20.767968
A1N8BW04V76ZSY	21	17	1	1040	258.8267420750341	12	-158	204	129.00049063262398	-162.8866689765075	201.14476250430653	1450	1400	0	2020-05-30 22:57:26.182925
A1N8BW04V76ZSY	22	18	1	1022	276.10209514308156	12	-267	-70	195.14755869309	-266.50922190396125	-72.14708298014833	1400	1350	0	2020-05-30 22:57:31.183840
A1N8BW04V76ZSY	23	19	1	1030	116.64803940595746	14	-29	-112	253.99109059388678	-32.16999268780184	-112.12429115816332	1350	1300	0	2020-05-30 22:57:36.700698
A1N8BW04V76ZSY	24	20	1	999	215.8529157940536	5	-205	-53	192.84255733312824	-210.45325294793588	-47.978219854710254	1300	1250	0	2020-05-30 22:57:42.102552
A1N8BW04V76ZSY	25	21	1	1181	171.23901157796365	5	-146	74	154.2077632546503	-154.1797933016361	74.50765345696198	1250	1200	0	2020-05-30 22:57:48.137427
A1N8BW04V76ZSY	26	22	0	0	139.41917775989685	7	0	0	53.95546368674316	82.03618600445635	112.72875104909109	1200	1400	0	2020-05-30 22:57:53.363108
A1N8BW04V76ZSY	27	22	1	1122	120.10417949924994	5	3	-120	269.3349406585275	-1.3940749832831532	-120.0960885629879	1400	1350	0	2020-05-30 22:57:59.015176
A1N8BW04V76ZSY	28	23	1	1313	140.4722880964988	3	-146	-22	189.20714200679475	-138.66248920717848	-22.476160925186228	1350	1300	0	2020-05-30 22:58:04.776537
A1N8BW04V76ZSY	29	24	1	1025	100.51602258424874	0	28	92	76.36297321054377	23.698681083333618	97.68235926239522	1300	1250	0	2020-05-30 22:58:10.447644
A1N8BW04V76ZSY	30	25	1	1055	217.3671089430916	14	-174	-127	216.97577280667565	-173.6523906852616	-130.74137546917245	1250	1200	0	2020-05-30 22:58:16.365745
A1N8BW04V76ZSY	31	26	1	965	213.95251872811158	0	14	-215	275.6691309447945	21.135007003566177	-212.90606320408574	1200	1150	0	2020-05-30 22:58:21.888253
A1N8BW04V76ZSY	32	27	1	912	244.12241707668753	2	-51	-241	258.87072923758416	-47.12130368978235	-239.531495336082	1150	1100	0	2020-05-30 22:58:27.496844
A1N8BW04V76ZSY	33	28	0	0	237.1400735161171	7	0	0	281.6860585511329	48.03248967438661	-232.2246636404268	1100	1300	0	2020-05-30 22:58:32.986266
A1N8BW04V76ZSY	34	28	1	1001	151.8283215595512	12	2	-161	273.00005466902144	7.9462250627051345	-151.62023853972568	1300	1250	0	2020-05-30 22:58:38.376674
A1N8BW04V76ZSY	35	29	0	0	147.45008385383457	3	0	0	327.18018628805356	123.9139868530593	-79.91777706294573	1250	1450	0	2020-05-30 22:58:43.918894
A1N8BW04V76ZSY	36	29	1	1219	211.4269367742882	1	198	-52	345.5143725195761	204.70576265892376	-52.885728963371996	1450	1400	0	2020-05-30 22:58:49.187855
A1N8BW04V76ZSY	37	30	1	994	145.1190038292853	13	-66	-138	242.90679076423373	-66.09291129962949	-129.19462971944085	1400	1350	0	2020-05-30 22:58:54.458162
A1N8BW04V76ZSY	38	31	1	1019	277.17580891136186	3	169	-205	306.5633792521374	165.11685301195553	-222.62716343046742	1350	1300	0	2020-05-30 22:59:20.635659
A1N8BW04V76ZSY	39	32	1	1049	192.47985386417668	9	-121	148	127.00498769239161	-115.85064895943853	153.7111618564239	1300	1250	0	2020-05-30 22:59:28.796392
A1N8BW04V76ZSY	40	33	1	1018	163.23827580544537	7	150	-50	340.1946604391176	153.5826006938013	-55.30930710163554	1250	1200	0	2020-05-30 22:59:34.365510
A1N8BW04V76ZSY	41	34	1	1018	243.0240428201629	5	-5	240	90.67156473666967	-2.848423423005469	243.00734942108159	1200	1150	0	2020-05-30 22:59:40.098093
A1N8BW04V76ZSY	42	35	1	1141	281.7034925828722	6	180	216	49.38387632392968	183.38555350121746	213.83778080694825	1150	1100	0	2020-05-30 22:59:45.875651
A1N8BW04V76ZSY	43	36	1	991	262.87075440106526	12	218	-135	326.0614971902946	218.08738097272288	-146.76146558222837	1100	1050	0	2020-05-30 22:59:51.656279
A1N8BW04V76ZSY	44	37	1	948	213.27221061584942	10	-48	210	101.69595276094626	-43.234142619793076	208.84406798590814	1050	1000	0	2020-05-30 22:59:57.098809
A1N8BW04V76ZSY	45	38	0	0	229.96309066017992	14	0	0	184.3250015901459	-229.30822956552004	-17.342402356908227	1000	1200	0	2020-05-30 23:00:02.712895
A1N8BW04V76ZSY	46	38	1	1152	239.35359901035923	9	155	173	47.50132905767998	161.70085413139313	176.47373496469598	1200	1150	0	2020-05-30 23:00:08.275283
A1N8BW04V76ZSY	47	39	1	944	184.8100113972805	14	114	137	48.4073792406808	122.68241077496468	138.21637529289276	1150	1100	0	2020-05-30 23:00:13.821593
A1N8BW04V76ZSY	48	40	0	0	297.1471204898531	4	0	0	242.69953275564637	-136.28854774003625	-264.04894048324286	1100	1300	0	2020-05-30 23:00:19.705132
A1N8BW04V76ZSY	49	40	1	1030	141.42081170151147	5	106	134	48.20355765396265	94.25501660456966	105.43167373795532	1300	1250	0	2020-05-30 23:00:25.845701
A1N8BW04V76ZSY	50	41	1	1221	295.4817086980205	14	-196	203	131.96465656348727	-197.58036380980573	219.70762392754295	1250	1200	0	2020-05-30 23:00:31.520677
A1N8BW04V76ZSY	51	42	1	1026	194.82068759312068	11	186	-13	355.85155684216124	194.31025268936062	-14.093474165483412	1200	1150	0	2020-05-30 23:00:36.589391
A1N8BW04V76ZSY	52	43	0	0	254.73420711368826	2	0	0	252.1928048852018	-77.90150830039593	-242.5301450920334	1150	1350	0	2020-05-30 23:00:42.068645
A1N8BW04V76ZSY	53	43	0	0	265.4089348382367	14	0	0	245.2689835954984	-111.03616956482564	-241.06611487378035	1350	1550	0	2020-05-30 23:00:47.965552
A1N8BW04V76ZSY	54	43	1	1053	149.27212940001363	6	-116	83	142.68614618911522	-118.72014483891459	90.485887435785	1550	1500	0	2020-05-30 23:00:53.411243
A1N8BW04V76ZSY	55	44	1	1011	166.59786246235586	14	146	-42	336.38009281121026	152.64088906403504	-66.7503315554836	1500	1450	0	2020-05-30 23:00:59.307419
A1N8BW04V76ZSY	56	45	1	989	175.26640960391723	7	133	-104	320.59787944620575	135.4301215935192	-111.25195054745194	1450	1400	0	2020-05-30 23:01:04.999207
A1N8BW04V76ZSY	57	46	1	965	181.3802142029775	1	176	21	5.403190109888296	180.57429172422218	17.079440055619745	1400	1350	0	2020-05-30 23:01:10.808035
A1N8BW04V76ZSY	58	47	1	1126	138.39678545432258	12	-130	33	166.1466099699677	-134.37104235962815	33.13748933273034	1350	1300	0	2020-05-30 23:01:16.530271
A1N8BW04V76ZSY	59	48	1	1071	219.78864035025825	4	-203	-66	199.0421927784562	-207.76149163366267	-71.70919760512378	1300	1250	0	2020-05-30 23:01:22.037070
A1N8BW04V76ZSY	60	49	1	1111	253.65914351356687	12	-208	146	143.84826179599594	-204.8189801700917	149.64005630218102	1250	1200	0	2020-05-30 23:01:27.466000
A1N8BW04V76ZSY	61	50	1	1181	134.26988702804263	6	124	-51	336.8751404826672	123.48146049385447	-52.73264147402431	1200	1150	0	2020-05-30 23:01:33.256232
A1N8BW04V76ZSY	62	51	1	861	114.52979665383731	2	-46	-106	242.64484035961453	-52.62699462979047	-101.72253318613988	1150	1100	0	2020-05-30 23:01:38.299501
A1N8BW04V76ZSY	63	52	1	1062	288.4900794971666	10	-296	30	174.47568496678866	-287.1501682724551	27.772411299385272	1100	1050	0	2020-05-30 23:01:43.810549
A1N8BW04V76ZSY	64	53	1	871	101.1761503814173	2	84	-36	332.81460342344934	89.99950925150897	-46.224471229974284	1050	1000	0	2020-05-30 23:01:48.945280
A1N8BW04V76ZSY	65	54	1	981	235.1102341694467	10	-114	-204	242.440654415701	-108.7777725216082	-208.43276713714982	1000	950	0	2020-05-30 23:01:54.538807
A1N8BW04V76ZSY	66	55	1	872	174.42097345960374	2	36	-173	282.2315907724615	36.953468479435784	-170.46148289257354	950	900	0	2020-05-30 23:01:59.975529
A1N8BW04V76ZSY	67	56	0	0	168.09664216288388	10	0	0	106.958928180964	-49.031456265529734	160.78680730370286	900	1100	0	2020-05-30 23:02:05.095285
A1N8BW04V76ZSY	68	56	1	940	157.76805599613897	13	-117	103	135.6967222881126	-112.90714761390383	110.19408110462638	1100	1050	0	2020-05-30 23:02:10.356248
A1N8BW04V76ZSY	69	57	1	953	189.78590473790177	12	32	-176	280.58611785772644	34.86617411014588	-186.55572770650843	1050	1000	0	2020-05-30 23:02:15.587607
A1N8BW04V76ZSY	70	58	0	0	263.40144852539987	6	0	0	33.92018654908266	218.5746647258467	146.9878873419935	1000	1200	0	2020-05-30 23:02:21.282512
A1N8BW04V76ZSY	71	58	1	1042	192.51104084719302	2	-168	-76	203.7412300422948	-176.21943106920975	-77.50621240722353	1200	1150	0	2020-05-30 23:02:26.826546
A1N8BW04V76ZSY	72	59	1	1129	200.4997345467434	6	-65	189	112.8621039941686	-77.89707091194444	184.74899159847686	1150	1100	0	2020-05-30 23:02:32.399006
A1N8BW04V76ZSY	73	60	0	0	285.16187153472765	6	0	0	4.934003115885179	284.10518387876266	24.52626083207504	1100	1300	0	2020-05-30 23:02:38.326636
A1N8BW04V76ZSY	74	60	1	1110	176.08512672704447	13	-140	120	140.22970202382305	-135.34171405350884	112.64365180309787	1300	1250	0	2020-05-30 23:02:43.657846
A1N8BW04V76ZSY	75	61	0	0	141.56108877500864	3	0	0	227.53576758646892	-95.5721126201892	-104.42946492479865	1250	1450	0	2020-05-30 23:03:23.132005
A1N8BW04V76ZSY	76	61	1	1060	154.19654581701366	0	62	142	69.09582643159665	55.01826015475358	144.04709574108824	1450	1400	0	2020-05-30 23:03:28.985863
A1N8BW04V76ZSY	77	62	1	963	174.4301825945193	4	-5	-185	268.9661985807201	-3.1471146316788032	-174.4017897541548	1400	1350	0	2020-05-30 23:03:34.186540
A1N8BW04V76ZSY	78	63	1	786	190.74509567281495	13	183	-57	342.49935357933225	181.91618387926266	-57.36020890859475	1350	1300	0	2020-05-30 23:03:39.258569
A1N8BW04V76ZSY	79	64	1	1032	268.5268294888459	9	182	-179	315.3367834139004	190.98994939288949	-188.7577743729599	1300	1250	0	2020-05-30 23:03:44.353389
A1N8BW04V76ZSY	80	65	1	990	116.69088517188762	7	-25	-112	260.17132130978786	-19.919450505921056	-114.97816389967629	1250	1200	0	2020-05-30 23:03:49.647010
A1N8BW04V76ZSY	81	66	1	976	215.3291163715016	8	200	-73	338.27951233625055	200.04081352070568	-79.6887776497164	1200	1150	0	2020-05-30 23:03:54.995470
A1N8BW04V76ZSY	82	67	1	1072	124.44455241788268	3	93	89	49.25926284648122	81.21715302437396	94.28796678846444	1150	1100	0	2020-05-30 23:04:00.315567
A1N8BW04V76ZSY	83	68	1	967	233.980212269889	14	159	168	45.14073619337062	165.04210204137183	165.8548892484865	1100	1050	0	2020-05-30 23:04:05.815367
A1N8BW04V76ZSY	84	69	1	980	246.1493705074974	7	237	-1	359.6478894917491	246.14472235814145	-1.5126984070524696	1050	1000	0	2020-05-30 23:04:11.364935
A1N8BW04V76ZSY	85	70	0	0	279.8735767351476	7	0	0	235.30606750123562	-159.30192877248962	-230.1132643805854	1000	1200	0	2020-05-30 23:04:16.825203
A1N8BW04V76ZSY	86	70	1	1155	149.90311721497838	13	-57	147	109.1943028649141	-49.28405891330517	141.5698629221538	1200	1150	0	2020-05-30 23:04:22.388571
A1N8BW04V76ZSY	87	71	1	1135	252.8887003232493	4	198	164	40.23118504249446	193.06651385898525	163.33406251459138	1150	1100	0	2020-05-30 23:04:27.865386
A1N8BW04V76ZSY	88	72	1	1014	260.0757072064828	1	179	-183	314.846493349433	183.40792904236636	-184.39334327285914	1100	1050	0	2020-05-30 23:04:32.879087
A1N8BW04V76ZSY	89	73	1	887	141.353171509207	4	124	96	37.886974663642675	111.55927485893403	86.80580216010964	1050	1000	0	2020-05-30 23:04:38.208877
A1N8BW04V76ZSY	90	74	0	0	112.74660761457942	6	0	0	138.45816162500782	-84.38764106427813	74.76980382616033	1000	1200	0	2020-05-30 23:04:43.398304
A1N8BW04V76ZSY	91	74	1	1081	207.7042456682932	8	-143	-137	223.21212651259532	-151.37978272477594	-142.21538260973853	1200	1150	0	2020-05-30 23:04:48.958842
A1N8BW04V76ZSY	92	75	1	945	171.65699875883706	8	-37	-165	256.5627104664504	-39.88981839618437	-166.95786178317815	1150	1100	0	2020-05-30 23:04:54.438522
A1N8BW04V76ZSY	93	76	1	908	157.76037954872817	1	-72	-153	241.28049189756527	-75.8073521700318	-138.35310879169845	1100	1050	0	2020-05-30 23:04:59.591088
A1N8BW04V76ZSY	94	77	0	948	253.28094604895486	10	-173	102	142.4874869140995	-200.90760604153945	154.23155146114286	1050	1250	0	2020-05-30 23:05:05.069047
A1N8BW04V76ZSY	95	77	1	922	186.42588337789113	3	-111	-141	230.1646280598647	-119.42141618092121	-143.1542362299149	1250	1200	0	2020-05-30 23:05:10.448822
A1N8BW04V76ZSY	96	78	1	1072	223.45217387569414	4	-208	95	156.6126708542281	-205.09388665048846	88.69820555326946	1200	1150	0	2020-05-30 23:05:16.498312
A1N8BW04V76ZSY	97	79	1	933	152.63384750825878	11	-39	-153	255.55479313674573	-38.07512839495566	-147.8085789218002	1150	1100	0	2020-05-30 23:05:22.068664
A1N8BW04V76ZSY	98	80	1	1087	227.71032963465473	5	120	189	58.57120158198136	118.73695181707699	194.3026775304763	1100	1050	0	2020-05-30 23:05:27.626865
A1N8BW04V76ZSY	99	81	1	1001	141.617415113459	14	-43	146	104.49665505864301	-35.45016459562655	137.10863610130747	1050	1000	0	2020-05-30 23:05:33.738638
A1N8BW04V76ZSY	100	82	1	952	132.9645260781063	0	-18	134	99.97714744607516	-23.03681829808077	130.9536948614915	1000	950	0	2020-05-30 23:05:39.086141
A1N8BW04V76ZSY	101	83	0	0	172.0467493373805	10	0	0	55.61282798647544	97.16895090304754	141.97985398626304	950	1150	0	2020-05-30 23:05:44.369299
A1N8BW04V76ZSY	102	83	0	0	275.9260196690551	12	0	0	54.462708227980855	160.3772285370202	224.53131829923456	1150	1350	0	2020-05-30 23:05:49.569902
A1N8BW04V76ZSY	103	83	1	1035	285.72629754036365	4	227	-151	325.46169995524605	235.366290008252	-161.9945265553001	1350	1300	0	2020-05-30 23:05:55.024197
A1N8BW04V76ZSY	104	84	1	866	251.45844961268682	13	-65	-234	257.34399123725433	-55.09382514589738	-245.3487768716393	1300	1250	0	2020-05-30 23:06:00.516950
A1N8BW04V76ZSY	105	85	1	949	298.98997418933556	3	127	288	68.28517746101782	110.62243750191655	277.77271461911823	1250	1200	0	2020-05-30 23:06:06.209116
A1N8BW04V76ZSY	106	86	1	726	124.28645647205165	14	119	7	10.794449528726933	122.08725715252433	23.27713262737886	1200	1150	0	2020-05-30 23:06:11.605964
A1N8BW04V76ZSY	107	87	1	831	222.03528230539683	10	-86	208	109.08218134649965	-72.58866475409728	209.8345832737172	1150	1100	0	2020-05-30 23:06:16.797168
A1N8BW04V76ZSY	108	88	1	944	187.94307553842495	12	-179	-12	182.48918167088274	-187.76573993021503	-8.162508885198998	1100	1050	0	2020-05-30 23:06:22.109238
A1N8BW04V76ZSY	109	89	1	991	262.17871501965897	1	143	-220	301.54968795184857	137.18181231014984	-223.42522010879247	1050	1000	0	2020-05-30 23:06:27.805185
A1N8BW04V76ZSY	110	90	1	987	262.7863264721718	5	-230	-110	207.0545254001088	-234.03069139435283	-119.52526455197689	1000	950	0	2020-05-30 23:06:33.665824
A1N8BW04V76ZSY	111	91	1	924	179.1597431216381	10	149	58	19.73019415735387	168.64177071697065	60.482780399515704	950	900	0	2020-05-30 23:08:17.511648
A1N8BW04V76ZSY	112	92	0	0	244.68001776445806	6	0	0	210.71418437327577	-210.3577370320182	-124.97173105940314	900	1100	0	2020-05-30 23:08:23.742585
A1N8BW04V76ZSY	113	92	1	963	127.4865588711425	5	-2	119	87.07645632620182	6.502238291304975	127.32063300976935	1100	1050	0	2020-05-30 23:08:28.850213
A1N8BW04V76ZSY	114	93	1	960	203.2367721557701	9	171	-61	339.12785890847334	189.89993220932783	-72.40995306716547	1050	1000	0	2020-05-30 23:08:33.854936
A1N8BW04V76ZSY	115	94	1	881	285.60326424404656	3	-216	-194	221.5164029699122	-213.85001128954303	-189.3076787093355	1000	950	0	2020-05-30 23:08:39.101258
A1N8BW04V76ZSY	116	95	1	927	151.37802430914263	5	93	107	51.92431538916682	93.3551087411252	119.16429799093379	950	900	0	2020-05-30 23:08:44.628184
A1N8BW04V76ZSY	117	96	1	825	212.6416993247055	14	-9	226	90.68884097468592	-2.5564323941469467	212.6263317303683	900	850	0	2020-05-30 23:08:50.301337
A1N8BW04V76ZSY	118	97	0	0	164.27640666249545	14	0	0	46.10024313950646	113.90905841010202	118.37003082734053	850	1050	0	2020-05-30 23:08:55.783976
A1N8BW04V76ZSY	119	97	1	1032	153.25433270051954	14	-27	-146	258.50426880756993	-30.542810714119454	-150.17998270463013	1050	1000	0	2020-05-30 23:09:01.359639
A1N8BW04V76ZSY	120	98	0	0	226.74926704825265	7	0	0	132.33575007223502	-152.7097086834984	167.6155570963532	1000	1200	0	2020-05-30 23:09:06.310459
A1N8BW04V76ZSY	121	98	1	890	272.6702611263948	2	-12	-280	268.1909593187586	-8.607783089432713	-272.5343599860788	1200	1150	0	2020-05-30 23:09:11.699605
A1N8BW04V76ZSY	122	99	1	877	164.1186069226948	9	-77	-156	241.5324654866509	-78.22889331913066	-144.2745902378866	1150	1100	0	2020-05-30 23:09:16.980838
A1N8BW04V76ZSY	123	100	1	1022	152.67618189190446	12	66	149	67.55633435861452	58.28792959564246	141.11177761102482	1100	1050	0	2020-05-30 23:09:22.175747
A1N8BW04V76ZSY	124	101	1	1007	139.61624974872325	14	134	35	16.664791500453873	133.75221343683336	40.03801436941691	1050	1000	0	2020-05-30 23:09:27.646432
A1N8BW04V76ZSY	125	102	0	0	278.0310332766137	5	0	0	72.14153175578431	85.26287581950861	264.6346490387238	1000	1200	0	2020-05-30 23:09:33.020983
A1N8BW04V76ZSY	126	102	1	876	175.79614712823704	7	158	-61	336.27687126149635	160.94141900412134	-70.72584389084807	1200	1150	0	2020-05-30 23:09:38.321253
A1N8BW04V76ZSY	127	103	1	884	166.03677573546665	9	157	-38	345.60315638662684	160.82269959207778	-41.282807469283775	1150	1100	0	2020-05-30 23:09:44.562010
A1N8BW04V76ZSY	128	104	0	0	213.1829793606812	5	0	0	72.80692047337342	63.0153249051242	203.65670015051865	1100	1300	0	2020-05-30 23:09:50.023205
A1N8BW04V76ZSY	129	104	1	845	176.26931447551328	10	69	-169	291.07469916808213	63.38376562445918	-164.47908523861332	1300	1250	0	2020-05-30 23:09:54.899688
A1N8BW04V76ZSY	130	105	1	945	231.8760589074683	10	-197	68	162.1407550027191	-220.7025982498895	71.1116714766822	1250	1200	0	2020-05-30 23:10:00.430664
A1N8BW04V76ZSY	131	106	1	849	186.9200618304638	11	-156	-74	207.29756022246897	-166.10403852288408	-85.7237300932049	1200	1150	0	2020-05-30 23:10:06.064332
A1N8BW04V76ZSY	132	107	0	787	234.9237674321214	11	286	-66	346.2012838926785	228.14377935132669	-56.03206624598655	1150	1350	0	2020-05-30 23:10:11.291221
A1N8BW04V76ZSY	133	107	1	928	237.3891939761171	2	-233	18	175.62108988436484	-236.6962368842421	18.125144453749627	1350	1300	0	2020-05-30 23:10:16.252322
A1N8BW04V76ZSY	134	108	1	1025	274.61511035555986	2	37	276	79.73910392717535	48.917376231494195	270.22314693272074	1300	1250	0	2020-05-30 23:10:22.032122
A1N8BW04V76ZSY	135	109	1	972	282.77409628667357	13	-213	196	135.25506263273732	-200.83961738127357	199.05938214735966	1250	1200	0	2020-05-30 23:10:27.280578
A1N8BW04V76ZSY	136	110	1	981	212.0036037825154	4	213	-54	344.575848276666	204.3679504376317	-56.38500554842129	1200	1150	0	2020-05-30 23:10:32.982435
A1N8BW04V76ZSY	137	111	1	822	236.74738395126388	9	89	-217	296.1816579524708	104.45734732146983	-212.45702247355575	1150	1100	0	2020-05-30 23:10:38.091940
A1N8BW04V76ZSY	138	112	1	779	119.6428802884511	12	-108	46	158.1235921328517	-111.02736738601715	44.57961972748328	1100	1050	0	2020-05-30 23:10:42.926416
A1N8BW04V76ZSY	139	113	1	943	234.926030082574	3	171	136	36.89207010406187	187.88626265159812	141.028337284296	1050	1000	0	2020-05-30 23:10:47.842876
A1N8BW04V76ZSY	140	114	1	963	215.8749733205401	2	83	194	63.32303130108226	96.91919607462098	192.89549901019743	1000	950	0	2020-05-30 23:10:53.132319
A1N8BW04V76ZSY	141	115	0	0	268.20320561039057	3	0	0	9.550849464573776	264.4855698881057	44.50104291646882	950	1150	0	2020-05-30 23:10:58.090827
A1N8BW04V76ZSY	142	115	1	955	121.13812116358545	1	106	19	4.553834732904729	120.75570919831789	9.617852933726692	1150	1100	0	2020-05-30 23:11:03.092825
A1N8BW04V76ZSY	143	116	1	984	237.22592504959405	12	154	144	41.74643355918138	176.99398326919177	157.95337730526904	1100	1050	0	2020-05-30 23:11:08.190616
A1N8BW04V76ZSY	144	117	1	866	214.9907693982405	14	-14	-212	264.17363427931525	-21.82459432737305	-213.88014870224168	1050	1000	0	2020-05-30 23:11:13.690796
A1N8BW04V76ZSY	145	118	1	823	121.59589755346083	3	-27	131	97.4194365246298	-15.701920847959926	120.57782542207396	1000	950	0	2020-05-30 23:11:18.944571
A1N8BW04V76ZSY	146	119	0	0	237.18813211554885	10	0	0	344.03145286471255	228.03572137673027	-65.2527378173307	950	1150	0	2020-05-30 23:11:24.366188
A1N8BW04V76ZSY	147	119	1	865	138.64235608174025	2	-40	-150	251.2030639686807	-44.672656668167726	-131.24807292339216	1150	1100	0	2020-05-30 23:11:29.191919
A1N8BW04V76ZSY	148	120	1	810	174.0516506692992	10	-150	-108	217.7261255717095	-137.66521466402924	-106.50007404792969	1100	1050	0	2020-05-30 23:11:34.109420
A1N8BW04V76ZSY	149	121	1	916	295.4180575395597	0	200	-215	309.64017953905534	188.46613503371276	-227.4914166862147	1050	1000	0	2020-05-30 23:12:46.465070
A1N8BW04V76ZSY	150	122	1	904	209.73517109416082	5	-152	-148	227.75664386307477	-141.00096410472125	-155.2661267483543	1000	950	0	2020-05-30 23:12:51.910594
A1N8BW04V76ZSY	151	123	0	0	203.65751499357523	6	0	0	297.4422273105688	93.8563772894146	-180.741151527441	950	1150	0	2020-05-30 23:12:57.275627
A1N8BW04V76ZSY	152	123	1	888	273.01336254699186	6	13	259	89.03490064204588	4.598463686870706	272.97463299899454	1150	1100	0	2020-05-30 23:13:02.462307
A1N8BW04V76ZSY	153	124	1	836	112.59016626231477	14	-74	87	129.96541788944523	-72.31949316888712	86.29273692942513	1100	1050	0	2020-05-30 23:13:07.739520
A1N8BW04V76ZSY	154	125	0	0	256.46027630947503	3	0	0	58.064882793108985	135.6568634346077	217.6444089054816	1050	1250	0	2020-05-30 23:13:13.142128
A1N8BW04V76ZSY	155	125	0	0	152.09896756930678	7	0	0	196.9290173285137	-145.50794677899668	-44.28920139051626	1250	1450	0	2020-05-30 23:13:18.871735
A1N8BW04V76ZSY	156	125	1	926	217.80663305802497	4	174	109	31.67228715400535	185.3676392416942	114.36156577292147	1450	1400	0	2020-05-30 23:13:24.412563
A1N8BW04V76ZSY	157	126	1	839	219.0843954526348	0	-138	-157	225.54494863035129	-153.4356473735361	-156.38246207906548	1400	1350	0	2020-05-30 23:13:29.592475
A1N8BW04V76ZSY	158	127	1	806	130.63462527912964	12	19	-117	282.24384308214564	27.704032360551352	-127.6631971743781	1350	1300	0	2020-05-30 23:13:35.034267
A1N8BW04V76ZSY	159	128	1	994	206.41461458576617	2	-6	208	97.00931555421184	-25.188923414448023	204.8719386636722	1300	1250	0	2020-05-30 23:13:40.382824
A1N8BW04V76ZSY	160	129	1	956	142.14719124401296	2	73	119	57.96636596083409	75.39728646796688	120.50341560233606	1250	1200	0	2020-05-30 23:13:45.874608
A1N8BW04V76ZSY	161	130	1	894	153.30606446766376	0	-32	146	101.09756640961118	-29.50839525167289	150.43936988778742	1200	1150	0	2020-05-30 23:13:51.055795
A1N8BW04V76ZSY	162	131	1	922	102.78741912465681	8	90	18	10.974250951240778	100.90772862747103	19.567417651609684	1150	1100	0	2020-05-30 23:13:56.234245
A1N8BW04V76ZSY	163	132	1	993	243.75863837294466	13	181	141	37.2045263608888	194.14940492536522	147.39159524395745	1100	1050	0	2020-05-30 23:14:01.303970
A1N8BW04V76ZSY	164	133	1	1023	261.59393845530894	12	-62	265	98.65295018746808	-39.35655788363199	258.6164147692723	1050	1000	0	2020-05-30 23:14:06.311802
A1N8BW04V76ZSY	165	134	1	808	228.2594345434228	6	205	71	19.301255944026998	215.4298177399468	75.4477507061438	1000	950	0	2020-05-30 23:14:11.812328
A1N8BW04V76ZSY	166	135	1	938	196.14896178439895	10	52	187	70.06148755339453	66.88905281888124	184.39162080227646	950	900	0	2020-05-30 23:14:17.110456
A1N8BW04V76ZSY	167	136	1	839	122.29207032372953	1	114	-32	340.4801248701251	115.26341200803813	-40.86191767806866	900	850	0	2020-05-30 23:14:22.232355
A1N8BW04V76ZSY	168	137	0	0	229.98208114892847	14	0	0	277.32773437202405	29.333001584741094	-228.10377609242224	850	1050	0	2020-05-30 23:14:26.809839
A1N8BW04V76ZSY	169	137	1	871	148.85209109324302	12	-148	-22	189.8862133535622	-146.6417369177387	-25.55672155382669	1050	1000	0	2020-05-30 23:14:31.732855
A1N8BW04V76ZSY	170	138	0	0	178.69840581431777	7	0	0	82.51791888581126	23.269412671230977	177.17690220374257	1000	1200	0	2020-05-30 23:14:37.063035
A1N8BW04V76ZSY	171	138	1	878	189.79495475973968	3	-106	157	124.50095392323165	-107.50365026692667	156.41320286835747	1200	1150	0	2020-05-30 23:14:42.467432
A1N8BW04V76ZSY	172	139	1	1112	252.2489934991583	0	110	228	64.24997453030426	109.58847990806325	227.20017560023678	1150	1100	0	2020-05-30 23:14:47.895429
A1N8BW04V76ZSY	173	140	1	1093	225.30024980487548	13	-10	220	92.67551689043144	-10.516927775171364	225.05465290082566	1100	1050	0	2020-05-30 23:14:53.341892
A1N8BW04V76ZSY	174	141	0	0	151.65439137867165	3	0	0	276.22618791895	16.44748539058986	-150.75985755088007	1050	1250	0	2020-05-30 23:14:58.704213
A1N8BW04V76ZSY	175	141	1	769	169.22257401520162	10	23	-172	278.5045422705539	25.025957133700526	-167.3618266686659	1250	1200	0	2020-05-30 23:15:03.550265
A1N8BW04V76ZSY	176	142	1	993	244.75005816250982	0	128	213	57.44916537424832	131.6872010498939	206.30334958549938	1200	1150	0	2020-05-30 23:15:08.531795
A1N8BW04V76ZSY	177	143	1	1061	221.41895814755378	7	-123	173	125.85355029094812	-129.6885076030602	179.46377356680978	1150	1100	0	2020-05-30 23:15:13.888248
A1N8BW04V76ZSY	178	144	1	766	195.75859997221522	13	124	-138	312.1533094610547	131.3768620859413	-145.12597827933268	1100	1050	0	2020-05-30 23:15:19.104249
A1N8BW04V76ZSY	179	145	0	0	239.2516720366525	1	0	0	179.60748838761424	-239.2460578991895	1.6390094665952997	1050	1250	0	2020-05-30 23:15:24.502706
A1N8BW04V76ZSY	180	145	1	890	297.3300334385575	14	280	-59	346.7021209098983	289.3578385653132	-68.38998497867854	1250	1200	0	2020-05-30 23:15:29.852111
A1N8BW04V76ZSY	181	146	1	789	118.6290041222772	14	-16	-121	256.4850703400678	-27.723447371131705	-115.34405526468778	1200	1150	0	2020-05-30 23:15:34.695625
A1N8BW04V76ZSY	182	147	1	841	226.03132072997636	10	-194	145	145.66087625075016	-186.6370688279236	127.50200974987942	1150	1100	0	2020-05-30 23:15:39.741894
A1N8BW04V76ZSY	183	148	1	964	191.85138559853976	4	-81	-150	241.9135642220769	-90.32421422730789	-169.2586496469205	1100	1050	0	2020-05-30 23:15:44.460088
A1N8BW04V76ZSY	184	149	1	870	254.00056308732167	10	-254	58	165.98097811617774	-246.43524675645094	61.53011624207789	1050	1000	0	2020-05-30 23:15:49.749949
A1N8BW04V76ZSY	185	150	1	868	174.93794597893225	6	-63	182	112.82780386573333	-67.86943151577145	161.23593026696568	1000	950	0	2020-05-30 23:15:54.252364
