A1PHDT66U6IK4Q	1	1	1	1204	119.78270719769854	7	-59	113.5	118.37930722078735	-56.9334977262104	105.38725625173652	1500	1450	0	2020-05-30 21:17:22.229137
A1PHDT66U6IK4Q	2	2	0	0	285.4449811874462	14	0	0	91.83031108495467	-9.116976212695555	285.299348106228	1450	1650	0	2020-05-30 21:17:28.560710
A1PHDT66U6IK4Q	3	2	1	1280	236.06559901009715	3	40	228.5	80.01967812980966	40.912514098326774	232.49329716391867	1650	1600	0	2020-05-30 21:17:34.387781
A1PHDT66U6IK4Q	4	3	1	1418	172.8592983545404	1	-15	-173.5	265.19159105945994	-14.489773626110715	-172.25093174751794	1600	1550	0	2020-05-30 21:17:40.315133
A1PHDT66U6IK4Q	5	4	0	0	166.27650808327812	12	0	0	190.8196023293068	-163.3206247948344	-31.212988594387713	1550	1750	0	2020-05-30 21:17:46.297645
A1PHDT66U6IK4Q	6	4	1	1741	169.46615755751387	0	-10	163.5	93.79968539017665	-11.230254757958098	169.09364250432208	1750	1700	0	2020-05-30 21:17:55.125917
A1PHDT66U6IK4Q	7	5	1	1617	253.49232357563136	2	219	136.5	32.462325008404704	213.88277059980987	136.06071641852284	1700	1650	0	2020-05-30 21:18:01.423274
A1PHDT66U6IK4Q	8	6	1	1364	130.25337425083475	4	128	-23.5	348.8321647137224	127.7869015767404	-25.227946589932362	1650	1600	0	2020-05-30 21:18:07.224359
A1PHDT66U6IK4Q	9	7	0	0	277.87348571362656	9	0	0	152.28326132696617	-245.98966694917385	129.23914970656355	1600	1800	0	2020-05-30 21:18:13.273525
A1PHDT66U6IK4Q	10	7	1	1368	165.38483203683938	9	-154	-26.5	190.68224272795257	-162.51876113720806	-30.656075193682007	1800	1750	0	2020-05-30 21:18:19.248215
A1PHDT66U6IK4Q	11	8	1	1201	134.97157302881982	11	-134	-1.5	182.64543331413864	-134.82773175132596	-6.229628934898993	1750	1700	0	2020-05-30 21:18:26.579943
A1PHDT66U6IK4Q	12	9	1	1112	166.1991686799155	10	153	54.5	21.575429136276128	154.55430224046663	61.115720799623155	1700	1650	0	2020-05-30 21:18:32.510397
A1PHDT66U6IK4Q	13	10	1	1039	142.43352888871885	0	122	88.5	36.33878860951018	114.7340975527028	84.40021925599711	1650	1600	0	2020-05-30 21:18:37.627969
A1PHDT66U6IK4Q	14	11	1	1437	220.83040795852096	1	-128	-186.5	235.4409647761885	-125.26717116916497	-181.86314884110504	1600	1550	0	2020-05-30 21:18:43.058981
A1PHDT66U6IK4Q	15	12	1	1268	298.97413342852906	4	181	-238.5	306.23996825933216	176.74407248132144	-241.13702598741918	1550	1500	0	2020-05-30 21:18:48.897204
A1PHDT66U6IK4Q	16	13	1	1052	129.05853175934897	12	99	95.5	41.00187445152833	97.39894026689464	84.67320151479319	1500	1450	0	2020-05-30 21:18:53.866140
A1PHDT66U6IK4Q	17	14	0	0	278.8498500751348	8	0	0	233.480622086867	-165.94204664344952	-224.0992548910156	1450	1650	0	2020-05-30 21:19:00.146228
A1PHDT66U6IK4Q	18	14	1	1345	177.31399755907967	12	-58	-168.5	253.558789274207	-50.185425893366684	-170.06374322083678	1650	1600	0	2020-05-30 21:19:05.544882
A1PHDT66U6IK4Q	19	15	1	1467	294.3244922730978	11	289	84.5	17.008951462669046	281.45046417938164	86.09612630674746	1600	1550	0	2020-05-30 21:19:11.065802
A1PHDT66U6IK4Q	20	16	1	1185	107.05025243014666	0	9	-108.5	276.03985414191254	11.263850408265144	-106.4560107243285	1550	1500	0	2020-05-30 21:19:16.804957
A1PHDT66U6IK4Q	21	17	1	1446	286.4606878645709	3	-135	256.5	116.58148531800765	-128.18259995931268	256.18147231896756	1500	1450	0	2020-05-30 21:19:22.286102
A1PHDT66U6IK4Q	22	18	1	1382	241.7909118124496	7	155	183.5	50.74306432857236	153.00506277300565	187.22258357613907	1450	1400	0	2020-05-30 21:19:28.168243
A1PHDT66U6IK4Q	23	19	0	0	127.15457617211831	7	0	0	323.84046353716707	102.66170689265974	-75.0257301157187	1400	1600	0	2020-05-30 21:19:34.048106
A1PHDT66U6IK4Q	24	19	1	1041	251.059952581524	7	126	221.5	58.905276538089836	129.66103487515423	214.98631543738108	1600	1550	0	2020-05-30 21:19:40.009793
A1PHDT66U6IK4Q	25	20	1	1401	110.13460455822161	3	106	-8.5	356.52680950750994	109.93231533325574	-6.672118603972131	1550	1500	0	2020-05-30 21:19:45.486022
A1PHDT66U6IK4Q	26	21	1	1087	159.5886390996712	1	-134	92.5	145.82308727623473	-132.02879793638718	89.64892774126052	1500	1450	0	2020-05-30 21:19:50.928027
A1PHDT66U6IK4Q	27	22	1	966	117.10466799238905	10	26	-107.5	283.1500944659485	26.641637625537957	-114.03388272893802	1450	1400	0	2020-05-30 21:19:56.540164
A1PHDT66U6IK4Q	28	23	1	1114	292.1068653091596	12	-235	165.5	145.09803446709577	-239.56626007744387	167.13595601560436	1400	1350	0	2020-05-30 21:20:01.703991
A1PHDT66U6IK4Q	29	24	1	1202	249.17056374941552	3	-44	-239.5	260.16093619373896	-42.57859055611242	-245.50566890696533	1350	1300	0	2020-05-30 21:20:06.972795
A1PHDT66U6IK4Q	30	25	1	1151	151.21801386246614	11	-148	18.5	172.35857826513654	-149.87514755096018	20.10790548731807	1300	1250	0	2020-05-30 21:20:12.154871
A1PHDT66U6IK4Q	31	26	1	1095	222.68811026406254	10	17	-219.5	274.98045073667447	19.332854690303034	-221.84732403728225	1250	1200	0	2020-05-30 21:20:17.322586
A1PHDT66U6IK4Q	32	27	1	1170	189.71857687368555	6	-7	197.5	90.3952221620471	-1.308654706407527	189.7140633528151	1200	1150	0	2020-05-30 21:20:22.501295
A1PHDT66U6IK4Q	33	28	0	0	144.50708136197048	3	0	0	248.64771651356216	-52.61521113232347	-134.58802369176902	1150	1350	0	2020-05-30 21:20:27.705093
A1PHDT66U6IK4Q	34	28	1	1300	172.2585822282908	6	-171	10.5	176.62485160672955	-171.95979243240433	10.141446539091309	1350	1300	0	2020-05-30 21:20:33.712068
A1PHDT66U6IK4Q	35	29	1	1216	202.96186071017001	8	-194	72.5	161.84738869733187	-192.8604601224878	63.23258514624204	1300	1250	0	2020-05-30 21:20:38.968874
A1PHDT66U6IK4Q	36	30	0	0	257.7501667364945	3	0	0	195.6227928933571	-248.2277186182742	-69.41288181784148	1250	1450	0	2020-05-30 21:20:44.732188
A1PHDT66U6IK4Q	37	30	0	0	247.76055866335332	3	0	0	116.72921558364618	-111.43637582165223	221.28540072248876	1450	1650	0	2020-05-30 21:20:50.742458
A1PHDT66U6IK4Q	38	30	1	1240	293.4513085862453	5	-292	-13.5	182.62951626615242	-293.1423243771808	-13.462844042902072	1650	1600	0	2020-05-30 21:20:56.698145
A1PHDT66U6IK4Q	39	31	1	1000	124.67607960732035	4	-100	74.5	142.24463309383702	-98.57292607090595	76.33808402148033	1600	1550	0	2020-05-30 21:21:19.234594
A1PHDT66U6IK4Q	40	32	1	1363	160.14588265627512	0	-7	-158.5	268.85278491676877	-3.206335579946783	-160.11378186747763	1550	1500	0	2020-05-30 21:21:24.340740
A1PHDT66U6IK4Q	41	33	1	884	180.93961556598424	4	-159	-73.5	204.7533838400498	-164.31460260767273	-75.76183637590077	1500	1450	0	2020-05-30 21:21:29.916836
A1PHDT66U6IK4Q	42	34	1	1099	254.30298348207495	5	264	78.5	16.983432465526178	243.2126415797326	74.2806730158863	1450	1400	0	2020-05-30 21:21:34.995105
A1PHDT66U6IK4Q	43	35	1	1016	117.60539659857767	13	28	-112.5	288.25143704304355	36.83255495549639	-111.68881861922921	1400	1350	0	2020-05-30 21:21:40.424732
A1PHDT66U6IK4Q	44	36	1	1154	254.84758630738443	8	113	233.5	65.65860515838884	105.04122242516158	232.19309601736114	1350	1300	0	2020-05-30 21:21:45.632191
A1PHDT66U6IK4Q	45	37	1	1236	192.27239548051452	9	144	-144.5	314.20749165803915	134.06362664756944	-137.82459168782793	1300	1250	0	2020-05-30 21:21:50.870061
A1PHDT66U6IK4Q	46	38	1	970	173.28762029271965	1	-86	140.5	123.98869810008921	-96.87286755197815	143.68105956934855	1250	1200	0	2020-05-30 21:21:56.235400
A1PHDT66U6IK4Q	47	39	1	1131	283.01479359656844	7	-174	217.5	128.67843255983945	-176.86976702160615	220.9399441210914	1200	1150	0	2020-05-30 21:22:01.476347
A1PHDT66U6IK4Q	48	40	1	986	191.1453649101432	7	-57	186.5	105.66782339093736	-51.62067279139858	184.04308372551023	1150	1100	0	2020-05-30 21:22:06.399490
A1PHDT66U6IK4Q	49	41	1	984	214.04921902400537	2	31	228.5	81.13285404661296	32.994371471641735	211.49099180810973	1100	1050	0	2020-05-30 21:22:11.428284
A1PHDT66U6IK4Q	50	42	0	0	223.67509996507118	0	0	0	235.54439479286034	-126.54810321426187	-184.43461691682802	1050	1250	0	2020-05-30 21:22:16.512444
A1PHDT66U6IK4Q	51	42	1	1207	185.52775385743575	11	159	88.5	27.630688420430054	164.36929762343172	86.0423235981281	1250	1200	0	2020-05-30 21:22:21.772664
A1PHDT66U6IK4Q	52	43	0	0	215.50740144750893	0	0	0	341.2621492003783	204.08513577645107	-69.22931051054395	1200	1400	0	2020-05-30 21:22:27.019359
A1PHDT66U6IK4Q	53	43	1	1116	218.72012471219375	8	179	-111.5	328.7656512000331	187.0174189729675	-113.4150693462166	1400	1350	0	2020-05-30 21:22:32.628214
A1PHDT66U6IK4Q	54	44	0	0	237.6897402870894	1	0	0	357.8918855702269	237.52887047940726	-8.743473367088178	1350	1550	0	2020-05-30 21:22:38.012858
A1PHDT66U6IK4Q	55	44	1	1173	280.0830664687738	5	236	-156.5	327.11149678635695	235.1938283034322	-152.0867753965715	1550	1500	0	2020-05-30 21:22:43.935613
A1PHDT66U6IK4Q	56	45	1	1148	194.7598296189717	11	90	-178.5	296.78181031582676	87.75763965953895	-173.8677310906121	1500	1450	0	2020-05-30 21:22:49.133454
A1PHDT66U6IK4Q	57	46	1	1148	209.59624868235227	8	-192	79.5	158.79323047318988	-195.40261469047422	75.81824077252466	1450	1400	0	2020-05-30 21:22:54.314077
A1PHDT66U6IK4Q	58	47	1	1037	129.12791728461488	3	37	121.5	74.78952051116956	33.87873347669267	124.60437568672123	1400	1350	0	2020-05-30 21:22:59.385800
A1PHDT66U6IK4Q	59	48	1	985	281.29761934303247	8	-195	210.5	132.48692703380067	-189.99459170304328	207.43771540308543	1350	1300	0	2020-05-30 21:23:04.389741
A1PHDT66U6IK4Q	60	49	1	1116	173.2744603459599	9	-41	-175.5	256.70875171653313	-39.835986447309494	-168.6331307660313	1300	1250	0	2020-05-30 21:23:09.531950
A1PHDT66U6IK4Q	61	50	1	1016	187.72914792848812	14	-187	21.5	174.66609002150471	-186.9162535195379	17.45127938507702	1250	1200	0	2020-05-30 21:23:14.601153
A1PHDT66U6IK4Q	62	51	1	1007	146.92730435172288	8	-113	-97.5	225.09557542033176	-103.7198437816282	-104.06645362449154	1200	1150	0	2020-05-30 21:23:19.636692
A1PHDT66U6IK4Q	63	52	1	1034	122.20145300529927	12	-107	13.5	175.60841692052196	-121.8426709717194	9.357277760315375	1150	1100	0	2020-05-30 21:23:24.691284
A1PHDT66U6IK4Q	64	53	1	1037	274.953329510283	12	-233	119.5	151.9155149086084	-242.5787784890729	129.440602731676	1100	1050	0	2020-05-30 21:23:29.770799
A1PHDT66U6IK4Q	65	54	0	0	243.22462831914652	8	0	0	178.513294868095	-243.14275213358633	6.310460038092973	1050	1250	0	2020-05-30 21:23:34.886818
A1PHDT66U6IK4Q	66	54	1	976	131.97340127797895	14	-131	17.5	172.70111418514716	-130.90400936878558	16.766602996891052	1250	1200	0	2020-05-30 21:23:39.904213
A1PHDT66U6IK4Q	67	55	1	1000	228.981780420753	2	206	91.5	24.896460346864416	207.70250896204993	96.3966987791984	1200	1150	0	2020-05-30 21:23:44.938145
A1PHDT66U6IK4Q	68	56	0	0	223.57661793502905	8	0	0	86.90169102367133	12.084169134946626	223.24980838420436	1150	1350	0	2020-05-30 21:23:50.143088
A1PHDT66U6IK4Q	69	56	1	1217	247.48536897065924	3	238	-58.5	347.97505354321964	242.0547934922528	-51.560496525597976	1350	1300	0	2020-05-30 21:23:55.414384
A1PHDT66U6IK4Q	70	57	1	1024	269.16022623786546	0	264	41.5	6.151778074671901	267.6102690956717	28.843912060625534	1300	1250	0	2020-05-30 21:24:00.454809
A1PHDT66U6IK4Q	71	58	0	0	218.12474446310878	6	0	0	124.24205623959645	-122.73668224817276	180.31669633677183	1250	1450	0	2020-05-30 21:24:05.744082
A1PHDT66U6IK4Q	72	58	1	877	171.1398050358459	10	-5	-168.5	266.92568784361805	-9.178420478520177	-170.89350328560425	1450	1400	0	2020-05-30 21:24:10.678438
A1PHDT66U6IK4Q	73	59	1	1045	293.2750430184576	8	62	305.5	80.8714061192666	46.52832713703469	289.5606424072637	1400	1350	0	2020-05-30 21:24:15.808065
A1PHDT66U6IK4Q	74	60	1	1030	225.2423392714761	13	21	-215.5	277.12796216866275	27.94936497236466	-223.50155345797555	1350	1300	0	2020-05-30 21:24:21.197836
A1PHDT66U6IK4Q	75	61	1	954	170.94315778468808	2	-160	-61.5	200.76338763063563	-159.84081014523747	-60.60097858545622	1300	1250	0	2020-05-30 21:24:44.872569
A1PHDT66U6IK4Q	76	62	1	1134	278.2453659392887	13	-275	98.5	161.63079487790603	-264.0675199825263	87.68596556443207	1250	1200	0	2020-05-30 21:24:50.007004
A1PHDT66U6IK4Q	77	63	1	1186	231.98156162093477	2	195	146.5	35.35385384646916	189.20278964958607	134.23021016485833	1200	1150	0	2020-05-30 21:24:58.857428
A1PHDT66U6IK4Q	78	64	1	1069	148.95500042247875	10	125	74.5	28.500617743699053	130.90343707166969	71.07659469673582	1150	1100	0	2020-05-30 21:25:04.579693
A1PHDT66U6IK4Q	79	65	1	846	125.35949723640418	5	123	-62.5	331.5254799463993	110.19466139245581	-59.7673836466516	1100	1050	0	2020-05-30 21:25:09.463241
A1PHDT66U6IK4Q	80	66	0	0	289.0427320986697	11	0	0	339.88363719432886	271.40998944595174	-99.40985166477073	1050	1250	0	2020-05-30 21:25:14.597597
A1PHDT66U6IK4Q	81	66	1	1103	130.8368286004811	7	111	59.5	30.75483914569081	112.4363589906611	66.9054623715796	1250	1200	0	2020-05-30 21:25:19.742708
A1PHDT66U6IK4Q	82	67	1	986	226.38452608987257	8	45	-221.5	281.30969095128154	44.39672254932035	-221.98847870962777	1200	1150	0	2020-05-30 21:25:24.744581
A1PHDT66U6IK4Q	83	68	1	1127	126.95678447735048	8	-155	-15.5	187.88746221035348	-125.7557118393806	-17.421999443206644	1150	1100	0	2020-05-30 21:25:29.943556
A1PHDT66U6IK4Q	84	69	1	985	206.36370989352085	5	-204	40.5	171.69183228602307	-204.19796414088785	29.81899062231848	1100	1050	0	2020-05-30 21:25:34.953006
A1PHDT66U6IK4Q	85	70	0	0	169.32737653743885	12	0	0	209.1516215250711	-147.87930375821648	-82.4831617061127	1050	1250	0	2020-05-30 21:25:40.029750
A1PHDT66U6IK4Q	86	70	1	977	221.59235443423995	13	-188	103.5	151.22161768360263	-194.2231244696859	106.67965815910135	1250	1200	0	2020-05-30 21:25:45.045974
A1PHDT66U6IK4Q	87	71	1	1085	254.71485967061867	1	-232	-98.5	203.48964779001548	-233.60717554092327	-101.52510661316845	1200	1150	0	2020-05-30 21:25:50.371980
A1PHDT66U6IK4Q	88	72	1	1030	226.98381440215923	0	204	-101.5	331.3893404405948	199.26770658226238	-108.69237836205097	1150	1100	0	2020-05-30 21:25:55.252830
A1PHDT66U6IK4Q	89	73	1	922	168.66575036276362	13	99	113.5	47.01052396874741	115.00710574259901	123.37544720950251	1100	1050	0	2020-05-30 21:26:00.180825
A1PHDT66U6IK4Q	90	74	1	800	103.8814755192829	11	-97	9.5	173.86596916085847	-103.28671804395302	11.100217645268081	1050	1000	0	2020-05-30 21:26:05.008629
A1PHDT66U6IK4Q	91	75	0	0	291.0794583551426	12	0	0	253.8366467631341	-81.02977944511241	-279.5736502594614	1000	1200	0	2020-05-30 21:26:10.050627
A1PHDT66U6IK4Q	92	75	0	0	251.27062507717963	8	0	0	178.18395855851634	-251.14441860996462	7.962915781259296	1200	1400	0	2020-05-30 21:26:15.293317
A1PHDT66U6IK4Q	93	75	1	833	105.22128252756823	0	-33	98.5	111.18182428967579	-38.019479176853224	98.11237179819454	1400	1350	0	2020-05-30 21:26:20.174572
A1PHDT66U6IK4Q	94	76	1	932	110.68707137979436	0	104	-15.5	354.2153106372208	110.12341713517725	-11.156198685369567	1350	1300	0	2020-05-30 21:26:25.219517
A1PHDT66U6IK4Q	95	77	1	1001	213.24285124440638	1	111	184.5	60.24274198972056	105.83807370061626	185.12378497153452	1300	1250	0	2020-05-30 21:26:30.190021
A1PHDT66U6IK4Q	96	78	1	1055	277.2755948041612	8	-269	59.5	168.38582043282943	-271.59850366317625	55.82121713045157	1250	1200	0	2020-05-30 21:26:35.295710
A1PHDT66U6IK4Q	97	79	1	827	102.19048597202027	12	94	71.5	34.47680542583151	84.2412804332182	57.84723065255209	1200	1150	0	2020-05-30 21:26:40.188920
A1PHDT66U6IK4Q	98	80	1	1045	269.9014368986317	0	31	-259.5	278.11993161578016	38.122397205845985	-267.19556222217795	1150	1100	0	2020-05-30 21:26:45.246345
A1PHDT66U6IK4Q	99	81	1	999	284.7931597671703	12	-254	-101.5	201.60764763977738	-264.77998734510015	-104.87469738548758	1100	1050	0	2020-05-30 21:26:50.274865
A1PHDT66U6IK4Q	100	82	1	971	151.2388861659895	6	149	-42.5	342.93547953960376	144.58058082295747	-44.38081046607186	1050	1000	0	2020-05-30 21:26:55.260972
A1PHDT66U6IK4Q	101	83	0	0	229.2896538119995	4	0	0	76.59401269116407	53.16070434182641	223.04189036839583	1000	1200	0	2020-05-30 21:27:00.287917
A1PHDT66U6IK4Q	102	83	1	918	150.64420904964058	5	51	-151.5	289.9606960180915	51.42623448861202	-141.5945624892217	1200	1150	0	2020-05-30 21:27:05.253074
A1PHDT66U6IK4Q	103	84	1	1092	114.02159647201336	11	107	-2.5	357.6737874904131	113.92763474865244	-4.628012813756253	1150	1100	0	2020-05-30 21:27:10.412187
A1PHDT66U6IK4Q	104	85	1	902	139.41680451689842	5	-97	-117.5	233.32977183881923	-83.26089378118432	-111.82427709787088	1100	1050	0	2020-05-30 21:27:15.349513
A1PHDT66U6IK4Q	105	86	1	969	172.13614362495008	12	-161	50.5	165.02537608408514	-166.2904624189835	44.47846726844433	1050	1000	0	2020-05-30 21:27:20.366686
A1PHDT66U6IK4Q	106	87	1	939	203.761493898842	8	176	98.5	29.27539353336168	177.7369463221913	99.64097705236694	1000	950	0	2020-05-30 21:27:25.335218
A1PHDT66U6IK4Q	107	88	1	831	112.27804443223678	6	39	-106.5	282.5298217741118	24.358467440723672	-109.60394301970409	950	900	0	2020-05-30 21:27:30.208218
A1PHDT66U6IK4Q	108	89	1	854	149.17845434815325	1	128	111.5	41.69758747594511	111.38650845709013	99.23334608609463	900	850	0	2020-05-30 21:27:35.114884
A1PHDT66U6IK4Q	109	90	0	0	139.5315232700776	6	0	0	73.32371589806884	40.04052863038132	133.6630167737801	850	1050	0	2020-05-30 21:27:39.979137
A1PHDT66U6IK4Q	110	90	1	969	196.61778277580333	11	-137	-135.5	223.14928342741595	-143.44727791848865	-134.46721147346244	1050	1000	0	2020-05-30 21:27:45.307211
A1PHDT66U6IK4Q	111	91	0	0	182.51729383897197	12	0	0	101.1312959472544	-35.236412184457905	179.08366147325842	1000	1200	0	2020-05-30 21:28:00.768901
A1PHDT66U6IK4Q	112	91	1	1002	247.37848220442459	6	-18	251.5	96.02379362584637	-25.9602582102649	246.01255750758168	1200	1150	0	2020-05-30 21:28:05.796819
A1PHDT66U6IK4Q	113	92	1	1069	214.43724938321517	14	168	-119.5	327.03232729665626	179.90807659837282	-116.68940782141811	1150	1100	0	2020-05-30 21:28:10.985108
A1PHDT66U6IK4Q	114	93	1	915	141.54135537842424	6	93	105.5	45.238971801084446	99.66654450241707	100.50141884226862	1100	1050	0	2020-05-30 21:28:15.869082
A1PHDT66U6IK4Q	115	94	1	970	293.41772887796117	5	-211	206.5	134.42973928019413	-205.40241344650232	209.53236544804443	1050	1000	0	2020-05-30 21:28:20.810194
A1PHDT66U6IK4Q	116	95	0	0	162.83726606366398	14	0	0	307.12277913241894	98.27636689485198	-129.83732486860987	1000	1200	0	2020-05-30 21:28:25.872434
A1PHDT66U6IK4Q	117	95	1	813	133.81588413549284	0	54	136.5	69.85742851265098	46.080484391858434	125.63152393080064	1200	1150	0	2020-05-30 21:28:30.694998
A1PHDT66U6IK4Q	118	96	0	0	220.79442538050537	11	0	0	77.57203496367976	47.517609364891456	215.62062767590936	1150	1350	0	2020-05-30 21:28:35.898166
A1PHDT66U6IK4Q	119	96	1	1038	172.06052899036638	12	-157	-93.5	211.55337928180995	-146.6218979613806	-90.03801794046336	1350	1300	0	2020-05-30 21:28:41.026586
A1PHDT66U6IK4Q	120	97	1	865	236.39179772672327	8	-167	180.5	132.44990200440276	-159.5515310830579	174.42588959648177	1300	1250	0	2020-05-30 21:28:45.892243
A1PHDT66U6IK4Q	121	98	0	0	251.19277982510536	4	0	0	177.4229737886401	-250.9387431921798	11.29423753040036	1250	1450	0	2020-05-30 21:28:51.174532
A1PHDT66U6IK4Q	122	98	1	837	153.323622610591	13	-72	144.5	114.5740116418036	-63.762439795320006	139.43630991166944	1450	1400	0	2020-05-30 21:28:56.830429
A1PHDT66U6IK4Q	123	99	1	899	235.17139426564557	12	241	2.5	359.80222948866805	235.1699932858403	-0.8117504453607022	1400	1350	0	2020-05-30 21:29:01.768667
A1PHDT66U6IK4Q	124	100	1	1016	252.8816529928613	6	-156	-176.5	227.90567267199842	-169.52001392956782	-187.64886170110663	1350	1300	0	2020-05-30 21:29:06.840408
A1PHDT66U6IK4Q	125	101	1	1001	228.12003615391015	12	41	-223.5	280.71852172174545	42.42673384129595	-224.13996330512126	1300	1250	0	2020-05-30 21:29:11.879604
A1PHDT66U6IK4Q	126	102	1	883	103.71360102434406	6	-85	79.5	136.58379377628629	-75.33551640392803	71.28163161425468	1250	1200	0	2020-05-30 21:29:16.802784
A1PHDT66U6IK4Q	127	103	1	969	108.91728872278863	5	-123	-46.5	204.364790210413	-99.21682663705701	-44.933251549331196	1200	1150	0	2020-05-30 21:29:21.816818
A1PHDT66U6IK4Q	128	104	1	930	201.1586950048586	1	188	100.5	30.37194332065983	173.55194950457445	101.70811864949306	1150	1100	0	2020-05-30 21:29:26.788477
A1PHDT66U6IK4Q	129	105	1	1005	211.21473447130236	8	126	175.5	55.46616139007736	119.73612554292394	173.9969088741289	1100	1050	0	2020-05-30 21:29:31.829823
A1PHDT66U6IK4Q	130	106	0	0	255.45870545960878	4	0	0	40.017766007417706	195.64179622411766	164.2663622452874	1050	1250	0	2020-05-30 21:29:36.919139
A1PHDT66U6IK4Q	131	106	0	0	159.5067109761373	0	0	0	338.1134198271529	148.01003983171967	-59.45938912768743	1250	1450	0	2020-05-30 21:29:42.201176
A1PHDT66U6IK4Q	132	106	1	1001	298.57912212033125	0	-271	-108.5	202.81450235963362	-275.2197953898751	-115.77372928131385	1450	1400	0	2020-05-30 21:29:47.269959
A1PHDT66U6IK4Q	133	107	1	899	283.82724201345854	2	295	126.5	23.366497976349194	260.54963024094496	112.56906098157361	1400	1350	0	2020-05-30 21:29:52.162255
A1PHDT66U6IK4Q	134	108	1	857	129.38670337174565	9	-55	110.5	118.36759649990474	-61.475070895066224	113.84961426309128	1350	1300	0	2020-05-30 21:29:57.055975
A1PHDT66U6IK4Q	135	109	1	933	204.7824356730069	3	-147	134.5	137.78996170231758	-151.67966715950814	137.58315496655115	1300	1250	0	2020-05-30 21:30:02.035955
A1PHDT66U6IK4Q	136	110	0	585	255.00915749833214	13	-31	186.5	93.82913907924306	-17.029854924801565	254.43988376284364	1250	1450	0	2020-05-30 21:30:06.624504
A1PHDT66U6IK4Q	137	110	1	1047	295.1405662879348	2	26	-276.5	275.3231795079931	27.381196468519583	-293.86769803555336	1450	1400	0	2020-05-30 21:30:11.724148
A1PHDT66U6IK4Q	138	111	1	851	249.56745289930677	12	-89	-205.5	246.290807237816	-100.34974611550734	-228.5034835646952	1400	1350	0	2020-05-30 21:30:16.584007
A1PHDT66U6IK4Q	139	112	1	984	189.30454170973218	2	-129	-109.5	216.43816383013723	-152.2951917776514	-112.4383567708996	1350	1300	0	2020-05-30 21:30:21.607249
A1PHDT66U6IK4Q	140	113	1	986	182.92360923993516	10	109	160.5	55.66334659282363	103.17886800400169	151.04690667066734	1300	1250	0	2020-05-30 21:30:26.635455
A1PHDT66U6IK4Q	141	114	1	920	154.08355368953846	11	-76	127.5	124.87201505864465	-88.09653514126055	126.41495961199185	1250	1200	0	2020-05-30 21:30:31.619862
A1PHDT66U6IK4Q	142	115	1	985	262.8272635463792	13	88	-252.5	290.9592096794177	94.0141582557555	-245.43738205648222	1200	1150	0	2020-05-30 21:30:36.705245
A1PHDT66U6IK4Q	143	116	1	884	135.77537431206497	1	-35	121.5	103.58452832187132	-31.890871613346565	131.97698502891478	1150	1100	0	2020-05-30 21:30:41.563201
A1PHDT66U6IK4Q	144	117	1	939	104.85440573611946	11	118	44.5	15.263520065079073	101.15569064678698	27.603852123323225	1100	1050	0	2020-05-30 21:30:46.543211
A1PHDT66U6IK4Q	145	118	1	984	205.8392716132118	3	-164	139.5	140.7814537977822	-159.4718895210415	130.14807793757967	1050	1000	0	2020-05-30 21:30:51.584714
A1PHDT66U6IK4Q	146	119	0	0	235.020064855736	3	0	0	218.35464552959797	-184.29918673995795	-145.83634887017868	1000	1200	0	2020-05-30 21:30:56.616536
A1PHDT66U6IK4Q	147	119	1	1037	256.7105701498855	13	29	-246.5	278.7230552021443	38.93235726486727	-253.7411838556761	1200	1150	0	2020-05-30 21:31:01.734298
A1PHDT66U6IK4Q	148	120	1	963	158.3542094504706	7	-158	57.5	155.64212374362484	-144.25864650849792	65.31078439446088	1150	1100	0	2020-05-30 21:31:06.722570
A1PHDT66U6IK4Q	149	121	0	0	156.70690920233935	0	0	0	277.19756884067056	19.633986720563186	-155.47206166127395	1100	1300	0	2020-05-30 21:31:48.589086
A1PHDT66U6IK4Q	150	121	1	878	114.38271315018542	4	102	-6.5	353.5443598589832	113.65743555231553	-12.860498095674265	1300	1250	0	2020-05-30 21:31:54.190392
A1PHDT66U6IK4Q	151	122	1	1016	135.39917700502122	12	-76	-85.5	222.6334544455528	-99.6134101716519	-91.70662815528276	1250	1200	0	2020-05-30 21:31:59.241439
A1PHDT66U6IK4Q	152	123	1	821	116.62345995034272	14	-86	-35.5	203.57071579871044	-106.89324170362408	-46.63546170973107	1200	1150	0	2020-05-30 21:32:04.112733
A1PHDT66U6IK4Q	153	124	1	783	103.38767475311185	14	61	122.5	64.20971773412671	44.981743412057945	93.08949484483747	1150	1100	0	2020-05-30 21:32:08.917698
A1PHDT66U6IK4Q	154	125	0	816	256.52284746289894	13	255	-175.5	323.5860204309549	206.43650123211015	-152.2758754022406	1100	1300	0	2020-05-30 21:32:13.772397
A1PHDT66U6IK4Q	155	125	1	971	271.56711415176466	6	-182	211.5	130.35458267846542	-175.84406233621792	206.94821388408718	1300	1250	0	2020-05-30 21:32:18.820143
A1PHDT66U6IK4Q	156	126	1	907	134.91888496995767	3	-120	100.5	143.43329583172655	-108.36196689980216	80.37903738626665	1250	1200	0	2020-05-30 21:32:23.806884
A1PHDT66U6IK4Q	157	127	1	848	167.5294064982857	9	52	-161.5	289.0627037825511	54.715560337896704	-158.3423806142179	1200	1150	0	2020-05-30 21:32:28.706828
A1PHDT66U6IK4Q	158	128	1	1023	153.95253145145955	9	144	3.5	358.34789269731306	153.8885346918426	-4.438561783978272	1150	1100	0	2020-05-30 21:32:33.711838
A1PHDT66U6IK4Q	159	129	0	0	298.56699622430335	7	0	0	234.68947724672813	-172.57396419461998	-243.64005852190482	1100	1300	0	2020-05-30 21:32:41.515216
A1PHDT66U6IK4Q	160	129	0	0	222.51617949705573	3	0	0	43.39486895139703	161.6883109482331	152.87360871214304	1300	1500	0	2020-05-30 21:32:46.867160
A1PHDT66U6IK4Q	161	129	1	1018	216.702292600984	6	-194	-88.5	206.80403903759242	-193.41850497115945	-97.71983193417827	1500	1450	0	2020-05-30 21:32:51.923189
A1PHDT66U6IK4Q	162	130	1	1185	222.35673150736494	4	241	27.5	5.108507128494129	221.47349846982752	19.79912932867737	1450	1400	0	2020-05-30 21:32:57.161890
A1PHDT66U6IK4Q	163	131	1	1016	284.1618542274359	13	213	-194.5	319.29959783471446	215.4315580708538	-185.30300371321263	1400	1350	0	2020-05-30 21:33:02.201862
A1PHDT66U6IK4Q	164	132	1	906	126.32310757995384	13	-42	131.5	105.6118108792357	-33.995867543125385	121.66268326256358	1350	1300	0	2020-05-30 21:33:08.199150
A1PHDT66U6IK4Q	165	133	1	801	153.79981751045392	13	139	-93.5	328.92020464469243	131.72172765507776	-79.39628662481927	1300	1250	0	2020-05-30 21:33:13.054259
A1PHDT66U6IK4Q	166	134	1	1100	164.7329098106221	11	-168	12.5	177.89605678879067	-164.62185833473146	6.047754384410879	1250	1200	0	2020-05-30 21:33:18.173731
A1PHDT66U6IK4Q	167	135	1	1070	207.88140532013873	13	-145	126.5	141.09822815797273	-161.77824238075627	130.54684588326552	1200	1150	0	2020-05-30 21:33:23.287436
A1PHDT66U6IK4Q	168	136	1	937	202.42342494201466	2	-148	123.5	144.10808662001233	-163.98815403422103	118.6723569400391	1150	1100	0	2020-05-30 21:33:28.257690
A1PHDT66U6IK4Q	169	137	1	892	159.49676256743402	3	175	46.5	16.773611500779502	152.7105763379125	46.029307446832355	1100	1050	0	2020-05-30 21:33:33.186398
A1PHDT66U6IK4Q	170	138	1	900	162.89626636327114	11	141	43.5	14.391686922395959	157.78445666355177	40.48776149012855	1050	1000	0	2020-05-30 21:33:38.118070
A1PHDT66U6IK4Q	171	139	0	0	210.46679992632104	8	0	0	173.2868228300564	-209.02379550650605	24.603389670539045	1000	1200	0	2020-05-30 21:33:43.144240
A1PHDT66U6IK4Q	172	139	1	1022	247.22755524080875	14	199	125.5	30.409397806027336	213.21662279655993	125.14046441330088	1200	1150	0	2020-05-30 21:33:48.201694
A1PHDT66U6IK4Q	173	140	1	984	204.89928810688326	9	177	67.5	17.497618594372284	195.41848499720786	61.60628205064485	1150	1100	0	2020-05-30 21:33:53.268472
A1PHDT66U6IK4Q	174	141	1	1032	227.22625382977543	6	-211	97.5	156.71631107699983	-208.72070885954957	89.818907378573	1100	1050	0	2020-05-30 21:33:58.290560
A1PHDT66U6IK4Q	175	142	1	954	284.58474233101816	10	-5	302.5	89.04322033861692	4.752047030694354	284.5450642984869	1050	1000	0	2020-05-30 21:34:03.259477
A1PHDT66U6IK4Q	176	143	0	0	297.8102231092188	12	0	0	36.07533563431271	240.70316007705662	175.3650983442302	1000	1200	0	2020-05-30 21:34:08.299629
A1PHDT66U6IK4Q	177	143	1	961	168.60423684646656	0	-17	165.5	96.48803246823744	-19.051550584229147	167.52440748415125	1200	1150	0	2020-05-30 21:34:13.265178
A1PHDT66U6IK4Q	178	144	1	990	207.12772830399462	5	185	-68.5	337.2804981798069	191.05600119602408	-79.99687643501	1150	1100	0	2020-05-30 21:34:18.330445
A1PHDT66U6IK4Q	179	145	0	0	280.4105581416949	4	0	0	222.55464885274918	-206.559564672745	-189.63973043522	1100	1300	0	2020-05-30 21:34:23.438939
A1PHDT66U6IK4Q	180	145	1	987	156.47093374078332	7	156	-5.5	357.92606255418025	156.36843883025384	-5.6625474392509085	1300	1250	0	2020-05-30 21:34:28.588399
A1PHDT66U6IK4Q	181	146	1	923	229.87063669349777	1	-178	-139.5	219.2829107412374	-177.92655971668287	-145.5426018774562	1250	1200	0	2020-05-30 21:34:33.428383
A1PHDT66U6IK4Q	182	147	0	0	235.29497758288323	9	0	0	98.84667462182688	-36.18620796709046	232.4957737867336	1200	1400	0	2020-05-30 21:34:38.683082
A1PHDT66U6IK4Q	183	147	1	904	167.79129471364968	13	-151	37.5	164.7174944141423	-161.85784942032544	44.22618186900263	1400	1350	0	2020-05-30 21:34:44.270141
A1PHDT66U6IK4Q	184	148	1	900	141.70881227884595	1	-95	-121.5	237.72112686386313	-75.67826435746487	-119.80896369355202	1350	1300	0	2020-05-30 21:34:49.200829
A1PHDT66U6IK4Q	185	149	0	0	293.0139138325586	0	0	0	211.7487906825794	-249.168287906623	-154.1827422286824	1300	1500	0	2020-05-30 21:34:54.521933
A1PHDT66U6IK4Q	186	149	1	1017	250.09667018216626	14	7	-239.5	270.33194792626483	1.4489480256298557	-250.09247286918946	1500	1450	0	2020-05-30 21:34:59.659152
A1PHDT66U6IK4Q	187	150	1	1053	101.02517399761295	2	67	57.5	41.02948122152875	76.21055334970967	66.31770004590801	1450	1400	0	2020-05-30 21:35:04.730344
