ACZCCLKP1S5B4	1	1	0	0	201.53149333328247	0	0	0	149.58743545091448	-173.80129974004873	102.01985597819971	1500	1700	0	2020-05-31 01:07:58.427919
ACZCCLKP1S5B4	2	1	1	1215	193.98031762130228	2	-117	155.5	125.91679765134941	-113.79075822221162	157.09878092358161	1700	1650	0	2020-05-31 01:08:06.467031
ACZCCLKP1S5B4	3	2	1	1066	141.10312536577516	5	-135	-50.5	198.40818765502127	-133.8830047596184	-44.55819817413696	1650	1600	0	2020-05-31 01:08:12.706822
ACZCCLKP1S5B4	4	3	1	1216	263.4333268525278	12	-264	-58.5	192.1310341549031	-257.55074312468616	-55.36002540202333	1600	1550	0	2020-05-31 01:08:22.610158
ACZCCLKP1S5B4	5	4	1	1072	165.80545212593	6	142	76.5	23.611815466843254	151.92424464116607	66.41138339844451	1550	1500	0	2020-05-31 01:08:28.908672
ACZCCLKP1S5B4	6	5	1	1082	188.59887028689627	8	-28	191.5	95.94410260354503	-19.530952827991978	187.58484948183923	1500	1450	0	2020-05-31 01:08:34.899272
ACZCCLKP1S5B4	7	6	0	0	280.4696841264171	8	0	0	328.54358970247716	239.25113742478942	-146.36303138059398	1450	1650	0	2020-05-31 01:08:43.171164
ACZCCLKP1S5B4	8	6	0	230	237.826968107497	4	-1	-2.5	154.66031531456193	-214.94476330439633	101.78612620205872	1650	1850	0	2020-05-31 01:09:58.116492
ACZCCLKP1S5B4	9	6	1	1138	170.40948375078307	14	159	57.5	18.26196661407291	161.82658841485033	53.39988234274513	1850	1800	0	2020-05-31 01:10:07.742191
ACZCCLKP1S5B4	10	7	1	1215	137.35343638786173	8	-93	-104.5	229.74390549794236	-88.75849938690591	-104.8231619163389	1800	1750	0	2020-05-31 01:10:26.457447
ACZCCLKP1S5B4	11	8	1	1544	295.2755788047789	2	-292	45.5	170.29897367944267	-291.0532711486047	49.75601262354086	1750	1700	0	2020-05-31 01:10:36.403081
ACZCCLKP1S5B4	12	9	1	1223	123.29297681541398	2	39	111.5	73.22958722283056	35.574635455495816	118.04915689751786	1700	1650	0	2020-05-31 01:10:53.860630
ACZCCLKP1S5B4	13	10	0	0	281.29900089003604	13	0	0	308.8932673346346	176.61965493683647	-218.939775718633	1650	1850	0	2020-05-31 01:11:12.041855
ACZCCLKP1S5B4	14	10	1	1232	103.92487700164588	9	-94	-20.5	190.88990170381948	-102.05340043926392	-19.633734198834148	1850	1800	0	2020-05-31 01:11:36.323064
ACZCCLKP1S5B4	15	11	0	0	298.33576557897806	8	0	0	85.97862980454798	20.921851847248057	297.6012519108022	1800	2000	0	2020-05-31 01:12:00.333844
ACZCCLKP1S5B4	16	11	1	1049	172.42981354747715	14	113	-119.5	310.95241536099564	113.01601927579756	-130.22833788031807	2000	1950	0	2020-05-31 01:12:06.121916
ACZCCLKP1S5B4	17	12	0	0	129.72167446060826	9	0	0	162.91410590777213	-123.99645725719645	38.11287725334151	1950	2000	0	2020-05-31 01:13:00.904047
ACZCCLKP1S5B4	18	12	0	0	217.75655057932784	4	0	0	348.4181869478493	213.32281529517817	-43.71832332954526	2000	2000	0	2020-05-31 01:13:06.892295
ACZCCLKP1S5B4	19	12	1	1760	238.77048467959193	10	31	-231.5	276.4687502047179	26.900191086521307	-237.25034051321376	2000	1950	0	2020-05-31 01:13:31.383280
ACZCCLKP1S5B4	20	13	1	1525	116.35142118484016	7	-88	75.5	139.5404849469207	-88.52768601919338	75.50166898697793	1950	1900	0	2020-05-31 01:13:57.129073
ACZCCLKP1S5B4	21	14	0	0	105.04440958400406	10	0	0	83.16721324883795	12.49736033076027	104.29834116425411	1900	2000	0	2020-05-31 01:14:06.183004
ACZCCLKP1S5B4	22	14	1	1743	189.59991488177042	0	-47	-173.5	252.73416165077077	-56.274309118571125	-181.056151114515	2000	1950	0	2020-05-31 01:14:11.944270
ACZCCLKP1S5B4	23	15	1	1334	145.4761488017039	5	-96	-95.5	223.38285339651821	-105.72919317141726	-99.92320842275147	1950	1900	0	2020-05-31 01:14:17.328359
ACZCCLKP1S5B4	24	16	1	1585	197.3631850314748	1	162	-109.5	324.89196791275896	161.45672344552824	-113.50750310002583	1900	1850	0	2020-05-31 01:14:27.471024
ACZCCLKP1S5B4	25	17	1	1398	238.92488077594027	7	202	-123.5	328.2595476545672	203.1912518170563	-125.69174133098358	1850	1800	0	2020-05-31 01:14:58.059103
ACZCCLKP1S5B4	26	18	1	1205	272.96818919062275	8	222	-144.5	325.35296800972577	224.56273182069006	-155.1876663502498	1800	1750	0	2020-05-31 01:15:11.423926
