AXKVHJHF1EOVT	1	1	0	1396	283.1739841576438	3	-130.5	22.5	187.25305189213645	-280.908089994024	-35.75122766595324	1500	1700	0	2020-06-02 02:38:31.700502
AXKVHJHF1EOVT	2	1	0	0	154.25479052711052	1	0	0	319.87053738808373	117.94168244702908	-99.4198166470191	1700	1900	0	2020-06-02 02:38:42.155231
AXKVHJHF1EOVT	3	1	1	1655	143.93271881137895	1	49.5	-143.5	290.8954338156325	51.33555399278215	-134.46668152627856	1900	1850	0	2020-06-02 02:38:48.606557
AXKVHJHF1EOVT	4	2	0	0	296.75732909590613	10	0	0	89.52194305256906	2.4760158258356078	296.7469995092893	1850	2000	0	2020-06-02 02:38:55.206442
AXKVHJHF1EOVT	5	2	0	0	238.24599491488456	11	0	0	227.18034981523058	-161.93411229363426	-174.75267485408014	2000	2000	0	2020-06-02 02:39:01.818178
AXKVHJHF1EOVT	6	2	0	0	192.8110330463323	0	0	0	359.23024924600287	192.793633002801	-2.590277586503439	2000	2000	0	2020-06-02 02:39:08.346888
AXKVHJHF1EOVT	7	2	0	0	168.55253689004783	5	0	0	48.29954911993355	112.12725422880959	125.84687739939692	2000	2000	0	2020-06-02 02:39:15.755092
AXKVHJHF1EOVT	8	2	1	1866	126.12542997447972	14	69.5	99.5	53.7337848915638	74.60796620382665	101.69206195753947	2000	1950	0	2020-06-02 02:39:22.687574
AXKVHJHF1EOVT	9	3	1	1397	127.86849482800511	5	-33.5	-123.5	252.3783135773368	-38.70971271407646	-121.8684130986091	1950	1900	0	2020-06-02 02:39:28.600130
AXKVHJHF1EOVT	10	4	1	1486	147.9522745264444	9	8.5	-155.5	273.12056149521936	8.054100182923086	-147.73289074472146	1900	1850	0	2020-06-02 02:39:42.796930
AXKVHJHF1EOVT	11	5	1	1767	149.22714529700568	13	-124.5	-111.5	223.41699296487042	-108.39424992668431	-102.56426022901516	1850	1800	0	2020-06-02 02:39:48.602785
AXKVHJHF1EOVT	12	6	0	0	156.9356486758329	13	0	0	38.67336459443101	122.52295390299454	98.06591452787826	1800	2000	0	2020-06-02 02:39:54.846161
AXKVHJHF1EOVT	13	6	1	1659	233.7808609416628	10	-214.5	-93.5	204.32461203291695	-213.02729745498493	-96.2956981471678	2000	1950	0	2020-06-02 02:40:00.880326
AXKVHJHF1EOVT	14	7	0	0	155.68557436716293	8	0	0	315.6891863737313	111.40251075096745	-108.7542121686052	1950	2000	0	2020-06-02 02:40:06.861690
AXKVHJHF1EOVT	15	7	1	1345	121.13991551643757	9	-74.5	-101.5	230.6883896539779	-76.74669977752885	-93.72738769744672	2000	1950	0	2020-06-02 02:40:12.568836
AXKVHJHF1EOVT	16	8	1	1606	164.77775278708845	1	-119.5	106.5	134.70972523363267	-115.92367708861492	117.1042650966111	1950	1900	0	2020-06-02 02:40:19.207905
AXKVHJHF1EOVT	17	9	0	0	231.0895065078384	8	0	0	268.36765237546086	-6.582812603980466	-230.99572852383474	1900	2000	0	2020-06-02 02:40:25.902164
AXKVHJHF1EOVT	18	9	0	0	266.3034274458909	2	0	0	80.60882595827172	43.453791934735634	262.7342448861998	2000	2000	0	2020-06-02 02:40:32.761051
AXKVHJHF1EOVT	19	9	0	8	253.04293595863817	0	-1.5	-6.5	342.4764295880389	241.30001426004046	-76.19075112290024	2000	2000	0	2020-06-02 02:40:39.459464
AXKVHJHF1EOVT	20	9	1	1811	276.6199268198234	10	156.5	226.5	52.33476633547141	169.02772759012876	218.97079992437725	2000	1950	0	2020-06-02 02:40:47.908211
AXKVHJHF1EOVT	21	10	0	357	288.1799926336072	1	-0.5	2.5	200.20374445768746	-270.44840864806235	-99.52570730236764	1950	2000	0	2020-06-02 02:40:52.672064
AXKVHJHF1EOVT	22	10	1	1644	140.07033621924842	13	105.5	71.5	36.27711127625358	112.91976302620405	82.87838202257096	2000	1950	0	2020-06-02 02:41:01.324076
AXKVHJHF1EOVT	23	11	1	1776	186.55788068256726	12	-172.5	61.5	161.99769104501974	-177.42476473354506	57.65670562924306	1950	1900	0	2020-06-02 02:41:07.090207
AXKVHJHF1EOVT	24	12	1	1500	179.29928842550243	2	119.5	142.5	54.11824141874126	105.08990055465507	145.27335485664332	1900	1850	0	2020-06-02 02:41:12.645565
AXKVHJHF1EOVT	25	13	1	1704	254.0154239925163	14	-143.5	215.5	122.38303492012311	-136.04476004507123	214.51260776555026	1850	1800	0	2020-06-02 02:41:18.338361
AXKVHJHF1EOVT	26	14	1	1800	187.67779746630885	7	42.5	196.5	81.02070238850784	29.29229616716813	185.377768481174	1800	1750	0	2020-06-02 02:41:24.165973
AXKVHJHF1EOVT	27	15	0	0	197.822413594666	2	0	0	99.52240381818964	-32.726405004831214	195.09661641319883	1750	1950	0	2020-06-02 02:41:29.934648
AXKVHJHF1EOVT	28	15	0	0	137.8487138800522	6	0	0	203.83414299229827	-126.09284180413891	-55.70334966715103	1950	2000	0	2020-06-02 02:41:35.912758
AXKVHJHF1EOVT	29	15	1	1761	234.1517442284043	11	-229.5	45.5	171.68541281698407	-231.69057635079082	33.860244468143485	2000	1950	0	2020-06-02 02:41:41.681116
AXKVHJHF1EOVT	30	16	0	0	148.75417883738567	3	0	0	88.18027100797269	4.723677520077933	148.6791599124478	1950	2000	0	2020-06-02 02:41:47.783599
AXKVHJHF1EOVT	31	16	1	1852	102.59178186572248	0	-62.5	77.5	127.32975424836268	-62.21180174721025	81.5767456432885	2000	1950	0	2020-06-02 02:41:54.568467
AXKVHJHF1EOVT	32	17	1	1689	152.82089567194177	13	-34.5	145.5	102.5256966243257	-33.143406440689304	149.18358074359853	1950	1900	0	2020-06-02 02:42:00.271227
AXKVHJHF1EOVT	33	18	1	1501	131.96703001921003	0	97.5	86.5	38.99267665310312	102.56825869032751	83.03643369825764	1900	1850	0	2020-06-02 02:42:05.898263
AXKVHJHF1EOVT	34	19	1	1381	117.31019041778863	0	-81.5	82.5	132.22128643027816	-78.83195120128782	86.87464673686796	1850	1800	0	2020-06-02 02:42:11.278887
AXKVHJHF1EOVT	35	20	0	0	284.1008831675748	0	0	0	219.52582445907328	-219.13775323325413	-180.8091726779297	1800	2000	0	2020-06-02 02:42:18.659344
AXKVHJHF1EOVT	36	20	1	1944	186.0285282415318	14	173.5	-4.5	356.67115899880224	185.71464492983776	-10.802035840279263	2000	1950	0	2020-06-02 02:42:27.167998
AXKVHJHF1EOVT	37	21	0	0	299.2619741241354	14	0	0	292.38527675945403	113.9687707747559	-276.7107667669725	1950	2000	0	2020-06-02 02:42:33.189662
AXKVHJHF1EOVT	38	21	1	1863	181.8023898334199	4	-136.5	-117.5	222.2437501645541	-134.58675750900554	-122.22321241218843	2000	1950	0	2020-06-02 02:42:39.079048
AXKVHJHF1EOVT	39	22	1	1782	109.61271611181358	1	-78.5	-70.5	222.9198734623412	-80.27013098343414	-74.64351013525129	1950	1900	0	2020-06-02 02:42:45.275270
AXKVHJHF1EOVT	40	23	1	1885	130.49810534188947	14	96.5	-84.5	317.74633524945796	96.59145079056061	-87.7487728233141	1900	1850	0	2020-06-02 02:42:51.277475
AXKVHJHF1EOVT	41	24	1	1380	210.46894902597404	13	-136.5	-160.5	233.51448137133957	-125.1489611991918	-169.2185451268898	1850	1800	0	2020-06-02 02:42:56.680609
AXKVHJHF1EOVT	42	25	0	0	291.27577208466425	0	0	0	49.65261764318718	188.57783851324248	221.99093275444991	1800	2000	0	2020-06-02 02:43:02.499598
AXKVHJHF1EOVT	43	25	0	496	137.30022338672345	3	18.5	1.5	57.80282297115244	73.1583073244738	116.18611539879456	2000	2000	0	2020-06-02 02:43:07.956258
AXKVHJHF1EOVT	44	25	1	1583	151.33906475582518	1	145.5	-34.5	347.4078944027933	147.69887735204185	-32.99324400713493	2000	1950	0	2020-06-02 02:43:13.556292
AXKVHJHF1EOVT	45	26	1	1761	225.62111293450232	0	169.5	146.5	39.23740028307538	174.7507180100948	142.71325501424099	1950	1900	0	2020-06-02 02:43:19.370005
AXKVHJHF1EOVT	46	27	1	1321	162.96790064390993	6	158.5	-41.5	348.2506693530972	159.5533729799719	-33.18520470024659	1900	1850	0	2020-06-02 02:43:24.673066
AXKVHJHF1EOVT	47	28	1	1840	185.22232439456366	11	49.5	187.5	78.58218426963516	36.667007607203864	181.5567129225968	1850	1800	0	2020-06-02 02:43:30.531286
AXKVHJHF1EOVT	48	29	0	0	140.34397778824138	1	0	0	263.5398510542913	-15.790399216081164	-139.45284290405547	1800	2000	0	2020-06-02 02:43:39.337079
AXKVHJHF1EOVT	49	29	1	1816	295.7997733091495	14	-306.5	15.5	176.79136983216225	-295.3360612416644	16.556473658484293	2000	1950	0	2020-06-02 02:43:45.168168
AXKVHJHF1EOVT	50	30	0	0	110.61800989951882	13	0	0	152.67741167049408	-98.27706043627373	50.77364972242046	1950	2000	0	2020-06-02 02:43:51.133244
AXKVHJHF1EOVT	51	30	1	1614	236.577757050112	8	-196.5	134.5	143.21950529604592	-189.48346525459115	141.6511614000181	2000	1950	0	2020-06-02 02:43:57.152930
AXKVHJHF1EOVT	52	31	1	1667	123.37610403060907	9	59.5	96.5	60.328698950397815	61.07407286143743	107.19897700019112	1950	1900	0	2020-06-02 02:44:11.599279
AXKVHJHF1EOVT	53	32	1	1333	102.46403454344235	2	91.5	27.5	22.171707728428423	94.88754127042088	38.6682413173126	1900	1850	0	2020-06-02 02:44:16.937688
AXKVHJHF1EOVT	54	33	1	1510	111.50856141409466	0	36.5	-115.5	286.7219117669425	32.08400168846345	-106.79314633578127	1850	1800	0	2020-06-02 02:44:22.464163
AXKVHJHF1EOVT	55	34	1	1565	215.57169008987927	5	106.5	184.5	58.914824143447355	111.30220076479102	184.61574600537492	1800	1750	0	2020-06-02 02:44:28.139236
AXKVHJHF1EOVT	56	35	1	1422	232.55502636121088	4	-153.5	-177.5	228.11171886228226	-155.27241103004246	-173.12515316608685	1750	1700	0	2020-06-02 02:44:34.532897
AXKVHJHF1EOVT	57	36	0	0	109.30168152286845	5	0	0	341.4648890164759	103.63209751415248	-34.74544500425566	1700	1900	0	2020-06-02 02:44:40.393727
AXKVHJHF1EOVT	58	36	1	1874	148.5997860620172	0	152.5	31.5	11.328245326142392	145.70475656746163	29.189387305903242	1900	1850	0	2020-06-02 02:44:46.290800
AXKVHJHF1EOVT	59	37	1	1567	115.46612721088239	7	26.5	119.5	74.30454310516313	31.236371441276027	111.16076480603357	1850	1800	0	2020-06-02 02:44:51.870270
AXKVHJHF1EOVT	60	38	1	1627	172.23200271490313	10	-82.5	144.5	116.80336308057942	-77.66456525005691	153.72728470803762	1800	1750	0	2020-06-02 02:44:57.778041
AXKVHJHF1EOVT	61	39	0	0	205.90806062812982	12	0	0	352.2317507990906	204.0184209290374	-27.8318765673408	1750	1950	0	2020-06-02 02:45:03.548902
AXKVHJHF1EOVT	62	39	1	1568	256.8054937167797	2	141.5	-220.5	303.5983461842018	142.1078158758376	-213.9028524122996	1950	1900	0	2020-06-02 02:45:09.516017
AXKVHJHF1EOVT	63	40	0	134	287.86400164427846	6	0.5	4.5	4.428026869616284	287.00475781743023	22.225040670724876	1900	2000	0	2020-06-02 02:45:16.431445
AXKVHJHF1EOVT	64	40	1	1590	171.28708959918106	1	166.5	-11.5	356.96330421758523	171.04657010742645	-9.07402434662403	2000	1950	0	2020-06-02 02:45:22.036714
AXKVHJHF1EOVT	65	41	0	0	115.21624115336904	7	0	0	129.79375868184354	-73.74139057926536	88.5267730178138	1950	2000	0	2020-06-02 02:45:28.027396
AXKVHJHF1EOVT	66	41	1	1733	206.62717941173145	12	86.5	187.5	65.4639887557213	85.80505318424485	187.96883816126748	2000	1950	0	2020-06-02 02:45:34.172996
AXKVHJHF1EOVT	67	42	0	0	206.6937797016587	13	0	0	48.74876066149764	136.28604002036386	155.3976636340637	1950	2000	0	2020-06-02 02:45:40.144258
AXKVHJHF1EOVT	68	42	1	1606	139.8471383130538	0	94.5	-108.5	313.5557219650049	96.36302712480408	-101.34786183089741	2000	1950	0	2020-06-02 02:45:45.775132
AXKVHJHF1EOVT	69	43	0	0	269.3427281793723	12	0	0	60.01415413494605	134.61373688532854	233.2909065198958	1950	2000	0	2020-06-02 02:45:52.234903
AXKVHJHF1EOVT	70	43	1	1483	127.2065053904717	7	18.5	124.5	80.49775298706152	21.000049486660252	125.46112120977529	2000	1950	0	2020-06-02 02:45:57.750263
AXKVHJHF1EOVT	71	44	1	1548	164.97612960195596	0	43.5	-152.5	284.68286618073574	41.81628179932661	-159.58860208335895	1950	1900	0	2020-06-02 02:46:03.310404
AXKVHJHF1EOVT	72	45	1	1858	149.2102293270284	6	154.5	-18.5	350.9666067168827	147.35957474627693	-23.42751088828743	1900	1850	0	2020-06-02 02:46:09.510697
AXKVHJHF1EOVT	73	46	0	0	222.41150834349148	10	0	0	104.81062062958227	-56.85393486326346	215.02211312837287	1850	2000	0	2020-06-02 02:46:15.754234
AXKVHJHF1EOVT	74	46	1	1719	267.32966935888203	9	-273.5	14.5	175.50226633361416	-266.50641064031964	20.96390247884476	2000	1950	0	2020-06-02 02:46:21.898479
AXKVHJHF1EOVT	75	47	1	1906	181.7092296816068	6	-182.5	19.5	172.9754653954036	-180.34529749323386	22.222012140216165	1950	1900	0	2020-06-02 02:46:27.819198
AXKVHJHF1EOVT	76	48	0	0	268.33092830104	7	0	0	180.5033166470546	-268.32057508516874	-2.357131490221761	1900	2000	0	2020-06-02 02:46:33.801962
AXKVHJHF1EOVT	77	48	1	1727	172.98753221118974	2	19.5	-155.5	277.0328698785635	21.18037457051061	-171.68598671286563	2000	1950	0	2020-06-02 02:46:39.756751
AXKVHJHF1EOVT	78	49	1	1324	199.49964821517815	0	-80.5	-175.5	246.74326634369982	-78.7728020022249	-183.2892667416674	1950	1900	0	2020-06-02 02:46:45.536528
AXKVHJHF1EOVT	79	50	0	0	229.90679146746103	11	0	0	4.941677208586803	229.05220492122996	19.80454956785164	1900	2000	0	2020-06-02 02:46:51.456931
AXKVHJHF1EOVT	80	50	1	1600	166.48357191234805	4	-88.5	-127.5	235.42258032146728	-94.48264054854644	-137.07592914756455	2000	1950	0	2020-06-02 02:46:57.055631
AXKVHJHF1EOVT	81	51	0	0	288.36169327918833	5	0	0	315.86913476696935	206.97198177841614	-200.78611732277625	1950	2000	0	2020-06-02 02:47:03.023640
AXKVHJHF1EOVT	82	51	0	255	274.2049304460969	5	0.5	2.5	321.1421019729051	213.52457952351065	-172.03371129013294	2000	2000	0	2020-06-02 02:47:07.287867
AXKVHJHF1EOVT	83	51	0	0	298.4065628554808	7	0	0	131.43922266808008	-197.49298609365334	223.70292174898847	2000	2000	0	2020-06-02 02:47:13.309378
AXKVHJHF1EOVT	84	51	1	1470	141.74974784497834	2	-50.5	-110.5	243.92367795481275	-62.308655283525844	-127.32094286044888	2000	1950	0	2020-06-02 02:47:19.278371
AXKVHJHF1EOVT	85	52	1	1748	211.12168321675586	1	-160.5	141.5	139.83660124688015	-161.34092131166815	136.16707470816252	1950	1900	0	2020-06-02 02:47:25.721578
AXKVHJHF1EOVT	86	53	1	1478	192.36574173059546	12	96.5	164.5	62.50060110462273	88.82282434512113	170.6314287196761	1900	1850	0	2020-06-02 02:47:31.215945
AXKVHJHF1EOVT	87	54	0	334	219.04248911066594	5	1.5	7.5	332.41367909720026	194.1404605547281	-101.43516949950974	1850	2000	0	2020-06-02 02:47:35.968035
AXKVHJHF1EOVT	88	54	0	0	233.82498936637046	9	0	0	229.2705780949978	-152.56791238147892	-177.19243145163009	2000	2000	0	2020-06-02 02:47:42.006971
AXKVHJHF1EOVT	89	54	1	1576	140.33371307614928	1	-93.5	-91.5	220.87608023371337	-106.11007348848256	-91.83791880268097	2000	1950	0	2020-06-02 02:47:47.641789
AXKVHJHF1EOVT	90	55	1	1640	216.38499075197194	5	-209.5	26.5	174.7898069489042	-215.49094403810543	19.64986667377405	1950	1900	0	2020-06-02 02:47:53.499264
AXKVHJHF1EOVT	91	56	1	1692	213.24300909040872	13	-113.5	183.5	117.95827941334122	-99.9744021870681	188.3552490196928	1900	1850	0	2020-06-02 02:47:59.211414
AXKVHJHF1EOVT	92	57	1	1573	146.54628662664697	10	22.5	-157.5	278.39507099387777	21.39545354550721	-144.97602798960045	1850	1800	0	2020-06-02 02:48:04.809258
AXKVHJHF1EOVT	93	58	1	1682	102.63658351240767	8	-5.5	-97.5	266.21011029811723	-6.784055379719611	-102.41213242435845	1800	1750	0	2020-06-02 02:48:11.486695
AXKVHJHF1EOVT	94	59	0	0	237.99036489742633	6	0	0	89.9321465266124	0.2818439552378202	237.99019800822686	1750	1950	0	2020-06-02 02:48:17.265281
AXKVHJHF1EOVT	95	59	1	1832	230.57744087723765	4	233.5	71.5	18.51826636514823	218.6387053692957	73.23300318800489	1950	1900	0	2020-06-02 02:48:23.566297
AXKVHJHF1EOVT	96	60	1	1529	143.08421637104533	3	-99.5	110.5	128.86985760174653	-89.79300785071791	111.4015651399792	1900	1850	0	2020-06-02 02:48:29.113191
AXKVHJHF1EOVT	97	61	1	1510	195.69227228522527	13	-62.5	205.5	104.59515923353877	-49.31202567865514	189.3773733993119	1850	1800	0	2020-06-02 02:48:38.345214
AXKVHJHF1EOVT	98	62	1	1425	172.4072282975603	4	-145.5	76.5	152.07783460761937	-152.3363616915864	80.73342105855073	1800	1750	0	2020-06-02 02:48:43.785949
AXKVHJHF1EOVT	99	63	1	1520	155.31839241035982	9	108.5	123.5	46.0938167905032	107.71013418961199	111.9032171735661	1750	1700	0	2020-06-02 02:48:49.317651
AXKVHJHF1EOVT	100	64	0	0	219.44497314870375	14	0	0	238.727449236794	-113.91601385211264	-187.56129139105593	1700	1900	0	2020-06-02 02:48:55.051732
AXKVHJHF1EOVT	101	64	1	1247	141.792569278217	14	125.5	64.5	27.124165411029992	126.19830646306032	64.64611471986136	1900	1850	0	2020-06-02 02:49:00.775747
AXKVHJHF1EOVT	102	65	0	0	166.12884783149218	10	0	0	349.97866688384676	163.59422494804446	-28.908885233915697	1850	2000	0	2020-06-02 02:49:06.647363
AXKVHJHF1EOVT	103	65	1	1891	223.56687408138959	2	-170.5	155.5	138.9679013595025	-168.6458650096042	146.76756931177363	2000	1950	0	2020-06-02 02:49:12.574571
AXKVHJHF1EOVT	104	66	0	0	271.4361134735289	7	0	0	193.7182399590493	-263.6930384053727	-64.37037512829252	1950	2000	0	2020-06-02 02:49:19.280689
AXKVHJHF1EOVT	105	66	1	1648	266.98296328332754	4	264.5	-29.5	352.8327258952822	264.89679221871086	-33.31054121121042	2000	1950	0	2020-06-02 02:49:25.058069
AXKVHJHF1EOVT	106	67	1	1477	158.46502838154169	10	94.5	137.5	57.05169422460809	86.18629811519521	132.9777697104351	1950	1900	0	2020-06-02 02:49:30.555991
AXKVHJHF1EOVT	107	68	0	466	180.0065617066716	0	0.5	0.5	140.24771271917098	-138.3919795902162	115.10874094767499	1900	2000	0	2020-06-02 02:49:36.149794
AXKVHJHF1EOVT	108	68	1	1497	269.33970281927884	5	-255.5	-78.5	196.965852185383	-257.61772577726236	-78.59378397894248	2000	1950	0	2020-06-02 02:49:41.656613
AXKVHJHF1EOVT	109	69	0	0	276.36570001036284	14	0	0	100.52165541991668	-50.466350597355586	271.7188760458181	1950	2000	0	2020-06-02 02:49:47.999402
AXKVHJHF1EOVT	110	69	1	1620	139.2839370179344	11	44.5	-129.5	290.0979941222945	47.861696001380714	-130.8024203410905	2000	1950	0	2020-06-02 02:51:17.024020
AXKVHJHF1EOVT	111	70	1	1603	146.724726797429	13	-35.5	138.5	103.33794196071798	-33.84853430768374	142.76702062802087	1950	1900	0	2020-06-02 02:51:22.615158
AXKVHJHF1EOVT	112	71	1	1560	195.4694871910732	10	199.5	13.5	4.475761857170371	194.87339038272884	15.253922232714219	1900	1850	0	2020-06-02 02:51:28.346606
AXKVHJHF1EOVT	113	72	1	1510	250.04525006129163	2	-165.5	-167.5	229.49912881601367	-162.39429064962812	-190.1334306286455	1850	1800	0	2020-06-02 02:51:33.711663
AXKVHJHF1EOVT	114	73	1	1695	283.91331283861604	2	115.5	-265.5	292.1360784392865	106.98069744302437	-262.98650075926315	1800	1750	0	2020-06-02 02:51:39.433159
AXKVHJHF1EOVT	115	74	1	1472	185.33798594842057	2	-154.5	121.5	140.77452330746593	-143.57455043424457	117.20289033561204	1750	1700	0	2020-06-02 02:51:44.917923
AXKVHJHF1EOVT	116	75	0	0	107.41282125977301	2	0	0	248.11457291756892	-40.03832028040568	-99.67169648454671	1700	1900	0	2020-06-02 02:51:50.628532
AXKVHJHF1EOVT	117	75	0	0	255.25164609315948	6	0	0	352.02063382039387	252.78033147798402	-35.43313211032943	1900	2000	0	2020-06-02 02:51:56.549557
AXKVHJHF1EOVT	118	75	1	1601	242.5737126596744	9	-241.5	40.5	171.0768024376065	-239.63787857859737	37.62569898151682	2000	1950	0	2020-06-02 02:52:03.306168
AXKVHJHF1EOVT	119	76	1	1652	262.06674051279936	6	-138.5	232.5	121.17863731812365	-135.6740616064641	224.2131251515136	1950	1900	0	2020-06-02 02:52:08.966429
AXKVHJHF1EOVT	120	77	1	1423	247.78365376254789	5	220.5	-104.5	335.0984591978704	224.747874366784	-104.33183617444143	1900	1850	0	2020-06-02 02:52:14.400049
AXKVHJHF1EOVT	121	78	1	1482	137.59414110044648	4	-102.5	-89.5	220.421614497637	-104.74956019478707	-89.21702362311947	1850	1800	0	2020-06-02 02:52:21.998130
AXKVHJHF1EOVT	122	79	1	1350	131.91795413448057	10	7.5	128.5	84.99867363617429	11.500449474117255	131.41570029840497	1800	1750	0	2020-06-02 02:52:27.341903
AXKVHJHF1EOVT	123	80	1	1715	293.57495148484304	2	-282.5	100.5	161.75396767081105	-278.81424077271555	91.91774193082716	1750	1700	0	2020-06-02 02:52:33.078253
AXKVHJHF1EOVT	124	81	0	0	211.6508276452696	12	0	0	131.40155093294288	-139.9715010765901	158.75783989867637	1700	1900	0	2020-06-02 02:52:38.797344
AXKVHJHF1EOVT	125	81	0	0	217.65010659923558	13	0	0	64.29076110468615	94.41756886375964	196.10428754240897	1900	2000	0	2020-06-02 02:52:45.270852
AXKVHJHF1EOVT	126	81	1	1466	187.78778948343043	9	186.5	75.5	23.603009079674486	172.07778274814174	75.18969719021696	2000	1950	0	2020-06-02 02:52:50.733305
AXKVHJHF1EOVT	127	82	0	0	281.71380177469194	10	0	0	13.376212719675573	274.0714720998475	65.17280331068275	1950	2000	0	2020-06-02 02:52:56.699716
AXKVHJHF1EOVT	128	82	1	1571	227.7363768232771	5	236.5	7.5	1.7976443873940262	227.62429657441524	7.1440141094710405	2000	1950	0	2020-06-02 02:53:02.278624
AXKVHJHF1EOVT	129	83	1	1523	164.976471503249	13	-56.5	-150.5	248.21179650631427	-61.23541628260144	-153.1909264361269	1950	1900	0	2020-06-02 02:53:12.372145
AXKVHJHF1EOVT	130	84	1	1264	131.90482988435073	1	-117.5	-43.5	197.381903057945	-125.88136065081754	-39.40516701548557	1900	1850	0	2020-06-02 02:53:18.020198
AXKVHJHF1EOVT	131	85	1	1436	112.45248433160491	8	62.5	105.5	57.94634315168395	59.68001996416028	95.30926738479988	1850	1800	0	2020-06-02 02:53:23.473031
AXKVHJHF1EOVT	132	86	1	1477	225.1555669713381	7	-204.5	123.5	147.63572345941841	-190.18031662816125	120.52583335284203	1800	1750	0	2020-06-02 02:53:28.992917
AXKVHJHF1EOVT	133	87	1	1676	259.80860553938777	1	-196.5	166.5	138.3469124776524	-194.12447131107254	172.67368401270002	1750	1700	0	2020-06-02 02:53:34.666537
AXKVHJHF1EOVT	134	88	1	1378	132.81098685292278	11	41.5	129.5	64.66607571505452	56.82890316619935	120.03846880801989	1700	1650	0	2020-06-02 02:53:40.085880
AXKVHJHF1EOVT	135	89	1	1239	111.9331552524062	13	64.5	-97.5	306.92995079616907	67.25371221299221	-89.47608305201615	1650	1600	0	2020-06-02 02:53:45.322782
AXKVHJHF1EOVT	136	90	0	65	105.52150899044399	0	-2.5	-4.5	9.012265783277753	104.21882789011778	16.529512177628302	1600	1800	0	2020-06-02 02:53:51.660735
AXKVHJHF1EOVT	137	90	1	1758	157.12905283883018	6	-67.5	155.5	116.28566731385962	-69.58411686980264	140.88147474198846	1800	1750	0	2020-06-02 02:53:57.441090
AXKVHJHF1EOVT	138	91	1	1646	168.98494223109503	3	-166.5	-22.5	184.7193952230672	-168.4120144444444	-13.903384178349516	1750	1700	0	2020-06-02 02:55:45.493159
AXKVHJHF1EOVT	139	92	1	1369	235.04381074451732	12	235.5	67.5	19.02675297220157	222.2025343272026	76.62654049265704	1700	1650	0	2020-06-02 02:55:50.938614
AXKVHJHF1EOVT	140	93	0	0	112.93672117036695	6	0	0	312.34867834455804	76.07876729531858	-83.46690455227133	1650	1850	0	2020-06-02 02:55:57.529676
AXKVHJHF1EOVT	141	93	1	1724	256.889688380503	6	61.5	-246.5	281.78856339895003	52.482732788012434	-251.4714193607974	1850	1800	0	2020-06-02 02:56:03.301343
AXKVHJHF1EOVT	142	94	1	1477	116.50907438507225	1	3.5	116.5	83.38061782400823	13.430372064559899	115.73240479776521	1800	1750	0	2020-06-02 02:56:08.823658
AXKVHJHF1EOVT	143	95	0	0	214.9388762295586	4	0	0	55.04077408718906	123.15854632840221	176.15530926174299	1750	1950	0	2020-06-02 02:56:14.553309
AXKVHJHF1EOVT	144	95	1	1739	170.42310681725712	4	-174.5	-8.5	180.6624212963906	-170.411716994844	-1.970291378306033	1950	1900	0	2020-06-02 02:56:20.303119
AXKVHJHF1EOVT	145	96	1	1760	182.5573993666231	9	20.5	176.5	82.83935879045872	22.756086581172664	181.1335545585491	1900	1850	0	2020-06-02 02:56:26.149423
AXKVHJHF1EOVT	146	97	1	1329	165.09460020134546	0	167.5	13.5	4.65057796222025	164.55105831409915	13.385672316026527	1850	1800	0	2020-06-02 02:56:31.455405
AXKVHJHF1EOVT	147	98	1	1615	126.6829013554609	13	-102.5	-76.5	221.40650000182598	-95.01674183700518	-83.78768564960693	1800	1750	0	2020-06-02 02:56:37.117806
AXKVHJHF1EOVT	148	99	1	1217	104.76727912731185	10	-83.5	-54.5	217.43909589715727	-83.18521872907426	-63.689890569352904	1750	1700	0	2020-06-02 02:56:42.368496
AXKVHJHF1EOVT	149	100	0	0	219.48995829450521	1	0	0	208.69547757410703	-192.53309397529551	-105.38903888177208	1700	1900	0	2020-06-02 02:56:48.074194
AXKVHJHF1EOVT	150	100	1	1304	131.4387154095413	12	36.5	-143.5	282.77144297962406	29.05616340201104	-128.18687638313847	1900	1850	0	2020-06-02 02:56:54.225365
AXKVHJHF1EOVT	151	101	1	1441	299.9487086036502	8	160.5	-256.5	303.1561241105685	164.04863359902438	-251.11207379831518	1850	1800	0	2020-06-02 02:56:59.717745
AXKVHJHF1EOVT	152	102	1	1722	253.99098286773057	13	-168.5	-173.5	226.70852466302424	-174.16417332197383	-184.87363281222466	1800	1750	0	2020-06-02 02:57:05.425884
AXKVHJHF1EOVT	153	103	1	1338	108.34508361508513	7	-63.5	-78.5	234.85804804956112	-62.36387941446467	-88.59686048578638	1750	1700	0	2020-06-02 02:57:10.800441
AXKVHJHF1EOVT	154	104	1	1621	285.37571625616255	5	48.5	281.5	81.60453725506723	41.66619229743977	282.3176010243615	1700	1650	0	2020-06-02 02:57:16.438787
AXKVHJHF1EOVT	155	105	1	1474	109.01690528583097	5	81.5	-84.5	318.64869271536185	81.836026997281	-72.02465080373621	1650	1600	0	2020-06-02 02:57:21.966787
AXKVHJHF1EOVT	156	106	0	0	237.4496456584152	10	0	0	291.87072447732663	88.45323467515284	-220.35961403762093	1600	1800	0	2020-06-02 02:57:27.552351
AXKVHJHF1EOVT	157	106	1	1456	185.6482940044739	6	-107.5	-141.5	232.3886370063071	-113.30157712628159	-147.06475338254523	1800	1750	0	2020-06-02 02:57:33.549782
AXKVHJHF1EOVT	158	107	1	1700	203.70004522075715	0	175.5	-127.5	324.617388761099	166.0773730359904	-117.94920342419867	1750	1700	0	2020-06-02 02:57:39.270084
AXKVHJHF1EOVT	159	108	1	1431	279.82310661493176	11	241.5	109.5	22.96868760240656	257.63824166839584	109.1948140968642	1700	1650	0	2020-06-02 02:57:44.739931
AXKVHJHF1EOVT	160	109	0	0	170.63003004910263	6	0	0	54.26006279315211	99.66621557469277	138.4963993307282	1650	1850	0	2020-06-02 02:57:50.383817
AXKVHJHF1EOVT	161	109	1	1488	162.64293460653005	6	74.5	-146.5	296.21273124763917	71.84023234407445	-145.91677488956987	1850	1800	0	2020-06-02 02:57:55.886848
AXKVHJHF1EOVT	162	110	1	1597	243.3254632785978	11	89.5	226.5	67.15068498798092	94.48544275175165	224.23153700527877	1800	1750	0	2020-06-02 02:58:01.485498
AXKVHJHF1EOVT	163	111	0	150	239.42329849330366	5	3.5	2.5	251.00341054448745	-77.93512601376007	-226.38381566409055	1750	1950	0	2020-06-02 02:58:06.235935
AXKVHJHF1EOVT	164	111	1	1552	237.92784032347427	13	247.5	-41.5	347.9457519367674	232.68160520814206	-49.688306458914376	1950	1900	0	2020-06-02 02:58:11.803481
AXKVHJHF1EOVT	165	112	0	0	151.71717965265773	0	0	0	89.94491623275553	0.14585982762794122	151.7171095383362	1900	2000	0	2020-06-02 02:58:18.616308
AXKVHJHF1EOVT	166	112	1	1600	280.41726877992585	5	275.5	-88.5	345.5094816115602	271.4969322439821	-70.16594909284545	2000	1950	0	2020-06-02 02:58:24.350309
AXKVHJHF1EOVT	167	113	1	1356	209.91226658877102	13	-5.5	-202.5	268.2058735925158	-6.571995369921868	-209.80936237759505	1950	1900	0	2020-06-02 02:58:29.731715
AXKVHJHF1EOVT	168	114	0	0	205.38105090683692	9	0	0	57.33490867498476	110.84980358834245	172.8979384377461	1900	2000	0	2020-06-02 02:58:38.405909
AXKVHJHF1EOVT	169	114	1	1379	115.82946301560514	14	-74.5	-91.5	224.93577649065736	-81.99555421249472	-81.8119403991207	2000	1950	0	2020-06-02 02:58:43.809713
AXKVHJHF1EOVT	170	115	1	1597	198.8904210338207	0	177.5	68.5	23.203486745788844	182.80244619115126	78.36239688486896	1950	1900	0	2020-06-02 02:58:53.734441
AXKVHJHF1EOVT	171	116	1	1644	146.06774591297795	3	131.5	53.5	21.3626546513352	136.03193422169943	53.208075214214695	1900	1850	0	2020-06-02 02:58:59.495255
AXKVHJHF1EOVT	172	117	1	1443	211.62315025514317	11	-97.5	-187.5	242.70454860247648	-97.04593418995633	-188.05968302937652	1850	1800	0	2020-06-02 02:59:05.058491
AXKVHJHF1EOVT	173	118	1	1613	280.1306478783807	10	-96.5	259.5	111.97914102122904	-104.84422306190294	259.7708004593805	1800	1750	0	2020-06-02 02:59:10.676834
AXKVHJHF1EOVT	174	119	0	0	193.51043878029617	2	0	0	133.437710436848	-133.0511156315663	140.5122434029801	1750	1950	0	2020-06-02 02:59:16.447648
AXKVHJHF1EOVT	175	119	1	1726	162.97358210906697	6	133.5	-91.5	324.9435605063462	133.4079974148998	-93.60926605420471	1950	1900	0	2020-06-02 02:59:22.194938
AXKVHJHF1EOVT	176	120	1	1388	116.6553544081872	11	98.5	92.5	46.427963178040685	80.40657299774058	84.51777760245933	1900	1850	0	2020-06-02 02:59:27.603832
AXKVHJHF1EOVT	177	121	1	1358	180.15016444783302	11	66.5	157.5	66.54000587535702	71.71933859036032	165.2586403875529	1850	1800	0	2020-06-02 02:59:37.707516
AXKVHJHF1EOVT	178	122	1	1572	282.7005181853124	13	134.5	256.5	62.595598204668605	130.11799943882227	250.97587374941597	1800	1750	0	2020-06-02 02:59:43.295253
AXKVHJHF1EOVT	179	123	1	1303	186.39390812694842	6	171.5	51.5	17.366810542363886	177.89684217212718	55.636341828184236	1750	1700	0	2020-06-02 02:59:48.632016
AXKVHJHF1EOVT	180	124	1	1464	234.5490426135735	3	156.5	155.5	45.3964861931461	164.69956803913422	166.99492710458756	1700	1650	0	2020-06-02 02:59:54.101703
AXKVHJHF1EOVT	181	125	0	0	269.4943014652398	11	0	0	233.84943401914617	-158.97717142086535	-217.6084499491193	1650	1850	0	2020-06-02 03:00:08.645046
AXKVHJHF1EOVT	182	125	1	1191	159.07448485537657	8	-92.5	-127.5	230.33362605294852	-101.53981404315083	-122.45145117999124	1850	1800	0	2020-06-02 03:00:14.446048
AXKVHJHF1EOVT	183	126	0	0	292.9540673603011	7	0	0	285.866843939962	80.09441250583326	-281.7924247886896	1800	2000	0	2020-06-02 03:00:20.343881
AXKVHJHF1EOVT	184	126	1	1559	214.02909427657013	7	122.5	164.5	54.521549859285166	124.2217827560176	174.29114115687497	2000	1950	0	2020-06-02 03:00:25.928501
AXKVHJHF1EOVT	185	127	1	1259	153.08220337720894	9	57.5	-126.5	294.3020175351873	63.00043755064169	-139.51740342784788	1950	1900	0	2020-06-02 03:00:31.272890
AXKVHJHF1EOVT	186	128	0	464	234.83254811388727	8	-1.5	-4.5	191.39392400701928	-230.2044987595665	-46.39196487020061	1900	2000	0	2020-06-02 03:00:36.956953
AXKVHJHF1EOVT	187	128	1	1526	257.4102880233537	3	160.5	192.5	50.03524296954062	165.33882113165996	197.28945893549118	2000	1950	0	2020-06-02 03:00:42.496444
AXKVHJHF1EOVT	188	129	1	1615	250.63441011758195	14	242.5	61.5	15.288215801851504	241.76487681107778	66.08594310072785	1950	1900	0	2020-06-02 03:00:48.135280
AXKVHJHF1EOVT	189	130	1	1601	204.23122696346428	0	-190.5	47.5	167.5905119515979	-199.45971261484559	43.888690007851366	1900	1850	0	2020-06-02 03:00:53.747284
AXKVHJHF1EOVT	190	131	1	1842	198.79122287999627	3	-21.5	-193.5	262.1049492483556	-27.305760530971536	-196.90694689611536	1850	1800	0	2020-06-02 03:00:59.719353
AXKVHJHF1EOVT	191	132	1	1391	175.86159574547312	2	-144.5	114.5	137.7235435861493	-130.12132810691685	118.30359601396864	1800	1750	0	2020-06-02 03:01:05.126745
AXKVHJHF1EOVT	192	133	0	0	241.94570557161938	11	0	0	171.56704989812195	-239.32982702782166	35.48180293307691	1750	1950	0	2020-06-02 03:01:10.907348
AXKVHJHF1EOVT	193	133	1	1684	292.246625774368	5	-231.5	180.5	139.35766482329834	-221.7538904403316	190.35047242148076	1950	1900	0	2020-06-02 03:01:16.582071
AXKVHJHF1EOVT	194	134	0	0	270.50342542627504	4	0	0	175.38234676882402	-269.62540411777684	21.777158255242146	1900	2000	0	2020-06-02 03:01:22.612657
AXKVHJHF1EOVT	195	134	1	1708	263.6380784354135	12	176.5	-205.5	308.47244199563715	164.01930570433166	-206.4042241752485	2000	1950	0	2020-06-02 03:01:28.329515
AXKVHJHF1EOVT	196	135	1	1315	117.90143115513536	11	112.5	-59.5	330.2251304664016	102.33647886949423	-58.549061145527205	1950	1900	0	2020-06-02 03:01:34.018248
AXKVHJHF1EOVT	197	136	0	0	298.7488703958821	11	0	0	149.7346539535524	-258.0295618456492	150.5710223667152	1900	2000	0	2020-06-02 03:01:39.985201
AXKVHJHF1EOVT	198	136	1	1349	263.02623588708775	4	-124.5	221.5	117.83518587087998	-122.81478292053315	232.59262641174212	2000	1950	0	2020-06-02 03:01:45.835614
AXKVHJHF1EOVT	199	137	1	1394	241.32087150870322	0	-204.5	126.5	147.3736438103607	-203.2415171932875	130.11014070659775	1950	1900	0	2020-06-02 03:01:56.078333
AXKVHJHF1EOVT	200	138	1	1605	291.24322908246165	14	-242.5	139.5	149.35185314724623	-250.5606171643432	148.46546942842525	1900	1850	0	2020-06-02 03:02:01.707630
AXKVHJHF1EOVT	201	139	1	1604	276.05614131333846	4	-278.5	89.5	163.56676408183063	-264.7792572134939	78.0956983852524	1850	1800	0	2020-06-02 03:02:07.320296
AXKVHJHF1EOVT	202	140	1	1599	182.69912050839147	8	-111.5	146.5	126.98992256315543	-109.9254104365792	145.92934172019469	1800	1750	0	2020-06-02 03:02:14.550569
AXKVHJHF1EOVT	203	141	1	1300	146.9129155247694	2	153.5	-15.5	352.3451434627654	145.6036952161726	-19.569585774459973	1750	1700	0	2020-06-02 03:02:19.872983
AXKVHJHF1EOVT	204	142	1	1488	176.78081518855163	5	-86.5	149.5	115.58902062056974	-76.353919152415	159.44132352936398	1700	1650	0	2020-06-02 03:02:25.368039
AXKVHJHF1EOVT	205	143	0	0	294.21711120303894	10	0	0	91.86269814292983	-9.563376889010247	294.0616437877272	1650	1850	0	2020-06-02 03:02:31.100340
AXKVHJHF1EOVT	206	143	1	1426	227.26054192969218	13	-60.5	-216.5	253.275974409043	-65.39697854934764	-217.64785575510166	1850	1800	0	2020-06-02 03:02:36.558150
AXKVHJHF1EOVT	207	144	1	1515	263.98815028930153	13	138.5	229.5	59.11794966203181	135.4978345554566	226.5614272641064	1800	1750	0	2020-06-02 03:02:42.071454
AXKVHJHF1EOVT	208	145	1	1291	117.32339137603537	8	-43.5	-120.5	250.695784109791	-38.785216983864856	-110.72707486197262	1750	1700	0	2020-06-02 03:02:47.408065
AXKVHJHF1EOVT	209	146	1	1424	247.9216434900021	6	197.5	157.5	37.594689146738716	196.43977098928423	151.24998408086287	1700	1650	0	2020-06-02 03:02:52.837236
AXKVHJHF1EOVT	210	147	0	0	292.1401362301857	7	0	0	273.2670035955585	16.648796568779915	-291.66535064934067	1650	1850	0	2020-06-02 03:03:00.728901
AXKVHJHF1EOVT	211	147	1	1659	228.27527578179055	5	-108.5	-181.5	241.27664948785701	-109.70474492735944	-200.1860896108307	1850	1800	0	2020-06-02 03:03:06.409102
AXKVHJHF1EOVT	212	148	0	0	176.34756991364117	13	0	0	48.90905754876299	115.90551802611812	132.90739748239662	1800	2000	0	2020-06-02 03:03:12.219968
AXKVHJHF1EOVT	213	148	1	1591	236.49729733559255	1	148.5	-188.5	308.66056205341175	147.7411200072486	-184.6714192993692	2000	1950	0	2020-06-02 03:03:17.831800
AXKVHJHF1EOVT	214	149	1	1715	181.14523278977043	1	-3.5	-161.5	270.9703905642549	3.067821444825191	-181.1192530738872	1950	1900	0	2020-06-02 03:03:37.894979
AXKVHJHF1EOVT	215	150	1	1267	100.55940636876208	14	-65.5	-95.5	242.68594310122515	-46.14344876070226	-89.3475032986724	1900	1850	0	2020-06-02 03:03:43.499387
