A36MOV8E6SYHCR	1	1	1	1078	145.51459393277955	0	-26	-146	259.0656219638982	-27.601876654512353	-142.8727876559102	1500	1450	0	2020-05-31 19:06:31.733058
A36MOV8E6SYHCR	2	2	1	989	164.17015253253135	10	-127	-109	221.25406497188948	-123.42197589655184	-108.253659745736	1450	1400	0	2020-05-31 19:06:42.368068
A36MOV8E6SYHCR	3	3	1	981	147.935443273215	8	102	-104	316.8706065893059	107.96501039969642	-101.1358092163011	1400	1350	0	2020-05-31 19:07:16.076620
A36MOV8E6SYHCR	4	4	0	0	298.0856632924782	14	0	0	38.61960884418611	232.89638873823426	186.04928049634046	1350	1550	0	2020-05-31 19:07:23.048758
A36MOV8E6SYHCR	5	4	0	289	225.78881386611164	14	2	4	53.87418464362465	133.11613164453428	182.37511881575466	1550	1750	0	2020-05-31 19:07:26.673624
A36MOV8E6SYHCR	6	4	1	1063	221.01295903886336	12	-220	-43	192.05744406409735	-216.1371168686576	-46.16789766513673	1750	1700	0	2020-05-31 19:07:41.923594
A36MOV8E6SYHCR	7	5	1	889	105.80903168862261	14	-93	-44	205.42023499963955	-95.56499809202914	-45.41896439324006	1700	1650	0	2020-05-31 19:08:04.938255
A36MOV8E6SYHCR	8	6	0	316	261.78662480337914	11	-3	-2	279.5863740896017	43.596440630799066	-258.13094988836656	1650	1850	0	2020-05-31 19:08:48.265463
A36MOV8E6SYHCR	9	6	1	1116	294.3573647143029	7	256	-159	325.7509631957191	243.31556521540787	-165.66168502540268	1850	1800	0	2020-05-31 19:09:05.068346
A36MOV8E6SYHCR	10	7	1	1067	235.85186365551758	6	14	228	87.29315748750993	11.138279303194789	235.58871009440344	1800	1750	0	2020-05-31 19:09:20.482987
