A2JW7BLD5P5EML	1	1	0	0	159.48511139720787	1	0	0	174.176009392579	-158.6618983450662	16.183410361221195	1500	1700	0	2020-05-30 18:41:25.878349
A2JW7BLD5P5EML	2	1	0	0	145.9306024145971	5	0	0	333.47572337374515	130.57070956219357	-65.16924524277158	1700	1900	0	2020-05-30 18:41:31.597284
A2JW7BLD5P5EML	3	1	0	0	185.6463179849684	6	0	0	11.15773639449781	182.13726159993118	35.924550355630515	1900	2000	0	2020-05-30 18:41:38.596619
A2JW7BLD5P5EML	4	1	0	0	243.90011258549777	8	0	0	276.4279432201097	27.30549094483242	-242.3668192708733	2000	2000	0	2020-05-30 18:41:44.622505
A2JW7BLD5P5EML	5	1	0	0	290.27161102535194	14	0	0	106.93221728037287	-84.53875090660259	277.68832845909213	2000	2000	0	2020-05-30 18:41:50.658561
A2JW7BLD5P5EML	6	1	0	0	165.53721766705968	3	0	0	302.5249706507534	89.00391977587266	-139.57389690583807	2000	2000	0	2020-05-30 18:41:56.816844
A2JW7BLD5P5EML	7	1	1	1533	160.08351371490485	9	-139	-1	178.6625674745287	-160.03990278076088	3.736426265127882	2000	1950	0	2020-05-30 18:42:03.088314
A2JW7BLD5P5EML	8	2	1	1331	240.8693474536996	6	71	229	75.191283758014	61.56447938945725	232.86875578375933	1950	1900	0	2020-05-30 18:42:09.124468
A2JW7BLD5P5EML	9	3	1	1409	270.80707836007764	14	199	-191	316.76372585746986	197.29245985036314	-185.50514541681608	1900	1850	0	2020-05-30 18:42:15.556771
A2JW7BLD5P5EML	10	4	1	1295	188.3911915477005	12	-28	-167	261.7139943894977	-27.14990366116038	-186.42457934497824	1850	1800	0	2020-05-30 18:42:21.771159
A2JW7BLD5P5EML	11	5	0	0	130.1642353536049	2	0	0	122.24947941911465	-69.45652523251381	110.08414630551404	1800	2000	0	2020-05-30 18:42:28.283391
A2JW7BLD5P5EML	12	5	1	1486	285.5118417025038	2	-66	-275	254.97819108431435	-74.00087029870016	-275.75511409109083	2000	1950	0	2020-05-30 18:42:33.796202
A2JW7BLD5P5EML	13	6	1	1541	289.00966416324513	9	239	148	30.18876799812542	249.81226462074457	145.3286565850205	1950	1900	0	2020-05-30 18:42:40.452494
A2JW7BLD5P5EML	14	7	1	1352	200.0242695531346	5	-113	-159	233.94927679396554	-117.71452947297666	-161.71888560468363	1900	1850	0	2020-05-30 18:42:53.136527
A2JW7BLD5P5EML	15	8	1	1365	194.44347483657722	10	-4	-195	273.93220790141817	13.334177521470847	-193.9857330226853	1850	1800	0	2020-05-30 18:42:58.513204
A2JW7BLD5P5EML	16	9	0	0	281.915840428165	6	0	0	249.1997555555671	-100.11140211407852	-263.5417391061079	1800	2000	0	2020-05-30 18:43:04.335114
A2JW7BLD5P5EML	17	9	1	1245	169.44137567147618	8	134	-108	322.6947295953482	134.7766752675862	-102.69190617209294	2000	1950	0	2020-05-30 18:43:10.962759
A2JW7BLD5P5EML	18	10	1	1383	209.02179632767002	14	-201	-27	185.91158619523296	-207.91022057924752	-21.5279241622274	1950	1900	0	2020-05-30 18:43:16.349304
A2JW7BLD5P5EML	19	11	1	1298	138.20956030060367	9	86	102	50.00052709979315	88.83841889027353	105.87548293898116	1900	1850	0	2020-05-30 18:43:21.672148
A2JW7BLD5P5EML	20	12	1	1482	287.7662507730577	8	302	-18	355.74784084449783	286.97414299104446	-21.33673682965365	1850	1800	0	2020-05-30 18:43:27.149188
A2JW7BLD5P5EML	21	13	1	1305	134.7693817460908	3	51	115	69.70526341301537	46.74469159394861	126.40300654656195	1800	1750	0	2020-05-30 18:43:32.457762
A2JW7BLD5P5EML	22	14	1	1298	220.61832517005098	5	156	154	43.704249499657315	159.48849569685774	152.4331497450333	1750	1700	0	2020-05-30 18:43:37.763443
A2JW7BLD5P5EML	23	15	1	1441	113.8743739496444	5	-86	85	137.95953180703611	-84.57131258659875	76.25658089504965	1700	1650	0	2020-05-30 18:43:43.214726
A2JW7BLD5P5EML	24	16	1	1515	135.6948940086561	1	126	-18	354.05728829535445	134.9656578467704	-14.049037760961335	1650	1600	0	2020-05-30 18:43:49.852165
A2JW7BLD5P5EML	25	17	1	1547	164.0789275381862	10	-109	-110	224.46018414762034	-117.1092591228864	-114.92308684407153	1600	1550	0	2020-05-30 18:43:55.426030
A2JW7BLD5P5EML	26	18	0	0	220.21405382907156	12	0	0	37.08093270398284	175.68338624151338	132.77641847311767	1550	1750	0	2020-05-30 18:44:01.034814
A2JW7BLD5P5EML	27	18	1	1327	111.22429109194267	14	50	89	59.90878306738148	55.76542476773227	96.23440304475105	1750	1700	0	2020-05-30 18:44:07.208695
A2JW7BLD5P5EML	28	19	1	1308	122.77389480877865	5	-111	51	153.98592642324812	-110.33522241523856	53.847636355710954	1700	1650	0	2020-05-30 18:44:12.468345
A2JW7BLD5P5EML	29	20	1	1324	208.19841979307984	3	179	81	22.834518993102044	191.88180923025828	80.7957504504925	1650	1600	0	2020-05-30 18:44:17.843028
A2JW7BLD5P5EML	30	21	1	1394	154.4639739445293	14	-142	-46	196.07674108223824	-148.42314269690718	-42.77487532079728	1600	1550	0	2020-05-30 18:44:23.260485
A2JW7BLD5P5EML	31	22	1	1458	200.98096205356137	8	-202	-49	190.62006900243372	-197.5383302499139	-37.03991347250998	1550	1500	0	2020-05-30 18:44:28.740441
A2JW7BLD5P5EML	32	23	0	0	105.67977202022472	6	0	0	61.02747749762884	51.190237522995936	92.45417133145443	1500	1700	0	2020-05-30 18:44:34.274748
A2JW7BLD5P5EML	33	23	1	1391	235.30106447776618	6	-130	-186	234.1384136070776	-137.8462196551574	-190.69612127977845	1700	1650	0	2020-05-30 18:44:41.060712
A2JW7BLD5P5EML	34	24	1	1364	153.15375132193245	0	-14	-150	263.3113418036719	-17.838450688832634	-152.11134481360162	1650	1600	0	2020-05-30 18:44:46.457602
A2JW7BLD5P5EML	35	25	0	0	259.152613648424	0	0	0	296.50670953561917	115.66048785580101	-231.91103619657136	1600	1800	0	2020-05-30 18:44:52.094214
A2JW7BLD5P5EML	36	25	1	1497	233.94527338826907	8	-114	-210	244.59310947338912	-100.37276149505934	-211.31895251152437	1800	1750	0	2020-05-30 18:44:57.623177
A2JW7BLD5P5EML	37	26	1	1508	262.9677809533524	5	218	119	26.74782939302179	234.82917504944885	118.3524920106275	1750	1700	0	2020-05-30 18:45:03.179807
A2JW7BLD5P5EML	38	27	1	1255	102.64164216917689	8	-90	-35	204.22760059031367	-93.60122721555425	-42.12026793513473	1700	1650	0	2020-05-30 18:45:08.444826
A2JW7BLD5P5EML	39	28	1	1304	175.71657361262652	10	-174	20	173.15799267854482	-174.4651959912041	20.9334571896842	1650	1600	0	2020-05-30 18:45:13.784468
A2JW7BLD5P5EML	40	29	1	1452	219.20539867483046	2	43	210	79.64390743191674	39.405535812643045	215.63443731350026	1600	1550	0	2020-05-30 18:45:19.310485
A2JW7BLD5P5EML	41	30	1	1384	200.11993368375158	12	192	-31	349.78733394404975	196.94932086540362	-35.48172583521582	1550	1500	0	2020-05-30 18:45:24.695697
A2JW7BLD5P5EML	42	31	1	1373	220.07434159410656	8	-130	-203	239.68012612627814	-111.0994860947306	-189.97268229291882	1500	1450	0	2020-05-30 18:45:40.659962
A2JW7BLD5P5EML	43	32	1	1271	231.9010545662299	12	211	-73	340.75301819587895	218.93926661662974	-76.44407525964233	1450	1400	0	2020-05-30 18:45:45.944973
A2JW7BLD5P5EML	44	33	1	1403	239.64521885654452	3	117	192	59.3106727989666	122.31078334602134	206.0822728865434	1400	1350	0	2020-05-30 18:45:51.386154
A2JW7BLD5P5EML	45	34	0	0	261.96682498410365	13	0	0	326.0879424537021	217.40493010348538	-146.15647012346264	1350	1550	0	2020-05-30 18:45:56.753963
A2JW7BLD5P5EML	46	34	1	1181	135.6209236615358	1	-18	130	95.16569705919399	-12.210810066475409	135.07009681024363	1550	1500	0	2020-05-30 18:46:01.950812
A2JW7BLD5P5EML	47	35	1	1316	128.81148895986456	0	88	88	44.65106396439669	91.63649072173267	90.52708576035745	1500	1450	0	2020-05-30 18:46:07.288750
A2JW7BLD5P5EML	48	36	1	1389	271.2066099726347	6	-198	196	133.973934394071	-188.30716996197566	195.17539556450348	1450	1400	0	2020-05-30 18:46:12.710731
A2JW7BLD5P5EML	49	37	0	0	270.0264248731923	9	0	0	52.38450123484788	164.8131827296132	213.89456498081688	1400	1600	0	2020-05-30 18:46:18.140787
A2JW7BLD5P5EML	50	37	1	1563	188.0148313675567	11	-167	29	171.63488896180883	-186.01456103390086	27.352511722617947	1600	1550	0	2020-05-30 18:46:23.714870
A2JW7BLD5P5EML	51	38	1	1410	177.58048961079305	8	-139	95	144.64760691113204	-144.83621669123596	102.7487256610919	1550	1500	0	2020-05-30 18:46:29.145034
A2JW7BLD5P5EML	52	39	1	1366	251.7723670725303	12	-19	241	97.31446267380802	-32.054393831078436	249.72352844180912	1500	1450	0	2020-05-30 18:46:34.536762
A2JW7BLD5P5EML	53	40	0	0	261.0246251468483	11	0	0	341.6545481234856	247.75833399321903	-82.1563318920532	1450	1650	0	2020-05-30 18:46:40.004697
A2JW7BLD5P5EML	54	40	1	1352	171.40961748637542	12	-8	176	92.86381630711116	-8.564004026643422	171.19554550822042	1650	1600	0	2020-05-30 18:46:46.130327
A2JW7BLD5P5EML	55	41	1	1185	110.09541226764937	0	6	-101	267.59239480174205	-4.624918099133471	-109.99822696280148	1600	1550	0	2020-05-30 18:46:51.347580
A2JW7BLD5P5EML	56	42	1	1371	113.22644873921908	12	-25	108	105.45933063120881	-30.180997923211702	109.12990451042324	1550	1500	0	2020-05-30 18:46:56.738250
A2JW7BLD5P5EML	57	43	1	1378	185.92222634533914	4	40	177	76.57299526599901	43.172324899696505	180.8403290529039	1500	1450	0	2020-05-30 18:47:02.114623
A2JW7BLD5P5EML	58	44	1	1310	281.0892176534348	9	250	-105	336.9009268263228	258.55368896531644	-110.27755076826124	1450	1400	0	2020-05-30 18:47:07.446992
A2JW7BLD5P5EML	59	45	1	1291	274.2124214438488	11	146	-233	303.1450102637122	149.92835208140158	-229.59516832079515	1400	1350	0	2020-05-30 18:47:12.758524
A2JW7BLD5P5EML	60	46	0	0	273.68818871628184	10	0	0	162.7247288768202	-261.34185661705953	81.27520300034567	1350	1550	0	2020-05-30 18:47:18.143090
A2JW7BLD5P5EML	61	46	1	1331	289.26639171271535	5	-277	33	173.77319255200902	-287.55981390089346	31.375130338814227	1550	1500	0	2020-05-30 18:47:23.480523
A2JW7BLD5P5EML	62	47	1	1406	264.0573061735622	8	-242	-64	194.81544278759316	-255.27859001358013	-67.52112576310346	1500	1450	0	2020-05-30 18:47:28.900431
A2JW7BLD5P5EML	63	48	1	1267	160.9830682860823	7	29	-160	277.9680508285536	22.31561584962422	-159.42886051168225	1450	1400	0	2020-05-30 18:47:34.199222
A2JW7BLD5P5EML	64	49	1	1316	288.20416654067526	12	83	-282	287.3965103235162	86.16805191240452	-275.02128725068985	1400	1350	0	2020-05-30 18:47:39.518587
A2JW7BLD5P5EML	65	50	0	0	187.04824381598976	5	0	0	238.62002622124302	-97.39812745924993	-159.68923032589785	1350	1550	0	2020-05-30 18:47:44.894072
A2JW7BLD5P5EML	66	50	1	1442	294.49010772354916	0	260	92	18.419350675330897	279.4031888034371	93.04988787472267	1550	1500	0	2020-05-30 18:47:50.334588
A2JW7BLD5P5EML	67	51	0	0	254.6849261224492	11	0	0	137.21389125109457	-186.9118848944382	172.99814703980414	1500	1700	0	2020-05-30 18:47:55.862957
A2JW7BLD5P5EML	68	51	1	1358	121.93490294804516	14	-115	6	175.44306071166767	-121.5494509345293	9.68770016379782	1700	1650	0	2020-05-30 18:48:01.238953
A2JW7BLD5P5EML	69	52	1	1461	228.02880431438948	9	89	-207	295.41476397562667	97.86264094027011	-205.9612563208088	1650	1600	0	2020-05-30 18:48:06.725033
A2JW7BLD5P5EML	70	53	1	1323	286.1901026398019	12	134	-234	300.20205628412594	143.96820707822934	-247.34172757474715	1600	1550	0	2020-05-30 18:48:12.090154
A2JW7BLD5P5EML	71	54	1	1154	183.09567904293567	12	40	-188	283.4568141593503	42.60863275102998	-178.06889705751976	1550	1500	0	2020-05-30 18:48:17.229233
A2JW7BLD5P5EML	72	55	1	1419	258.3792320021583	6	-188	-171	220.1840031128991	-197.39558630025695	-166.71775562069854	1500	1450	0	2020-05-30 18:48:22.676533
A2JW7BLD5P5EML	73	56	0	0	180.14193890420245	6	0	0	183.20120879101563	-179.8608429497653	-10.059588737382404	1450	1650	0	2020-05-30 18:48:28.170763
A2JW7BLD5P5EML	74	56	1	1477	233.86062285325653	5	40	-218	280.49499843825873	42.597640615229096	-229.94832448906618	1650	1600	0	2020-05-30 18:48:33.656099
A2JW7BLD5P5EML	75	57	1	1329	232.6104673358483	4	6	-230	270.61863102554025	2.511480902409821	-232.59690878831253	1600	1550	0	2020-05-30 18:48:39.023232
A2JW7BLD5P5EML	76	58	1	1530	226.51992283206414	4	199	86	23.218445747500496	208.17372687975973	89.30271483463135	1550	1500	0	2020-05-30 18:48:44.568884
A2JW7BLD5P5EML	77	59	1	1355	199.90400906525144	10	-170	97	149.2028177036814	-171.71456066785018	102.3509770105168	1500	1450	0	2020-05-30 18:48:50.788606
A2JW7BLD5P5EML	78	60	0	0	240.18436764554343	4	0	0	121.83274469955609	-126.68318525014902	204.05857256230624	1450	1650	0	2020-05-30 18:48:56.264990
A2JW7BLD5P5EML	79	60	1	1513	285.5491059972459	2	264	92	17.633090345160642	272.13283239169857	86.498632765484	1650	1600	0	2020-05-30 18:49:01.811606
A2JW7BLD5P5EML	80	61	1	1539	210.34466156893234	0	152	-130	319.26571587001683	159.38740602589812	-137.260815424083	1600	1550	0	2020-05-30 18:49:20.416507
A2JW7BLD5P5EML	81	62	1	1418	265.6526705067687	9	35	-255	274.6866864352628	21.705662090783285	-264.76443413075435	1550	1500	0	2020-05-30 18:49:25.841658
A2JW7BLD5P5EML	82	63	1	1323	173.01865286126127	12	136	95	35.96707605490987	140.03344613603252	101.6173617114345	1500	1450	0	2020-05-30 18:49:31.167841
A2JW7BLD5P5EML	83	64	0	0	147.69224319128912	8	0	0	140.09198404825386	-113.29108688571168	94.75298586920107	1450	1650	0	2020-05-30 18:49:36.703001
A2JW7BLD5P5EML	84	64	1	1203	152.24987026859256	4	-139	22	169.8802395211202	-149.88126422651018	26.751254749381435	1650	1600	0	2020-05-30 18:49:41.884328
A2JW7BLD5P5EML	85	65	1	1282	117.26658134244836	7	-112	-28	196.70072520806804	-112.32014297248365	-33.69920744447697	1600	1550	0	2020-05-30 18:49:47.183703
A2JW7BLD5P5EML	86	66	1	1444	185.46835061525786	13	-12	-188	264.98015165107836	-16.228636161011053	-184.75697672428436	1550	1500	0	2020-05-30 18:49:52.652168
A2JW7BLD5P5EML	87	67	1	1271	164.76051121988206	5	-157	38	164.39952116303405	-158.69078659874856	44.30869334687416	1500	1450	0	2020-05-30 18:49:57.952887
A2JW7BLD5P5EML	88	68	1	1232	156.79317858723522	10	-127	93	140.72798061843073	-121.38135006149011	99.25053505517555	1450	1400	0	2020-05-30 18:50:03.202703
A2JW7BLD5P5EML	89	69	0	0	122.75632182624965	2	0	0	13.94702502743061	119.13734141559925	29.587301815689692	1400	1600	0	2020-05-30 18:50:08.633536
A2JW7BLD5P5EML	90	69	1	1214	113.15575980867081	8	21	98	76.82849498461653	25.784423986801652	110.17889751466225	1600	1550	0	2020-05-30 18:50:14.902336
A2JW7BLD5P5EML	91	70	1	1407	155.89018445335637	4	-18	-147	261.7979633265952	-22.239935490822088	-154.2956087458925	1550	1500	0	2020-05-30 18:50:20.313510
A2JW7BLD5P5EML	92	71	1	1457	176.00156532927753	6	-107	121	130.68461924046773	-114.73451632592281	133.46363460438388	1500	1450	0	2020-05-30 18:50:25.787758
A2JW7BLD5P5EML	93	72	1	1464	211.2512093543075	3	-193	-4	181.45973080439856	-211.1826532709722	-5.38148781377327	1450	1400	0	2020-05-30 18:50:31.271965
A2JW7BLD5P5EML	94	73	1	1268	154.0237977709872	8	110	94	37.63910992683417	121.96728304702306	94.06015174304854	1400	1350	0	2020-05-30 18:50:36.559360
A2JW7BLD5P5EML	95	74	0	0	288.04227189067797	5	0	0	63.963035287859284	126.4364196203701	258.80916171867824	1350	1550	0	2020-05-30 18:50:41.940282
A2JW7BLD5P5EML	96	74	1	1193	124.93032857398565	14	110	-26	342.90300335225044	119.40946078945875	-36.728295244603	1550	1500	0	2020-05-30 18:50:47.142000
A2JW7BLD5P5EML	97	75	1	1273	121.16814679575513	7	-67	-102	232.06490557472472	-74.49034886472644	-95.56624782803296	1500	1450	0	2020-05-30 18:50:52.413850
A2JW7BLD5P5EML	98	76	0	0	220.96136212070388	0	0	0	215.83667337337178	-179.13099836504966	-129.36772771822737	1450	1650	0	2020-05-30 18:50:57.869297
A2JW7BLD5P5EML	99	76	1	1465	145.64019402729352	12	-95	116	129.34679277036614	-92.33772496477091	112.62686475543046	1650	1600	0	2020-05-30 18:51:03.346273
A2JW7BLD5P5EML	100	77	1	1309	274.6742392568821	1	225	-147	329.5073676758531	236.6852586751236	-139.37727948714144	1600	1550	0	2020-05-30 18:51:08.748392
A2JW7BLD5P5EML	101	78	1	1313	193.45987469241305	13	146	144	46.6658677612907	132.76218335805237	140.71576239358205	1550	1500	0	2020-05-30 18:51:14.026556
A2JW7BLD5P5EML	102	79	1	1417	296.99655051121204	14	-244	133	151.70340171976216	-261.5070959531048	140.78703698044282	1500	1450	0	2020-05-30 18:51:20.354331
A2JW7BLD5P5EML	103	80	1	1440	183.980635502422	2	56	-196	288.2642770543487	57.65961291131124	-174.71188648398484	1450	1400	0	2020-05-30 18:51:25.850441
A2JW7BLD5P5EML	104	81	0	0	139.2101949456724	3	0	0	313.7489247653721	96.26378013032044	-100.56223452088481	1400	1600	0	2020-05-30 18:51:31.830266
A2JW7BLD5P5EML	105	81	1	1431	206.68363929810846	6	-198	-24	185.3805317862875	-205.7729671401452	-19.38073135491377	1600	1550	0	2020-05-30 18:51:37.292700
A2JW7BLD5P5EML	106	82	1	1363	241.4980149116405	12	-3	-232	271.00540548741697	4.237501801957734	-241.46083488785783	1550	1500	0	2020-05-30 18:51:42.681416
A2JW7BLD5P5EML	107	83	1	1325	225.08887418317602	1	181	134	35.18185407833256	183.97130812476416	129.6902427629493	1500	1450	0	2020-05-30 18:51:48.033323
A2JW7BLD5P5EML	108	84	1	1283	293.4224433948965	9	280	46	8.226629320657599	290.40307787808837	41.985505198391586	1450	1400	0	2020-05-30 18:51:53.351205
A2JW7BLD5P5EML	109	85	1	1357	294.8737842243909	1	-286	114	157.67044247827994	-272.76233232440524	112.03240016960875	1400	1350	0	2020-05-30 18:51:58.721478
A2JW7BLD5P5EML	110	86	0	0	267.9617537989393	2	0	0	179.00550152785976	-267.92138973475824	4.650851706854305	1350	1550	0	2020-05-30 18:52:04.096768
A2JW7BLD5P5EML	111	86	1	1289	182.11499180510702	6	32	169	79.55715800822507	33.00916986169994	179.09847834422166	1550	1500	0	2020-05-30 18:52:09.392734
A2JW7BLD5P5EML	112	87	0	0	276.4325907075051	13	0	0	146.45656850477917	-230.39749787135005	152.748061132979	1500	1700	0	2020-05-30 18:52:14.913090
A2JW7BLD5P5EML	113	87	1	1242	244.74462589129448	6	73	-226	290.6394489460274	86.26906767471998	-229.03619771818663	1700	1650	0	2020-05-30 18:52:21.060783
A2JW7BLD5P5EML	114	88	1	1332	139.7505864529141	8	-84	120	124.9735121817416	-80.10471212581301	114.51402319879449	1650	1600	0	2020-05-30 18:52:26.448260
A2JW7BLD5P5EML	115	89	1	1174	157.3405883036357	7	79	-139	300.69155680619156	80.30918569454224	-135.30149822087603	1600	1550	0	2020-05-30 18:52:31.634283
A2JW7BLD5P5EML	116	90	1	1478	128.57836346620965	7	-42	-122	250.70135973959182	-42.49411977855186	-121.35339029419328	1550	1500	0	2020-05-30 18:52:37.143150
A2JW7BLD5P5EML	117	91	1	1173	149.9119135780266	13	-159	2	180.6865303434407	-149.90115201966313	-1.7962337831038522	1500	1450	0	2020-05-30 18:53:16.934151
A2JW7BLD5P5EML	118	92	1	1145	115.329385034187	8	37	91	63.47100809933295	51.51193861315861	103.18617752721502	1450	1400	0	2020-05-30 18:53:22.123240
A2JW7BLD5P5EML	119	93	1	1328	292.0225299284763	7	99	-270	289.50761088789767	97.51568852492201	-275.2596019711905	1400	1350	0	2020-05-30 18:53:27.494036
A2JW7BLD5P5EML	120	94	1	1302	274.6019161225122	3	70	253	75.57340061101577	68.4141901492565	265.94305955293623	1350	1300	0	2020-05-30 18:53:32.794611
A2JW7BLD5P5EML	121	95	1	1146	120.74636048874598	3	118	46	23.228843486568564	110.95828703909295	47.622915793013505	1300	1250	0	2020-05-30 18:53:37.950160
A2JW7BLD5P5EML	122	96	0	0	219.92728674761298	6	0	0	30.46246890211102	189.56883948661664	111.49738360994918	1250	1450	0	2020-05-30 18:53:43.240731
A2JW7BLD5P5EML	123	96	1	1240	201.14189994295626	5	71	-181	291.45239817201536	73.56324517458222	-187.20713894519764	1450	1400	0	2020-05-30 18:53:48.506032
A2JW7BLD5P5EML	124	97	1	1215	280.2290664594684	12	-98	265	110.1550386195712	-96.55618521357512	263.06887460463076	1400	1350	0	2020-05-30 18:53:53.749030
A2JW7BLD5P5EML	125	98	1	1214	256.9360782393096	10	-240	9	180.02776544217502	-256.9360480704419	-0.1245108034909238	1350	1300	0	2020-05-30 18:53:58.967693
A2JW7BLD5P5EML	126	99	0	0	140.47112772856462	8	0	0	286.21433614071196	39.22394616177704	-134.8837268644099	1300	1500	0	2020-05-30 18:54:04.273193
A2JW7BLD5P5EML	127	99	1	1114	103.63713988339339	7	-120	-12	186.45965972346588	-102.9791800653008	-11.659555578511718	1500	1450	0	2020-05-30 18:54:09.466465
A2JW7BLD5P5EML	128	100	1	1274	250.43097066124776	7	247	-28	354.05894721277133	249.08588345215045	-25.920913008543078	1450	1400	0	2020-05-30 18:54:14.719973
A2JW7BLD5P5EML	129	101	1	1374	158.72551864789997	7	-12	-152	261.72354097007263	-22.848478871930546	-157.07239503898762	1400	1350	0	2020-05-30 18:54:20.105141
A2JW7BLD5P5EML	130	102	0	0	279.4568708681395	13	0	0	69.29696166120772	98.794836281311	261.41102310262465	1350	1550	0	2020-05-30 18:54:25.476095
A2JW7BLD5P5EML	131	102	1	1373	261.3042507183293	5	68	-253	283.75185113710825	62.11653436046744	-253.81380498805098	1550	1500	0	2020-05-30 18:54:30.879412
A2JW7BLD5P5EML	132	103	1	1331	195.64520585192054	0	143	140	44.25891224745695	140.1198041565927	136.54115517293118	1500	1450	0	2020-05-30 18:54:36.214884
A2JW7BLD5P5EML	133	104	1	1436	256.4061762008936	5	231	45	11.29847661226509	251.43699067124862	50.23511636445284	1450	1400	0	2020-05-30 18:54:41.679399
A2JW7BLD5P5EML	134	105	1	1356	279.23300438910235	14	-16	-280	265.3059045861851	-22.851256372499734	-278.29640820959713	1400	1350	0	2020-05-30 18:54:47.052112
A2JW7BLD5P5EML	135	106	1	1355	281.00216759749145	7	122	-267	292.81016181178234	108.93866161754796	-259.0262268564055	1350	1300	0	2020-05-30 18:54:52.430661
A2JW7BLD5P5EML	136	107	1	1171	254.38237567233296	3	-212	-130	211.50747715138402	-216.87928330155296	-132.94273025368733	1300	1250	0	2020-05-30 18:54:57.645147
A2JW7BLD5P5EML	137	108	0	0	272.3248086821959	1	0	0	112.66297395902801	-104.92941576796986	251.29786933117265	1250	1450	0	2020-05-30 18:55:02.916457
A2JW7BLD5P5EML	138	108	1	1207	128.28364456873706	7	-65	-104	235.792693865982	-72.11963324979423	-106.0917148685666	1450	1400	0	2020-05-30 18:55:08.841365
A2JW7BLD5P5EML	139	109	1	1328	131.81175526710413	3	135	51	19.182647123136363	124.49303001778694	43.31078738126743	1400	1350	0	2020-05-30 18:55:14.181319
A2JW7BLD5P5EML	140	110	1	1202	146.99870346166492	4	-110	104	139.12948885393425	-111.1590009421913	96.18885241515471	1350	1300	0	2020-05-30 18:55:19.406162
A2JW7BLD5P5EML	141	111	1	1235	233.4982301345431	4	184	132	32.94851013969443	195.9422997706491	126.99621504813886	1300	1250	0	2020-05-30 18:55:24.705760
A2JW7BLD5P5EML	142	112	1	1230	296.1538060518045	0	292	-4	0.502537637987821	296.1424146685902	2.59751289247924	1250	1200	0	2020-05-30 18:55:29.893612
A2JW7BLD5P5EML	143	113	0	0	124.4731377862843	12	0	0	0.6410178017689017	124.46534781192534	1.392560382807935	1200	1400	0	2020-05-30 18:55:35.131132
A2JW7BLD5P5EML	144	113	0	0	199.23360723827125	5	0	0	322.75548089857966	158.60188568379027	-120.57973341619085	1400	1600	0	2020-05-30 18:55:40.548241
A2JW7BLD5P5EML	145	113	1	1442	214.36100466084696	4	-83	-207	248.26755776593166	-79.37204832407153	-199.1248810773001	1600	1550	0	2020-05-30 18:55:45.994649
A2JW7BLD5P5EML	146	114	1	1439	294.05639367989335	5	-237	-153	210.89506483769304	-252.33247801286757	-150.98835453077209	1550	1500	0	2020-05-30 18:55:51.430493
A2JW7BLD5P5EML	147	115	1	1448	197.11184463883552	1	120	-149	307.309514749812	119.4735280915019	-156.77740711688512	1500	1450	0	2020-05-30 18:55:56.914450
A2JW7BLD5P5EML	148	116	1	1357	223.47027348767878	12	15	-213	272.74227001362954	10.691570920429596	-223.2143665714897	1450	1400	0	2020-05-30 18:56:02.254198
A2JW7BLD5P5EML	149	117	1	1099	125.01419502410246	7	58	99	55.36691072282848	71.04794548235633	102.86271627883666	1400	1350	0	2020-05-30 18:56:07.374453
A2JW7BLD5P5EML	150	118	1	1292	278.53789619479346	7	13	-280	271.0232888686298	4.974355509133632	-278.4934746163549	1350	1300	0	2020-05-30 18:56:12.700335
A2JW7BLD5P5EML	151	119	0	0	199.5908562753589	14	0	0	241.58721770943626	-94.96940919686176	-175.5486292328425	1300	1500	0	2020-05-30 18:56:18.006904
A2JW7BLD5P5EML	152	119	1	1451	275.23396607223356	6	-81	249	107.8361255058608	-84.30294461270094	262.00524729378856	1500	1450	0	2020-05-30 18:56:23.471445
A2JW7BLD5P5EML	153	120	1	1231	156.42701666544684	8	146	-16	353.13741439124766	155.3063078398083	-18.69123559368625	1450	1400	0	2020-05-30 18:56:28.717095
A2JW7BLD5P5EML	154	121	1	1336	254.5371561153598	1	-151	-207	232.24772588064965	-155.84003344150443	-201.25369020280309	1400	1350	0	2020-05-30 18:57:05.866438
A2JW7BLD5P5EML	155	122	1	1143	217.19730646893703	5	36	-215	281.0371484151032	41.581426332901266	-213.1798651877866	1350	1300	0	2020-05-30 18:57:11.846923
A2JW7BLD5P5EML	156	123	1	1187	207.70343730511712	12	8	-215	270.65941900810884	2.390412908983041	-207.6896814829405	1300	1250	0	2020-05-30 18:57:17.048433
A2JW7BLD5P5EML	157	124	1	1158	151.10172139214862	0	2	-159	273.46191800872845	9.124294019604724	-150.82598405551448	1250	1200	0	2020-05-30 18:57:22.221574
A2JW7BLD5P5EML	158	125	1	1150	182.4073632063028	14	-167	4	179.47999093521696	-182.39985068091875	1.6554828463665827	1200	1150	0	2020-05-30 18:57:27.405216
A2JW7BLD5P5EML	159	126	0	0	155.81393024145922	12	0	0	141.86130320334078	-122.5504771160011	96.22557568510986	1150	1350	0	2020-05-30 18:57:32.610091
A2JW7BLD5P5EML	160	126	1	1241	152.7377071000089	13	-147	-47	193.20827805907643	-148.6971686323193	-34.89927235487455	1350	1300	0	2020-05-30 18:57:37.835101
A2JW7BLD5P5EML	161	127	1	1246	287.5175112446498	0	269	104	23.242644739470435	264.1831297696356	113.46185798512732	1300	1250	0	2020-05-30 18:57:43.130954
A2JW7BLD5P5EML	162	128	1	1159	132.40554673862533	1	116	-77	325.1931592050011	108.71568710022859	-75.57862254288237	1250	1200	0	2020-05-30 18:57:48.292175
A2JW7BLD5P5EML	163	129	0	0	256.0381150133149	11	0	0	224.64134016950814	-182.17604545889108	-179.9094349958654	1200	1400	0	2020-05-30 18:57:53.514678
A2JW7BLD5P5EML	164	129	1	1321	149.1347120558446	8	84	-125	304.9396331369303	85.41139716472652	-122.25406158630896	1400	1350	0	2020-05-30 18:57:58.864615
A2JW7BLD5P5EML	165	130	1	1241	213.19198740557792	4	-51	211	100.72336725038281	-39.66806691658046	209.46901432202756	1350	1300	0	2020-05-30 18:58:04.123724
A2JW7BLD5P5EML	166	131	1	1232	259.9974678591466	10	211	168	39.818762480267026	199.69726069563634	166.4923042180239	1300	1250	0	2020-05-30 18:58:09.382118
A2JW7BLD5P5EML	167	132	1	1169	162.03801522719118	9	-166	15	172.47022703885875	-160.64074544274953	21.23368273204599	1250	1200	0	2020-05-30 18:58:14.576868
A2JW7BLD5P5EML	168	133	0	0	296.1506073239629	4	0	0	119.86645827959065	-147.47712721650018	256.8183777814981	1200	1400	0	2020-05-30 18:58:19.788095
A2JW7BLD5P5EML	169	133	1	1369	251.93165483053724	13	234	-52	346.8635209868608	245.33897270029638	-57.25685269045257	1400	1350	0	2020-05-30 18:58:25.169415
A2JW7BLD5P5EML	170	134	1	1181	221.56277539760106	3	1	219	89.19016869955166	3.1315133131598523	221.54064427607256	1350	1300	0	2020-05-30 18:58:30.402488
A2JW7BLD5P5EML	171	135	0	0	243.9323784067932	10	0	0	158.65280674004023	-227.19659495229064	88.79590349379713	1300	1500	0	2020-05-30 18:58:35.688904
A2JW7BLD5P5EML	172	135	0	0	112.85094198798129	14	0	0	121.71133686866543	-59.31896769167483	96.00309984354024	1500	1700	0	2020-05-30 18:58:41.197677
A2JW7BLD5P5EML	173	135	1	1180	214.65072595518257	3	-160	147	135.43845716293893	-152.93803555091412	150.6150438532427	1700	1650	0	2020-05-30 18:58:46.422744
A2JW7BLD5P5EML	174	136	1	1098	122.24865453716819	4	-82	-93	225.43031032003137	-85.79120630790459	-87.08962312688263	1650	1600	0	2020-05-30 18:58:52.274028
A2JW7BLD5P5EML	175	137	1	1251	247.7168883573988	4	-164	-183	226.2470065453796	-171.30881112935623	-178.93280304884996	1600	1550	0	2020-05-30 18:58:57.494334
A2JW7BLD5P5EML	176	138	1	1365	135.78288746242472	9	102	88	39.50626335951953	104.76397185910218	86.37999032147863	1550	1500	0	2020-05-30 18:59:02.873579
A2JW7BLD5P5EML	177	139	1	1485	290.79817801102297	6	-135	234	121.54607558330325	-152.1409725394554	247.82393913679783	1500	1450	0	2020-05-30 18:59:08.378481
A2JW7BLD5P5EML	178	140	1	1313	155.10038951643713	11	61	-152	287.2265325333696	45.93304064112686	-148.14279127116214	1450	1400	0	2020-05-30 18:59:13.707293
A2JW7BLD5P5EML	179	141	1	1280	107.07080967787697	7	-100	43	154.34103926191372	-96.51227952746139	46.3631123360944	1400	1350	0	2020-05-30 18:59:19.056094
A2JW7BLD5P5EML	180	142	0	0	189.13400419441615	0	0	0	55.30175611373012	107.66534979313882	155.49869451713892	1350	1550	0	2020-05-30 18:59:24.388711
A2JW7BLD5P5EML	181	142	1	1204	190.22673396143875	12	133	-135	316.72602372384523	138.50107580892737	-130.39809167854315	1550	1500	0	2020-05-30 18:59:29.738389
A2JW7BLD5P5EML	182	143	1	1298	206.50206068500725	5	171	40	12.047961428165905	201.95348488015193	43.103259875752585	1500	1450	0	2020-05-30 18:59:35.066260
A2JW7BLD5P5EML	183	144	1	1243	265.0110112656017	9	-133	-233	236.85711580349908	-144.88915633014648	-221.89630116330298	1450	1400	0	2020-05-30 18:59:40.319375
A2JW7BLD5P5EML	184	145	1	1141	220.45424938613257	4	-199	-95	203.4542385540837	-202.23993525093962	-87.74442809716687	1400	1350	0	2020-05-30 18:59:45.464852
A2JW7BLD5P5EML	185	146	1	1232	154.46845761604902	6	-94	-114	229.9339988154283	-99.42665321544054	-118.21524871461236	1350	1300	0	2020-05-30 18:59:50.726631
A2JW7BLD5P5EML	186	147	0	0	230.0364245483445	14	0	0	121.26339936917263	-119.38273391737518	196.63295619351146	1300	1500	0	2020-05-30 18:59:56.063924
A2JW7BLD5P5EML	187	147	1	1318	220.77110252068692	13	-53	-212	260.6943977355802	-35.69875639421873	-217.86573502987085	1500	1450	0	2020-05-30 19:00:01.397989
A2JW7BLD5P5EML	188	148	1	1296	152.55995157632037	12	53	135	69.44997378875017	53.55236872695341	142.85196053502955	1450	1400	0	2020-05-30 19:00:06.713922
A2JW7BLD5P5EML	189	149	1	1150	202.4856876721648	14	-137	-155	228.5094396964071	-134.14608893269377	-151.6749172939655	1400	1350	0	2020-05-30 19:00:11.895971
A2JW7BLD5P5EML	190	150	1	1282	209.00717052715964	3	-168	109	146.9808415860187	-175.2500892740524	113.89206970288075	1350	1300	0	2020-05-30 19:00:17.249928
