A09354962P34U7ILOPYKP	1	1	0	0	252.95498124348183	6	0	0	75.77581937579163	62.15521277602889	245.19982067827215	1500	1700	0	2020-05-30 02:02:02.416209
A09354962P34U7ILOPYKP	2	1	0	0	245.19037939807208	6	0	0	267.511529601755	-10.645761340911342	-244.95915968757504	1700	1900	0	2020-05-30 02:02:08.850379
A09354962P34U7ILOPYKP	3	1	0	0	263.34240407418406	8	0	0	141.92774456568333	-207.3120202485208	162.39134226937017	1900	2000	0	2020-05-30 02:02:15.078280
