A2FGKKWP33DFWS	1	1	0	55	148.21358034947866	5	-5	-3	160.37597540924168	-139.6048483325728	49.77702001979141	1500	1700	0	2020-05-31 17:43:21.203137
A2FGKKWP33DFWS	2	1	1	1699	146.26870989212006	0	111	-96	317.5976138780228	108.00880240620435	-98.63383849512641	1700	1650	0	2020-05-31 17:43:27.575512
A2FGKKWP33DFWS	3	2	1	1341	143.98704433985404	7	-57	134	111.35905045729199	-52.44170306803613	134.09748960010782	1650	1600	0	2020-05-31 17:43:32.947016
A2FGKKWP33DFWS	4	3	0	179	292.5152864339359	13	-3	-1	138.66683480777726	-219.6444548579082	193.1877486998073	1600	1800	0	2020-05-31 17:43:43.283917
A2FGKKWP33DFWS	5	3	0	694	172.70168021759207	4	84	64	33.54980234933685	143.93057422985208	95.44558738802162	1800	2000	0	2020-05-31 17:43:57.084028
A2FGKKWP33DFWS	6	3	1	1770	260.3453055846753	4	127	237	60.11979158544088	129.70097461225905	225.73731486975765	2000	1950	0	2020-05-31 17:44:03.695579
A2FGKKWP33DFWS	7	4	0	0	279.33146354482403	6	0	0	89.74296571034353	1.2531031796606977	279.32865277037814	1950	2000	0	2020-05-31 17:44:11.967865
A2FGKKWP33DFWS	8	4	1	1166	211.28917708401713	12	-58	-225	254.8471037534974	-55.23008974638028	-203.94301542207305	2000	1950	0	2020-05-31 17:44:30.948259
A2FGKKWP33DFWS	9	5	0	131	216.54334609929776	1	2	-3	250.34714292403376	-72.82796711433878	-203.929173846885	1950	2000	0	2020-05-31 17:44:35.222144
A2FGKKWP33DFWS	10	5	1	1484	193.3333857311668	2	-181	-66	202.29528635159477	-178.87996211929334	-73.34682808735705	2000	1950	0	2020-05-31 17:44:40.465298
A2FGKKWP33DFWS	11	6	1	1731	266.115724069494	2	2	272	89.51989630075974	2.229861422813471	266.1063815752379	1950	1900	0	2020-05-31 17:44:46.819567
A2FGKKWP33DFWS	12	7	1	1689	191.80290628005432	10	-63	183	105.1503847077824	-50.12834632911039	185.13644630861873	1900	1850	0	2020-05-31 17:44:52.818255
A2FGKKWP33DFWS	13	8	0	0	234.3354324875448	8	0	0	284.23360008849784	57.61742543097316	-227.14164568795155	1850	2000	0	2020-05-31 17:44:59.299891
A2FGKKWP33DFWS	14	8	1	1312	155.82046170821184	5	149	1	0.026267154240420254	155.82044533343964	0.07143562742166139	2000	1950	0	2020-05-31 17:45:04.953932
A2FGKKWP33DFWS	15	9	1	1796	129.51964583821783	8	-49	-117	246.15404616833752	-52.36207366587428	-118.4632934687658	1950	1900	0	2020-05-31 17:45:11.416622
A2FGKKWP33DFWS	16	10	1	1641	291.4490359390446	11	95	-275	289.7272375187596	98.37651802600145	-274.34394699150613	1900	1850	0	2020-05-31 17:45:17.531838
A2FGKKWP33DFWS	17	11	1	1351	272.03881675984735	13	123	244	62.11897829745584	127.215431269945	240.46070754054537	1850	1800	0	2020-05-31 17:45:23.351728
A2FGKKWP33DFWS	18	12	1	1380	128.34190506660826	9	-81	104	129.17655401872008	-81.07513886671825	99.49103705293578	1800	1750	0	2020-05-31 17:45:29.416488
A2FGKKWP33DFWS	19	13	0	241	119.95571847021252	3	-2	1	74.71836383937452	31.615995384655506	115.71431730577822	1750	1950	0	2020-05-31 17:45:33.749379
A2FGKKWP33DFWS	20	13	0	0	287.6809464124667	10	0	0	114.45350999967714	-119.08689724297697	261.87523333414555	1950	2000	0	2020-05-31 17:45:40.166804
A2FGKKWP33DFWS	21	13	0	0	252.16649347876557	11	0	0	25.705350034726216	227.2112207947744	109.37550721402208	2000	2000	0	2020-05-31 17:45:46.524085
A2FGKKWP33DFWS	22	13	1	1318	244.26081457477764	6	232	70	15.690959468220864	235.1582965031212	66.05998124798431	2000	1950	0	2020-05-31 17:45:52.569765
A2FGKKWP33DFWS	23	14	1	1513	187.4708763567785	1	-57	181	105.50570940346834	-50.11741396553071	180.64765234950096	1950	1900	0	2020-05-31 17:45:58.218303
A2FGKKWP33DFWS	24	15	1	1598	200.833647631044	7	-179	80	157.20120519042572	-185.14277634695102	77.82227436494782	1900	1850	0	2020-05-31 17:46:04.296065
A2FGKKWP33DFWS	25	16	1	1063	102.66264234149335	3	74	72	45.520053489329335	71.93156428911144	73.24935625286281	1850	1800	0	2020-05-31 17:46:09.670363
A2FGKKWP33DFWS	26	17	1	1336	224.40290315302067	4	-97	192	117.04591546855468	-102.03698412041257	199.86274494040816	1800	1750	0	2020-05-31 17:46:20.271323
A2FGKKWP33DFWS	27	18	1	1322	242.21195630561078	1	211	-120	330.83694184752414	211.5083080661555	-118.02909555013697	1750	1700	0	2020-05-31 17:46:25.861212
A2FGKKWP33DFWS	28	19	1	1700	172.4489008558515	8	-59	-164	252.68599706126483	-51.32220805140621	-164.63491235797915	1700	1650	0	2020-05-31 17:46:36.813648
A2FGKKWP33DFWS	29	20	1	1633	152.45049863369945	10	-122	-86	211.6081155269251	-129.83487982034643	-79.90030360205023	1650	1600	0	2020-05-31 17:46:42.407100
A2FGKKWP33DFWS	30	21	1	1476	127.19460089236722	8	-130	41	161.38456270319645	-120.54008945816358	40.60238083643007	1600	1550	0	2020-05-31 17:46:48.503177
A2FGKKWP33DFWS	31	22	1	1248	120.10416217831326	11	108	-54	331.76059649616406	105.80915589300024	-56.82809429996177	1550	1500	0	2020-05-31 17:46:53.968274
A2FGKKWP33DFWS	32	23	0	0	125.74121601638137	1	0	0	67.79319788454802	47.52398097351895	116.4144520139441	1500	1700	0	2020-05-31 17:47:00.060836
A2FGKKWP33DFWS	33	23	1	1423	213.14591540081966	0	203	54	13.622215110302562	207.1500689249215	50.19990235502101	1700	1650	0	2020-05-31 17:47:05.839271
A2FGKKWP33DFWS	34	24	1	982	262.1754876603516	2	-254	38	171.27035499741294	-259.1383135506615	39.79096354779845	1650	1600	0	2020-05-31 17:47:10.835743
A2FGKKWP33DFWS	35	25	1	1262	205.94356334156151	13	7	-203	273.4408086089391	12.360186795511412	-205.5723158992957	1600	1550	0	2020-05-31 17:47:16.668211
A2FGKKWP33DFWS	36	26	1	1225	267.81423742233477	4	-62	-256	256.32061364115606	-63.335011598122655	-260.2174899424948	1550	1500	0	2020-05-31 17:47:22.224909
A2FGKKWP33DFWS	37	27	1	1321	189.9378681531037	5	-149	109	145.68640487891253	-156.88194731502279	107.07216428741978	1500	1450	0	2020-05-31 17:47:27.653384
A2FGKKWP33DFWS	38	28	0	0	174.63304139284162	9	0	0	334.4702695186713	157.58218083545418	-75.26324088993346	1450	1650	0	2020-05-31 17:47:33.583404
A2FGKKWP33DFWS	39	28	0	0	175.68724198639552	8	0	0	327.58419539439717	148.31167168695563	-94.17884602290992	1650	1850	0	2020-05-31 17:47:39.060312
A2FGKKWP33DFWS	40	28	1	1587	225.50608400148366	14	89	201	67.24716235667485	87.21597406029467	207.9576105613791	1850	1800	0	2020-05-31 17:47:44.676026
A2FGKKWP33DFWS	41	29	1	1189	249.89531239052053	7	188	-142	322.5633519752632	198.4233660796087	-151.90732355088556	1800	1750	0	2020-05-31 17:47:50.551731
A2FGKKWP33DFWS	42	30	1	1150	219.62608025058825	0	76	-199	291.61552853425184	80.90509354906217	-204.18124537786355	1750	1700	0	2020-05-31 17:47:55.357117
A2FGKKWP33DFWS	43	31	1	1409	169.6097893861685	5	-177	25	170.61608121213126	-167.34006498730983	27.654715794297417	1700	1650	0	2020-05-31 17:48:05.492981
A2FGKKWP33DFWS	44	32	1	1360	228.9373673081587	14	-66	208	105.89413050938079	-62.696946433819484	220.18494739165425	1650	1600	0	2020-05-31 17:48:11.139707
A2FGKKWP33DFWS	45	33	1	1418	121.96646777432036	3	-114	-67	216.27804590787375	-98.32388581436656	-72.16808671225623	1600	1550	0	2020-05-31 17:48:16.996295
A2FGKKWP33DFWS	46	34	1	1324	165.53510459658827	4	166	33	12.869242142200346	161.3770117793929	36.86910526385346	1550	1500	0	2020-05-31 17:48:22.663878
A2FGKKWP33DFWS	47	35	0	0	171.49361009459977	0	0	0	172.96918639611036	-170.20405821994018	20.991352237095857	1500	1700	0	2020-05-31 17:48:28.709168
A2FGKKWP33DFWS	48	35	1	1449	224.72861171984204	11	2	218	92.21529477711891	-8.686784521235865	224.56065706220477	1700	1650	0	2020-05-31 17:48:34.755361
A2FGKKWP33DFWS	49	36	0	0	232.24060428549745	1	0	0	282.88432296612757	51.78579898959934	-226.39330666320907	1650	1850	0	2020-05-31 17:48:40.451746
A2FGKKWP33DFWS	50	36	1	1722	257.7238160787957	4	108	-232	297.8955439509719	120.57894292777253	-227.77682914782596	1850	1800	0	2020-05-31 17:48:46.811096
A2FGKKWP33DFWS	51	37	1	1608	272.6626226426091	4	140	-227	301.82899332184866	143.79839490855636	-231.66123415036174	1800	1750	0	2020-05-31 17:48:52.334699
A2FGKKWP33DFWS	52	38	1	1196	138.7031313865207	1	-37	125	107.63869578351772	-42.02893198360033	132.18217554853726	1750	1700	0	2020-05-31 17:48:58.631921
A2FGKKWP33DFWS	53	39	1	1548	260.7918344890036	12	230	136	30.145540505033974	225.52039885215893	130.96919728586178	1700	1650	0	2020-05-31 17:49:04.157959
A2FGKKWP33DFWS	54	40	1	1312	202.9985044259849	14	203	-43	348.83439461505975	199.15606293381177	-39.309736655060654	1650	1600	0	2020-05-31 17:49:10.009133
A2FGKKWP33DFWS	55	41	1	1453	264.5769993128651	7	124	257	61.48560661308217	126.30363950598893	232.48307296003512	1600	1550	0	2020-05-31 17:49:15.784375
A2FGKKWP33DFWS	56	42	1	1330	167.9804835693921	5	-159	71	159.16204668555767	-156.99292126228428	59.75504609437613	1550	1500	0	2020-05-31 17:49:21.487151
A2FGKKWP33DFWS	57	43	1	1059	133.48532885496388	2	140	25	12.032733875799977	130.55247707819532	27.827751405119628	1500	1450	0	2020-05-31 17:49:26.973380
A2FGKKWP33DFWS	58	44	1	1360	219.15779608831025	9	-171	145	139.33884300890224	-166.24789790753934	142.7997760068613	1450	1400	0	2020-05-31 17:49:32.750048
A2FGKKWP33DFWS	59	45	0	0	276.27760338348315	1	0	0	273.9300665269178	18.93574257721418	-275.6279227225912	1400	1600	0	2020-05-31 17:49:38.824112
A2FGKKWP33DFWS	60	45	1	1114	273.27268954430855	4	-262	-173	215.81744713292017	-221.5929041217413	-159.9204417629992	1600	1550	0	2020-05-31 17:49:43.953340
A2FGKKWP33DFWS	61	46	1	1421	149.6805362918455	1	-146	-22	190.19362384652942	-147.31787523697727	-26.489744813358953	1550	1500	0	2020-05-31 17:49:49.729639
A2FGKKWP33DFWS	62	47	1	1104	146.19531748540834	10	-9	-146	265.0900218017254	-12.512921224816397	-145.658839955153	1500	1450	0	2020-05-31 17:49:54.907401
A2FGKKWP33DFWS	63	48	1	1177	127.14890890074169	5	134	-8	357.8338277727922	127.05804913489922	-4.805953046238073	1450	1400	0	2020-05-31 17:50:01.125939
A2FGKKWP33DFWS	64	49	1	1250	260.59494469980984	0	14	-249	271.1479093134002	5.220617555263312	-260.54264594388115	1400	1350	0	2020-05-31 17:50:06.410503
A2FGKKWP33DFWS	65	50	0	0	176.86807493841815	1	0	0	352.3899305812336	175.31027074210667	-23.4227433224879	1350	1550	0	2020-05-31 17:50:11.902001
A2FGKKWP33DFWS	66	50	1	1194	216.38108593013467	13	55	-215	281.2556098904967	42.23463454638794	-212.21924981734662	1550	1500	0	2020-05-31 17:50:17.513517
A2FGKKWP33DFWS	67	51	0	0	297.63712993328716	3	0	0	205.23457950745882	-269.2335944287695	-126.89023897010095	1500	1700	0	2020-05-31 17:50:23.787271
A2FGKKWP33DFWS	68	51	1	1342	206.93029887677716	12	201	4	2.9721180054645657	206.65195380566277	10.729332762783805	1700	1650	0	2020-05-31 17:50:29.329527
A2FGKKWP33DFWS	69	52	1	1083	156.51906931408598	13	131	64	28.118541932980445	138.04581099610343	73.76701922523199	1650	1600	0	2020-05-31 17:50:35.156048
A2FGKKWP33DFWS	70	53	1	1158	183.52695067294172	3	113	131	50.606762936445016	116.4734152824682	141.8311854133148	1600	1550	0	2020-05-31 17:50:40.073839
A2FGKKWP33DFWS	71	54	1	1338	220.96435662357987	5	-11	216	94.51000470331402	-17.37512809774054	220.28016665523862	1550	1500	0	2020-05-31 17:50:45.915090
A2FGKKWP33DFWS	72	55	1	1055	129.80204158227107	5	14	118	82.25035813338366	17.50312212782083	128.6165258227115	1500	1450	0	2020-05-31 17:50:51.498796
A2FGKKWP33DFWS	73	56	0	0	261.90623494132234	4	0	0	20.809543894714018	244.82117781536957	93.04550926420008	1450	1650	0	2020-05-31 17:50:57.214763
A2FGKKWP33DFWS	74	56	1	1191	102.52083531571911	6	-71	87	127.7542663270481	-62.771062775808076	81.0574817757643	1650	1600	0	2020-05-31 17:51:03.056521
A2FGKKWP33DFWS	75	57	1	1017	145.43887317772698	1	-89	105	129.55981481520013	-92.62760737657881	112.12757102023264	1600	1550	0	2020-05-31 17:51:08.484509
A2FGKKWP33DFWS	76	58	0	0	248.2760186971046	1	0	0	166.68799568148629	-241.60500409324098	57.16645394976017	1550	1750	0	2020-05-31 17:51:14.207817
A2FGKKWP33DFWS	77	58	1	1350	297.8653116887399	2	298	69	13.400909303520896	289.75509460541787	69.03426002815927	1750	1700	0	2020-05-31 17:51:19.823903
A2FGKKWP33DFWS	78	59	1	1203	183.48334907828763	0	67	167	66.8249988229755	72.20819178831825	168.67755164113038	1700	1650	0	2020-05-31 17:51:25.744894
A2FGKKWP33DFWS	79	60	1	1194	263.75795411190734	8	-108	-235	246.23425147499174	-106.29399669028564	-241.39147587457302	1650	1600	0	2020-05-31 17:51:31.461387
A2FGKKWP33DFWS	80	61	1	1200	208.81513113842547	3	209	30	8.62546063995457	206.45339736426223	31.31698754848361	1600	1550	0	2020-05-31 17:51:41.816036
A2FGKKWP33DFWS	81	62	1	1121	159.73395627703405	14	85	-140	298.38864599639464	75.94549104611532	-140.5247991554439	1550	1500	0	2020-05-31 17:51:47.264754
A2FGKKWP33DFWS	82	63	1	1327	197.54218238562504	0	0	-195	268.5214273433359	-5.097200083354637	-197.47640966197912	1500	1450	0	2020-05-31 17:51:53.192514
A2FGKKWP33DFWS	83	64	0	0	299.27209569508545	3	0	0	94.43412180747119	-23.137562835006587	298.37634029491096	1450	1650	0	2020-05-31 17:51:58.803678
A2FGKKWP33DFWS	84	64	1	1067	131.7657312431947	3	56	-126	294.0959686859368	53.795498684210145	-120.28404819996273	1650	1600	0	2020-05-31 17:52:04.254252
A2FGKKWP33DFWS	85	65	1	1503	212.0403258736019	7	213	-35	349.1677365831763	208.2621023003245	-39.84967430271493	1600	1550	0	2020-05-31 17:52:10.101862
A2FGKKWP33DFWS	86	66	1	1278	221.3760866026667	11	-19	-226	265.8766901760147	-15.917655761547213	-220.80307958578902	1550	1500	0	2020-05-31 17:52:16.113078
A2FGKKWP33DFWS	87	67	0	0	255.60873144302047	4	0	0	330.3556856218992	222.1527791690988	-126.42771174610331	1500	1700	0	2020-05-31 17:52:23.965436
A2FGKKWP33DFWS	88	67	1	1427	239.1971168952008	5	16	229	83.01505230678383	29.088422947280023	237.42182793798995	1700	1650	0	2020-05-31 17:52:30.467892
A2FGKKWP33DFWS	89	68	1	1426	135.79915926612352	7	39	134	75.53794189563067	33.914323310670255	131.49612287731264	1650	1600	0	2020-05-31 17:52:36.006324
A2FGKKWP33DFWS	90	69	1	1205	216.63027021933718	10	175	-127	325.213198181092	177.91424961112125	-123.59285481213986	1600	1550	0	2020-05-31 17:52:41.624967
A2FGKKWP33DFWS	91	70	1	1361	265.1970704072608	5	-28	-259	265.8562255703422	-19.163001359034094	-264.5038100510223	1550	1500	0	2020-05-31 17:52:47.378447
A2FGKKWP33DFWS	92	71	1	1484	196.4978297412674	8	60	184	72.49739991806454	59.09654129284931	187.40062940195975	1500	1450	0	2020-05-31 17:52:52.880839
A2FGKKWP33DFWS	93	72	0	0	101.15224739627826	14	0	0	211.89929306151836	-85.87605369428618	-53.45166559812665	1450	1650	0	2020-05-31 17:52:58.931344
A2FGKKWP33DFWS	94	72	1	1276	142.50947452709403	3	-80	-125	240.71554184003259	-69.70792225183011	-124.29704704988477	1650	1600	0	2020-05-31 17:53:04.818523
A2FGKKWP33DFWS	95	73	1	1388	183.34461223698673	9	211	21	6.366353190470289	182.21396408766887	20.330226948776055	1600	1550	0	2020-05-31 17:53:10.276376
A2FGKKWP33DFWS	96	74	1	1327	282.2456750313815	4	278	7	1.7895549333055971	282.10801533806836	8.814122527875712	1550	1500	0	2020-05-31 17:53:16.140008
A2FGKKWP33DFWS	97	75	1	1108	127.65419372866984	12	67	-112	303.3631669306955	70.2026499335216	-106.61698325702238	1500	1450	0	2020-05-31 17:53:21.943626
A2FGKKWP33DFWS	98	76	1	1300	129.86386857651394	9	-105	-63	207.94669400405576	-114.71966246329478	-60.86068851044817	1450	1400	0	2020-05-31 17:53:27.745362
A2FGKKWP33DFWS	99	77	0	0	202.98272886708935	9	0	0	277.0403000309273	24.87907316332412	-201.4522770704374	1400	1600	0	2020-05-31 17:53:33.811841
A2FGKKWP33DFWS	100	77	1	1334	292.19974425707824	11	135	-251	299.98686610006763	146.04186113980242	-253.08588530126406	1600	1550	0	2020-05-31 17:53:39.516269
A2FGKKWP33DFWS	101	78	0	0	218.0037688098218	8	0	0	215.37672890218312	-177.75220863819303	-126.21329383044608	1550	1750	0	2020-05-31 17:53:45.619264
A2FGKKWP33DFWS	102	78	1	1164	258.1056793733245	7	215	113	27.754956928181223	228.40993740528702	120.1975133656194	1750	1700	0	2020-05-31 17:53:50.892816
A2FGKKWP33DFWS	103	79	1	1525	283.40041663474943	14	199	-199	314.62495455792293	199.07833567586528	-201.70179080334677	1700	1650	0	2020-05-31 17:53:56.713625
A2FGKKWP33DFWS	104	80	1	1585	167.39232957972305	9	-85	155	118.99972870506873	-81.15271851035527	146.40501453333377	1650	1600	0	2020-05-31 17:54:02.659706
A2FGKKWP33DFWS	105	81	1	1255	174.34781320657754	4	85	-137	300.8670244217896	89.44867881353696	-149.6532452986849	1600	1550	0	2020-05-31 17:54:08.790838
A2FGKKWP33DFWS	106	82	1	1539	282.3457421593823	14	283	33	7.119915989124586	280.16854989231854	34.995739265914	1550	1500	0	2020-05-31 17:54:15.114353
A2FGKKWP33DFWS	107	83	0	0	141.6836038044096	14	0	0	215.9237613332822	-114.73515485402368	-83.12693803832856	1500	1700	0	2020-05-31 17:54:21.000806
A2FGKKWP33DFWS	108	83	1	997	101.75688900108332	13	15	90	78.12407601917732	20.940854648978252	99.57883844346226	1700	1650	0	2020-05-31 17:54:30.684389
A2FGKKWP33DFWS	109	84	1	1481	263.44694479714667	5	247	55	14.340999782913917	255.23760486216707	65.25379519365228	1650	1600	0	2020-05-31 17:54:36.131691
A2FGKKWP33DFWS	110	85	1	1392	249.20213253338255	10	184	162	39.16519000735879	193.2134743508339	157.385692451586	1600	1550	0	2020-05-31 17:54:41.489525
A2FGKKWP33DFWS	111	86	1	1447	296.32870656297774	2	273	-82	343.29718258754366	283.8261134238646	-85.16712788389007	1550	1500	0	2020-05-31 17:54:47.405563
A2FGKKWP33DFWS	112	87	1	1375	183.11167542977057	12	187	-22	352.57982383685624	181.5782518878106	-23.647919994461514	1500	1450	0	2020-05-31 17:54:53.278445
A2FGKKWP33DFWS	113	88	1	1175	131.09093846501173	9	112	59	26.511278727300656	117.30626875313976	58.51558304292658	1450	1400	0	2020-05-31 17:54:58.910056
A2FGKKWP33DFWS	114	89	0	0	282.56949786356006	3	0	0	164.46132586168096	-272.24154038470584	75.69719157159705	1400	1600	0	2020-05-31 17:55:05.719942
A2FGKKWP33DFWS	115	89	1	1471	157.75213570802197	1	-161	35	164.01236644766436	-151.65046700618464	43.44965106014414	1600	1550	0	2020-05-31 17:55:11.808963
A2FGKKWP33DFWS	116	90	1	1108	245.06174722799318	6	237	-3	358.95587528840025	245.02105673092498	-4.465614503924612	1550	1500	0	2020-05-31 17:55:17.223665
A2FGKKWP33DFWS	117	91	1	1139	216.78248335499836	3	-188	45	169.18502646224675	-212.93204652082008	40.67663523468294	1500	1450	0	2020-05-31 17:55:51.817689
A2FGKKWP33DFWS	118	92	1	1439	278.471029925648	0	76	257	72.57709038764658	83.38044171784604	265.6949688021736	1450	1400	0	2020-05-31 17:56:02.177394
A2FGKKWP33DFWS	119	93	1	1388	185.6115002588756	11	-65	-176	252.26588117140852	-56.537319304886665	-176.7912909454758	1400	1350	0	2020-05-31 17:56:08.077110
A2FGKKWP33DFWS	120	94	1	1230	126.52414527857844	12	-41	-111	249.56299613081222	-44.17936046783503	-118.56029456410741	1350	1300	0	2020-05-31 17:56:13.811816
A2FGKKWP33DFWS	121	95	1	1135	143.6548571082938	13	-81	-105	235.1464099167975	-82.09607282392157	-117.88533750086852	1300	1250	0	2020-05-31 17:56:19.224746
A2FGKKWP33DFWS	122	96	0	0	219.89982860772318	6	0	0	41.25297358351108	165.32191977046554	144.99861194202444	1250	1450	0	2020-05-31 17:56:24.925725
A2FGKKWP33DFWS	123	96	1	1149	126.16680461172037	6	59	113	69.20920978052064	44.78375173302768	117.95116856838072	1450	1400	0	2020-05-31 17:56:30.761782
A2FGKKWP33DFWS	124	97	1	1105	137.56711022052124	12	-101	100	134.5467120591514	-96.50202500055875	98.04115964846895	1400	1350	0	2020-05-31 17:56:36.179204
A2FGKKWP33DFWS	125	98	0	0	261.43311553076165	0	0	0	177.9368337774533	-261.2636400602732	9.411922151005705	1350	1550	0	2020-05-31 17:56:41.658371
A2FGKKWP33DFWS	126	98	1	1152	194.06088225685542	5	181	-26	351.1945384569699	191.7736407327257	-29.70684672637851	1550	1500	0	2020-05-31 17:56:47.406718
A2FGKKWP33DFWS	127	99	1	1421	196.16009011993037	0	-18	-184	265.2527376029342	-16.234325054419074	-195.487154682569	1500	1450	0	2020-05-31 17:56:53.224850
A2FGKKWP33DFWS	128	100	0	0	170.25679881352804	5	0	0	108.70511013570847	-54.600924588488624	161.26412054859674	1450	1650	0	2020-05-31 17:56:58.876571
A2FGKKWP33DFWS	129	100	1	1006	115.30373092653794	9	-119	-39	193.15939947140896	-112.27590923736709	-26.250153723396895	1650	1600	0	2020-05-31 17:57:04.239560
A2FGKKWP33DFWS	130	101	1	1267	154.673459920697	12	-138	65	155.4328956237552	-140.67163898458446	64.30683625579945	1600	1550	0	2020-05-31 17:57:10.305385
A2FGKKWP33DFWS	131	102	1	961	137.94443414030422	10	135	60	26.15173489204084	123.82305816954513	60.79898992442368	1550	1500	0	2020-05-31 17:57:15.295897
A2FGKKWP33DFWS	132	103	0	0	119.90149873171902	4	0	0	163.6935098771595	-115.07828032242249	33.66539463820924	1500	1700	0	2020-05-31 17:57:21.442811
A2FGKKWP33DFWS	133	103	1	1405	243.44343544673984	0	147	203	53.12162455152814	146.09487666616064	194.7331334776142	1700	1650	0	2020-05-31 17:57:27.578063
A2FGKKWP33DFWS	134	104	1	1283	202.2901740984973	7	-190	-59	202.58863778088318	-186.7717681862787	-77.70213089337584	1650	1600	0	2020-05-31 17:57:33.502498
A2FGKKWP33DFWS	135	105	1	1058	124.90748358007457	1	81	-101	309.5839911409032	79.59213246498095	-96.26511260048224	1600	1550	0	2020-05-31 17:57:38.859996
A2FGKKWP33DFWS	136	106	1	989	109.68911224615692	0	-83	69	142.2173060436383	-86.69170430753127	67.20304866302999	1550	1500	0	2020-05-31 17:57:44.301538
A2FGKKWP33DFWS	137	107	1	1171	289.50367697466754	12	172	-221	307.44728333757666	176.02727489830704	-229.84076547411797	1500	1450	0	2020-05-31 17:57:49.969627
A2FGKKWP33DFWS	138	108	1	1352	141.12830574925698	11	-145	44	161.82292798728878	-134.08557456863517	44.02564452969132	1450	1400	0	2020-05-31 17:57:55.783052
A2FGKKWP33DFWS	139	109	0	0	151.30424951129987	0	0	0	301.20106814954266	78.38210061243059	-129.41878620880547	1400	1600	0	2020-05-31 17:58:02.081890
A2FGKKWP33DFWS	140	109	1	1454	228.19535846427473	7	163	151	45.17620944878619	160.8614755573699	161.853969077513	1600	1550	0	2020-05-31 17:58:10.308909
A2FGKKWP33DFWS	141	110	1	981	210.74995735948403	4	-162	-2	177.36000795194892	-210.5262807168752	9.707196018614649	1550	1500	0	2020-05-31 17:58:15.493426
A2FGKKWP33DFWS	142	111	0	0	185.20812309252165	9	0	0	150.9808860155979	-161.95671101893615	89.84471389783292	1500	1700	0	2020-05-31 17:58:21.645508
A2FGKKWP33DFWS	143	111	0	0	196.668392154294	2	0	0	144.13544029265856	-159.38088824807136	115.22234563577916	1700	1900	0	2020-05-31 17:58:32.808409
A2FGKKWP33DFWS	144	111	1	922	104.79662472822251	5	-27	109	104.62504133227844	-26.460338192667614	101.40109988139949	1900	1850	0	2020-05-31 17:58:38.517090
A2FGKKWP33DFWS	145	112	0	0	207.16455440582342	14	0	0	180.07338444483614	-207.16438448439257	-0.26533632647050276	1850	2000	0	2020-05-31 17:58:44.376033
A2FGKKWP33DFWS	146	112	1	1415	172.81041178273597	13	-163	-22	187.02597266703432	-171.51274474561436	-21.138041781217762	2000	1950	0	2020-05-31 17:58:50.289769
A2FGKKWP33DFWS	147	113	1	1259	197.82422790319782	7	131	133	43.07503682235422	144.50266624910935	135.10516123522027	1950	1900	0	2020-05-31 17:58:55.476523
A2FGKKWP33DFWS	148	114	1	1027	117.58805087336066	5	-57	93	121.53209654556947	-61.49574302050318	100.22586142584302	1900	1850	0	2020-05-31 17:59:01.276452
A2FGKKWP33DFWS	149	115	1	1309	269.70193685715606	10	213	-169	320.1056636297183	206.92302721819706	-172.9797547441858	1850	1800	0	2020-05-31 17:59:06.678958
A2FGKKWP33DFWS	150	116	1	986	156.0453243106856	6	-142	-31	192.8854498562844	-152.11576858651753	-34.79850839562084	1800	1750	0	2020-05-31 17:59:12.229527
A2FGKKWP33DFWS	151	117	1	1361	176.76309545327436	7	-55	-175	252.7379330725219	-52.45315871252835	-168.801238310925	1750	1700	0	2020-05-31 17:59:20.312951
A2FGKKWP33DFWS	152	118	0	0	191.53164962406476	5	0	0	80.70093941706116	30.949147377057194	189.01461076950824	1700	1900	0	2020-05-31 17:59:26.799203
A2FGKKWP33DFWS	153	118	1	1652	282.46711471811267	10	16	282	86.62803298272723	16.61413941097683	281.97808650462196	1900	1850	0	2020-05-31 17:59:32.433047
A2FGKKWP33DFWS	154	119	1	1140	272.6835879047304	3	7	264	85.53468589131542	21.2299346863486	271.85589746373023	1850	1800	0	2020-05-31 17:59:37.631431
A2FGKKWP33DFWS	155	120	1	1213	214.5709763396655	9	-177	97	152.04320062670013	-189.5308266772469	100.59209524806951	1800	1750	0	2020-05-31 17:59:43.849615
A2FGKKWP33DFWS	156	121	0	19	248.3872294945375	4	-5	-3	275.8582517234372	25.352319295966485	-247.09001534316883	1750	1950	0	2020-05-31 17:59:52.447500
A2FGKKWP33DFWS	157	121	0	0	170.4557211229345	11	0	0	227.78148373738645	-114.53941952649456	-126.2373725886011	1950	2000	0	2020-05-31 17:59:58.415603
A2FGKKWP33DFWS	158	121	1	1279	213.725927588927	1	183	95	26.188083352005556	191.78699889765664	94.32136119446913	2000	1950	0	2020-05-31 18:00:04.291074
A2FGKKWP33DFWS	159	122	1	1448	228.9682012781406	12	-201	-117	211.99699009431768	-194.18242095149114	-121.32445998216933	1950	1900	0	2020-05-31 18:00:10.093180
A2FGKKWP33DFWS	160	123	1	1026	133.52128115820437	12	119	-69	333.91657211890606	119.9227776166618	-58.70655781795541	1900	1850	0	2020-05-31 18:00:15.812594
A2FGKKWP33DFWS	161	124	1	1084	220.70718747257303	1	170	-123	324.4981285543815	179.67695998901013	-128.1711849487284	1850	1800	0	2020-05-31 18:00:21.527037
A2FGKKWP33DFWS	162	125	1	1482	236.1108352571323	7	-224	46	168.79607698738877	-231.61100046855464	45.87669329600656	1800	1750	0	2020-05-31 18:00:27.921940
A2FGKKWP33DFWS	163	126	1	1395	280.74970241767363	5	-247	-91	201.34034303089064	-261.5001621438203	-102.1668273284827	1750	1700	0	2020-05-31 18:00:33.889656
A2FGKKWP33DFWS	164	127	1	1290	228.32756377536225	0	-1	219	92.31343435016636	-9.216687832753824	228.1414671754911	1700	1650	0	2020-05-31 18:00:39.810566
A2FGKKWP33DFWS	165	128	1	1231	145.11069143117436	14	-109	111	129.97468111833263	-93.22622346727991	111.20244613164897	1650	1600	0	2020-05-31 18:00:44.903385
A2FGKKWP33DFWS	166	129	1	1247	188.69100536677223	4	-175	13	178.7745634002648	-188.64784937746967	4.035397326012126	1600	1550	0	2020-05-31 18:00:50.831115
A2FGKKWP33DFWS	167	130	0	0	132.9609065937586	11	0	0	248.54993734275158	-48.622495552495046	-123.75158830690539	1550	1750	0	2020-05-31 18:00:56.595324
A2FGKKWP33DFWS	168	130	1	1126	156.11460010936864	1	-109	100	140.60380954155661	-120.6415809968112	99.08267912151915	1750	1700	0	2020-05-31 18:01:02.142865
A2FGKKWP33DFWS	169	131	1	931	112.8296207328492	3	103	30	12.217789443921774	110.27405623998789	23.87793615659829	1700	1650	0	2020-05-31 18:01:08.001912
A2FGKKWP33DFWS	170	132	0	0	278.1759710647399	0	0	0	196.93269517063416	-266.1163590893746	-81.01823438477317	1650	1850	0	2020-05-31 18:01:13.517431
A2FGKKWP33DFWS	171	132	1	1385	272.7167076806869	6	-268	21	176.30034040143158	-272.1483665116246	17.597421778421754	1850	1800	0	2020-05-31 18:01:19.420883
A2FGKKWP33DFWS	172	133	1	1376	266.5419691083763	12	-1	272	88.6569311947082	6.247430854547405	266.46874282716215	1800	1750	0	2020-05-31 18:01:25.186430
A2FGKKWP33DFWS	173	134	1	1217	221.35646575385277	11	134	-189	304.1304015507831	124.19830736572395	-183.23063438881	1750	1700	0	2020-05-31 18:01:30.915643
A2FGKKWP33DFWS	174	135	1	1626	246.24509966740277	6	55	240	78.02451603431533	51.09416810348251	240.88593793748566	1700	1650	0	2020-05-31 18:01:38.084600
A2FGKKWP33DFWS	175	136	1	1353	194.98858352731105	10	-181	-65	201.68942793599246	-181.1835439825844	-72.06296618859136	1650	1600	0	2020-05-31 18:01:43.285249
A2FGKKWP33DFWS	176	137	1	1381	288.0175685085492	1	-289	-43	189.1396990674214	-284.3608932155231	-45.74934075204465	1600	1550	0	2020-05-31 18:01:48.744771
A2FGKKWP33DFWS	177	138	1	1337	236.98571657151888	4	-145	183	126.79333089328489	-141.93794789507763	189.77842028600224	1550	1500	0	2020-05-31 18:01:54.910152
A2FGKKWP33DFWS	178	139	1	1039	146.871706338008	10	-96	117	129.63574769589252	-93.69013714414466	113.10816205981524	1500	1450	0	2020-05-31 18:02:00.315472
A2FGKKWP33DFWS	179	140	0	0	225.00005709514164	8	0	0	162.05234339586406	-214.05120024928758	69.33332073870682	1450	1650	0	2020-05-31 18:02:06.181119
A2FGKKWP33DFWS	180	140	1	1293	181.4604645001959	9	175	-37	349.84494454925925	178.61774402241952	-31.99377590982777	1650	1600	0	2020-05-31 18:02:11.916076
A2FGKKWP33DFWS	181	141	1	1367	178.85516839719733	13	-167	68	160.17980346609363	-168.2600219378584	60.644342521468786	1600	1550	0	2020-05-31 18:02:17.691423
A2FGKKWP33DFWS	182	142	1	1310	269.53078946262303	0	84	-245	290.6028441048917	94.84468090626983	-252.29215796796512	1550	1500	0	2020-05-31 18:02:23.483750
A2FGKKWP33DFWS	183	143	1	1185	113.13925602467569	8	107	25	13.374977478429244	110.07057948922042	26.171717267392356	1500	1450	0	2020-05-31 18:02:28.881435
A2FGKKWP33DFWS	184	144	1	1138	169.35506101912287	4	72	145	65.4168996256077	70.4538377724636	154.00452407615242	1450	1400	0	2020-05-31 18:02:34.246972
A2FGKKWP33DFWS	185	145	1	1231	290.0757072046165	1	224	186	40.44710304287007	220.749129935534	188.18538078969664	1400	1350	0	2020-05-31 18:02:39.812035
A2FGKKWP33DFWS	186	146	1	1224	233.41508302164954	9	-1	240	92.47666411666782	-10.086445402398368	233.1970510129748	1350	1300	0	2020-05-31 18:02:45.653079
A2FGKKWP33DFWS	187	147	1	1300	143.81124443873784	11	-110	95	136.9983489068068	-105.17405956634617	98.0820637086775	1300	1250	0	2020-05-31 18:02:51.696004
A2FGKKWP33DFWS	188	148	0	0	145.62735014005744	9	0	0	125.6229110525476	-84.82036770228176	118.37580129259783	1250	1450	0	2020-05-31 18:02:57.301452
A2FGKKWP33DFWS	189	148	1	1160	174.90228597378228	8	169	-36	348.3301265441061	171.28693369516145	-35.37790248395293	1450	1400	0	2020-05-31 18:03:03.215216
A2FGKKWP33DFWS	190	149	1	1359	135.43339695474896	10	138	24	9.086833802162726	133.73372466770584	21.38915372811294	1400	1350	0	2020-05-31 18:03:09.516257
A2FGKKWP33DFWS	191	150	0	0	214.65445427821996	11	0	0	14.494370616315866	207.82248293608268	53.724764566836846	1350	1550	0	2020-05-31 18:03:15.266577
A2FGKKWP33DFWS	192	150	1	1492	188.11827724658724	1	-32	-192	263.1963777913778	-22.285759570251322	-186.79355222972984	1550	1500	0	2020-05-31 18:03:21.273855
