A2YNWB6RWLLKRO	1	1	1	855	224.04681724220507	3	-257	11	176.3960489145149	-223.60374137267988	14.083435678190282	1500	1450	0	2020-05-31 19:13:55.856371
A2YNWB6RWLLKRO	2	2	1	1022	290.0398613829767	0	18	-285	273.93933864108686	19.925817786110827	-289.35459729648505	1450	1400	0	2020-05-31 19:14:00.843769
A2YNWB6RWLLKRO	3	3	1	1025	249.33328535487408	8	-221	161	141.6772977255914	-195.60962542971956	154.60906061773963	1400	1350	0	2020-05-31 19:14:07.202786
A2YNWB6RWLLKRO	4	4	1	963	109.06224238062157	8	-126	1	180.13505895033086	-109.06193937847766	-0.25708382817688263	1350	1300	0	2020-05-31 19:14:19.559559
A2YNWB6RWLLKRO	5	5	1	818	150.60182962095462	4	-89	64	151.21343780241398	-131.99040182804526	72.52203051797562	1300	1250	0	2020-05-31 19:14:24.010986
A2YNWB6RWLLKRO	6	6	1	851	137.02143605519095	12	73	96	53.05035480912694	82.36535337102762	109.50261413634165	1250	1200	0	2020-05-31 19:14:29.748236
A2YNWB6RWLLKRO	7	7	1	946	158.31442586738234	2	133	-47	345.9937017118662	153.6075997683512	-38.3166116863812	1200	1150	0	2020-05-31 19:14:33.750764
A2YNWB6RWLLKRO	8	8	1	811	196.35699609254897	12	-177	-19	187.75759839011144	-194.55993787709696	-26.504725762577923	1150	1100	0	2020-05-31 19:14:38.581361
A2YNWB6RWLLKRO	9	9	1	916	173.6930912714715	9	-70	139	120.54437773829434	-88.27179730211222	149.59070745368692	1100	1050	0	2020-05-31 19:14:43.796389
A2YNWB6RWLLKRO	10	10	1	816	264.839985338406	9	147	-203	307.0817150900928	159.6861755939717	-211.28308772407303	1050	1000	0	2020-05-31 19:14:50.049211
A2YNWB6RWLLKRO	11	11	1	808	178.74898161252003	1	176	128	41.80205188262946	133.2488089482878	119.14677226587263	1000	950	0	2020-05-31 19:14:53.319062
A2YNWB6RWLLKRO	12	12	1	921	157.0558995813205	10	-31	-153	262.97687280131527	-19.20322021112252	-155.87749012227826	950	900	0	2020-05-31 19:14:58.197365
A2YNWB6RWLLKRO	13	13	0	0	255.03194172536308	8	0	0	324.0780845456759	206.52927734591668	-149.62268845059035	900	1100	0	2020-05-31 19:15:02.999829
A2YNWB6RWLLKRO	14	13	1	690	164.36613891417613	3	-135	-101	220.23339018742033	-125.48035608874602	-106.1645320123239	1100	1050	0	2020-05-31 19:15:08.223084
A2YNWB6RWLLKRO	15	14	1	1002	264.0404115844171	11	200	-155	322.805354696036	210.3310058326499	-159.61894290808397	1050	1000	0	2020-05-31 19:15:12.981586
A2YNWB6RWLLKRO	16	15	1	873	217.89696102668734	7	-164	-129	214.21179292726808	-180.19313111510255	-122.513350797377	1000	950	0	2020-05-31 19:15:21.837962
A2YNWB6RWLLKRO	17	16	1	890	173.9364577194138	0	-167	-65	196.15886605477982	-167.064877450268	-48.4067975237399	950	900	0	2020-05-31 19:15:27.028697
A2YNWB6RWLLKRO	18	17	1	759	269.76727144675635	2	-260	-11	179.1142488989549	-269.73503636684154	4.17023980204938	900	850	0	2020-05-31 19:15:31.966058
A2YNWB6RWLLKRO	19	18	1	743	124.73403608097509	11	120	-4	356.53261871750954	124.5056969376427	-7.543950365814052	850	800	0	2020-05-31 19:15:38.979623
A2YNWB6RWLLKRO	20	19	0	0	291.79727235079463	9	0	0	277.775426634763	39.477440297516324	-289.1144753534832	800	1000	0	2020-05-31 19:15:42.661063
A2YNWB6RWLLKRO	21	19	1	833	210.584023808781	6	218	71	19.8653374847623	198.0529847865647	71.55869130042844	1000	950	0	2020-05-31 19:15:47.836491
A2YNWB6RWLLKRO	22	20	0	0	158.40536056923256	10	0	0	309.75811119022643	101.30780590906625	-121.77432701090792	950	1150	0	2020-05-31 19:15:53.725228
A2YNWB6RWLLKRO	23	20	0	0	243.87878990413876	10	0	0	277.69325374833153	32.64793211938829	-241.68362934513144	1150	1350	0	2020-05-31 19:15:57.681397
A2YNWB6RWLLKRO	24	20	1	1042	200.986455205001	9	-85	-181	242.07161786965122	-94.13553167984558	-177.57831188302433	1350	1300	0	2020-05-31 19:16:03.400197
A2YNWB6RWLLKRO	25	21	0	0	289.05703123451883	11	0	0	356.6883861784764	288.5743429655028	-16.6977809346616	1300	1500	0	2020-05-31 19:16:09.109775
A2YNWB6RWLLKRO	26	21	1	642	201.75225950919452	6	2	-220	270.3650450953866	1.2854031340122094	-201.74816469016127	1500	1450	0	2020-05-31 19:16:15.983742
A2YNWB6RWLLKRO	27	22	1	983	183.30427893160794	1	142	122	32.452385374409154	154.67905521207027	98.36080801486962	1450	1400	0	2020-05-31 19:16:22.627962
A2YNWB6RWLLKRO	28	23	1	732	111.56644969305573	1	-93	-42	199.27909969831327	-105.30996535872538	-36.83590494690194	1400	1350	0	2020-05-31 19:16:28.113530
A2YNWB6RWLLKRO	29	24	1	736	124.1561367040859	5	38	106	67.95093084040131	46.60827744191099	115.07569141735155	1350	1300	0	2020-05-31 19:16:36.126960
A2YNWB6RWLLKRO	30	25	1	822	244.60252610701835	0	184	-148	322.07212083712193	192.9388257124823	-150.34961027758925	1300	1250	0	2020-05-31 19:16:41.632319
A2YNWB6RWLLKRO	31	26	1	794	152.9683627945003	8	21	128	82.52860879997169	19.890649060372965	151.66964790618772	1250	1200	0	2020-05-31 19:16:45.574409
A2YNWB6RWLLKRO	32	27	1	823	205.37780974609512	0	-190	72	157.13577301487229	-189.2409010814555	79.79928629995395	1200	1150	0	2020-05-31 19:16:50.752712
A2YNWB6RWLLKRO	33	28	0	0	149.35516084736525	2	0	0	100.77442628316052	-27.92088038405123	146.72214730681205	1150	1350	0	2020-05-31 19:16:56.915627
A2YNWB6RWLLKRO	34	28	1	1007	296.313285662648	3	258	-101	339.1687324387434	276.9438040042931	-105.37406077316058	1350	1300	0	2020-05-31 19:17:02.131503
A2YNWB6RWLLKRO	35	29	1	906	168.0839908569836	2	-31	-145	261.5715883991454	-24.636670090490334	-166.26864547852338	1300	1250	0	2020-05-31 19:17:10.978196
A2YNWB6RWLLKRO	36	30	1	905	202.85126867631203	12	-222	-45	194.0081617545193	-196.8187264798229	-49.102200668096174	1250	1200	0	2020-05-31 19:17:18.316296
A2YNWB6RWLLKRO	37	31	1	687	120.81425987643843	11	-116	7	184.8758857026623	-120.3770521221654	-10.268919703117664	1200	1150	1	2020-05-31 19:18:48.588376
