A2NKW6JBEM4LL4	1	1	0	318	203.06970159678687	12	-5	-3.5	317.0189404190462	148.56155190251124	-138.44410064327596	1500	1700	0	2020-06-01 02:12:35.607147
A2NKW6JBEM4LL4	2	1	1	1289	239.57481023108892	8	-45	232.5	99.23261383563765	-38.43811524358083	236.4711419894264	1700	1650	0	2020-06-01 02:12:42.278484
A2NKW6JBEM4LL4	3	2	1	933	131.5691082208428	2	-55	-120.5	241.63509034543867	-62.506560580162706	-115.77288163670408	1650	1600	0	2020-06-01 02:12:47.466949
A2NKW6JBEM4LL4	4	3	1	1151	297.43395474751804	1	-248	158.5	147.04661635229067	-249.5808210420973	161.7911345058845	1600	1550	0	2020-06-01 02:12:53.691803
A2NKW6JBEM4LL4	5	4	1	1237	164.79621505469532	0	-93	140.5	121.30017819910086	-85.61522123259864	140.81131484950555	1550	1500	0	2020-06-01 02:12:58.550703
A2NKW6JBEM4LL4	6	5	1	1210	270.6813991832182	4	255	87.5	18.89968624319866	256.08818880520903	87.67701761723167	1500	1450	0	2020-06-01 02:13:08.228841
A2NKW6JBEM4LL4	7	6	1	1097	141.50878250357192	11	147	-8.5	359.1300396392893	141.49247082256935	-2.14854047380789	1450	1400	0	2020-06-01 02:13:12.966356
A2NKW6JBEM4LL4	8	7	1	1245	110.49148693388942	2	115	12.5	7.543922249797266	109.53512900378003	14.50600561791993	1400	1350	0	2020-06-01 02:13:19.030544
A2NKW6JBEM4LL4	9	8	1	1181	244.55617605309942	11	-232	-10.5	183.20955249266146	-244.1725758998269	-13.692203042528448	1350	1300	0	2020-06-01 02:13:24.118250
A2NKW6JBEM4LL4	10	9	1	1104	101.18633710222666	1	30	97.5	69.77739501985896	34.97692299354766	94.94887926705027	1300	1250	0	2020-06-01 02:13:30.422971
A2NKW6JBEM4LL4	11	10	1	925	138.2640381786372	1	-98	-114.5	226.3403541720162	-95.45376497935942	-100.02761121174925	1250	1200	0	2020-06-01 02:13:35.580230
A2NKW6JBEM4LL4	12	11	1	1057	135.34869627746625	4	53	-118.5	295.4451397247682	58.15211813565099	-122.21947774535406	1200	1150	0	2020-06-01 02:13:41.017632
A2NKW6JBEM4LL4	13	12	0	0	279.190924932818	1	0	0	345.24506197442923	269.9843228992092	-71.1058222194073	1150	1350	0	2020-06-01 02:13:45.843443
A2NKW6JBEM4LL4	14	12	1	1193	249.36848937940144	12	216	132.5	29.952095065987542	216.063619559994	124.50363768982342	1350	1300	0	2020-06-01 02:13:51.823567
A2NKW6JBEM4LL4	15	13	0	0	125.70475714420826	9	0	0	116.8334168552118	-56.74288231404105	112.1692082319353	1300	1500	0	2020-06-01 02:13:57.477214
A2NKW6JBEM4LL4	16	13	0	0	148.13007227451874	13	0	0	193.15905985767023	-144.24044620515505	-33.72257390223815	1500	1700	0	2020-06-01 02:14:04.108808
A2NKW6JBEM4LL4	17	13	1	1119	299.84041191812133	1	-284	-63.5	193.12275656325784	-292.0103403570003	-68.07520652790956	1700	1650	0	2020-06-01 02:14:09.530434
A2NKW6JBEM4LL4	18	14	1	991	141.60655771281392	3	94	-96.5	315.1367676792151	100.36968895197144	-99.89165494152654	1650	1600	0	2020-06-01 02:14:15.388410
A2NKW6JBEM4LL4	19	15	1	1207	295.1268666543797	13	-9	295.5	90.19553724616964	-1.007197794417507	295.12514798612966	1600	1550	0	2020-06-01 02:14:21.200849
A2NKW6JBEM4LL4	20	16	1	1176	201.3737891030455	2	-51	-193.5	254.41525265692815	-54.10176855608306	-193.97010485335588	1550	1500	0	2020-06-01 02:14:27.554669
A2NKW6JBEM4LL4	21	17	1	1114	224.2203870504275	7	-221	-32.5	188.8362953754067	-221.55917596193927	-34.44290226026174	1500	1450	0	2020-06-01 02:14:33.292210
A2NKW6JBEM4LL4	22	18	0	0	257.9534744383453	12	0	0	214.87543605910324	-211.62428025252146	-147.49630158894269	1450	1650	0	2020-06-01 02:14:39.542748
A2NKW6JBEM4LL4	23	18	1	1022	207.9783810759318	9	122	-158.5	307.93762770749464	127.86579100474964	-164.02849290807737	1650	1600	0	2020-06-01 02:14:52.240426
A2NKW6JBEM4LL4	24	19	1	962	272.9015830170198	0	-253	100.5	157.13898379381237	-251.4651501695438	106.02147076608648	1600	1550	0	2020-06-01 02:14:57.804322
A2NKW6JBEM4LL4	25	20	1	1371	201.55042201126287	7	101	190.5	58.33762485668112	105.7964022426521	171.55084927049796	1550	1500	0	2020-06-01 02:15:04.154158
A2NKW6JBEM4LL4	26	21	1	1058	225.72772654683945	9	224	6.5	2.466225632567358	225.51864860959049	9.713169478021959	1500	1450	0	2020-06-01 02:15:09.505405
A2NKW6JBEM4LL4	27	22	1	933	143.65992946869022	1	-144	17.5	173.59713017101112	-142.76382690619226	16.020769708344837	1450	1400	0	2020-06-01 02:15:15.082543
A2NKW6JBEM4LL4	28	23	1	1215	280.9516038704956	11	-134	247.5	117.15114150274273	-128.2092634631136	249.9923768430746	1400	1350	0	2020-06-01 02:15:20.170907
A2NKW6JBEM4LL4	29	24	1	1282	298.1721616670764	4	-137	256.5	118.05637432374228	-140.24231927966713	263.13253291122527	1350	1300	0	2020-06-01 02:15:26.375390
A2NKW6JBEM4LL4	30	25	0	0	187.95218873684308	0	0	0	68.09202925358039	70.12812966838398	174.3791004684455	1300	1500	0	2020-06-01 02:15:31.562821
A2NKW6JBEM4LL4	31	25	1	1008	281.07901260842436	8	-47	283.5	98.6723841640794	-42.38231937225641	277.865345686638	1500	1450	0	2020-06-01 02:15:38.252955
A2NKW6JBEM4LL4	32	26	1	1316	118.53123263521735	6	126	29.5	11.697712520071795	116.06944631471039	24.03199413741145	1450	1400	0	2020-06-01 02:15:43.666050
A2NKW6JBEM4LL4	33	27	1	1277	289.7880841045628	11	-283	-33.5	187.21693372440998	-287.49227157790494	-36.40504734194598	1400	1350	0	2020-06-01 02:16:00.442471
A2NKW6JBEM4LL4	34	28	1	1267	128.55758023478057	1	46	-122.5	290.3042340172705	44.61011777016548	-120.56943571384089	1350	1300	0	2020-06-01 02:16:05.948814
A2NKW6JBEM4LL4	35	29	1	1066	204.34497129464742	0	-141	152.5	134.02723239579072	-142.0197939920595	146.92598615583037	1300	1250	0	2020-06-01 02:16:11.854933
A2NKW6JBEM4LL4	36	30	1	1153	274.97671952018413	0	-28	-262.5	264.0526815067735	-28.4914351746308	-273.49668078382933	1250	1200	0	2020-06-01 02:16:16.242051
A2NKW6JBEM4LL4	37	31	1	1062	204.4708761787959	1	-44	-200.5	256.0429508327432	-49.31724288526732	-198.4342429106429	1200	1150	0	2020-06-01 02:16:39.568134
A2NKW6JBEM4LL4	38	32	0	0	293.02320600712807	4	0	0	56.19578133038867	163.02545295864564	243.4857304778336	1150	1350	0	2020-06-01 02:16:44.394556
A2NKW6JBEM4LL4	39	32	1	941	185.38720595550706	10	-195	34.5	174.54226881440968	-184.54677822846506	17.632435381515865	1350	1300	0	2020-06-01 02:16:50.255934
A2NKW6JBEM4LL4	40	33	1	914	287.8824803158778	14	114	-254.5	297.0361432062634	130.85769315487337	-256.4226718038145	1300	1250	0	2020-06-01 02:16:54.837668
A2NKW6JBEM4LL4	41	34	1	828	175.8346772566245	4	-192	11.5	174.18494104251354	-174.9298520530787	17.815178546096718	1250	1200	0	2020-06-01 02:17:00.425752
A2NKW6JBEM4LL4	42	35	1	1118	235.35951589449945	3	-209	-78.5	200.88112121744052	-219.90156600193302	-83.88923048872621	1200	1150	0	2020-06-01 02:17:05.208398
A2NKW6JBEM4LL4	43	36	0	0	184.34286528287336	8	0	0	55.634348260594884	104.0564327569565	152.16619461166985	1150	1350	0	2020-06-01 02:17:11.464886
A2NKW6JBEM4LL4	44	36	1	935	141.05943845086122	10	97	103.5	50.80347032642401	89.14707740286633	109.31863412337196	1350	1300	0	2020-06-01 02:17:16.608008
A2NKW6JBEM4LL4	45	37	1	1150	208.86560242831126	14	-118	-163.5	234.07877651628039	-122.53567837606195	-169.14445720347945	1300	1250	0	2020-06-01 02:17:22.702389
A2NKW6JBEM4LL4	46	38	1	1158	164.54074460260597	14	-145	-48.5	198.91060944813785	-155.65971762190588	-53.32643757320126	1250	1200	0	2020-06-01 02:17:27.776646
A2NKW6JBEM4LL4	47	39	1	928	135.677410218585	10	127	61.5	25.040785438025274	122.92464551631484	57.42726850817942	1200	1150	0	2020-06-01 02:17:33.446166
A2NKW6JBEM4LL4	48	40	0	0	297.00838798055963	5	0	0	29.49347238453294	258.51960301651354	146.22447601887612	1150	1350	0	2020-06-01 02:17:41.384250
A2NKW6JBEM4LL4	49	40	1	1108	103.76033110148515	9	86	59.5	33.35628197571651	86.66764791393655	57.05195102146601	1350	1300	0	2020-06-01 02:17:47.716992
A2NKW6JBEM4LL4	50	41	1	1029	201.0232358689812	0	-75	-203.5	250.45121225873203	-67.26426508097548	-189.4356355133646	1300	1250	0	2020-06-01 02:17:52.805903
A2NKW6JBEM4LL4	51	42	0	0	195.92981651620116	13	0	0	356.68978630043864	195.60291530436905	-11.313378120794965	1250	1450	0	2020-06-01 02:17:58.807594
A2NKW6JBEM4LL4	52	42	1	1130	223.83424386170816	11	222	-52.5	347.15379323262823	218.23175492201673	-49.766151838367655	1450	1400	0	2020-06-01 02:18:03.972870
A2NKW6JBEM4LL4	53	43	1	1140	217.49387094909156	3	25	208.5	81.5292805276431	32.03770924672867	215.1212892454909	1400	1350	0	2020-06-01 02:18:09.733189
A2NKW6JBEM4LL4	54	44	1	1138	182.38151692344448	1	-159	67.5	157.23654611354058	-168.17584626076558	70.56842388612633	1350	1300	0	2020-06-01 02:18:14.424548
A2NKW6JBEM4LL4	55	45	1	1048	257.36391527542366	5	183	-181.5	315.34299851839774	183.06993966426296	-180.89107793702422	1300	1250	0	2020-06-01 02:18:31.984614
A2NKW6JBEM4LL4	56	46	0	0	133.0143987119119	14	0	0	125.529722054014	-77.29801880344513	108.24900255315848	1250	1450	0	2020-06-01 02:18:37.462527
A2NKW6JBEM4LL4	57	46	1	1374	253.7842204272295	2	-17	-245.5	265.17770211516614	-21.334533829080733	-252.88587980382064	1450	1400	0	2020-06-01 02:19:03.124126
A2NKW6JBEM4LL4	58	47	1	1329	226.9418493968484	0	-162	-149.5	223.1683387438628	-165.51930986338675	-155.26094508925925	1400	1350	0	2020-06-01 02:19:08.697093
A2NKW6JBEM4LL4	59	48	1	1056	168.91863976913788	7	168	7.5	0.41846169980249037	168.91413459259434	1.2336921377297894	1350	1300	0	2020-06-01 02:19:14.425801
A2NKW6JBEM4LL4	60	49	1	1204	286.6412803714776	5	-119	-256.5	244.96400864221863	-121.30300442822778	-259.70907710298724	1300	1250	0	2020-06-01 02:19:19.748135
A2NKW6JBEM4LL4	61	50	1	1152	166.73828455045486	6	-160	-25.5	187.91614868581811	-165.14938299151135	-22.963815718463604	1250	1200	0	2020-06-01 02:19:25.528082
A2NKW6JBEM4LL4	62	51	1	1137	223.94692398519354	12	143	-167.5	310.28843489548507	144.81210336057	-170.82646013635488	1200	1150	0	2020-06-01 02:19:30.850059
A2NKW6JBEM4LL4	63	52	1	1038	294.30483312733605	4	-59	284.5	100.7218825053578	-54.75302534602134	289.1668048334163	1150	1100	0	2020-06-01 02:19:36.654711
A2NKW6JBEM4LL4	64	53	0	0	289.7141637345493	6	0	0	92.92757900815366	-14.796763351528082	289.33605455028953	1100	1300	0	2020-06-01 02:19:41.390500
A2NKW6JBEM4LL4	65	53	1	1131	129.42517127259813	4	20	117.5	76.87525760560551	29.388817531850876	126.0443269767463	1300	1250	0	2020-06-01 02:19:46.905599
A2NKW6JBEM4LL4	66	54	1	1124	243.33886871312075	6	-98	208.5	111.3347033832512	-88.53044690564293	226.66310903468292	1250	1200	0	2020-06-01 02:20:01.231728
A2NKW6JBEM4LL4	67	55	1	925	124.87377067298375	13	98	-105.5	312.50434934677907	84.37048522614064	-92.0601967453607	1200	1150	0	2020-06-01 02:20:06.502148
A2NKW6JBEM4LL4	68	56	1	1097	106.48982232176598	3	98	-13.5	357.4449814239707	106.38395815207501	-4.747178743089773	1150	1100	0	2020-06-01 02:20:12.332847
A2NKW6JBEM4LL4	69	57	0	0	238.75783279277746	1	0	0	87.67444242401353	9.688194294522807	238.56119049672657	1100	1300	0	2020-06-01 02:20:16.758543
A2NKW6JBEM4LL4	70	57	1	1090	251.2748027392834	13	83	-224.5	287.61670202878605	76.04775069578349	-239.4906388687828	1300	1250	0	2020-06-01 02:20:22.213893
A2NKW6JBEM4LL4	71	58	1	1152	212.4472990160615	11	91	-180.5	297.15161842203185	96.9496291701014	-189.03603958769256	1250	1200	0	2020-06-01 02:20:30.949972
A2NKW6JBEM4LL4	72	59	1	1199	229.8582093497666	5	-97	206.5	116.36128938491862	-102.06392002936674	205.95570551388025	1200	1150	0	2020-06-01 02:20:37.113532
A2NKW6JBEM4LL4	73	60	1	970	211.2006286992525	10	155	146.5	46.07529098828867	146.51251699283026	152.11767789243018	1150	1100	0	2020-06-01 02:20:42.042947
A2NKW6JBEM4LL4	74	61	0	0	126.87416174277556	0	0	0	176.67158633350527	-126.66014370285606	7.366200859589999	1100	1300	0	2020-06-01 02:20:52.829040
A2NKW6JBEM4LL4	75	61	1	1100	155.73240774538468	9	-141	-40.5	192.64489589746992	-151.95520064030313	-34.0910519130749	1300	1250	0	2020-06-01 02:20:57.593418
A2NKW6JBEM4LL4	76	62	0	0	234.99971020906122	1	0	0	252.45513534576054	-70.84125058437884	-224.06780450119112	1250	1450	0	2020-06-01 02:21:12.954849
A2NKW6JBEM4LL4	77	62	1	1168	149.96900751647595	8	85	-117.5	307.82221520013155	91.96300096008648	-118.46311522955976	1450	1400	0	2020-06-01 02:21:21.940447
A2NKW6JBEM4LL4	78	63	0	0	284.18198204923675	0	0	0	222.83125046386638	-208.4074630922318	-193.19867558783307	1400	1600	0	2020-06-01 02:21:39.662413
A2NKW6JBEM4LL4	79	63	1	1137	206.82078713350668	9	-194	-68.5	199.51535041394732	-194.9393517887679	-69.0904270843528	1600	1550	0	2020-06-01 02:21:45.281769
A2NKW6JBEM4LL4	80	64	1	1028	204.21148964868414	9	33	193.5	82.37845391470297	27.084391723929368	202.4074312605132	1550	1500	0	2020-06-01 02:21:51.596750
A2NKW6JBEM4LL4	81	65	1	1166	277.68991420235176	14	-222	179.5	141.46028076926348	-217.20250356472832	173.01664918418592	1500	1450	0	2020-06-01 02:21:57.009925
A2NKW6JBEM4LL4	82	66	0	0	112.96049527643994	13	0	0	329.13773545271613	96.96562146637918	-57.94602442564528	1450	1650	0	2020-06-01 02:22:03.312639
A2NKW6JBEM4LL4	83	66	1	941	168.51891021112448	12	-62	-152.5	245.95161985096232	-68.67278540302674	-153.89175300754383	1650	1600	0	2020-06-01 02:22:07.962843
A2NKW6JBEM4LL4	84	67	0	0	241.8135594584718	12	0	0	233.17484857208956	-144.93701236268956	-193.5640978729099	1600	1800	0	2020-06-01 02:22:13.908138
A2NKW6JBEM4LL4	85	67	1	1149	160.7631578463088	6	152	29.5	14.291415910746741	155.7879763636762	39.68500146438029	1800	1750	0	2020-06-01 02:22:19.555642
A2NKW6JBEM4LL4	86	68	1	1230	274.69375510863927	4	240	-122.5	333.1688708129825	245.12042373217324	-123.98643863360591	1750	1700	0	2020-06-01 02:22:25.384288
A2NKW6JBEM4LL4	87	69	1	1106	280.13625049291466	14	-267	81.5	163.4049980432809	-268.46787309933745	80.00824928560222	1700	1650	0	2020-06-01 02:22:30.286110
A2NKW6JBEM4LL4	88	70	1	1045	284.6031342895234	3	-25	281.5	94.68290395377869	-23.235320356625017	283.65306967375744	1650	1600	0	2020-06-01 02:22:35.753517
A2NKW6JBEM4LL4	89	71	1	1025	123.81942702543394	6	-86	-79.5	219.1681894025801	-95.99661631796002	-78.2042208861461	1600	1550	0	2020-06-01 02:22:48.141048
A2NKW6JBEM4LL4	90	72	1	1237	280.94609760886954	1	-48	-269.5	257.644082978902	-60.117918828128865	-274.43860077880254	1550	1500	0	2020-06-01 02:22:53.184395
A2NKW6JBEM4LL4	91	73	0	89	170.88041195414223	1	-2	1.5	168.45453670844927	-167.42285202127908	34.20093289192926	1500	1700	0	2020-06-01 02:22:58.057517
A2NKW6JBEM4LL4	92	73	1	1171	111.06403410415031	3	121	-25.5	346.55220736079923	108.01890594680958	-25.82896880524208	1700	1650	0	2020-06-01 02:23:02.892651
A2NKW6JBEM4LL4	93	74	1	1081	217.35737704663225	4	133	-178.5	306.09901547819874	128.0631570325514	-175.62476239826756	1650	1600	0	2020-06-01 02:23:08.348085
A2NKW6JBEM4LL4	94	75	1	1170	180.27709570117366	12	-168	-22.5	187.44762326313983	-178.75623614665093	-23.367483243449453	1600	1550	0	2020-06-01 02:23:14.363622
A2NKW6JBEM4LL4	95	76	1	1353	286.328545441977	11	231	-163.5	326.9904961731414	240.10945332890944	-155.98553252468813	1550	1500	0	2020-06-01 02:23:20.306201
A2NKW6JBEM4LL4	96	77	1	1199	273.37232313242805	7	121	-246.5	295.48563964068705	117.62797269667544	-246.77132551026028	1500	1450	0	2020-06-01 02:23:25.168930
A2NKW6JBEM4LL4	97	78	1	1064	139.3163422305165	0	119	-22.5	351.8408814651162	137.90614696734124	-19.77214811578333	1450	1400	0	2020-06-01 02:23:31.831774
A2NKW6JBEM4LL4	98	79	1	789	109.12253094503103	5	-31	-97.5	261.0020654190494	-17.066639482775347	-107.77966680508077	1400	1350	0	2020-06-01 02:23:36.674587
A2NKW6JBEM4LL4	99	80	1	928	292.38294543278386	12	57	-289.5	281.3463400565503	57.52318327740569	-286.6685719879043	1350	1300	0	2020-06-01 02:23:42.454061
A2NKW6JBEM4LL4	100	81	1	1076	235.22391289945926	9	-86	207.5	112.35222020366913	-89.45547797606893	217.55000956057307	1300	1250	0	2020-06-01 02:23:47.532773
A2NKW6JBEM4LL4	101	82	1	1024	153.13039385300038	3	-151	-28.5	191.64795325589404	-149.9769208408498	-30.916674088143534	1250	1200	0	2020-06-01 02:23:53.332286
A2NKW6JBEM4LL4	102	83	1	983	189.4009275532563	4	6	183.5	88.67477842907219	4.380354328764291	189.3502676364317	1200	1150	0	2020-06-01 02:23:58.257716
A2NKW6JBEM4LL4	103	84	1	1100	177.44919625220342	13	-166	-33.5	190.67802497961094	-174.3764742914025	-32.87951435548961	1150	1100	0	2020-06-01 02:24:03.939696
A2NKW6JBEM4LL4	104	85	1	1061	134.05255079735147	2	126	-24.5	349.669289460669	131.87943275359527	-24.03958385385329	1100	1050	0	2020-06-01 02:24:08.732481
A2NKW6JBEM4LL4	105	86	0	0	289.03877857870856	0	0	0	48.242934158344575	192.4922150945891	215.61577551341216	1050	1250	0	2020-06-01 02:24:14.648969
A2NKW6JBEM4LL4	106	86	0	0	297.7719586468155	14	0	0	227.11953251336425	-202.62521244255396	-218.19982272900836	1250	1450	0	2020-06-01 02:24:19.994647
A2NKW6JBEM4LL4	107	86	1	869	144.1312562658139	6	79	-121.5	305.07393399992617	82.8225740984384	-117.95863788833103	1450	1400	0	2020-06-01 02:24:25.823645
A2NKW6JBEM4LL4	108	87	1	1086	278.7769491933484	7	-155	-237.5	237.50316212173848	-149.7737693546589	-235.126360527373	1400	1350	0	2020-06-01 02:24:31.013606
A2NKW6JBEM4LL4	109	88	0	0	285.87260346285495	4	0	0	53.10570129073718	171.62094420729554	228.6250137671446	1350	1550	0	2020-06-01 02:24:37.500318
A2NKW6JBEM4LL4	110	88	0	0	181.41940816202748	3	0	0	156.76293783939244	-166.7027243710081	71.57655583460289	1550	1750	0	2020-06-01 02:24:42.864084
A2NKW6JBEM4LL4	111	88	1	1095	202.93928802536544	3	-194	-55.5	197.4453582975788	-193.6047491347377	-60.84041203605972	1750	1700	0	2020-06-01 02:24:49.684235
A2NKW6JBEM4LL4	112	89	1	1142	268.92449106624633	14	241	-100.5	335.19565216063376	244.11503591396036	-112.81946257612402	1700	1650	0	2020-06-01 02:24:54.844075
A2NKW6JBEM4LL4	113	90	1	1280	246.48684658320343	14	218	137.5	30.99283166340422	211.2963461556101	126.92367643517208	1650	1600	0	2020-06-01 02:25:00.515616
A2NKW6JBEM4LL4	114	91	1	1341	271.6310083047802	14	-238	-140.5	213.15737103208477	-227.40173256747696	-148.56600115094054	1600	1550	0	2020-06-01 02:25:35.238955
A2NKW6JBEM4LL4	115	92	1	985	177.1346550393711	1	-94	-143.5	237.6657271464377	-94.74186385999053	-149.66851789288225	1550	1500	0	2020-06-01 02:25:40.313463
A2NKW6JBEM4LL4	116	93	1	1158	269.432057206541	14	202	183.5	42.85754699651627	197.50638122300336	183.26173312162703	1500	1450	0	2020-06-01 02:25:46.275704
A2NKW6JBEM4LL4	117	94	1	1008	119.17466278980467	9	-54	-99.5	239.73279777902104	-60.067999555069996	-102.92927513839668	1450	1400	0	2020-06-01 02:25:51.437239
A2NKW6JBEM4LL4	118	95	1	1024	185.11473683374123	0	-79	-167.5	243.99715442499527	-81.15722257939852	-166.37599290830164	1400	1350	0	2020-06-01 02:25:57.233778
A2NKW6JBEM4LL4	119	96	1	1026	152.58211427343446	5	-136	-51.5	200.0748369873412	-143.31200151632896	-52.373388448095774	1350	1300	0	2020-06-01 02:26:02.486066
A2NKW6JBEM4LL4	120	97	1	1128	242.94496408454322	5	-227	-60.5	194.2683804642878	-235.450572068718	-59.87723846799735	1300	1250	0	2020-06-01 02:26:08.482775
A2NKW6JBEM4LL4	121	98	1	1209	124.08767487262003	12	-105	-37.5	194.48913482834763	-120.14107918985276	-31.046290380504132	1250	1200	0	2020-06-01 02:26:13.333520
A2NKW6JBEM4LL4	122	99	1	1012	146.0885118539444	14	39	135.5	74.60501956289829	38.78235888606482	140.84666107129598	1200	1150	0	2020-06-01 02:26:19.257832
A2NKW6JBEM4LL4	123	100	0	0	266.4750026185777	4	0	0	144.7487733960831	-217.61126801933275	153.79942474401238	1150	1350	0	2020-06-01 02:26:24.074707
A2NKW6JBEM4LL4	124	100	1	1076	110.08757177187158	0	-79	88.5	132.36372480814757	-74.18082815452051	81.34173709072405	1350	1300	0	2020-06-01 02:26:30.298574
A2NKW6JBEM4LL4	125	101	1	913	118.67806179407108	14	118	20.5	10.750461516436829	116.59513069952186	22.13725024384847	1300	1250	0	2020-06-01 02:26:34.602060
A2NKW6JBEM4LL4	126	102	1	986	192.51874820908105	14	-156	106.5	148.8280053620195	-164.72238351780007	99.64940933194907	1250	1200	0	2020-06-01 02:26:40.062773
A2NKW6JBEM4LL4	127	103	1	789	106.04355685903815	4	60	142.5	63.8776608200359	46.68984027940379	95.21184152194422	1200	1150	0	2020-06-01 02:26:44.769276
A2NKW6JBEM4LL4	128	104	1	1090	228.43833269922058	9	151	170.5	46.97109904591223	155.87882097521512	166.99061356189043	1150	1100	0	2020-06-01 02:26:50.388664
A2NKW6JBEM4LL4	129	105	1	955	168.72063526428224	2	-31	167.5	97.85909746595667	-23.070421384512017	167.13589806239713	1100	1050	0	2020-06-01 02:26:55.018997
A2NKW6JBEM4LL4	130	106	1	1020	189.6715150302383	11	-97	-149.5	235.55739245449436	-107.27449819968353	-156.42079673071612	1050	1000	0	2020-06-01 02:27:00.398298
A2NKW6JBEM4LL4	131	107	1	969	258.26393475882094	13	-192	157.5	140.1062527194561	-198.14916846411663	165.641682658948	1000	950	0	2020-06-01 02:27:05.014981
A2NKW6JBEM4LL4	132	108	1	906	195.06776522993772	0	44	-176.5	281.5411269659031	39.027456285550365	-191.12375751769207	950	900	0	2020-06-01 02:27:13.016063
A2NKW6JBEM4LL4	133	109	0	0	260.423397299409	14	0	0	130.66320809207227	-169.69486520752505	197.5449280117455	900	1100	0	2020-06-01 02:27:17.665856
A2NKW6JBEM4LL4	134	109	0	0	159.0779500108328	11	0	0	52.254095262507285	97.3812793011386	125.78823721367057	1100	1300	0	2020-06-01 02:27:24.094567
A2NKW6JBEM4LL4	136	109	1	1101	110.51761250309534	14	53	-89.5	302.9637115885178	60.133489685901345	-92.72597312285232	1500	1450	0	2020-06-01 02:28:32.386740
A2NKW6JBEM4LL4	137	110	1	1259	139.05973022168766	3	111	102.5	43.880472108568576	100.23250127964143	96.39011493174614	1450	1400	0	2020-06-01 02:28:37.233175
A2NKW6JBEM4LL4	138	111	1	1102	238.5126619984988	10	-159	157.5	132.83141760959765	-162.15129152932002	174.9149753136752	1400	1350	0	2020-06-01 02:28:42.914167
A2NKW6JBEM4LL4	139	112	1	1017	265.28041328641837	6	60	-250.5	283.7706079188196	63.1460882788275	-257.65533025438356	1350	1300	0	2020-06-01 02:28:47.532224
A2NKW6JBEM4LL4	140	113	1	1030	171.9624042493196	6	-137	120.5	138.2392643460527	-128.27236228037222	114.53064895572432	1300	1250	0	2020-06-01 02:28:52.908192
A2NKW6JBEM4LL4	141	114	1	1162	260.0469118444337	9	-219	-123.5	205.55097890788883	-234.61481274741965	-112.16187408972742	1250	1200	0	2020-06-01 02:28:57.739521
A2NKW6JBEM4LL4	142	115	0	0	292.8703561405897	6	0	0	53.531044009749934	174.07837735741288	235.52019879943634	1200	1400	0	2020-06-01 02:29:03.702321
A2NKW6JBEM4LL4	143	115	1	928	172.61531143934792	8	111	-106.5	318.3588629582469	128.99908412833335	-114.69647787684785	1400	1350	0	2020-06-01 02:29:08.286835
A2NKW6JBEM4LL4	144	116	1	1164	276.9633893854806	7	-148	-240.5	238.23311000378285	-145.81141246119188	-235.47346146851774	1350	1300	0	2020-06-01 02:29:14.225582
A2NKW6JBEM4LL4	145	117	1	1054	225.90523123457822	2	152	155.5	43.38966908568709	164.165003265541	155.1870651889943	1300	1250	0	2020-06-01 02:29:18.940531
A2NKW6JBEM4LL4	146	118	1	999	127.13852511626582	0	-108	38.5	162.42712472028865	-121.20544153025801	38.3854856969996	1250	1200	0	2020-06-01 02:29:24.628328
A2NKW6JBEM4LL4	147	119	1	1139	286.81088677291626	13	278	-10.5	356.28520250635466	286.2082737407361	-18.582486750014358	1200	1150	0	2020-06-01 02:29:31.866677
A2NKW6JBEM4LL4	148	120	1	953	114.89881596575432	4	86	69.5	39.17532643784816	89.07146839011111	72.58106798030543	1150	1100	0	2020-06-01 02:29:37.723958
A2NKW6JBEM4LL4	149	121	0	0	142.88440516295776	7	0	0	7.5758585517153865	141.6371926517647	18.837698811138342	1100	1300	0	2020-06-01 02:29:56.607633
A2NKW6JBEM4LL4	150	121	1	1094	273.51747794485806	14	238	133.5	29.92153259522634	237.06015517017406	136.43420968367468	1300	1250	0	2020-06-01 02:30:01.156071
A2NKW6JBEM4LL4	151	122	1	1068	231.36208789037477	14	-191	-128.5	219.5599557302364	-178.3705804888432	-147.35111716260118	1250	1200	0	2020-06-01 02:30:06.612444
A2NKW6JBEM4LL4	152	123	1	979	250.88267404898076	5	-263	-27.5	187.72103121114182	-248.60815954979788	-33.706069827693646	1200	1150	0	2020-06-01 02:30:11.590163
A2NKW6JBEM4LL4	153	124	1	1051	224.22972493942876	4	-83	218.5	110.2251262703694	-77.51839741932685	210.4040579645535	1150	1100	0	2020-06-01 02:30:17.038336
A2NKW6JBEM4LL4	154	125	1	908	142.79101747695614	2	32	132.5	76.04058867322377	34.44611565781967	138.57395061191156	1100	1050	0	2020-06-01 02:30:21.953292
A2NKW6JBEM4LL4	155	126	1	964	136.4027584604038	3	-42	-115.5	248.85968086407803	-49.19409676936405	-127.22284920034491	1050	1000	0	2020-06-01 02:30:27.667879
A2NKW6JBEM4LL4	156	127	0	0	250.96377531416692	12	0	0	231.2006983183231	-157.25247432632756	-195.58751452530745	1000	1200	0	2020-06-01 02:30:32.342557
A2NKW6JBEM4LL4	157	127	1	1025	227.9157105991178	11	194	-112.5	330.561170092504	198.4874439166453	-112.01922042818101	1200	1150	0	2020-06-01 02:30:38.573404
A2NKW6JBEM4LL4	158	128	1	834	104.26318921092567	14	-31	106.5	102.5547012976645	-22.6638564978417	101.7701441144628	1150	1100	0	2020-06-01 02:30:43.065763
A2NKW6JBEM4LL4	159	129	1	902	141.97042774005678	2	-37	144.5	100.36892047535176	-25.552631224265443	139.65194373946744	1100	1050	0	2020-06-01 02:30:48.339524
A2NKW6JBEM4LL4	160	130	1	943	297.9717924974699	6	31	-301.5	277.81730036649924	40.528550200308814	-295.20268586653526	1050	1000	0	2020-06-01 02:30:53.244698
A2NKW6JBEM4LL4	161	131	0	0	283.64652769532626	7	0	0	33.34884782030996	236.94100264587618	155.93047790211628	1000	1200	0	2020-06-01 02:30:58.725402
A2NKW6JBEM4LL4	162	131	0	0	284.9678430241586	5	0	0	205.77157187391248	-256.62340445442794	-123.89955546353103	1200	1400	0	2020-06-01 02:31:03.886481
A2NKW6JBEM4LL4	163	131	1	888	206.79557486884346	0	-197	-70.5	198.92519719916203	-195.61678860520925	-67.07072238406502	1400	1350	0	2020-06-01 02:31:09.763227
A2NKW6JBEM4LL4	164	132	1	1041	241.22022985192157	7	215	122.5	27.45883067351464	214.04493506906135	111.22933543402651	1350	1300	0	2020-06-01 02:31:14.455529
A2NKW6JBEM4LL4	165	133	1	1069	187.98198915418146	6	-81	-189.5	246.38577476330997	-75.30117333216369	-172.24099843289994	1300	1250	0	2020-06-01 02:31:20.163252
A2NKW6JBEM4LL4	166	134	1	866	116.76869702019928	9	-100	-37.5	201.6648676397591	-108.5200530918769	-43.108313359853426	1250	1200	0	2020-06-01 02:31:24.680941
A2NKW6JBEM4LL4	167	135	0	0	181.15244098128352	14	0	0	64.7326344406051	77.32362386082832	163.82082915950141	1200	1400	0	2020-06-01 02:31:30.253012
A2NKW6JBEM4LL4	168	135	1	722	121.69730595552736	12	12	-133.5	278.96720691335463	18.968854256550184	-120.20988663594602	1400	1350	0	2020-06-01 02:31:35.165445
A2NKW6JBEM4LL4	169	136	1	1032	178.53142599275378	1	-40	171.5	96.74883475574781	-20.9805134828388	177.29435445327223	1350	1300	0	2020-06-01 02:31:40.782213
A2NKW6JBEM4LL4	170	137	1	1000	140.7022030326692	4	137	32.5	10.4516624278443	138.36771437426725	25.52421511207847	1300	1250	0	2020-06-01 02:31:45.237598
A2NKW6JBEM4LL4	171	138	1	1208	255.22323161876366	11	35	248.5	80.192868999305	43.47271951634832	251.4935796710882	1250	1200	0	2020-06-01 02:31:51.228972
A2NKW6JBEM4LL4	172	139	1	1041	185.63344727730885	4	-12	-181.5	266.3904170241969	-11.68700719287258	-185.26518996004387	1200	1150	0	2020-06-01 02:31:55.914027
A2NKW6JBEM4LL4	173	140	1	1039	231.8256870905776	0	-179	-151.5	219.3348834619557	-179.3066079715692	-146.94315068334552	1150	1100	0	2020-06-01 02:32:01.328870
A2NKW6JBEM4LL4	174	141	1	960	167.62077350029142	0	-2	178.5	94.10095137893396	-11.987233089430127	167.19159653432246	1100	1050	0	2020-06-01 02:32:05.937401
A2NKW6JBEM4LL4	175	142	1	836	223.3572649450224	6	29	-205.5	277.73910469973197	30.077849009498983	-221.32282033871408	1050	1000	0	2020-06-01 02:32:11.272866
A2NKW6JBEM4LL4	176	143	1	961	151.01718320773276	4	35	143.5	83.2350073934152	17.789408884613547	149.965751275196	1000	950	0	2020-06-01 02:32:15.776935
A2NKW6JBEM4LL4	177	144	0	0	229.38336373349787	0	0	0	33.72149172147375	190.78868165863256	127.34365515664746	950	1150	0	2020-06-01 02:32:21.143862
A2NKW6JBEM4LL4	178	144	0	0	293.39508481893915	2	0	0	278.53917025044046	43.56492087553244	-290.1426777725419	1150	1350	0	2020-06-01 02:32:25.906357
A2NKW6JBEM4LL4	179	144	1	897	231.62099568053728	11	-118	-205.5	244.71160901434058	-98.94262319573437	-209.42455193981053	1350	1300	0	2020-06-01 02:32:31.174442
A2NKW6JBEM4LL4	180	145	1	1243	271.6463630612032	2	-135	-241.5	236.27932250693286	-150.80302120961213	-225.94290287245647	1300	1250	0	2020-06-01 02:32:36.119555
A2NKW6JBEM4LL4	181	146	1	902	234.42012839350554	12	122	-189.5	302.3913721826432	125.57877997850899	-197.94637307901564	1250	1200	0	2020-06-01 02:32:41.349397
A2NKW6JBEM4LL4	182	147	1	977	196.91093529296916	8	-206	-43.5	191.78130858758425	-192.76281912809497	-40.20462659621679	1200	1150	0	2020-06-01 02:32:46.519771
A2NKW6JBEM4LL4	183	148	0	0	216.7408715063831	1	0	0	207.7427558434845	-191.82574974966903	-100.89344435751919	1150	1350	0	2020-06-01 02:32:52.305845
A2NKW6JBEM4LL4	184	148	1	1065	193.68078220764716	2	-39	-196.5	256.9224900606794	-43.82395293449001	-188.65764375121844	1350	1300	0	2020-06-01 02:32:56.894767
A2NKW6JBEM4LL4	185	149	1	1027	293.2820955023992	13	148	-226.5	303.20397878806557	160.60753107407606	-245.39683882350258	1300	1250	0	2020-06-01 02:33:02.143863
A2NKW6JBEM4LL4	186	150	1	1019	282.90087626668435	14	-35	-296.5	261.9920680340203	-39.410975183276335	-280.14225105749586	1250	1200	0	2020-06-01 02:33:06.822541
