AWBE11AIHVI0I	1	1	1	1156	125.39059436041526	6	-94	96.5	133.656753720637	-86.56170730158459	90.71864187196037	1500	1450	0	2020-05-31 02:34:42.977142
AWBE11AIHVI0I	2	2	1	786	109.09477679690372	11	-73	-83.5	229.42210074060117	-70.96411164643358	-82.85991300139501	1450	1400	0	2020-05-31 02:34:47.768402
AWBE11AIHVI0I	3	3	1	1169	265.64960636664114	6	-272	-9.5	181.38535877727594	-265.57195711419075	-6.422535113939832	1400	1350	0	2020-05-31 02:34:52.941696
AWBE11AIHVI0I	4	4	1	850	126.54900328862118	4	65	84.5	56.597410593096036	69.66756359034311	105.64601656820267	1350	1300	0	2020-05-31 02:34:57.812835
AWBE11AIHVI0I	5	5	1	832	175.22631752949962	3	-174	68.5	158.1651090026973	-162.65549486870142	65.17248149308782	1300	1250	0	2020-05-31 02:35:03.041697
AWBE11AIHVI0I	6	6	1	881	273.6026883054619	12	245	122.5	27.278499686061217	243.17513604776397	125.39650814965798	1250	1200	0	2020-05-31 02:35:07.930788
AWBE11AIHVI0I	7	7	1	868	134.1265770586594	5	-16	-134.5	264.86735932465086	-11.999193518341077	-133.58876460384644	1200	1150	0	2020-05-31 02:35:13.512216
AWBE11AIHVI0I	8	8	1	838	226.05973193749196	7	-69	210.5	106.25391151506518	-63.27288803932156	217.02429366965856	1150	1100	0	2020-05-31 02:35:18.908925
AWBE11AIHVI0I	9	9	1	1001	275.05374069129357	9	63	275.5	76.80213443895623	62.79878512262716	267.78885872155973	1100	1050	0	2020-05-31 02:35:23.911466
AWBE11AIHVI0I	10	10	1	1025	132.24788439880058	4	129	-8.5	356.36135914134144	131.98129314881874	-8.392924801527236	1050	1000	0	2020-05-31 02:35:28.943440
AWBE11AIHVI0I	11	11	1	955	230.83801369791507	4	-142	-179.5	229.45771680334317	-150.0467948907959	-175.41991879771876	1000	950	0	2020-05-31 02:35:33.947714
AWBE11AIHVI0I	12	12	1	787	198.9584780963266	10	53	186.5	76.68821578396262	45.810167556770836	193.61276960682898	950	900	0	2020-05-31 02:35:38.697995
AWBE11AIHVI0I	13	13	1	876	121.28997455690183	6	-129	-32.5	196.7524331508241	-116.14232145393606	-34.96025021799006	900	850	0	2020-05-31 02:35:43.947996
AWBE11AIHVI0I	14	14	0	0	134.98860907919456	0	0	0	44.451851216761554	96.36016202372294	94.53382334327473	850	1050	0	2020-05-31 02:35:49.440120
AWBE11AIHVI0I	15	14	1	931	197.53934760121228	9	152	108.5	34.870638554383994	162.07016343598045	112.93828391890487	1050	1000	0	2020-05-31 02:35:54.683660
AWBE11AIHVI0I	16	15	1	924	235.56038664833486	0	159	-168.5	315.290719396817	167.40935840354288	-165.71904681365734	1000	950	0	2020-05-31 02:35:59.566371
AWBE11AIHVI0I	17	16	0	0	200.2381469532814	14	0	0	248.04943628872778	-74.85031201446337	-185.72222884356464	950	1150	0	2020-05-31 02:36:04.521468
AWBE11AIHVI0I	18	16	0	0	237.89523924358647	8	0	0	355.25097827000513	237.07852495700251	-19.695630453864272	1150	1350	0	2020-05-31 02:36:10.192415
AWBE11AIHVI0I	19	16	1	904	107.10662775151904	6	-45	97.5	110.9093052468365	-38.225253975221996	100.05328413816433	1350	1300	0	2020-05-31 02:36:15.539737
AWBE11AIHVI0I	20	17	1	887	208.31580283855638	11	-210	126.5	148.62670180032384	-177.85868110888754	108.4516632720741	1300	1250	0	2020-05-31 02:36:20.746529
AWBE11AIHVI0I	21	18	1	886	277.2741775543809	5	243	-106.5	336.88448360715324	255.01327952894772	-108.85401601387575	1250	1200	0	2020-05-31 02:36:26.429265
AWBE11AIHVI0I	22	19	1	970	155.33511700290333	4	-119	63.5	151.8232181271755	-136.92710919638648	73.34824702354187	1200	1150	0	2020-05-31 02:36:31.401764
AWBE11AIHVI0I	23	20	1	939	278.0223105322483	6	270	-15.5	356.70630942051275	277.5630592453699	-15.973518586747284	1150	1100	0	2020-05-31 02:36:36.344363
AWBE11AIHVI0I	24	21	1	882	269.6167310368378	6	280	21.5	3.7316465384980013	269.0450957150013	17.54759603752965	1100	1050	0	2020-05-31 02:36:41.236033
AWBE11AIHVI0I	25	22	1	907	187.83276158669082	7	137	-111.5	318.47450816822993	140.6230323451689	-124.52433135468834	1050	1000	0	2020-05-31 02:36:46.166014
AWBE11AIHVI0I	26	23	0	0	297.5698293800498	5	0	0	137.8526583420988	-220.62470967211777	199.68109785196413	1000	1200	0	2020-05-31 02:36:51.157295
AWBE11AIHVI0I	27	23	1	931	223.2457267871025	8	-23	-214.5	263.5744859441986	-24.983753046143097	-221.8433379942498	1200	1150	0	2020-05-31 02:36:57.316028
AWBE11AIHVI0I	28	24	1	1050	117.38007855503744	14	-99	62.5	144.0683785905781	-95.04475065501059	68.88089876383454	1150	1100	0	2020-05-31 02:37:02.726212
AWBE11AIHVI0I	29	25	1	771	143.3639453974813	13	74	144.5	65.07056143257233	60.428160598886414	130.00637771496903	1100	1050	0	2020-05-31 02:37:07.868449
AWBE11AIHVI0I	30	26	1	741	181.47020286605536	11	149	-73.5	331.8397772267575	159.98981176922283	-85.6428319142702	1050	1000	0	2020-05-31 02:37:15.419089
AWBE11AIHVI0I	31	27	0	0	276.91728275418234	9	0	0	44.0390983639773	199.06630899522656	192.49879508967518	1000	1200	0	2020-05-31 02:37:20.445621
AWBE11AIHVI0I	32	27	1	958	165.73995754327822	13	-116	-101.5	220.77670777778332	-125.50834392554555	-108.24688970827128	1200	1150	0	2020-05-31 02:37:25.387390
AWBE11AIHVI0I	33	28	1	880	150.24634384364794	10	-3	137.5	92.69691656552939	-7.069495286606147	150.07993228535366	1150	1100	0	2020-05-31 02:37:30.514650
AWBE11AIHVI0I	34	29	1	805	208.73912279788982	9	-59	-198.5	252.76144582502954	-61.8600033758577	-199.36238704623148	1100	1050	0	2020-05-31 02:37:35.804857
AWBE11AIHVI0I	35	30	1	890	102.32968104317663	5	58	99.5	60.30247431394149	50.696288894310584	88.88897521483115	1050	1000	0	2020-05-31 02:37:40.697347
AWBE11AIHVI0I	36	31	1	775	137.10172206450366	0	53	-110.5	295.1116977644306	58.18381819745205	-124.14316530932444	1000	950	0	2020-05-31 02:38:02.173258
AWBE11AIHVI0I	37	32	0	0	291.88729067809606	6	0	0	52.38048335217475	178.17238227096004	231.19860002882848	950	1150	0	2020-05-31 02:38:07.125096
AWBE11AIHVI0I	38	32	1	805	197.1074599303363	4	95	-171.5	298.61045336132895	94.38530811995857	-173.03977684708684	1150	1100	0	2020-05-31 02:38:12.334975
AWBE11AIHVI0I	39	33	1	814	293.3508428695775	0	258	143.5	29.043297515462847	256.46288214509406	142.41315632385633	1100	1050	0	2020-05-31 02:38:17.165633
AWBE11AIHVI0I	40	34	1	873	254.13823883057157	7	-240	-42.5	190.04278107429437	-250.24428712020213	-44.31750443793593	1050	1000	0	2020-05-31 02:38:22.046379
AWBE11AIHVI0I	41	35	1	787	178.52971647771437	13	-147	-93.5	214.60886841919523	-146.9386092915323	-101.39972763811302	1000	950	0	2020-05-31 02:38:26.837996
AWBE11AIHVI0I	42	36	1	804	133.26660187461124	12	-117	-46.5	198.46275985999023	-126.4073287214774	-42.20396214464336	950	900	0	2020-05-31 02:38:31.649488
AWBE11AIHVI0I	43	37	1	738	196.3970859076174	4	-153	-132.5	226.12870005558753	-136.11119544150245	-141.5823358632325	900	850	0	2020-05-31 02:38:36.396008
AWBE11AIHVI0I	44	38	0	0	244.35149385754653	5	0	0	279.65394030311194	40.9769940732951	-240.89113413974317	850	1050	0	2020-05-31 02:38:41.260296
AWBE11AIHVI0I	45	38	1	1028	171.74130879698845	0	-131	89.5	143.43450506294516	-137.93856480496143	102.31338860017294	1050	1000	0	2020-05-31 02:38:46.283147
AWBE11AIHVI0I	46	39	1	850	267.1899288082698	6	-262	-66.5	194.22489983751151	-258.99752532570676	-65.65622538440805	1000	950	0	2020-05-31 02:38:51.172690
AWBE11AIHVI0I	47	40	0	0	230.2562503735608	2	0	0	2.0165742247148355	230.11365029688105	8.102393667098772	950	1150	0	2020-05-31 02:38:56.127736
AWBE11AIHVI0I	48	40	0	0	299.99145391831075	6	0	0	77.82941139586302	63.24510907152998	293.2489191839456	1150	1350	0	2020-05-31 02:39:01.836530
AWBE11AIHVI0I	49	40	1	731	118.62045767641342	10	95	-46.5	335.2390159592864	107.71483642360722	-49.68226035112859	1350	1300	0	2020-05-31 02:39:06.936028
AWBE11AIHVI0I	50	41	1	786	128.6102082539733	12	-115	-42.5	198.85500551651398	-121.70891246179718	-41.56352119944809	1300	1250	0	2020-05-31 02:39:11.742920
AWBE11AIHVI0I	51	42	1	779	298.95295275404374	12	-305	-36.5	186.7076975368512	-296.906609678794	-34.918950290719984	1250	1200	0	2020-05-31 02:39:16.529081
AWBE11AIHVI0I	52	43	1	872	289.15294796157224	13	-64	-271.5	257.6816913094903	-61.688638045929395	-282.4959101489896	1200	1150	0	2020-05-31 02:39:21.397190
AWBE11AIHVI0I	53	44	1	752	217.62992393455525	10	-130	-177.5	233.46318683087682	-129.56361410847228	-174.86009748056068	1150	1100	0	2020-05-31 02:39:26.151039
AWBE11AIHVI0I	54	45	1	874	257.6713542549255	7	136	215.5	55.648859719367266	145.3944556456773	212.73217685875474	1100	1050	0	2020-05-31 02:39:31.034889
AWBE11AIHVI0I	55	46	1	722	155.90359937785928	7	71	-125.5	303.4751741558219	85.99262399689809	-130.04307331457585	1050	1000	0	2020-05-31 02:39:35.764509
AWBE11AIHVI0I	56	47	1	920	178.82262886280728	1	-141	82.5	150.58054719171002	-155.7629307565782	87.83758873925639	1000	950	0	2020-05-31 02:39:40.705632
AWBE11AIHVI0I	57	48	1	821	254.28316429556185	3	185	-154.5	321.6527530514444	199.425392152539	-157.76387612178442	950	900	0	2020-05-31 02:39:46.285399
AWBE11AIHVI0I	58	49	1	693	108.69790588566906	6	45	-102.5	287.778398392008	33.18941772692507	-103.5069915265507	900	850	0	2020-05-31 02:39:50.991114
AWBE11AIHVI0I	59	50	0	0	268.43052864859123	7	0	0	282.82428029530627	59.581301255546784	-261.7346313563758	850	1050	0	2020-05-31 02:39:55.835381
AWBE11AIHVI0I	60	50	1	1016	266.8838118440713	7	15	254.5	86.62554800467119	15.709116304812959	266.42108154075106	1050	1000	0	2020-05-31 02:40:00.865652
AWBE11AIHVI0I	61	51	1	795	241.64109092616536	7	61	-237.5	285.2799664865183	63.68107231338572	-233.09898724148215	1000	950	0	2020-05-31 02:40:05.662954
AWBE11AIHVI0I	62	52	1	874	108.05613398293828	7	0	-105.5	276.75743701424574	12.714565168547805	-107.30548878744955	950	900	0	2020-05-31 02:40:10.541784
AWBE11AIHVI0I	63	53	0	0	262.47744886627885	2	0	0	125.66225386039324	-153.02595082775338	213.25447131680977	900	1100	0	2020-05-31 02:40:15.451427
AWBE11AIHVI0I	64	53	1	743	106.59458816419836	3	-68	71.5	135.20319424118424	-75.64058771215217	75.10597656947996	1100	1050	0	2020-05-31 02:40:20.795918
AWBE11AIHVI0I	65	54	1	814	207.331409902767	6	-183	73.5	157.748718289929	-191.89186139362798	78.5100443456623	1050	1000	0	2020-05-31 02:40:25.932483
AWBE11AIHVI0I	66	55	1	849	296.5200244579755	10	-108	272.5	110.30067466982135	-102.87664260210121	278.10163845522004	1000	950	0	2020-05-31 02:40:30.805537
AWBE11AIHVI0I	67	56	1	834	199.83856707208565	2	-195	24.5	172.6544044151429	-198.1984942278311	25.550142372301565	950	900	0	2020-05-31 02:40:35.622194
AWBE11AIHVI0I	68	57	0	0	217.67233617705205	6	0	0	121.24128368114069	-112.89427605673954	186.10784070103077	900	1100	0	2020-05-31 02:40:40.552415
AWBE11AIHVI0I	69	57	1	839	166.55777938755892	8	88	131.5	54.62826845720191	96.41679011702377	135.81346199123465	1100	1050	0	2020-05-31 02:40:45.951667
AWBE11AIHVI0I	70	58	1	841	132.79387149056708	9	38	117.5	69.34680793308773	46.83779447332281	124.25954013405979	1050	1000	0	2020-05-31 02:40:50.798720
AWBE11AIHVI0I	71	59	1	777	218.16865904181208	6	-17	216.5	96.79284444557352	-25.804979811455574	216.63717779973229	1000	950	0	2020-05-31 02:40:55.575323
AWBE11AIHVI0I	72	60	1	865	281.5551037077038	5	-160	-208.5	232.16991413987105	-172.68390480144149	-222.38153126188902	950	900	0	2020-05-31 02:41:00.443855
AWBE11AIHVI0I	73	61	1	853	125.70717141115936	6	74	-82.5	314.27582792643676	87.75784640839352	-90.00474064156518	900	850	0	2020-05-31 02:41:44.768556
AWBE11AIHVI0I	74	62	0	0	263.7273524649123	13	0	0	243.85917328350894	-116.19272193541941	-236.75170074867552	850	1050	0	2020-05-31 02:41:49.634361
AWBE11AIHVI0I	75	62	1	824	179.75154773062454	8	49	-157.5	289.4170575398785	59.75695040496379	-169.5279498780472	1050	1000	0	2020-05-31 02:41:54.452278
AWBE11AIHVI0I	76	63	1	818	177.673465026683	13	-180	-1.5	183.05900838172496	-177.42029896756145	-9.481439176046118	1000	950	0	2020-05-31 02:41:59.277127
AWBE11AIHVI0I	77	64	1	881	197.76333545569886	7	-111	-165.5	237.62025869887643	-105.9078476468678	-167.01456420735025	950	900	0	2020-05-31 02:42:04.163189
AWBE11AIHVI0I	78	65	0	0	222.1113522316233	5	0	0	119.44265811746388	-109.17933663103578	193.42524458551733	900	1100	0	2020-05-31 02:42:09.385277
AWBE11AIHVI0I	79	65	1	867	101.3382901677804	9	35	95.5	67.02615257631136	39.553441741016755	93.30045177044563	1100	1050	0	2020-05-31 02:42:14.263212
AWBE11AIHVI0I	80	66	1	897	212.76892460237764	3	-98	185.5	117.61095998955727	-98.61106595470879	188.53772287722245	1050	1000	0	2020-05-31 02:42:19.468008
AWBE11AIHVI0I	81	67	1	794	245.11184024968497	4	-202	-107.5	204.95529317529045	-222.22753023467104	-103.41537137382166	1000	950	0	2020-05-31 02:42:23.909722
AWBE11AIHVI0I	82	68	1	858	123.96321002498603	6	84	113.5	50.695352641991825	78.52370674108613	95.92134756840471	950	900	0	2020-05-31 02:42:29.167318
AWBE11AIHVI0I	83	69	1	803	207.42751997177805	6	-186	-89.5	206.06662769265444	-186.32875367258245	-91.14697798865564	900	850	0	2020-05-31 02:42:34.403135
AWBE11AIHVI0I	84	70	1	802	159.4521710337484	1	-20	144.5	96.4820676619336	-18.00091304096625	158.43283112116418	850	800	0	2020-05-31 02:42:39.212314
AWBE11AIHVI0I	85	71	0	0	283.09230928991957	9	0	0	98.0494615493472	-39.640825717983084	280.3031582331815	800	1000	0	2020-05-31 02:42:44.448129
AWBE11AIHVI0I	86	71	1	911	229.9903489118394	4	223	-62.5	344.9141011476259	222.0641259199781	-59.85887212423686	1000	950	0	2020-05-31 02:42:50.193963
AWBE11AIHVI0I	87	72	1	913	233.38855554335674	12	-234	67.5	163.64753795885633	-223.94749866049628	65.70947954687765	950	900	0	2020-05-31 02:42:55.111545
AWBE11AIHVI0I	88	73	1	858	290.4977874886504	12	68	278.5	76.05564867044777	70.00397656605175	281.93688620104456	900	850	0	2020-05-31 02:42:59.985862
AWBE11AIHVI0I	89	74	0	0	237.2598560108394	3	0	0	76.02940883179282	57.28018301222701	230.24165545871588	850	1050	0	2020-05-31 02:43:05.246725
AWBE11AIHVI0I	90	74	1	806	230.72609176999762	2	220	-30.5	351.61689489373697	228.26086785116314	-33.637860087871374	1050	1000	0	2020-05-31 02:43:10.411040
AWBE11AIHVI0I	91	75	1	985	258.42299683379883	2	-37	243.5	100.36743161276542	-46.50580998488534	254.20396324646737	1000	950	0	2020-05-31 02:43:15.397648
AWBE11AIHVI0I	92	76	1	859	194.09248384820057	14	-66	176.5	109.58372447660439	-65.05668617682377	182.86475841466628	950	900	0	2020-05-31 02:43:20.268422
AWBE11AIHVI0I	93	77	1	787	210.93119566740398	4	115	-166.5	304.166065284116	118.45757202289984	-174.52728421688158	900	850	0	2020-05-31 02:43:25.064301
AWBE11AIHVI0I	94	78	0	0	116.48994873418634	5	0	0	18.209678087580834	110.65604823789715	36.40257057496824	850	1050	0	2020-05-31 02:43:29.920144
AWBE11AIHVI0I	95	78	1	726	143.2050181667795	14	-151	34.5	167.63453194218266	-139.88287957210656	30.666875138546104	1050	1000	0	2020-05-31 02:43:34.931370
AWBE11AIHVI0I	96	79	1	798	248.3631796898199	0	27	244.5	83.12811807403581	29.716561505465723	246.5789832851325	1000	950	0	2020-05-31 02:43:40.173745
AWBE11AIHVI0I	97	80	1	775	154.6602931636419	9	-106	-113.5	227.94048526751817	-103.60726609647199	-114.82743876564743	950	900	0	2020-05-31 02:43:45.312576
AWBE11AIHVI0I	98	81	0	0	233.25561081613708	5	0	0	40.51190608156794	177.3374750139051	151.52425526265353	900	1100	0	2020-05-31 02:43:50.639468
AWBE11AIHVI0I	99	81	1	871	168.7735709251129	13	77	151.5	68.31811913469315	62.35388711958305	156.83274850582836	1100	1050	0	2020-05-31 02:43:56.334832
AWBE11AIHVI0I	100	82	1	736	136.86316792864326	4	39	-138.5	284.39327690677806	34.02093055534036	-132.56735276685853	1050	1000	0	2020-05-31 02:44:01.086386
AWBE11AIHVI0I	101	83	1	748	114.15245241510439	3	-31	97.5	112.15377598603068	-43.046171494527336	105.7251602602068	1000	950	0	2020-05-31 02:44:06.238151
AWBE11AIHVI0I	102	84	1	848	260.29361956022234	2	-236	-75.5	196.88081262613522	-249.07779696376613	-75.58451854340717	950	900	0	2020-05-31 02:44:11.709998
AWBE11AIHVI0I	103	85	1	762	137.2269741711953	12	121	-49.5	340.20830331489304	129.12095609051	-46.465268087621105	900	850	0	2020-05-31 02:44:17.033858
AWBE11AIHVI0I	104	86	1	731	222.93446116602675	6	76	-218.5	289.3210985076728	73.76052253435306	-210.37860939469556	850	800	0	2020-05-31 02:44:21.890328
AWBE11AIHVI0I	105	87	1	651	135.11499088363124	8	-83	-109.5	233.35768279320467	-80.63901172810942	-108.41314749142553	800	750	0	2020-05-31 02:44:26.546852
AWBE11AIHVI0I	106	88	0	0	246.32363935766602	5	0	0	49.02278864987306	161.5288944530043	185.96707117980782	750	950	0	2020-05-31 02:44:31.339233
AWBE11AIHVI0I	107	88	1	670	100.81316356477106	7	-48	-77.5	237.18426303060463	-54.634591248395445	-84.72517563899196	950	900	0	2020-05-31 02:44:35.975467
AWBE11AIHVI0I	108	89	1	858	286.86662960225704	11	-237	166.5	144.74857640737503	-234.26309679182006	165.56951609781578	900	850	0	2020-05-31 02:44:40.838978
AWBE11AIHVI0I	109	90	1	842	175.00724761510452	14	-68	-139.5	243.61217952211192	-77.78105507765119	-156.77258749163357	850	800	0	2020-05-31 02:44:45.697765
AWBE11AIHVI0I	110	91	0	0	267.7844383291388	1	0	0	89.01843939901538	4.587315150039085	267.7451436552427	800	1000	0	2020-05-31 02:45:10.835326
AWBE11AIHVI0I	111	91	1	730	254.60748045635938	4	86	-242.5	287.2879877210707	75.66290118874207	-243.10510995871329	1000	950	0	2020-05-31 02:45:15.582137
AWBE11AIHVI0I	112	92	1	719	203.87950947995463	2	24	-205.5	278.36777905861794	29.66990748308874	-201.7090750951277	950	900	0	2020-05-31 02:45:20.681714
AWBE11AIHVI0I	113	93	1	762	172.4982610838969	14	132	-117.5	319.4332114243442	131.0380280680551	-112.18148366376629	900	850	0	2020-05-31 02:45:25.443685
AWBE11AIHVI0I	114	94	1	675	203.13169393548228	9	-27	216.5	97.63697424458627	-26.99539288247548	201.3299129394816	850	800	0	2020-05-31 02:45:30.127771
AWBE11AIHVI0I	115	95	1	682	141.18038501364558	14	-147	3.5	174.2795441495443	-140.4773133620897	14.072154887239664	800	750	0	2020-05-31 02:45:34.805788
AWBE11AIHVI0I	116	96	0	0	245.35212306392933	2	0	0	156.4988704826032	-225.00070750553314	97.83836626797815	750	950	0	2020-05-31 02:45:39.567744
AWBE11AIHVI0I	117	96	1	767	111.6203817225379	3	100	8.5	2.790583018160362	111.48801699078875	5.434306151356527	950	900	0	2020-05-31 02:45:44.348951
AWBE11AIHVI0I	118	97	1	690	133.1784464633838	11	-91	-103.5	231.27243390843887	-83.31884182972871	-103.89643496556094	900	850	0	2020-05-31 02:45:49.048884
AWBE11AIHVI0I	119	98	1	729	200.15134317525929	13	-122	145.5	129.6089829481357	-127.60544495963389	154.19925613152046	850	800	0	2020-05-31 02:45:53.775474
AWBE11AIHVI0I	120	99	1	755	234.98016567196208	8	-226	50.5	169.02505935335898	-230.68250611790316	44.73544042910844	800	750	0	2020-05-31 02:45:58.532584
AWBE11AIHVI0I	121	100	0	0	147.49888149420332	3	0	0	45.70368897322708	103.00867650437203	105.57051011934473	750	950	0	2020-05-31 02:46:03.294148
AWBE11AIHVI0I	122	100	1	831	217.39737814035394	5	222	-60.5	345.6281756026076	210.59400089161042	-53.96097488708324	950	900	0	2020-05-31 02:46:08.947813
AWBE11AIHVI0I	123	101	1	678	120.58143308835807	2	79	94.5	44.330014581370435	86.25512685885894	84.26111259771216	900	850	0	2020-05-31 02:46:13.645798
AWBE11AIHVI0I	124	102	1	690	154.6673571540095	7	71	-112.5	306.7336839958239	92.50599026505128	-123.95415738928715	850	800	0	2020-05-31 02:46:18.344595
AWBE11AIHVI0I	125	103	0	0	179.07075888707794	11	0	0	35.517157970585	145.75313691444785	104.0305713143604	800	1000	0	2020-05-31 02:46:23.154294
AWBE11AIHVI0I	126	103	1	747	182.17552310856226	2	-197	56.5	165.56397226734805	-176.42362113862634	45.41615488141571	1000	950	0	2020-05-31 02:46:27.907936
AWBE11AIHVI0I	127	104	1	764	152.49736757398225	0	116	-78.5	325.93472818517	126.3288189414323	-85.41941595361716	950	900	0	2020-05-31 02:46:32.677424
AWBE11AIHVI0I	128	105	1	721	204.80401652708417	6	-71	-172.5	248.40476784287608	-75.37754083220968	-190.42823195029337	900	850	0	2020-05-31 02:46:37.400119
AWBE11AIHVI0I	129	106	0	0	225.95113086165702	3	0	0	86.40978210330266	14.149088194264651	225.50768687770397	850	1050	0	2020-05-31 02:46:42.261723
AWBE11AIHVI0I	130	106	1	870	275.767889343143	3	-63	253.5	106.53446334492907	-78.48134129955712	264.3645359358823	1050	1000	0	2020-05-31 02:46:47.566947
AWBE11AIHVI0I	131	107	0	0	295.3975820285539	2	0	0	18.41947488093374	280.26397027666644	93.33722961967574	1000	1200	0	2020-05-31 02:46:52.571949
AWBE11AIHVI0I	132	107	1	683	148.31176910207327	4	76	-137.5	304.4140994682841	83.82136729172048	-122.35341940270075	1200	1150	0	2020-05-31 02:46:57.645551
AWBE11AIHVI0I	133	108	1	843	223.27533804064137	2	105	183.5	57.01885517970417	121.54283544354665	187.29446262371349	1150	1100	0	2020-05-31 02:47:02.502741
AWBE11AIHVI0I	134	109	1	771	194.0512443366485	4	-27	181.5	102.84432578807832	-43.13814213209693	189.1956292359648	1100	1050	0	2020-05-31 02:47:07.267739
AWBE11AIHVI0I	135	110	1	768	220.2022764997448	3	-196	-20.5	182.68496312432006	-219.9605391716005	-10.315220938441856	1050	1000	0	2020-05-31 02:47:12.052991
AWBE11AIHVI0I	136	111	1	819	113.71456781730957	3	107	12.5	5.377728592126765	113.21404975559464	10.657479618335621	1000	950	0	2020-05-31 02:47:16.904104
AWBE11AIHVI0I	137	112	1	835	215.49437437577632	10	152	131.5	42.14785496026156	159.77089606340908	144.60666014642123	950	900	0	2020-05-31 02:47:21.742421
AWBE11AIHVI0I	138	113	1	817	187.88605530145475	3	150	121.5	40.60372332022824	142.6485448287263	122.28067073330999	900	850	0	2020-05-31 02:47:26.565100
AWBE11AIHVI0I	139	114	0	0	251.98568744733444	1	0	0	148.61603858557106	-215.11932664829473	131.22675786854597	850	1050	0	2020-05-31 02:47:31.695107
AWBE11AIHVI0I	140	114	1	766	127.66179968114528	10	136	-31.5	347.96114735420224	124.85405579170161	-26.6270510983009	1050	1000	0	2020-05-31 02:47:36.686699
AWBE11AIHVI0I	141	115	1	786	168.38269880710098	13	159	35.5	12.620747433779451	164.3141865143471	36.79105010313285	1000	950	0	2020-05-31 02:47:41.474379
AWBE11AIHVI0I	142	116	1	889	282.4198658403159	5	-46	-268.5	260.95190243541157	-44.41434660641151	-278.9056228131437	950	900	0	2020-05-31 02:47:46.373814
AWBE11AIHVI0I	143	117	1	762	233.69128598181055	13	-12	235.5	92.52046325869952	-10.276853769402996	233.46520815837778	900	850	0	2020-05-31 02:47:51.141469
AWBE11AIHVI0I	144	118	0	0	217.19081338755748	2	0	0	166.51242858458076	-211.20080726063944	50.6563760291146	850	1050	0	2020-05-31 02:47:56.024531
AWBE11AIHVI0I	145	118	1	640	104.99414896818382	10	-79	-53.5	207.52788390675954	-93.10734252121829	-48.526220604841185	1050	1000	0	2020-05-31 02:48:01.123818
AWBE11AIHVI0I	146	119	1	851	204.0750664352426	10	-188	21.5	173.58232213305703	-202.79622586262374	22.810600965875018	1000	950	0	2020-05-31 02:48:05.975732
AWBE11AIHVI0I	147	120	1	785	126.02258527085115	0	104	55.5	27.441368845350897	111.84288681063906	58.076334837965874	950	900	0	2020-05-31 02:48:10.764744
AWBE11AIHVI0I	148	121	1	783	190.6502441197811	10	178	54.5	13.457942617910756	185.4151822322844	44.370325451825316	900	850	0	2020-05-31 02:48:31.480188
AWBE11AIHVI0I	149	122	1	818	260.8875394061927	4	-6	259.5	92.3692180292744	-10.78479665762655	260.664528423933	850	800	0	2020-05-31 02:48:36.395273
AWBE11AIHVI0I	150	123	0	0	294.3254108588765	13	0	0	210.4219385597619	-253.80264284944545	-149.03578751388312	800	1000	0	2020-05-31 02:48:41.104352
AWBE11AIHVI0I	151	123	1	693	108.04082382861662	0	-116	19.5	172.7859076762874	-107.18555588450415	13.567469303300848	1000	950	0	2020-05-31 02:48:45.802093
AWBE11AIHVI0I	152	124	1	804	266.7340569565083	8	-231	-127.5	209.62089339255533	-231.8758504669694	-131.83568223624994	950	900	0	2020-05-31 02:48:50.636290
AWBE11AIHVI0I	153	125	1	674	161.63515577222114	1	134	-93.5	325.7279240041055	133.57090267175192	-91.02053362271378	900	850	0	2020-05-31 02:48:55.285410
AWBE11AIHVI0I	154	126	1	828	190.9241466119798	8	-2	188.5	94.83852176757726	-16.104031368070675	190.2437645054601	850	800	0	2020-05-31 02:49:00.996194
AWBE11AIHVI0I	155	127	0	0	266.44969202170756	7	0	0	41.81140230936763	198.59650332256916	177.63689719906614	800	1000	0	2020-05-31 02:49:06.129604
AWBE11AIHVI0I	156	127	1	715	268.72755582890125	5	-261	-83.5	198.824603743815	-254.35353027154449	-86.71090415961389	1000	950	0	2020-05-31 02:49:11.227985
AWBE11AIHVI0I	157	128	1	682	227.79013656452577	13	13	-227.5	274.0472389520119	16.07718109865111	-227.2220732323479	950	900	0	2020-05-31 02:49:15.916400
AWBE11AIHVI0I	158	129	0	0	247.99312378724906	14	0	0	46.72135078560209	170.01096856323124	180.54600525613915	900	1100	0	2020-05-31 02:49:20.823223
AWBE11AIHVI0I	159	129	1	959	107.595706737603	1	-47	-96.5	248.62951474373887	-39.207565839364555	-100.19781878522187	1100	1050	0	2020-05-31 02:49:25.787411
AWBE11AIHVI0I	160	130	1	884	182.24559395210522	13	131	117.5	42.78228823652626	133.75730647140915	123.78384175840215	1050	1000	0	2020-05-31 02:49:31.102093
AWBE11AIHVI0I	161	131	1	788	170.5095441236676	13	-79	-140.5	241.59922944190774	-81.10048421681832	-149.9873864598572	1000	950	0	2020-05-31 02:49:35.893799
AWBE11AIHVI0I	162	132	1	798	149.5812440510269	8	141	25.5	11.529495862509842	146.56298476062463	29.897158224650536	950	900	0	2020-05-31 02:49:40.714129
AWBE11AIHVI0I	163	133	0	0	258.86630938876914	3	0	0	6.372755049549701	257.26672575844856	28.733220391894523	900	1100	0	2020-05-31 02:49:45.620467
AWBE11AIHVI0I	164	133	1	816	249.9907942866654	5	120	228.5	64.74555522301645	106.65579814050486	226.09718695970045	1100	1050	0	2020-05-31 02:49:51.035243
AWBE11AIHVI0I	165	134	1	760	158.0046163248737	8	-75	-132.5	237.86638338548428	-84.04194628467282	-133.79988805920098	1050	1000	0	2020-05-31 02:49:56.445277
AWBE11AIHVI0I	166	135	1	832	225.4727622557574	1	-165	131.5	142.64652096673396	-179.2299928776403	136.80122869449056	1000	950	0	2020-05-31 02:50:01.274623
AWBE11AIHVI0I	167	136	0	0	217.56808361997764	2	0	0	266.7904923762556	-12.181024509364985	-217.22682535076515	950	1150	0	2020-05-31 02:50:06.232764
AWBE11AIHVI0I	168	136	1	706	109.78752161730338	12	78	76.5	41.62006410625854	82.07336874386618	72.91955873360197	1150	1100	0	2020-05-31 02:50:11.376714
AWBE11AIHVI0I	169	137	1	856	255.05658640779347	3	250	44.5	12.109918581243981	249.3807955200008	53.50776668678823	1100	1050	0	2020-05-31 02:50:16.225730
AWBE11AIHVI0I	170	138	1	833	100.20089608070765	3	102	8.5	5.587587600762278	99.72479319807641	9.756290123692763	1050	1000	0	2020-05-31 02:50:21.069874
AWBE11AIHVI0I	171	139	1	850	201.32712938249136	2	-157	40.5	167.56226118011136	-196.60210798512267	43.36155164659794	1000	950	0	2020-05-31 02:50:25.928185
AWBE11AIHVI0I	172	140	1	810	246.9673480811891	8	-114	-221.5	244.1717651001582	-107.59742932677052	-222.2963432459604	950	900	0	2020-05-31 02:50:30.749010
AWBE11AIHVI0I	173	141	1	779	194.16740788108422	8	-126	141.5	133.54459745866924	-133.7656123088011	140.73998453499576	900	850	0	2020-05-31 02:50:35.529117
AWBE11AIHVI0I	174	142	1	635	165.64975354825378	3	149	53.5	18.453101621981016	157.13255031192432	52.43283783153255	850	800	0	2020-05-31 02:50:40.166758
AWBE11AIHVI0I	175	143	1	792	125.54324858992887	4	-118	-7.5	184.32891123313684	-125.18509536985108	-9.476242069194281	800	750	0	2020-05-31 02:50:44.974023
AWBE11AIHVI0I	176	144	0	0	155.26511174392837	0	0	0	122.05193085691633	-82.39728303862006	131.59765451066406	750	950	0	2020-05-31 02:50:49.721066
AWBE11AIHVI0I	177	144	1	829	203.10531130968928	13	166	-86.5	332.6643647312934	180.42490728153402	-93.26639434788743	950	900	0	2020-05-31 02:50:54.561356
AWBE11AIHVI0I	178	145	1	826	271.66572380260817	6	-249	107.5	157.22795203755547	-250.48994931782954	105.15251200017131	900	850	0	2020-05-31 02:50:59.394559
AWBE11AIHVI0I	179	146	1	762	212.7400212554042	11	43	-188.5	279.6968751996633	35.83299758428018	-209.7005315393235	850	800	0	2020-05-31 02:51:04.165914
AWBE11AIHVI0I	180	147	1	707	122.77798173041518	1	82	-77.5	318.75581829341223	92.31759433171644	-80.94377415588428	800	750	0	2020-05-31 02:51:08.912932
AWBE11AIHVI0I	181	148	0	0	189.55627434764705	14	0	0	122.033850548417	-100.54447723952462	160.6934635919929	750	950	0	2020-05-31 02:51:13.915807
AWBE11AIHVI0I	182	148	1	743	153.2302656613231	3	-72	132.5	118.19907920028177	-72.40690896597263	135.04352575607987	950	900	0	2020-05-31 02:51:18.387014
AWBE11AIHVI0I	183	149	1	898	291.20347136463783	7	86	-271.5	288.21452737220244	91.023150551249	-276.6120890318066	900	850	0	2020-05-31 02:51:23.377595
AWBE11AIHVI0I	184	150	1	698	147.69611598606969	13	-73	150.5	110.53355919395065	-51.80529107801718	138.31252471736775	850	800	0	2020-05-31 02:51:28.038435
