A32QWM7BWCSPTS	1	1	1	1132	214.0531049477672	9	-220	15	176.9337178543572	-213.74664985408342	11.449952573512743	1500	1450	0	2020-05-31 02:57:27.210363
A32QWM7BWCSPTS	2	2	1	1043	192.26263295482053	4	-183	14	176.0344205306615	-191.80231325201405	13.296340169246692	1450	1400	0	2020-05-31 02:57:30.972823
A32QWM7BWCSPTS	3	3	1	1144	131.16580389036358	12	-21	-117	264.37844630756746	-12.848645427178186	-130.53497776799892	1400	1350	0	2020-05-31 02:57:36.427318
A32QWM7BWCSPTS	4	4	1	1035	259.61693542580764	14	-254	26	172.523343621027	-257.4096614574906	33.78193819525529	1350	1300	0	2020-05-31 02:57:40.696145
A32QWM7BWCSPTS	5	5	1	982	117.94215435364768	1	-13	108	96.70145648049933	-13.763375738172329	117.13633621498302	1300	1250	0	2020-05-31 02:57:46.183353
A32QWM7BWCSPTS	6	6	1	1027	225.44025193009702	5	30	222	82.52620688005288	29.323621203882716	223.52501522155595	1250	1200	0	2020-05-31 02:57:50.647148
A32QWM7BWCSPTS	7	7	1	981	262.0414358168531	8	-136	-224	241.45966488470785	-125.19745287379901	-230.1984184977621	1200	1150	0	2020-05-31 02:57:56.009159
A32QWM7BWCSPTS	8	8	1	928	114.18273279649563	4	-45	-103	247.25185974220668	-44.152296504202	-105.30086031120995	1150	1100	0	2020-05-31 02:58:00.666711
A32QWM7BWCSPTS	9	9	1	1067	132.75981355664993	10	59	111	61.57599530462875	63.192702867867915	116.75551550076685	1100	1050	0	2020-05-31 02:58:06.801247
A32QWM7BWCSPTS	10	10	1	887	139.14716144330006	13	114	-70	326.1772251996675	115.59835207152346	-77.45291173400726	1050	1000	0	2020-05-31 02:58:14.873639
A32QWM7BWCSPTS	11	11	1	858	132.48643722627565	1	120	40	16.55686915361075	126.99320004741595	37.754247319061605	1000	950	0	2020-05-31 02:58:15.546585
A32QWM7BWCSPTS	12	12	1	764	160.75486528094308	14	-4	-160	274.42828253571247	12.412074012371042	-160.2749734993133	950	900	0	2020-05-31 02:58:21.786039
A32QWM7BWCSPTS	13	13	0	0	281.6681956024005	4	0	0	27.3555153488806	250.16992244486386	129.42944919083507	900	1100	0	2020-05-31 02:58:24.977920
A32QWM7BWCSPTS	14	13	1	977	229.68401427139494	7	188	-90	333.70594870758555	205.9191668063563	-101.74499080347084	1100	1050	0	2020-05-31 02:58:30.310205
A32QWM7BWCSPTS	15	14	0	0	108.68812869274657	5	0	0	76.93182112182532	24.575510001810983	105.87329043192116	1050	1250	0	2020-05-31 02:58:35.388804
A32QWM7BWCSPTS	16	14	1	762	165.0343365611895	9	132	-91	323.46170814062384	132.5983477316489	-98.2548239173461	1250	1200	0	2020-05-31 02:58:40.729598
A32QWM7BWCSPTS	17	15	1	959	285.59515937713707	3	-4	271	92.15270173774482	-10.727780745588202	285.39360500881395	1200	1150	0	2020-05-31 02:58:45.665178
A32QWM7BWCSPTS	18	16	1	873	189.78493396368012	1	-2	200	91.4323886489644	-4.744109798496243	189.7256297441604	1150	1100	0	2020-05-31 02:58:50.091730
A32QWM7BWCSPTS	19	17	1	825	229.65002029145745	1	-190	-158	218.11175041190882	-180.69057917485682	-141.73936086112994	1100	1050	0	2020-05-31 02:58:55.575224
A32QWM7BWCSPTS	20	18	0	0	193.5255765160401	1	0	0	323.6770323301158	155.92179634872232	-114.63220397974236	1050	1250	0	2020-05-31 02:58:59.485268
A32QWM7BWCSPTS	21	18	1	960	111.43986989164807	0	-64	72	134.558586541057	-78.1904715391725	79.40462682960802	1250	1200	0	2020-05-31 02:59:04.840285
A32QWM7BWCSPTS	22	19	1	926	240.19070173011232	10	30	245	84.51855733184561	22.943820964567802	239.09235512067224	1200	1150	0	2020-05-31 02:59:10.459162
A32QWM7BWCSPTS	23	20	1	920	222.1609574505983	4	-92	-189	242.52746290325584	-102.48804821079214	-197.10832298335066	1150	1100	0	2020-05-31 02:59:14.903166
A32QWM7BWCSPTS	24	21	1	918	134.54777686181262	4	129	-55	337.47268620706745	124.28137735550115	-51.54845779531769	1100	1050	0	2020-05-31 02:59:19.414884
A32QWM7BWCSPTS	25	22	1	751	121.22367944994829	5	65	-110	302.8197499760694	65.70298250159186	-101.87393459457296	1050	1000	0	2020-05-31 02:59:24.240298
A32QWM7BWCSPTS	26	23	1	989	155.0089697298602	14	131	92	38.27248981421084	121.69349063808453	96.01288993167091	1000	950	0	2020-05-31 02:59:29.486879
A32QWM7BWCSPTS	27	24	0	0	254.2729594824869	3	0	0	105.7099652547293	-68.84895005167913	244.77450847823965	950	1150	0	2020-05-31 02:59:34.432089
A32QWM7BWCSPTS	28	24	1	914	149.25034835554158	1	-124	-97	214.26663766526445	-123.34441105141546	-84.03465205871903	1150	1100	0	2020-05-31 02:59:39.047349
A32QWM7BWCSPTS	29	25	1	943	242.10055223933034	0	-166	175	131.67826124075606	-160.98404138228514	180.8226086937566	1100	1050	0	2020-05-31 02:59:44.432673
A32QWM7BWCSPTS	30	26	1	834	128.12088606340012	0	-54	-109	253.6596653758572	-36.04582673158424	-122.9457596703008	1050	1000	0	2020-05-31 02:59:50.200549
A32QWM7BWCSPTS	31	27	1	976	141.96316267789925	1	76	106	50.70091928984002	89.9149892340616	109.85824624738135	1000	950	0	2020-05-31 02:59:54.307447
A32QWM7BWCSPTS	32	28	0	0	287.47104175598093	10	0	0	148.93414739148972	-246.2404438663253	148.34164503868777	950	1150	0	2020-05-31 02:59:58.698087
A32QWM7BWCSPTS	33	28	1	1148	262.186545325012	5	-5	-264	269.60780008350554	-1.794700046315304	-262.1804027787133	1150	1100	0	2020-05-31 03:00:05.297024
A32QWM7BWCSPTS	34	29	1	835	246.8290298979595	12	158	207	51.831576414334094	152.5342205957704	194.05638754652892	1100	1050	0	2020-05-31 03:00:09.093340
A32QWM7BWCSPTS	35	30	1	974	135.27707270289525	9	-124	-70	207.44174962195203	-120.05567165163599	-62.341977056706945	1050	1000	0	2020-05-31 03:00:14.535636
A32QWM7BWCSPTS	36	31	1	884	157.29767552845914	6	-70	-142	239.8239703156486	-79.06698592025182	-135.9815078021387	1000	950	0	2020-05-31 03:00:28.319840
A32QWM7BWCSPTS	37	32	1	838	106.4176203663116	2	76	-91	310.2473817651291	68.75526474457031	-81.22452520225934	950	900	0	2020-05-31 03:00:32.610642
A32QWM7BWCSPTS	38	33	0	0	141.46751685809556	5	0	0	24.91529615663665	128.3013584067484	59.59714554388194	900	1100	0	2020-05-31 03:00:37.743667
A32QWM7BWCSPTS	39	33	1	741	225.82176650881848	12	193	88	25.5085106636853	203.80896029841387	97.24905105574497	1100	1050	0	2020-05-31 03:00:42.864999
A32QWM7BWCSPTS	40	34	1	855	124.48590362457992	2	-112	-59	213.51283803438065	-103.79163226553217	-68.73163225826039	1050	1000	0	2020-05-31 03:00:46.943720
A32QWM7BWCSPTS	41	35	1	817	153.9201177797754	7	-119	111	133.07891092858947	-105.12820601887978	112.42536616169814	1000	950	0	2020-05-31 03:00:52.677612
A32QWM7BWCSPTS	42	36	0	0	208.8647401579658	14	0	0	49.274941442091425	136.26960462530604	158.28794817204923	950	1150	0	2020-05-31 03:00:57.185094
A32QWM7BWCSPTS	43	36	1	929	228.2364998551691	7	-218	-39	190.72030644035522	-224.2530726892422	-42.45537958341743	1150	1100	0	2020-05-31 03:01:04.445984
A32QWM7BWCSPTS	44	37	1	878	226.4985900688696	4	-164	182	132.52317140980435	-153.08775155544646	166.9303795804818	1100	1050	0	2020-05-31 03:01:11.390389
A32QWM7BWCSPTS	45	38	1	1028	156.22755324015515	9	-171	6	178.7084471101836	-156.18786257551184	3.5213598933564425	1050	1000	0	2020-05-31 03:01:13.192409
A32QWM7BWCSPTS	46	39	0	0	193.727498789166	3	0	0	119.17312425811107	-94.43249713552287	169.15332474372406	1000	1200	0	2020-05-31 03:01:16.622460
A32QWM7BWCSPTS	47	39	1	883	287.3186144800644	8	-243	-139	208.59277241490557	-252.2781996666491	-137.50525880742967	1200	1150	0	2020-05-31 03:01:22.334093
A32QWM7BWCSPTS	48	40	1	887	243.06742414762545	8	28	256	87.36002435539392	11.195677148583876	242.80945100005133	1150	1100	0	2020-05-31 03:01:26.418289
A32QWM7BWCSPTS	49	41	1	861	201.34877891853935	5	166	-67	335.9821787645816	183.91578063930032	-81.95313541179253	1100	1050	0	2020-05-31 03:01:32.243495
A32QWM7BWCSPTS	50	42	1	738	210.62893019444994	11	155	-121	323.4000214748703	169.09663301001663	-125.58214419070181	1050	1000	0	2020-05-31 03:01:37.057311
A32QWM7BWCSPTS	51	43	1	891	216.20436591179583	2	-88	191	116.41443346610052	-96.18084830139595	193.63257024412388	1000	950	0	2020-05-31 03:01:41.535621
A32QWM7BWCSPTS	52	44	1	731	111.54747456094523	6	28	-123	286.3665266917641	31.431954335533472	-107.02743259358164	950	900	0	2020-05-31 03:01:46.421622
A32QWM7BWCSPTS	53	45	1	856	109.25209970182084	14	-71	-48	231.80510213312195	-67.55476995944301	-85.86253167117387	900	850	0	2020-05-31 03:01:51.362037
A32QWM7BWCSPTS	54	46	1	717	221.2055775622186	5	196	113	32.58651417397648	186.3832153180182	119.13523656900158	850	800	0	2020-05-31 03:01:57.132589
A32QWM7BWCSPTS	55	47	0	0	287.3680469190913	7	0	0	284.292939567696	70.94530881535519	-278.4729027162013	800	1000	0	2020-05-31 03:02:02.002863
A32QWM7BWCSPTS	56	47	1	862	184.15004119713672	2	-178	-27	188.599925029791	-182.07956433503395	-27.53670140869071	1000	950	0	2020-05-31 03:02:06.194448
A32QWM7BWCSPTS	57	48	1	676	259.2154026750753	4	81	240	72.00365255200124	80.08624850795321	246.53360376209125	950	900	0	2020-05-31 03:02:14.598481
A32QWM7BWCSPTS	58	49	1	802	207.79462728508196	13	-68	-176	251.7296017338528	-65.14400954410476	-197.31919609876712	900	850	0	2020-05-31 03:02:17.612974
A32QWM7BWCSPTS	59	50	1	843	226.6746617007945	6	-77	-195	252.1356898973012	-69.53558152509237	-215.7456955749914	850	800	0	2020-05-31 03:02:20.524766
A32QWM7BWCSPTS	60	51	1	795	232.30449499215626	9	-167	-171	223.74500874752607	-167.82238886782974	-160.62697216923343	800	750	0	2020-05-31 03:02:26.069534
A32QWM7BWCSPTS	61	52	0	0	278.1548450358156	10	0	0	198.17052192744654	-264.28399134610373	-86.74151102598545	750	950	0	2020-05-31 03:02:31.964553
A32QWM7BWCSPTS	62	52	1	751	235.3272485632945	1	173	167	47.59455947709518	158.69822601388645	173.76359508371135	950	900	0	2020-05-31 03:02:35.388561
A32QWM7BWCSPTS	63	53	1	812	218.3642625804927	4	-206	33	173.96570120352416	-217.1543375637991	22.955279339401724	900	850	0	2020-05-31 03:02:41.329759
A32QWM7BWCSPTS	64	54	1	730	132.10610261833065	12	-119	-32	199.68750914547894	-124.38370979088285	-44.505225397276	850	800	0	2020-05-31 03:02:45.353332
A32QWM7BWCSPTS	65	55	1	701	148.59315501131442	1	-12	-153	261.7825941701372	-21.238361737615133	-147.0675277106361	800	750	0	2020-05-31 03:02:49.999665
A32QWM7BWCSPTS	66	56	0	0	158.26228882064837	6	0	0	142.96892297608508	-126.34220482431664	95.31316458328692	750	950	0	2020-05-31 03:02:55.310644
A32QWM7BWCSPTS	67	56	1	713	178.20464799016537	10	-32	178	99.50830466352802	-29.43772560186126	175.75641347242004	950	900	0	2020-05-31 03:02:59.801679
A32QWM7BWCSPTS	68	57	1	817	282.45873796539115	8	-288	38	171.89634280949653	-279.6382919878192	39.81663354851441	900	850	0	2020-05-31 03:03:04.308726
A32QWM7BWCSPTS	69	58	1	833	184.33603211417756	7	122	-145	313.7300579598701	127.42441903099224	-133.20206518749328	850	800	0	2020-05-31 03:03:11.021340
A32QWM7BWCSPTS	70	59	0	0	258.01144634470904	7	0	0	344.4091668975463	248.518064729301	-69.3446317179033	800	1000	0	2020-05-31 03:03:16.909896
A32QWM7BWCSPTS	71	59	1	825	146.55732873063408	2	23	126	74.98182474517273	37.97673246428735	141.5514690704236	1000	950	0	2020-05-31 03:03:19.863970
A32QWM7BWCSPTS	72	60	1	746	166.30342872093493	3	139	93	37.0151475688631	132.78935930137442	100.11901148468044	950	900	0	2020-05-31 03:03:23.880923
A32QWM7BWCSPTS	73	61	0	0	141.336355519895	4	0	0	324.29458739279727	114.76913426774945	-82.48643046633458	900	1100	0	2020-05-31 03:03:42.133953
A32QWM7BWCSPTS	74	61	1	759	252.08861674201782	11	204	-156	323.36072125264275	202.2780610545896	-150.4402097409455	1100	1050	0	2020-05-31 03:03:45.517775
A32QWM7BWCSPTS	75	62	1	707	144.1017158795523	12	125	59	28.46780664613453	126.67766841732423	68.68822929572191	1050	1000	0	2020-05-31 03:03:51.331974
A32QWM7BWCSPTS	76	63	1	676	177.83455078891	12	129	-128	318.67871872310957	133.55711553655365	-117.42071513940408	1000	950	0	2020-05-31 03:03:54.745852
A32QWM7BWCSPTS	77	64	1	906	151.03038997749576	1	-100	-127	227.35450527943334	-102.31708444878967	-111.09182205119193	950	900	0	2020-05-31 03:04:03.937630
A32QWM7BWCSPTS	78	65	0	0	120.42373503488868	2	0	0	18.20945871226332	114.39297177348269	37.63142262238127	900	1100	0	2020-05-31 03:04:08.663159
A32QWM7BWCSPTS	79	65	1	781	242.10210397860456	7	110	-218	295.7240537164472	105.08135162307184	-218.1085470400814	1100	1050	0	2020-05-31 03:04:10.554144
A32QWM7BWCSPTS	80	66	1	765	274.84954994240195	9	219	157	35.348527112601964	224.18045172366257	159.0138364058785	1050	1000	0	2020-05-31 03:04:15.425817
A32QWM7BWCSPTS	81	67	1	996	270.71793954891723	9	216	-120	330.9268572927796	236.60750511685936	-131.54881723522482	1000	950	0	2020-05-31 03:04:20.668982
A32QWM7BWCSPTS	82	68	1	847	275.23525706545206	6	73	-281	288.01857624349697	85.1372357421529	-261.7366955970648	950	900	0	2020-05-31 03:04:24.477848
A32QWM7BWCSPTS	83	69	0	0	261.9981931995086	10	0	0	316.23482980252	189.21007652795905	-181.2252746724113	900	1100	0	2020-05-31 03:04:30.184806
A32QWM7BWCSPTS	84	69	1	706	231.27962388451772	12	-152	-161	226.3798041017571	-159.5539751473645	-167.42996577326943	1100	1050	0	2020-05-31 03:04:34.022600
A32QWM7BWCSPTS	85	70	1	694	123.330745226614	12	84	71	41.383775534023926	92.53484890881978	81.53388532122008	1050	1000	0	2020-05-31 03:04:39.493346
A32QWM7BWCSPTS	86	71	1	769	287.3540597753449	13	-184	-207	232.34172459317097	-175.55915941590192	-227.4892024131133	1000	950	0	2020-05-31 03:04:46.424247
A32QWM7BWCSPTS	87	72	0	0	299.8205036907626	3	0	0	24.396636503386986	273.0489043383496	123.84114935274721	950	1150	0	2020-05-31 03:04:54.436085
A32QWM7BWCSPTS	88	72	1	916	232.3896804582196	1	241	62	15.055548042766436	224.41277646468595	60.36447086560365	1150	1100	0	2020-05-31 03:04:55.611815
A32QWM7BWCSPTS	89	73	1	795	295.3288320734669	14	279	106	23.799782074221582	270.21442339678305	119.17753329475356	1100	1050	0	2020-05-31 03:04:59.658640
A32QWM7BWCSPTS	90	74	0	0	203.74343886476652	9	0	0	25.753979201071317	183.50520880977555	88.5281154217208	1050	1250	0	2020-05-31 03:05:04.389187
A32QWM7BWCSPTS	91	74	1	724	186.9909071005768	5	-172	-48	195.63485414631626	-180.0720190359286	-50.39511185244768	1250	1200	0	2020-05-31 03:05:10.985051
A32QWM7BWCSPTS	92	75	1	730	107.11020586332202	2	-21	-99	251.6158657976185	-33.78108843535035	-101.64366317782068	1200	1150	0	2020-05-31 03:05:14.289462
A32QWM7BWCSPTS	93	76	1	949	281.46391787294084	0	-188	217	127.58709143607084	-171.68360251330245	223.03963255986582	1150	1100	0	2020-05-31 03:05:18.923797
A32QWM7BWCSPTS	94	77	0	0	131.5480794604912	2	0	0	201.84264671147477	-122.10413117080348	-48.94362431172139	1100	1300	0	2020-05-31 03:05:26.682140
A32QWM7BWCSPTS	95	77	1	862	261.76473346609254	14	-184	-167	222.4625763024532	-193.1086741077578	-176.7195961712177	1300	1250	0	2020-05-31 03:05:29.911486
A32QWM7BWCSPTS	96	78	1	871	269.930486840667	6	219	188	42.17766017174053	200.0364266086864	181.23988456095177	1250	1200	0	2020-05-31 03:05:34.503194
A32QWM7BWCSPTS	97	79	1	886	286.5236008628633	2	50	-273	284.3338989572514	70.93530288210088	-277.60395648557676	1200	1150	0	2020-05-31 03:05:38.641956
A32QWM7BWCSPTS	98	80	1	821	116.0619811641443	8	127	12	7.987644950601851	114.93595437916463	16.127921834408	1150	1100	0	2020-05-31 03:05:45.600526
A32QWM7BWCSPTS	99	81	1	886	183.7360080975745	12	-10	181	91.48989067531271	-4.777240455421679	183.67389211660716	1100	1050	0	2020-05-31 03:05:49.407583
A32QWM7BWCSPTS	100	82	1	786	132.68918872013575	9	126	44	21.20660615332217	123.70375551015705	47.99793407940689	1050	1000	0	2020-05-31 03:05:56.355503
A32QWM7BWCSPTS	101	83	1	911	186.80848234332439	11	102	-155	308.379683519612	115.98375474426773	-146.44172120962554	1000	950	0	2020-05-31 03:05:58.702482
A32QWM7BWCSPTS	102	84	1	776	152.86329847980932	13	70	133	59.93224391178451	76.58814809533284	132.29302171110402	950	900	0	2020-05-31 03:06:07.096785
A32QWM7BWCSPTS	103	85	1	825	146.32659343235295	3	26	-131	281.9164665305484	30.214304537154362	-143.1732089004546	900	850	0	2020-05-31 03:06:10.050108
A32QWM7BWCSPTS	104	86	0	0	167.3291907672887	6	0	0	38.986064065405714	130.06481378733594	105.27203948485713	850	1050	0	2020-05-31 03:06:14.466662
A32QWM7BWCSPTS	105	86	1	855	207.29943361304012	14	207	65	17.48317350791786	197.7232819253731	62.2780776914851	1050	1000	0	2020-05-31 03:06:17.552566
A32QWM7BWCSPTS	106	87	1	758	180.5232093849187	5	42	-173	286.0473759457967	49.90240920889169	-173.48884310462017	1000	950	0	2020-05-31 03:06:23.275936
A32QWM7BWCSPTS	107	88	1	730	158.3317267841688	6	144	78	29.33094989587346	138.0343581015809	77.55934302159355	950	900	0	2020-05-31 03:06:26.867241
A32QWM7BWCSPTS	108	89	1	833	129.60565780433683	7	77	106	55.60105450093239	73.22095193704052	106.94072532168677	900	850	0	2020-05-31 03:06:31.484536
A32QWM7BWCSPTS	109	90	1	833	173.80658776292796	12	-120	-139	229.9253587945	-111.89407700738116	-132.99791532373217	850	800	0	2020-05-31 03:06:36.545979
A32QWM7BWCSPTS	110	91	1	752	158.05610363109463	8	-26	162	100.28700628915489	-28.225513904221167	155.5154405835187	800	750	0	2020-05-31 03:06:46.118533
A32QWM7BWCSPTS	111	92	1	670	118.44102802664507	8	121	2	354.8444720255191	117.9618684650862	-10.643059157696438	750	700	0	2020-05-31 03:06:49.523612
A32QWM7BWCSPTS	112	93	0	0	174.09735766059225	12	0	0	254.36139762244883	-46.93119477745765	-167.65247657329883	700	900	0	2020-05-31 03:06:55.970799
A32QWM7BWCSPTS	113	93	1	893	203.49122828007887	8	-148	165	129.7336573767868	-130.07559726030516	156.4896769257003	900	850	0	2020-05-31 03:06:58.351631
A32QWM7BWCSPTS	114	94	1	672	138.96679811612591	8	-95	106	135.06719546898967	-98.37954040019196	98.14905506063265	850	800	0	2020-05-31 03:07:07.574019
A32QWM7BWCSPTS	115	95	0	0	195.61642507897167	8	0	0	133.8332051372999	-135.47637461247814	141.10966544690137	800	1000	0	2020-05-31 03:07:12.943262
A32QWM7BWCSPTS	116	95	1	739	143.38186044849118	6	103	-114	310.4275672544244	92.98116243102628	-109.14605507596556	1000	950	0	2020-05-31 03:07:14.254110
A32QWM7BWCSPTS	117	96	1	766	153.7031996600042	13	17	133	82.65978465372955	19.637240405914127	152.44360391621373	950	900	0	2020-05-31 03:07:17.199617
A32QWM7BWCSPTS	118	97	1	621	119.40328567012482	13	60	113	57.52093177523457	64.11854442069718	100.72714078237561	900	850	0	2020-05-31 03:07:22.335344
A32QWM7BWCSPTS	119	98	1	693	126.62646660400708	14	85	93	41.661089895336644	94.60133835464647	84.17154404028366	850	800	0	2020-05-31 03:07:28.108963
A32QWM7BWCSPTS	120	99	0	0	264.438268357785	1	0	0	274.9256944893136	22.70565581333325	-263.4616688745259	800	1000	0	2020-05-31 03:07:31.787481
A32QWM7BWCSPTS	121	99	1	815	247.07376853588224	8	199	-142	327.5109761128899	208.4053303754482	-132.71271743741443	1000	950	0	2020-05-31 03:07:40.413717
A32QWM7BWCSPTS	122	100	1	772	160.15104755979	6	125	-88	322.614545755585	127.25102411589184	-97.23957474174199	950	900	0	2020-05-31 03:07:43.214434
A32QWM7BWCSPTS	123	101	1	763	223.05119759942346	3	207	-11	358.84121459153675	223.0055812495323	-4.510818339868614	900	850	0	2020-05-31 03:07:46.066673
A32QWM7BWCSPTS	124	102	1	833	276.42002212581787	1	-247	-65	192.88273530860312	-269.46209368427014	-61.62960894997841	850	800	0	2020-05-31 03:07:51.709750
A32QWM7BWCSPTS	125	103	1	795	143.24042560464764	5	-14	137	95.59702661629873	-13.970418041641567	142.55752153829826	800	750	0	2020-05-31 03:07:55.490061
A32QWM7BWCSPTS	126	104	1	707	128.8739721185058	4	58	-108	297.84749778918024	60.19958295558677	-113.94959807553003	750	700	0	2020-05-31 03:08:01.122958
A32QWM7BWCSPTS	127	105	0	0	239.86950310874025	4	0	0	98.87243568003574	-36.99629023623982	236.99926799547262	700	900	0	2020-05-31 03:08:06.068223
A32QWM7BWCSPTS	128	105	1	808	277.28021767036626	13	-233	-112	208.51170893876102	-243.65155707080865	-132.35648019003892	900	850	0	2020-05-31 03:08:10.516518
A32QWM7BWCSPTS	129	106	1	717	152.84874996097795	13	-18	-153	267.16930698516626	-7.548407603860473	-152.66224781287463	850	800	0	2020-05-31 03:08:14.846023
A32QWM7BWCSPTS	130	107	0	0	265.97631276803946	4	0	0	140.56942430897624	-205.4387054202498	168.9329371938278	800	1000	0	2020-05-31 03:08:22.633122
A32QWM7BWCSPTS	131	107	1	715	136.1901221511456	14	136	-51	336.86091304400475	125.23412152956602	-53.51788650780082	1000	950	0	2020-05-31 03:08:26.164928
A32QWM7BWCSPTS	132	108	1	826	229.51306444978442	13	-231	-47	189.63676088878347	-226.2743678540431	-38.42079131647447	950	900	0	2020-05-31 03:08:30.676659
A32QWM7BWCSPTS	133	109	1	707	234.92599461110905	4	-76	231	107.68788801264067	-71.37795660120369	223.82003988797678	900	850	0	2020-05-31 03:08:35.091188
A32QWM7BWCSPTS	134	110	1	685	238.71762822890946	14	-50	-223	261.3460757023052	-35.91885122698143	-235.99987744439574	850	800	0	2020-05-31 03:08:39.129222
A32QWM7BWCSPTS	135	111	1	700	242.18593862339097	8	145	-202	301.82837655207044	127.72320955282422	-205.76882807757409	800	750	0	2020-05-31 03:08:43.378537
A32QWM7BWCSPTS	136	112	0	0	182.95865177924102	10	0	0	278.65336891893776	27.5272760868067	-180.87597223544728	750	950	0	2020-05-31 03:08:47.890539
A32QWM7BWCSPTS	137	112	1	822	133.14215838067645	3	-108	73	145.58367462043267	-109.83595478989302	75.25222504124184	950	900	0	2020-05-31 03:08:55.439605
A32QWM7BWCSPTS	138	113	1	895	135.73766810522517	3	121	79	35.1378846031818	111.00210309289058	78.12328495141224	900	850	0	2020-05-31 03:08:58.678296
A32QWM7BWCSPTS	139	114	0	0	212.5341138004563	5	0	0	22.966784591737273	195.6867923442939	82.93026486721541	850	1050	0	2020-05-31 03:09:02.844947
A32QWM7BWCSPTS	140	114	1	935	278.65119793700114	9	157	223	53.843280892237445	164.40307159558216	224.98471095090812	1050	1000	0	2020-05-31 03:09:07.498585
A32QWM7BWCSPTS	141	115	1	761	259.09469515926503	11	239	-75	340.5523964093702	244.31239966358675	-86.26420132530257	1000	950	0	2020-05-31 03:09:12.359843
A32QWM7BWCSPTS	142	116	0	0	108.07614934286937	10	0	0	180.25930310639887	-108.07504254248794	-0.48911779933418637	950	1150	0	2020-05-31 03:09:20.933882
A32QWM7BWCSPTS	143	116	1	674	107.3498114568041	13	54	-97	296.2872035287116	47.54211384067886	-96.24826975780563	1150	1100	0	2020-05-31 03:09:22.729289
A32QWM7BWCSPTS	144	117	1	702	256.35468065232794	7	47	-243	285.69399225973166	69.3438133470942	-246.79780761352075	1100	1050	0	2020-05-31 03:09:27.091834
A32QWM7BWCSPTS	145	118	1	881	165.5138690597248	4	-60	137	117.17048980461453	-75.58021551018395	147.24969227320608	1050	1000	0	2020-05-31 03:09:31.740056
A32QWM7BWCSPTS	146	119	1	754	200.61960833848434	8	213	-48	347.21289648076083	195.64408097004713	-44.402937191952766	1000	950	0	2020-05-31 03:09:37.766683
A32QWM7BWCSPTS	147	120	1	872	245.7965241723855	3	137	-198	308.69815471220323	153.6762935622387	-191.8320309338321	950	900	0	2020-05-31 03:09:41.338288
A32QWM7BWCSPTS	148	121	1	727	120.13203622709537	0	-41	-107	245.2996325823022	-50.199922329423195	-109.14061538303709	900	850	0	2020-05-31 03:10:02.036998
A32QWM7BWCSPTS	149	122	1	793	159.8926284326466	0	140	-43	344.74821718826064	154.26107237564918	-42.06155223734753	850	800	0	2020-05-31 03:10:06.864008
A32QWM7BWCSPTS	150	123	0	0	139.89878694441228	4	0	0	322.98819849969686	111.71079500062432	-84.21620312532826	800	1000	0	2020-05-31 03:10:12.619035
A32QWM7BWCSPTS	151	123	1	741	289.81374753117086	8	-286	-8	181.08296864554552	-289.7619793915172	-5.4775502892447925	1000	950	0	2020-05-31 03:10:16.482198
A32QWM7BWCSPTS	152	124	1	693	145.1735646154316	1	-112	82	143.9531396286009	-117.37805225800723	85.4269085901358	950	900	0	2020-05-31 03:10:21.124541
A32QWM7BWCSPTS	153	125	1	723	166.74578431172063	2	-138	74	151.7799459242886	-146.92604702324132	78.8472782780429	900	850	0	2020-05-31 03:10:25.560905
A32QWM7BWCSPTS	154	126	0	0	285.47695934359575	0	0	0	222.96626115174288	-208.8992415584364	-194.5718406974017	850	1050	0	2020-05-31 03:10:33.765548
A32QWM7BWCSPTS	155	126	1	654	136.728302637061	1	144	-15	348.19307747749883	133.83549739735045	-27.97656838169294	1050	1000	0	2020-05-31 03:10:35.491137
A32QWM7BWCSPTS	156	127	1	918	198.07373088504033	13	-162	121	142.635453817658	-157.42708078413006	120.20780799310157	1000	950	0	2020-05-31 03:10:41.056215
A32QWM7BWCSPTS	157	128	1	842	248.6223655218685	0	203	126	31.242397631370025	212.56732343434055	128.95043096341334	950	900	0	2020-05-31 03:10:44.922737
A32QWM7BWCSPTS	158	129	1	684	106.62185193743711	7	-79	-70	227.51330196834232	-72.01442682988844	-78.62659625680999	900	850	0	2020-05-31 03:10:50.886578
A32QWM7BWCSPTS	159	130	1	780	207.06754247772506	1	174	129	37.35731578740452	164.5911320448049	125.64524025992415	850	800	0	2020-05-31 03:10:55.774656
A32QWM7BWCSPTS	160	131	0	0	287.54661138046504	14	0	0	191.91959052079457	-281.34665290840314	-59.38951602451997	800	1000	0	2020-05-31 03:11:00.281932
A32QWM7BWCSPTS	161	131	1	880	244.61914692998917	9	28	-225	277.66617833950653	32.632484168426465	-242.432770106999	1000	950	0	2020-05-31 03:11:04.623156
A32QWM7BWCSPTS	162	132	1	677	110.92968173623264	12	111	8	11.64464300707305	108.64655796400874	22.39017044765748	950	900	0	2020-05-31 03:11:10.446855
A32QWM7BWCSPTS	163	133	1	724	244.75678948434094	7	136	190	51.17774492351977	153.43961684705167	190.68867292136667	900	850	0	2020-05-31 03:11:14.048805
A32QWM7BWCSPTS	164	134	1	631	108.85309472214351	9	97	65	28.7905104776155	95.39737809439471	52.42457899976926	850	800	0	2020-05-31 03:11:21.631525
A32QWM7BWCSPTS	165	135	1	763	242.84322151761316	5	222	111	27.38629603048632	215.6266718992931	111.70482801869909	800	750	0	2020-05-31 03:11:24.839618
A32QWM7BWCSPTS	166	136	0	0	242.06567639161176	14	0	0	324.0464549675182	195.95054321501217	-142.12380624184732	750	950	0	2020-05-31 03:11:31.649293
A32QWM7BWCSPTS	167	136	1	854	258.5967101264489	0	106	262	65.39190725525478	107.682052599692	235.1102593170698	950	900	0	2020-05-31 03:11:34.037568
A32QWM7BWCSPTS	168	137	0	0	279.80126066282094	11	0	0	159.3780250882501	-261.872861550159	98.54618131635112	900	1100	0	2020-05-31 03:11:37.846349
A32QWM7BWCSPTS	169	137	0	0	235.4093901901511	9	0	0	307.2976324340912	142.64762164335633	-187.26782165976263	1100	1300	0	2020-05-31 03:11:43.796777
A32QWM7BWCSPTS	170	137	1	616	144.81642857217702	9	94	118	48.164780221259946	96.59119502080695	107.89781753517023	1300	1250	0	2020-05-31 03:11:48.464381
A32QWM7BWCSPTS	171	138	1	770	208.89724050152904	4	197	47	12.792551659359983	203.7120238936555	46.2543880113487	1250	1200	0	2020-05-31 03:11:53.277400
A32QWM7BWCSPTS	172	139	0	0	263.6431232400668	11	0	0	3.400058529313288	263.17905000396854	15.63598640270805	1200	1400	0	2020-05-31 03:11:58.003186
A32QWM7BWCSPTS	173	139	1	811	127.22707680621448	7	112	-31	346.471567223669	123.69702853780342	-29.761959000916672	1400	1350	0	2020-05-31 03:12:02.942428
A32QWM7BWCSPTS	174	140	1	920	279.51024112387665	2	268	24	6.104956404459809	277.9250681037334	29.725938381535073	1350	1300	0	2020-05-31 03:12:08.138850
A32QWM7BWCSPTS	175	141	1	824	172.00135637649288	9	-125	131	131.44822358765774	-113.85508864677739	128.92433976789553	1300	1250	0	2020-05-31 03:12:13.112573
A32QWM7BWCSPTS	176	142	1	889	283.6228596106889	4	-223	122	153.35024754622464	-253.49221087494575	127.2148793163622	1250	1200	0	2020-05-31 03:12:17.626927
A32QWM7BWCSPTS	177	143	1	770	166.98334337399436	3	-126	126	131.77908478134012	-111.25437206946316	124.5226953602706	1200	1150	0	2020-05-31 03:12:22.693781
A32QWM7BWCSPTS	178	144	0	0	270.88270854513587	11	0	0	343.90734380856765	260.26808582507357	-75.08638551495973	1150	1350	0	2020-05-31 03:12:27.534949
A32QWM7BWCSPTS	179	144	1	776	106.70509114242144	1	46	-95	286.0423927064808	29.487792993394436	-102.54972715756578	1350	1300	0	2020-05-31 03:12:33.064935
A32QWM7BWCSPTS	180	145	1	802	125.96939604250679	7	107	52	32.49810422136437	106.24375047508745	67.67979184587732	1300	1250	0	2020-05-31 03:12:37.129262
A32QWM7BWCSPTS	181	146	1	877	267.1446417312726	9	183	-197	313.4928421367057	183.86602648582638	-193.8028480442003	1250	1200	0	2020-05-31 03:12:42.328881
A32QWM7BWCSPTS	182	147	1	764	105.49788945745604	13	79	-80	315.4119464310906	75.13268857155175	-74.06000126915899	1200	1150	0	2020-05-31 03:12:46.833100
A32QWM7BWCSPTS	183	148	1	1128	243.40763068739784	10	-229	109	151.0320766446702	-212.955142344085	117.88715802013024	1150	1100	0	2020-05-31 03:12:52.343517
A32QWM7BWCSPTS	184	149	1	912	237.1813983372835	2	41	230	85.53936688692072	18.446572997465058	236.46297735983606	1100	1050	0	2020-05-31 03:12:56.891131
A32QWM7BWCSPTS	185	150	1	694	100.32637099556148	11	-46	83	126.29542054473644	-59.388071089038085	80.86060678391176	1050	1000	0	2020-05-31 03:13:01.235204
