A3NXT3OVGL7QNR	1	1	1	703	129.3977803891972	8	128	-19	355.6083119448378	129.01785186881906	-9.908555333971261	1500	1450	0	2020-05-30 06:23:16.831459
A3NXT3OVGL7QNR	2	2	1	825	125.28124019843894	12	69	50	41.257779313722054	94.18020716113004	82.61644948038848	1450	1400	0	2020-05-30 06:23:22.177844
A3NXT3OVGL7QNR	3	3	1	1010	195.30383743863896	12	38	182	79.06562343168761	37.046124176360884	191.75811221893056	1400	1350	0	2020-05-30 06:23:27.522988
A3NXT3OVGL7QNR	4	4	0	0	122.18973580298376	12	0	0	259.9157298000215	-21.3949873933236	-120.30206170320812	1350	1550	0	2020-05-30 06:23:35.337497
A3NXT3OVGL7QNR	5	4	1	1125	125.47003859344935	3	127	26	9.321401614845373	123.81324235566356	20.322686879922788	1550	1500	1	2020-05-30 06:24:37.830632
