A22YH6KLLHBL5Y	1	1	0	0	141.62043331434973	5	0	0	148.5377320804671	-120.79997365559173	73.91693646893465	1500	1700	1	2020-05-30 22:43:24.338221
A22YH6KLLHBL5Y	1	1	0	470	104.81930384124128	2	0	4	78.3218340645654	21.21690735780024	102.64954602886942	1500	1700	0	2020-05-30 22:54:57.913762
A22YH6KLLHBL5Y	2	1	0	897	140.78193112675575	2	1	5	108.50476681601393	-44.681869448977444	133.50311859399815	1700	1900	0	2020-05-30 22:55:05.681993
A22YH6KLLHBL5Y	3	1	0	0	187.6140053193431	7	0	0	67.63285651482992	71.39465774209398	173.4987545714832	1900	2000	0	2020-05-30 22:55:11.939571
A22YH6KLLHBL5Y	4	1	0	0	138.0142478736394	1	0	0	29.379811559510934	120.26378405242122	67.70934102115434	2000	2000	0	2020-05-30 22:55:17.954788
A22YH6KLLHBL5Y	5	1	0	0	295.8812143039453	6	0	0	188.51080104139766	-292.62296495278133	-43.78919227641093	2000	2000	0	2020-05-30 22:55:24.165645
A22YH6KLLHBL5Y	6	1	0	0	265.54873690232364	1	0	0	283.2333762809038	60.78887681919903	-258.49728069262113	2000	2000	0	2020-05-30 22:55:30.333516
A22YH6KLLHBL5Y	7	1	0	0	273.85456313995996	14	0	0	257.148596983005	-60.911626186547245	-266.99456089570185	2000	2000	0	2020-05-30 22:55:37.311227
A22YH6KLLHBL5Y	8	1	0	1313	156.6721930763232	14	-5	0	347.33822724883504	152.86208299921194	-34.34180636610038	2000	2000	0	2020-05-30 22:55:43.594234
A22YH6KLLHBL5Y	9	1	0	0	293.40765943859594	3	0	0	122.05971781460107	-155.7416287185092	248.661616863844	2000	2000	0	2020-05-30 22:55:51.480071
A22YH6KLLHBL5Y	10	1	0	0	220.42780471551234	14	0	0	296.883147811766	99.67136700577089	-196.60629616291786	2000	2000	0	2020-05-30 22:55:59.978815
A22YH6KLLHBL5Y	11	1	0	609	118.08369132209786	3	-5	-4	94.75113319182329	-9.78062624258382	117.67793976168758	2000	2000	0	2020-05-30 22:56:04.958542
A22YH6KLLHBL5Y	12	1	0	0	143.9512372780242	14	0	0	94.61406485516102	-11.579957079312049	143.48471454449535	2000	2000	0	2020-05-30 22:56:16.375849
A22YH6KLLHBL5Y	13	1	0	330	115.05670241798391	8	-1	-1	261.79055855343375	-16.429180262161218	-113.87768353463252	2000	2000	0	2020-05-30 22:56:23.214987
A22YH6KLLHBL5Y	14	1	0	0	200.66868331439463	9	0	0	3.88920919507588	200.2065575453503	13.61083314764887	2000	2000	0	2020-05-30 22:56:30.757272
A22YH6KLLHBL5Y	15	1	0	0	299.2268091211373	14	0	0	144.36998107675205	-243.21025130909825	174.31424771080194	2000	2000	0	2020-05-30 22:56:38.189601
A22YH6KLLHBL5Y	16	1	0	0	218.34959508989175	3	0	0	253.39511447515855	-62.39778149462142	-209.2440262957802	2000	2000	0	2020-05-30 22:56:45.342681
A22YH6KLLHBL5Y	17	1	0	0	250.99297236875478	2	0	0	281.8367915207821	51.48482624847418	-245.6558259937405	2000	2000	0	2020-05-30 22:56:52.538012
A22YH6KLLHBL5Y	18	1	0	0	244.572680489452	11	0	0	116.11528021737884	-107.65567214749461	219.60430846471735	2000	2000	0	2020-05-30 22:57:19.279753
A22YH6KLLHBL5Y	19	1	0	0	201.1602777439935	3	0	0	106.07748447491743	-55.7087388183852	193.29250829068764	2000	2000	0	2020-05-30 22:57:25.283254
A22YH6KLLHBL5Y	20	1	0	0	186.51307050099751	0	0	0	61.885440894777794	87.891676696348	164.50586200866735	2000	2000	0	2020-05-30 22:57:32.845656
A22YH6KLLHBL5Y	21	1	0	70	183.53036550640942	2	-4	-3	7.594916105242495	181.9203034478476	24.25692182366279	2000	2000	0	2020-05-30 22:57:36.937286
A22YH6KLLHBL5Y	22	1	0	0	197.5868370749091	3	0	0	61.239010820804324	95.07027276367681	173.21143559796153	2000	2000	0	2020-05-30 22:57:42.930318
A22YH6KLLHBL5Y	23	1	0	0	230.81014336925608	9	0	0	108.6852318577914	-73.94437648950098	218.64480663330534	2000	2000	0	2020-05-30 22:57:50.287005
A22YH6KLLHBL5Y	24	1	0	0	179.35061688376538	2	0	0	261.9646996028523	-25.07020077223025	-177.58977676045222	2000	2000	0	2020-05-30 22:57:57.720473
A22YH6KLLHBL5Y	25	1	0	0	162.39060097661053	8	0	0	325.68712858854553	134.13003723929913	-91.54146817551577	2000	2000	0	2020-05-30 22:58:05.910789
A22YH6KLLHBL5Y	26	1	0	0	209.8583630091764	12	0	0	59.217316317891495	107.40199313429623	180.2923858505174	2000	2000	0	2020-05-30 22:58:17.228541
A22YH6KLLHBL5Y	27	1	0	0	161.3749922244301	9	0	0	207.50111708300625	-143.1399134838769	-74.51746965150589	2000	2000	0	2020-05-30 22:58:19.684503
A22YH6KLLHBL5Y	28	1	0	0	146.366894950146	2	0	0	2.4910248198758467	146.22858440325268	6.36152817865912	2000	2000	0	2020-05-30 22:58:25.691108
A22YH6KLLHBL5Y	29	1	0	0	247.45719668690066	9	0	0	323.3513684681836	198.5376611474256	-147.70870420611462	2000	2000	0	2020-05-30 22:58:34.059362
A22YH6KLLHBL5Y	30	1	0	0	127.8730712506457	8	0	0	69.50331026780187	44.775173323633986	119.77773668303824	2000	2000	0	2020-05-30 22:58:40.964473
A22YH6KLLHBL5Y	31	1	0	0	236.32711627068835	2	0	0	147.18979928748524	-198.62588605783958	128.05570378767817	2000	2000	0	2020-05-30 22:58:48.112881
A22YH6KLLHBL5Y	32	1	0	0	232.75896282218503	11	0	0	187.3059755041419	-230.86923594382674	-29.599504535937232	2000	2000	0	2020-05-30 22:58:55.844501
A22YH6KLLHBL5Y	33	1	0	0	225.01684013670467	6	0	0	323.21726707802475	180.21865613320176	-134.7360914033433	2000	2000	1	2020-05-30 22:59:45.679039
