AFGWDX72P1M12	1	1	0	0	225.22345650027717	1	0	0	25.365486747263198	203.5104528213361	96.4836823011382	1500	1700	0	2020-05-31 00:43:52.895431
AFGWDX72P1M12	2	1	0	21	109.81630847353566	12	-3	-1.5	318.53052218541364	82.28630442215362	-72.72266298272774	1700	1900	0	2020-05-31 00:43:57.935854
AFGWDX72P1M12	3	1	1	1265	137.60152039522976	11	131	-21.5	352.99402906019765	136.57411120384867	-16.783639770848442	1900	1850	0	2020-05-31 00:44:02.558445
AFGWDX72P1M12	4	2	1	1677	289.58346422967566	12	-266	-116.5	203.35241563123165	-265.86198629948643	-114.78670217473602	1850	1800	0	2020-05-31 00:44:13.162234
AFGWDX72P1M12	5	3	0	61	296.52234453565706	13	-1	-2.5	237.3032161277853	-160.17931974809008	-249.53574159619302	1800	2000	0	2020-05-31 00:44:28.701708
AFGWDX72P1M12	6	3	1	1672	214.35514740772197	11	-55	-212.5	256.0701773512977	-51.60241582394103	-208.05124345054824	2000	1950	0	2020-05-31 00:44:35.001717
AFGWDX72P1M12	7	4	1	1471	237.18401523667163	10	-69	-226.5	254.43145598658265	-63.658053543280786	-228.4817482926601	1950	1900	0	2020-05-31 00:44:55.268732
AFGWDX72P1M12	8	5	1	1702	154.56839648494096	9	-118	99.5	138.55427996172517	-115.86186197475561	102.31040089682273	1900	1850	0	2020-05-31 00:45:21.184426
AFGWDX72P1M12	9	6	0	198	137.13931576033855	7	-2	-2.5	355.3939095617636	136.69640347070953	-11.012956251017991	1850	2000	0	2020-05-31 00:45:26.178588
AFGWDX72P1M12	10	6	1	1453	261.8612229345379	8	201	165.5	39.31557703189515	202.59364432008076	165.91297525474124	2000	1950	0	2020-05-31 00:45:44.919102
AFGWDX72P1M12	11	7	1	1527	216.3845350888332	10	-220	-29.5	187.05505378485753	-214.7461996817831	-26.576996591831392	1950	1900	0	2020-05-31 00:45:52.865551
AFGWDX72P1M12	12	8	1	1472	234.8067989986538	13	-225	68.5	162.6022912467752	-224.0649247914225	70.20785094423826	1900	1850	0	2020-05-31 00:46:02.478435
AFGWDX72P1M12	13	9	1	1683	128.51472088510315	3	-96	91.5	134.64381207000426	-90.30694852897294	91.4368007509088	1850	1800	0	2020-05-31 00:46:10.106857
AFGWDX72P1M12	14	10	1	1574	148.94260109876703	1	-146	32.5	166.28075037705645	-144.6931934467422	35.323903978044	1800	1750	0	2020-05-31 00:46:34.396647
AFGWDX72P1M12	15	11	0	0	219.45498398421014	11	0	0	336.5723718510082	201.36377641472177	-87.25319216803398	1750	1950	0	2020-05-31 00:46:51.904822
AFGWDX72P1M12	16	11	1	1643	239.6771947568184	6	101	-224.5	295.3480808232813	102.60973552323645	-216.60193873174202	1950	1900	0	2020-05-31 00:47:00.271682
AFGWDX72P1M12	17	12	1	1364	255.61547722638323	3	178	176.5	43.68455393240603	184.84919403310724	176.55041110963836	1900	1850	0	2020-05-31 00:47:25.876099
AFGWDX72P1M12	18	13	1	1700	138.86018633574525	6	94	97.5	46.64131471738803	95.33632378305967	100.96106535060683	1850	1800	0	2020-05-31 00:47:33.162557
AFGWDX72P1M12	19	14	0	0	287.82343016932987	6	0	0	289.7246773994828	97.14061499277939	-270.93546809759647	1800	2000	0	2020-05-31 00:47:39.562262
AFGWDX72P1M12	20	14	1	1867	201.96076515160962	3	-187	78.5	156.71987732335612	-185.5178367328329	79.820316427546	2000	1950	0	2020-05-31 00:47:46.250719
AFGWDX72P1M12	21	15	0	0	256.45717623199846	3	0	0	199.06486191431355	-242.39034857396516	-83.76874213620489	1950	2000	0	2020-05-31 00:47:52.241656
AFGWDX72P1M12	22	15	1	1946	279.6157162247585	14	-282	-17.5	183.72572213157784	-279.02476150640587	-18.169513647261287	2000	1950	0	2020-05-31 00:48:44.531378
AFGWDX72P1M12	23	16	1	1726	116.94196198080813	14	-42	-108.5	250.50726376516383	-39.02205359026548	-110.23929338271006	1950	1900	0	2020-05-31 00:49:04.173172
AFGWDX72P1M12	24	17	1	1548	183.16611290454662	3	-36	178.5	100.2757970083251	-32.67437729461807	180.22821639513072	1900	1850	0	2020-05-31 00:49:34.972210
AFGWDX72P1M12	25	18	0	0	265.8097736952749	6	0	0	244.47859127181584	-114.52369450580365	-239.87321482123554	1850	2000	0	2020-05-31 00:49:55.850528
AFGWDX72P1M12	26	18	1	1480	108.60209331998875	5	-84	-74.5	221.58989343645894	-81.22515533306452	-72.08945009225057	2000	1950	0	2020-05-31 00:50:16.020584
AFGWDX72P1M12	27	19	1	1539	260.3516956599101	11	196	-168.5	319.91509088071444	199.19274627727663	-167.64622054644403	1950	1900	0	2020-05-31 00:50:25.335815
AFGWDX72P1M12	28	20	1	1670	299.491374206943	10	280	107.5	21.550599270122895	278.5549922035343	110.00999746773977	1900	1850	0	2020-05-31 00:50:34.561388
AFGWDX72P1M12	29	21	0	0	275.2438842242979	12	0	0	188.53027084709572	-272.19903557910817	-40.827451949419064	1850	2000	0	2020-05-31 00:50:41.130250
AFGWDX72P1M12	30	21	1	1636	105.86677547567027	13	-71	-82.5	229.24747161094365	-69.10910925154171	-80.19791249199976	2000	1950	0	2020-05-31 00:50:46.751741
AFGWDX72P1M12	31	22	1	1600	151.92311668194668	11	-64	135.5	114.1698223044474	-62.203790304280695	138.60491280664425	1950	1900	0	2020-05-31 00:50:52.337852
AFGWDX72P1M12	32	23	1	1718	123.56660287551202	10	-7	-120.5	267.0567844439422	-6.3446771635489005	-123.40360779930559	1900	1850	0	2020-05-31 00:51:00.105953
AFGWDX72P1M12	33	24	1	1639	243.477141648879	7	-244	-33.5	187.80481075654475	-241.22167698148863	-33.063893596288075	1850	1800	0	2020-05-31 00:51:06.117885
AFGWDX72P1M12	34	25	1	1451	103.56551372242899	14	-87	58.5	144.83609487465375	-84.66562291888759	59.64518361399655	1800	1750	0	2020-05-31 00:51:11.575694
AFGWDX72P1M12	35	26	1	1380	199.4663293138888	2	64	184.5	70.86805761309246	65.37402367444463	188.4490741780651	1750	1700	0	2020-05-31 00:51:17.039229
AFGWDX72P1M12	36	27	0	0	185.048300696117	1	0	0	320.17801907155877	142.12410746014962	-118.5057453002865	1700	1900	0	2020-05-31 00:51:22.728747
AFGWDX72P1M12	37	27	0	0	239.97714071405883	9	0	0	145.49405882221893	-197.75735083012611	135.94505602612261	1900	2000	0	2020-05-31 00:51:28.617486
AFGWDX72P1M12	38	27	1	1219	120.52479237961929	4	-55	-110.5	243.56140041706385	-53.66227899236624	-107.91934669694672	2000	1950	0	2020-05-31 00:51:35.650197
AFGWDX72P1M12	39	28	1	1947	146.7114121089685	3	-84	119.5	124.19075483953081	-82.44446542665588	121.35546367395465	1950	1900	0	2020-05-31 00:51:42.020031
AFGWDX72P1M12	40	29	1	1310	118.35517459918799	9	55	99.5	62.528843210814735	54.59748177255035	105.00982020030463	1900	1850	0	2020-05-31 00:51:47.725703
AFGWDX72P1M12	41	30	1	1640	258.4439458168325	2	90	-245.5	290.84300158553043	91.95654416565115	-241.5310893332047	1850	1800	0	2020-05-31 00:51:54.199567
AFGWDX72P1M12	42	31	1	1322	189.81837656357243	7	68	175.5	68.49534574865	69.58301404976962	176.60470049514467	1800	1750	0	2020-05-31 00:52:26.048848
AFGWDX72P1M12	43	32	1	1411	139.40883939226327	2	-107	-98.5	222.35274140662003	-103.02470291198063	-93.91876857474222	1750	1700	0	2020-05-31 00:52:31.097640
AFGWDX72P1M12	44	33	1	1041	163.90732390648913	11	-71	141.5	117.11437519344672	-74.70375292530198	145.89366034568525	1700	1650	0	2020-05-31 00:52:38.400246
AFGWDX72P1M12	45	34	1	1601	289.2606077605475	9	138	251.5	61.96028396213532	135.9766353500203	255.30776298594782	1650	1600	0	2020-05-31 00:52:45.283288
AFGWDX72P1M12	46	35	1	1316	222.02091513900592	10	-173	141.5	139.4463865269867	-168.6910303419589	144.34896273035693	1600	1550	0	2020-05-31 00:52:51.286041
AFGWDX72P1M12	47	36	0	108	119.49543182052973	12	-4	-4.5	28.17593416038937	105.33544528414193	56.423418832665675	1550	1750	0	2020-05-31 00:52:55.392344
AFGWDX72P1M12	48	36	1	1501	292.2094139556136	11	-295	20.5	175.73877650775879	-291.4016445946557	21.712280668163732	1750	1700	0	2020-05-31 00:53:00.901880
AFGWDX72P1M12	49	37	1	1191	260.4463002787637	2	-160	205.5	127.00889226036368	-156.77277604057025	207.9773353551515	1700	1650	0	2020-05-31 00:53:06.584231
AFGWDX72P1M12	50	38	1	1184	271.1734973333945	5	-204	-186.5	221.84976159177515	-201.99627928622132	-180.92144375542495	1650	1600	0	2020-05-31 00:53:12.187925
AFGWDX72P1M12	51	39	0	0	260.356243873557	0	0	0	103.12040313431604	-59.10037990045902	253.5596947852093	1600	1800	0	2020-05-31 00:53:18.464442
AFGWDX72P1M12	52	39	1	1450	214.4239404155668	3	191	-85.5	337.1333014592652	197.57266669599915	-83.3226715724488	1800	1750	0	2020-05-31 00:53:24.294215
AFGWDX72P1M12	53	40	1	1507	112.28839936146895	3	-61	-94.5	236.60094373944727	-61.81105708828724	-93.74474840111971	1750	1700	0	2020-05-31 00:53:30.223649
AFGWDX72P1M12	54	41	1	1616	155.14783599663372	0	-131	-92.5	214.9235986752632	-127.20821698746204	-88.8195955029583	1700	1650	0	2020-05-31 00:53:35.882435
AFGWDX72P1M12	55	42	1	1578	179.0963385353926	1	132	118.5	41.853806553239885	133.39985929488782	119.49885362164811	1650	1600	0	2020-05-31 00:53:41.872181
AFGWDX72P1M12	56	43	0	0	115.2574653893657	6	0	0	192.35133348381345	-112.58975300515229	-24.654225727441464	1600	1800	0	2020-05-31 00:53:48.113287
AFGWDX72P1M12	57	43	1	1268	140.85703508124158	14	97	99.5	44.29420720855768	100.82030219148243	98.3665136003929	1800	1750	0	2020-05-31 00:53:54.376982
AFGWDX72P1M12	58	44	1	1431	160.80272682985938	6	-163	1.5	179.78148927273017	-160.80155742970405	0.613256960802995	1750	1700	0	2020-05-31 00:54:01.938202
AFGWDX72P1M12	59	45	1	1130	221.6128339845628	1	133	167.5	51.427202879335226	138.1774804385742	173.26059011303417	1700	1650	0	2020-05-31 00:54:06.002646
AFGWDX72P1M12	60	46	1	1315	182.69582870536226	3	17	178.5	83.99049673277031	19.127050490277075	181.69183186340948	1650	1600	0	2020-05-31 00:54:11.360869
AFGWDX72P1M12	61	47	0	0	265.4362324627248	6	0	0	185.17439895884533	-264.354525632673	-23.939053480246123	1600	1800	0	2020-05-31 00:54:16.986010
AFGWDX72P1M12	62	47	1	1198	256.53895298197085	12	111	228.5	63.742471929965745	113.49450701329975	230.0678840579317	1800	1750	0	2020-05-31 00:54:23.091628
AFGWDX72P1M12	63	48	0	0	124.31820950731276	8	0	0	342.5912827548164	118.6237915462056	-37.19426426623422	1750	1950	0	2020-05-31 00:54:28.856937
AFGWDX72P1M12	64	48	1	1493	142.98788701171108	6	135	27.5	12.382640100937596	139.66160206351356	30.662236401258156	1950	1900	0	2020-05-31 00:54:34.978367
AFGWDX72P1M12	65	49	1	1648	213.63993707290643	14	-213	-68.5	199.36425761771756	-201.55425830332953	-70.83716307356012	1900	1850	0	2020-05-31 00:54:40.645193
AFGWDX72P1M12	66	50	1	1497	105.42684977587325	1	87	59.5	34.18675051524449	87.2102005248668	59.238514313553374	1850	1800	0	2020-05-31 00:54:46.498893
AFGWDX72P1M12	67	51	1	1391	183.641509044084	5	-159	91.5	148.5646969672905	-156.6883736964132	95.77555738476045	1800	1750	0	2020-05-31 00:54:52.234780
AFGWDX72P1M12	68	52	0	155	144.81205023791154	12	-4	-0.5	56.204545239248645	80.54876213919233	120.34295497432008	1750	1950	0	2020-05-31 00:54:56.400105
AFGWDX72P1M12	69	52	1	1398	248.5082215687414	13	-239	-73.5	197.42813262172675	-237.10004967297667	-74.43052218230547	1950	1900	0	2020-05-31 00:55:01.807539
AFGWDX72P1M12	70	53	1	1157	233.69650492246458	14	91	206.5	66.16947311731388	94.42103562137632	213.7725998465713	1900	1850	0	2020-05-31 00:55:07.661068
AFGWDX72P1M12	71	54	0	85	141.01811831448896	7	0	-2.5	79.6113760572027	25.428930566780835	138.70644968129292	1850	2000	0	2020-05-31 00:55:12.809023
AFGWDX72P1M12	72	54	1	1495	106.99625491928741	0	-104	24.5	163.59309910122366	-102.63936329057788	30.22184094422293	2000	1950	0	2020-05-31 00:55:21.181039
AFGWDX72P1M12	73	55	1	1413	213.4992350262498	1	-180	-123.5	215.26388589740264	-174.32247924646927	-123.26230805139969	1950	1900	0	2020-05-31 00:55:30.050194
AFGWDX72P1M12	74	56	1	1127	244.42252270869585	7	73	-234.5	287.818963251424	74.7958377554199	-232.69712559837916	1900	1850	0	2020-05-31 00:55:35.194883
AFGWDX72P1M12	75	57	1	1631	217.85206615662474	10	43	210.5	77.66158495252608	46.551809638643036	212.82023340856938	1850	1800	0	2020-05-31 00:55:43.101942
AFGWDX72P1M12	76	58	1	1207	162.9871286017648	11	-147	70.5	153.50621183223382	-145.87066559400404	72.70868592548253	1800	1750	0	2020-05-31 00:55:48.930614
AFGWDX72P1M12	77	59	1	1071	175.82942835596302	10	-178	17.5	173.69276027408017	-174.7651472117981	19.316604153506606	1750	1700	0	2020-05-31 00:55:54.362455
AFGWDX72P1M12	78	60	1	1612	299.8572827218991	7	277	93.5	19.296646971538138	283.01138817517705	99.0905856503037	1700	1650	0	2020-05-31 00:56:00.938809
AFGWDX72P1M12	79	61	1	1316	288.1981568727207	2	190	209.5	47.15713951029937	195.97186054799658	211.31305567377967	1650	1600	0	2020-05-31 00:56:09.502173
AFGWDX72P1M12	80	62	0	0	275.6830089850482	10	0	0	243.92128774533904	-121.19176292998168	-247.61598906567664	1600	1800	0	2020-05-31 00:56:15.544052
AFGWDX72P1M12	81	62	1	1010	140.8972664568538	3	-130	-56.5	203.19521044795346	-129.5082962353483	-55.49451235240223	1800	1750	0	2020-05-31 00:56:20.576208
AFGWDX72P1M12	82	63	1	1574	125.85705100001437	13	117	28.5	15.171637975810848	121.47044981956233	32.93823169287336	1750	1700	0	2020-05-31 00:56:26.506444
AFGWDX72P1M12	83	64	1	1415	271.64390074126595	2	256	79.5	18.00264234782584	258.34483040083745	83.95449609814398	1700	1650	0	2020-05-31 00:56:31.920303
AFGWDX72P1M12	84	65	1	1334	128.41029988100865	6	-115	55.5	152.62135021264936	-114.02665236128315	59.051906546780096	1650	1600	0	2020-05-31 00:56:37.639959
AFGWDX72P1M12	85	66	1	1453	199.67286206605573	11	53	-198.5	285.5431411744406	53.50511308100147	-192.3706181303147	1600	1550	0	2020-05-31 00:56:43.386267
AFGWDX72P1M12	86	67	0	239	253.77418560993004	1	-5	3.5	307.4232533968376	154.21811619391207	-201.53935079677186	1550	1750	0	2020-05-31 00:56:48.192293
AFGWDX72P1M12	88	68	1	864	133.30976025080932	6	19	133.5	80.18030316093285	22.73574597213192	131.35668248406301	1700	1650	0	2020-05-31 00:56:58.927135
AFGWDX72P1M12	87	67	1	1189	235.60670463917566	1	133	-193.5	305.1385014429196	135.60459331084493	-192.6704791708686	1750	1700	0	2020-05-31 00:57:02.394007
AFGWDX72P1M12	89	69	1	1221	266.8810286017161	4	186	194.5	46.304227068774495	184.36917315757125	192.95981814021152	1650	1600	0	2020-05-31 00:57:04.761878
AFGWDX72P1M12	90	70	1	1475	280.1211669061802	8	117	-256.5	295.4645805834984	120.43894994213177	-252.9077450093546	1600	1550	0	2020-05-31 00:57:10.659995
AFGWDX72P1M12	91	71	0	12	289.60880650553304	13	-1	0.5	169.039911129884	-284.32630107805716	55.06192260382192	1550	1750	0	2020-05-31 00:57:15.204975
AFGWDX72P1M12	92	71	1	1515	158.01592135600032	2	-16	151.5	95.83344523102949	-16.060267525536222	157.19764377685144	1750	1700	0	2020-05-31 00:57:20.726870
AFGWDX72P1M12	93	72	1	1147	179.96702637168332	0	-142	109.5	142.87548303252657	-143.4923428422958	108.61895841286268	1700	1650	0	2020-05-31 00:57:26.798430
AFGWDX72P1M12	94	73	1	1365	238.4345492859586	0	167	-169.5	316.36549449267306	172.568535154343	-164.53308168232462	1650	1600	0	2020-05-31 00:57:35.515917
AFGWDX72P1M12	95	74	1	1449	282.4500426386337	6	-271	82.5	162.62834020415463	-269.56696696379316	84.33075897030234	1600	1550	0	2020-05-31 00:57:40.988517
AFGWDX72P1M12	96	75	0	147	225.6923055438877	10	-4	-4.5	144.19566175184607	-183.04086657184104	132.03430594487574	1550	1750	0	2020-05-31 00:57:45.696531
AFGWDX72P1M12	97	75	1	1387	105.0702038923267	9	-20	103.5	99.62461948718425	-17.566940086859873	103.59126585750259	1750	1700	0	2020-05-31 00:57:54.241694
AFGWDX72P1M12	98	76	1	1100	116.4675325751051	3	-1	-118.5	272.3173387127154	4.709267373970209	-116.37228598310521	1700	1650	0	2020-05-31 00:57:57.613481
AFGWDX72P1M12	99	77	1	1643	143.84346244333562	13	-128	-81.5	211.99327349969002	-121.99512246126707	-76.21110013211829	1650	1600	0	2020-05-31 00:58:06.093831
AFGWDX72P1M12	100	78	1	1297	173.44467368124327	2	-159	-75.5	204.37737016820614	-157.98151760340386	-71.58837143082921	1600	1550	0	2020-05-31 00:58:12.775002
AFGWDX72P1M12	101	79	1	1220	295.8373275743176	10	-251	155.5	147.0305075582658	-248.195816313791	160.99242575551503	1550	1500	0	2020-05-31 00:58:23.329504
AFGWDX72P1M12	102	80	0	0	181.79833483704786	12	0	0	341.2116325096504	172.11115035168154	-58.552425006520814	1500	1700	0	2020-05-31 00:58:29.549840
AFGWDX72P1M12	103	80	1	1299	196.70361448727124	1	-104	-174.5	238.84289303293866	-101.77179807943246	-168.32947771568786	1700	1650	0	2020-05-31 00:58:35.760692
AFGWDX72P1M12	104	81	0	0	296.0544981123346	14	0	0	276.119160393471	31.558398141408354	-294.3676839588454	1650	1850	0	2020-05-31 00:58:43.685418
AFGWDX72P1M12	105	81	1	1286	216.09515559396414	8	129	-175.5	306.8689529712867	129.65424301229598	-172.87826219651814	1850	1800	0	2020-05-31 00:58:51.071561
AFGWDX72P1M12	106	82	0	44	188.128314832647	11	1	-1.5	156.68730583936116	-172.76927911250388	74.45158854394766	1800	2000	0	2020-05-31 00:58:53.537404
AFGWDX72P1M12	107	82	1	1316	132.40948176264547	0	-130	32.5	164.80053905662257	-127.77766054195516	34.71513109693265	2000	1950	0	2020-05-31 00:58:58.945130
AFGWDX72P1M12	108	83	1	1717	233.65981369105094	3	-232	29.5	172.5386482264238	-231.68134146276694	30.342454616418802	1950	1900	0	2020-05-31 00:59:10.692009
AFGWDX72P1M12	109	84	1	1331	175.53757312106436	6	69	-163.5	294.74931527902	73.48860919593464	-159.41412702668546	1900	1850	0	2020-05-31 00:59:16.035094
AFGWDX72P1M12	110	85	1	1341	209.4055866401881	10	6	205.5	88.27510538224115	6.3032218817272545	209.3106999415726	1850	1800	0	2020-05-31 00:59:21.406859
AFGWDX72P1M12	111	86	1	1456	289.15561882814995	5	-272	-119.5	203.3755162044469	-265.42295519741964	-114.72413326828364	1800	1750	0	2020-05-31 00:59:27.433449
AFGWDX72P1M12	112	87	1	1383	147.02572401383657	7	-97	-119.5	231.09706443631265	-92.33258551145312	-114.41703183776022	1750	1700	0	2020-05-31 00:59:32.269281
AFGWDX72P1M12	113	88	1	1322	229.00103971047957	11	29	230.5	83.12738045979725	27.40281563472103	227.35558467688918	1700	1650	0	2020-05-31 00:59:41.135944
AFGWDX72P1M12	114	89	1	1599	187.86435326011542	5	-82	167.5	114.99979726865196	-79.39430397099548	170.26320719052197	1650	1600	0	2020-05-31 00:59:51.746053
AFGWDX72P1M12	115	90	1	1305	165.76649573328547	11	-154	-74.5	204.89836737706705	-150.35949640869936	-69.7893469479094	1600	1550	0	2020-05-31 00:59:52.990609
AFGWDX72P1M12	116	91	0	0	118.03133728790249	9	0	0	330.38018927965925	102.60748500433596	-58.336100341517266	1550	1750	0	2020-05-31 01:06:32.418893
AFGWDX72P1M12	117	91	0	14	192.4747851351263	0	-1	-1.5	219.41679590853295	-148.69590885640588	-122.21321369713046	1750	1950	0	2020-05-31 01:06:36.466762
AFGWDX72P1M12	118	91	1	1718	255.38450650434305	11	203	149.5	36.9077573620134	204.2063093288328	153.36567214590067	1950	1900	0	2020-05-31 01:06:53.799150
AFGWDX72P1M12	119	92	1	1534	253.45555901559064	7	59	242.5	76.77295626731373	57.99326176244538	246.73163961287585	1900	1850	0	2020-05-31 01:07:03.501630
AFGWDX72P1M12	120	93	0	205	189.5775694330793	12	-4	0.5	224.2416955911095	-135.8139533413365	-132.2657359634432	1850	2000	0	2020-05-31 01:07:16.202498
AFGWDX72P1M12	121	93	1	1442	275.9326910016927	9	113	-254.5	294.4508315171902	114.21190857826052	-251.18616582596005	2000	1950	0	2020-05-31 01:07:22.386884
AFGWDX72P1M12	122	94	1	1416	118.16100254892947	6	20	-118.5	280.5394395992969	21.61310152984507	-116.16753576463918	1950	1900	0	2020-05-31 01:07:32.528808
AFGWDX72P1M12	123	95	0	217	258.8052906069815	10	-1	-2.5	202.4657937043891	-239.16399669557927	-98.89773066537516	1900	2000	0	2020-05-31 01:07:37.127173
AFGWDX72P1M12	124	95	1	1518	141.5005701653812	9	-108	92.5	137.67109344810484	-104.61016258290546	95.28444385893246	2000	1950	0	2020-05-31 01:07:47.369441
AFGWDX72P1M12	125	96	1	1833	252.53774051581547	2	155	195.5	51.40913980651159	157.5216583465327	197.38854459312367	1950	1900	0	2020-05-31 01:07:54.912859
AFGWDX72P1M12	126	97	1	1691	265.7268694485947	4	253	-91.5	340.9623831671539	251.19283843873342	-86.67714268504051	1900	1850	0	2020-05-31 01:08:07.399911
AFGWDX72P1M12	127	98	0	181	122.27947023839083	5	-1	-2.5	117.4517051763234	-56.37093171923388	108.51076858490579	1850	2000	0	2020-05-31 01:08:11.987020
AFGWDX72P1M12	128	98	1	1315	107.78588385781434	14	-97	-50.5	205.9688942366243	-96.90294845867139	-47.19762005680283	2000	1950	0	2020-05-31 01:08:18.278410
AFGWDX72P1M12	129	99	1	1489	247.0655415121636	12	-245	-55.5	192.52256760829846	-241.1880203723226	-53.56977348821563	1950	1900	0	2020-05-31 01:08:23.770923
AFGWDX72P1M12	130	100	1	1685	295.72400819152995	8	223	189.5	40.76135665570941	223.99188723709298	193.08113184055424	1900	1850	0	2020-05-31 01:08:37.266710
AFGWDX72P1M12	131	101	1	1504	262.7755522338723	10	-207	170.5	139.28471095024756	-199.17343653350744	171.4086725671996	1850	1800	0	2020-05-31 01:08:42.813901
AFGWDX72P1M12	132	102	1	1590	123.27012055934748	13	-115	-58.5	206.15893700372004	-110.64412417412206	-54.34519673768344	1800	1750	0	2020-05-31 01:08:51.698334
AFGWDX72P1M12	133	103	1	1518	133.53389316155804	12	-107	-89.5	218.85582712592316	-103.9864550845069	-83.7742071394306	1750	1700	0	2020-05-31 01:09:05.177355
AFGWDX72P1M12	134	104	0	0	101.49428611642	7	0	0	193.98271858398664	-98.4868734058809	-24.52398583052344	1700	1900	0	2020-05-31 01:09:13.802046
AFGWDX72P1M12	135	104	1	1524	237.1405938949867	4	-155	182.5	128.96647677993948	-149.12955773490637	184.38014069486505	1900	1850	0	2020-05-31 01:09:24.452960
AFGWDX72P1M12	136	105	1	1701	104.88531788798755	4	-40	-101.5	250.5257029202624	-34.967082217936934	-98.88494865058202	1850	1800	0	2020-05-31 01:09:34.359046
AFGWDX72P1M12	137	106	0	149	287.168915753408	0	-2	-0.5	348.68258337701417	281.58493055636654	-56.35523985002772	1800	2000	0	2020-05-31 01:09:40.265398
AFGWDX72P1M12	138	106	1	1591	238.55814776119303	9	83	-226.5	291.06619132601725	85.748828062699	-222.61430400835633	2000	1950	0	2020-05-31 01:09:45.845386
AFGWDX72P1M12	139	107	0	0	197.98760182775794	4	0	0	0.9335444372973623	197.96132196349595	3.225753241014008	1950	2000	0	2020-05-31 01:09:57.560044
AFGWDX72P1M12	140	107	0	169	241.1496050901032	3	-1	-4.5	101.01155417397786	-46.061249317957696	236.70972381037004	2000	2000	0	2020-05-31 01:10:01.755945
AFGWDX72P1M12	141	107	1	1551	231.27942268702418	14	-42	-231.5	260.5983178117992	-37.780633361442476	-228.17273084497072	2000	1950	0	2020-05-31 01:10:07.319459
AFGWDX72P1M12	142	108	1	1623	186.11304288877187	1	181	-24.5	353.18867220817964	184.7994718048678	-22.07305946079293	1950	1900	0	2020-05-31 01:10:13.481324
AFGWDX72P1M12	143	109	1	1604	154.09281984093303	14	145	36.5	14.365256935025839	149.27492042679003	38.23081555637743	1900	1850	0	2020-05-31 01:10:21.488013
AFGWDX72P1M12	144	110	1	1399	102.05418381991063	11	-57	-87.5	236.8787132438289	-55.7637486550232	-85.47198822472488	1850	1800	0	2020-05-31 01:10:27.458898
AFGWDX72P1M12	145	111	1	1514	244.13622647970334	8	-141	199.5	123.4187144230475	-134.4588557358509	203.77269982496338	1800	1750	0	2020-05-31 01:10:33.326776
AFGWDX72P1M12	146	112	0	0	104.9272838142303	1	0	0	307.6815950613362	64.13919944771396	-83.04154371661454	1750	1950	0	2020-05-31 01:10:40.059055
AFGWDX72P1M12	147	112	1	1369	117.29631851586132	13	-65	-101.5	237.699052381602	-62.679203148581	-99.14506457728142	1950	1900	0	2020-05-31 01:10:46.003253
AFGWDX72P1M12	148	113	1	1259	233.32035434524826	14	-43	-231.5	260.5591776068363	-38.271266782485256	-230.16015704429827	1900	1850	0	2020-05-31 01:10:51.686564
AFGWDX72P1M12	149	114	1	1388	229.96495063982994	0	-6	-231.5	269.30563396791354	-2.7868709178345523	-229.94806342578045	1850	1800	0	2020-05-31 01:11:00.070710
AFGWDX72P1M12	150	115	1	1516	159.6781736037634	12	152	4.5	3.1360212338375693	159.43905142399552	8.735445406510278	1800	1750	0	2020-05-31 01:11:02.602993
AFGWDX72P1M12	151	116	1	1496	257.15745904746404	5	-258	-23.5	184.70369711379152	-256.2913778015187	-21.087636385981128	1750	1700	0	2020-05-31 01:11:17.947145
AFGWDX72P1M12	152	117	1	1343	184.31587623771446	11	-170	-80.5	205.21221653879044	-166.75725426597435	-78.51344077894977	1700	1650	0	2020-05-31 01:11:28.659133
AFGWDX72P1M12	153	118	0	77	197.37826169724644	11	-5	-0.5	57.67676013833195	105.53720000578929	166.79351787633934	1650	1850	0	2020-05-31 01:11:32.805891
AFGWDX72P1M12	154	118	1	1441	157.42561222343915	9	-104	-121.5	228.95354590107394	-103.37678925030157	-118.7268412290303	1850	1800	0	2020-05-31 01:11:38.248726
AFGWDX72P1M12	155	119	0	89	159.54733705588518	10	1	-3.5	264.0542637970462	-16.526953870825807	-158.68904359588228	1800	2000	0	2020-05-31 01:11:43.139854
AFGWDX72P1M12	156	119	1	1238	262.69200510986667	2	-48	-259.5	258.8403483659162	-50.84233084942515	-257.7249443543248	2000	1950	0	2020-05-31 01:11:48.420860
AFGWDX72P1M12	157	120	1	1459	222.02623630260464	6	-36	213.5	99.26583888400597	-35.749644447911564	219.12921422883792	1950	1900	0	2020-05-31 01:11:54.493895
AFGWDX72P1M12	158	121	1	1438	168.67533087545073	3	-169	-27.5	188.08769253946528	-166.99766938036254	-23.73069041283675	1900	1850	0	2020-05-31 01:22:46.726578
AFGWDX72P1M12	159	122	1	1214	217.11370950617513	0	-140	163.5	129.19693862399248	-137.21323638392795	168.25840429702203	1850	1800	0	2020-05-31 01:22:51.896037
AFGWDX72P1M12	160	123	0	30	248.7361150577409	3	0	-1.5	254.80699117209974	-65.18662846266484	-240.04240959398865	1800	2000	0	2020-05-31 01:22:55.964079
AFGWDX72P1M12	161	123	0	0	236.4753406396273	10	0	0	246.37607695677502	-94.76314444304651	-216.65764049738488	2000	2000	0	2020-05-31 01:23:03.785305
AFGWDX72P1M12	162	123	1	1384	271.1484177483941	9	-80	-258.5	254.48039359841292	-72.55066998216395	-261.2620614107543	2000	1950	0	2020-05-31 01:23:09.575767
AFGWDX72P1M12	163	124	1	1221	241.57212080836206	1	-79	-232.5	251.38290089287	-77.12000154472751	-228.93141967320935	1950	1900	0	2020-05-31 01:23:16.903176
AFGWDX72P1M12	164	125	1	1438	145.09776302339802	11	-136	-55.5	200.73027769177716	-135.70371423208232	-51.36012829045027	1900	1850	0	2020-05-31 01:23:22.678762
AFGWDX72P1M12	165	126	1	1124	177.05984836851414	9	20	-177.5	276.6408503634526	20.476151591949147	-175.87187700216523	1850	1800	0	2020-05-31 01:23:28.268316
AFGWDX72P1M12	166	127	1	1131	157.9040407661364	14	-22	153.5	96.09067432803246	-16.753970507956552	157.01270828341313	1800	1750	0	2020-05-31 01:23:33.421532
AFGWDX72P1M12	167	128	1	1339	112.52457680827321	7	99	-51.5	333.7886586405183	100.9537824449329	-49.700243419344915	1750	1700	0	2020-05-31 01:23:39.293285
AFGWDX72P1M12	168	129	1	1552	230.52328413509423	1	-233	-47.5	190.92338091877988	-226.34654017414627	-43.6832723090084	1700	1650	0	2020-05-31 01:23:44.857388
AFGWDX72P1M12	169	130	0	0	149.2334719620787	11	0	0	15.176409136943105	144.02886001035665	39.0681025642866	1650	1850	0	2020-05-31 01:23:50.508226
AFGWDX72P1M12	170	130	1	1422	252.47686878600123	9	-223	-128.5	209.5439515774443	-219.64924609343478	-124.49408806272456	1850	1800	0	2020-05-31 01:23:58.478953
AFGWDX72P1M12	171	131	1	1298	155.1290959190409	1	123	89.5	36.59126121598491	124.55445457027379	92.47282977913348	1800	1750	0	2020-05-31 01:24:17.273319
AFGWDX72P1M12	172	132	1	1281	262.4018055110963	10	31	261.5	82.1710095529539	35.743548009953656	259.95596994711116	1750	1700	0	2020-05-31 01:24:22.567633
AFGWDX72P1M12	173	133	1	1110	296.1462693919716	1	42	-293.5	279.3377000350454	48.050658260956055	-292.22208526302563	1700	1650	0	2020-05-31 01:24:27.675060
AFGWDX72P1M12	174	134	1	1121	200.9583471286261	10	10	198.5	85.80944644367064	14.684783506043134	200.42109273739135	1650	1600	0	2020-05-31 01:24:32.845169
AFGWDX72P1M12	175	135	1	1006	225.6891203851819	4	156	-158.5	316.7477304013424	164.37927784846718	-154.6448578978737	1600	1550	0	2020-05-31 01:24:37.834294
AFGWDX72P1M12	176	136	1	1249	252.2400137087654	13	-205	152.5	142.20550644326048	-199.32356812317343	154.58052822540358	1550	1500	0	2020-05-31 01:24:43.102192
AFGWDX72P1M12	177	137	1	1387	279.563271691899	14	208	-185.5	319.08798615315385	211.27048376027878	-183.0857874625344	1500	1450	0	2020-05-31 01:24:48.583131
AFGWDX72P1M12	178	138	1	1122	169.4341504371585	13	-113	-132.5	228.61120168027279	-112.02396418415584	-127.11633562539721	1450	1400	0	2020-05-31 01:24:55.538311
AFGWDX72P1M12	179	139	0	0	169.9194852689867	3	0	0	31.89963792727255	144.25739959489883	89.7910582195971	1400	1600	0	2020-05-31 01:24:59.094815
AFGWDX72P1M12	180	139	1	1219	248.86109647451948	4	36	-248.5	279.1938072783764	39.76165569884671	-245.66411230496502	1600	1550	0	2020-05-31 01:25:04.674752
AFGWDX72P1M12	181	140	1	1247	180.00361077648705	0	176	-1.5	358.1819607826014	179.91300080122562	-5.71069481510142	1550	1500	0	2020-05-31 01:25:09.959267
AFGWDX72P1M12	182	141	1	1135	144.50038960811523	5	-7	-143.5	269.8026267119157	-0.49777594198423153	-144.49953223456703	1500	1450	0	2020-05-31 01:25:15.094744
AFGWDX72P1M12	183	142	1	1158	175.08969900422483	13	-153	81.5	150.4166471807308	-152.26472686825812	86.43989616562948	1450	1400	0	2020-05-31 01:25:20.266261
AFGWDX72P1M12	184	143	0	0	198.06747937185742	2	0	0	334.6127285248467	178.94021390840135	-84.91835037927156	1400	1600	0	2020-05-31 01:25:25.700356
AFGWDX72P1M12	185	143	1	1241	251.64323765667683	4	167	-194.5	310.39837282824044	163.08954786098403	-191.6405970477929	1600	1550	0	2020-05-31 01:25:31.487296
AFGWDX72P1M12	186	144	1	1261	219.94253825663168	13	-39	-219.5	260.6765039823952	-35.632560736976274	-217.03695710660796	1550	1500	0	2020-05-31 01:25:36.759670
AFGWDX72P1M12	187	145	1	1317	279.55664527592137	12	155	-228.5	305.255467314558	161.36655718658724	-228.28217657030345	1500	1450	0	2020-05-31 01:25:42.135506
AFGWDX72P1M12	188	146	1	1230	123.89802697868224	1	-88	78.5	135.84471869619097	-88.89119929816391	86.30802845937554	1450	1400	0	2020-05-31 01:25:47.341891
AFGWDX72P1M12	189	147	0	119	204.03308924651373	13	-4	-2.5	22.350843943627517	188.70461923413828	77.5890983784109	1400	1600	0	2020-05-31 01:25:51.507291
AFGWDX72P1M12	190	147	1	1515	221.2687828325884	14	-208	-77.5	199.52849508544756	-208.5403760523328	-73.964760610488	1600	1550	0	2020-05-31 01:25:57.024872
AFGWDX72P1M12	191	148	1	1277	160.34903201138832	1	-145	-67.5	204.70184707269033	-145.67624670497085	-67.00927706625184	1550	1500	0	2020-05-31 01:26:02.856033
AFGWDX72P1M12	192	149	1	1303	213.00685104507625	13	74	191.5	68.57820901938152	77.79667563727118	198.2916938551096	1500	1450	0	2020-05-31 01:26:08.167414
AFGWDX72P1M12	193	150	0	0	167.8893581252412	6	0	0	173.4234963544735	-166.7846153414266	19.22832954569543	1450	1650	0	2020-05-31 01:26:14.426004
AFGWDX72P1M12	194	150	1	1385	181.80439635716868	0	-170	62.5	158.45735993270097	-169.1043696435388	66.7574018536962	1650	1600	0	2020-05-31 01:26:19.735564
