A2AMF590HYL3VX	1	1	0	545	106.23021436951858	3	1	30.5	154.36504829687394	-95.77384441574308	45.958994449649445	1500	1700	0	2020-05-31 01:26:39.841327
A2AMF590HYL3VX	2	1	1	1267	232.7841918842962	6	-4	-237.5	268.63853100987257	-5.530924567090902	-232.71847555503192	1700	1650	0	2020-05-31 01:26:45.804702
A2AMF590HYL3VX	3	2	1	990	115.51664363384826	8	-72	73.5	131.92656778713533	-77.18563572173646	85.94459025826406	1650	1600	0	2020-05-31 01:26:50.817400
A2AMF590HYL3VX	4	3	1	1296	144.99134234361995	12	-148	67.5	148.92348108243317	-124.18199633110387	74.84197446504535	1600	1550	0	2020-05-31 01:26:56.886993
A2AMF590HYL3VX	5	4	1	1545	219.23164341297831	6	-119	-168.5	229.39433213639703	-142.6867667803748	-166.44218233163795	1550	1500	0	2020-05-31 01:27:06.128295
A2AMF590HYL3VX	6	5	1	929	151.05935443710393	6	-96	99.5	140.6154424969727	-116.75447286776226	95.85051709993827	1500	1450	0	2020-05-31 01:27:14.498779
A2AMF590HYL3VX	7	6	1	933	192.97207678715694	9	-56	170.5	108.13888471752209	-60.076345032804504	183.3822651922694	1450	1400	0	2020-05-31 01:27:33.972372
A2AMF590HYL3VX	8	7	1	1181	195.14423854173896	10	71	189.5	68.88813541061582	70.28900188030067	182.04595587572442	1400	1350	0	2020-05-31 01:28:22.361273
A2AMF590HYL3VX	9	8	1	1187	166.02384917047578	8	-70	159.5	114.3670139388348	-68.498130782348	151.23466723177341	1350	1300	0	2020-05-31 01:29:02.492553
A2AMF590HYL3VX	10	9	1	1146	209.7972709382036	8	205	68.5	20.725280910522326	196.22086454053303	74.24464433266417	1300	1250	0	2020-05-31 01:29:08.532999
A2AMF590HYL3VX	11	10	0	0	175.60152922318497	8	0	0	179.07618404801516	-175.57870402596333	2.831211416382409	1250	1450	0	2020-05-31 01:29:14.723194
A2AMF590HYL3VX	12	10	0	0	255.28883136269945	1	0	0	258.9309064701002	-49.01356903300096	-250.53953274718953	1450	1650	0	2020-05-31 01:29:21.168279
A2AMF590HYL3VX	13	10	0	0	259.4975317995949	2	0	0	345.3960838018525	251.11366974965506	-65.42854021711739	1650	1850	0	2020-05-31 01:29:27.430032
A2AMF590HYL3VX	14	10	1	1053	250.24561306848514	14	252	75.5	16.444097098046058	240.00966392886556	70.83945285485335	1850	1800	0	2020-05-31 01:29:32.485445
A2AMF590HYL3VX	15	11	0	1403	151.51777133379395	11	-65	-82.5	210.1950402921516	-130.95958886455435	-76.20512525012185	1800	2000	0	2020-05-31 01:29:40.855187
A2AMF590HYL3VX	16	11	1	1153	143.1023342741876	4	127	-65.5	333.79690302620463	128.39635190190006	-63.18745835215062	2000	1950	0	2020-05-31 01:29:50.237398
A2AMF590HYL3VX	17	12	1	1310	250.10389349483978	10	247	47.5	12.625844195509393	244.05594756894175	54.66856498486232	1950	1900	0	2020-05-31 01:30:23.502335
A2AMF590HYL3VX	18	13	1	927	114.77433381888105	5	-102	-58.5	209.59617632668073	-99.79948444020519	-56.68518862134256	1900	1850	0	2020-05-31 01:30:34.674733
A2AMF590HYL3VX	19	14	1	1286	287.9545539838806	0	157	-227.5	306.1618068909027	169.91265843102482	-232.4812114235417	1850	1800	0	2020-05-31 01:30:41.074851
A2AMF590HYL3VX	20	15	1	985	107.30687215219348	11	-34	104.5	107.58602065132875	-32.42141043668954	102.29182252938362	1800	1750	0	2020-05-31 01:30:51.844310
A2AMF590HYL3VX	21	16	1	1220	145.18771837492847	2	134	22.5	8.04396876192909	143.75921289675975	20.316551730587648	1750	1700	0	2020-05-31 01:30:58.292651
A2AMF590HYL3VX	22	17	1	1058	210.14550233970937	7	202	-26.5	354.04343420051697	209.0108951397545	-21.807747854543653	1700	1650	0	2020-05-31 01:31:04.043994
A2AMF590HYL3VX	23	18	1	1133	172.72300395024774	7	-155	17.5	173.7466491798038	-171.69529683940078	18.813854916718924	1650	1600	0	2020-05-31 01:31:09.186021
A2AMF590HYL3VX	24	19	1	868	105.88779245299361	8	15	-108.5	277.8860948272522	14.52824500495625	-104.88638942991705	1600	1550	0	2020-05-31 01:31:17.740618
A2AMF590HYL3VX	25	20	1	1117	264.78558833975205	8	253	91.5	20.349353523951372	248.26025165636415	92.07744153671615	1550	1500	0	2020-05-31 01:31:23.222418
A2AMF590HYL3VX	26	21	1	1208	168.48725464982243	14	105	-132.5	309.2176932738716	106.52919723607872	-130.53537878931806	1500	1450	0	2020-05-31 01:31:46.085722
A2AMF590HYL3VX	27	22	0	0	137.9019067376619	12	0	0	99.44715554234327	-22.634925921624017	136.03159930841582	1450	1650	0	2020-05-31 01:31:57.266628
A2AMF590HYL3VX	28	22	1	1277	267.074110430676	8	-225	-136.5	213.24324653207663	-223.36763990851554	-146.4085991464868	1650	1600	0	2020-05-31 01:32:06.640682
A2AMF590HYL3VX	29	23	1	1291	247.2534676973901	3	103	242.5	66.34225892546988	99.21597104803226	226.47399050968383	1600	1550	0	2020-05-31 01:32:12.375415
A2AMF590HYL3VX	30	24	1	1201	248.3701336922457	13	-59	-237.5	257.9417289745725	-51.88610553452004	-242.89000671654782	1550	1500	0	2020-05-31 01:32:18.782596
A2AMF590HYL3VX	31	25	1	1109	128.85654121379457	9	-76	89.5	131.39708081314168	-85.20943491472131	96.66105945568883	1500	1450	0	2020-05-31 01:32:24.634365
A2AMF590HYL3VX	32	26	1	829	113.50205869198456	2	78	91.5	46.040315980333595	78.7876853047032	81.70200714575964	1450	1400	0	2020-05-31 01:32:30.104377
A2AMF590HYL3VX	33	27	1	988	273.1443939355693	11	-287	13.5	176.3298100692895	-272.58419071435185	17.484819445202632	1400	1350	0	2020-05-31 01:32:35.416593
A2AMF590HYL3VX	34	28	1	981	101.77998694594575	6	-2	103.5	86.34594355885605	6.486651554433242	101.57307268330645	1350	1300	0	2020-05-31 01:32:40.443527
A2AMF590HYL3VX	35	29	1	1150	206.3563771717123	7	138	-151.5	312.5313450244806	139.49555967865953	-152.0655885773357	1300	1250	0	2020-05-31 01:32:45.595700
A2AMF590HYL3VX	36	30	0	0	298.7257802320403	7	0	0	232.6999197075881	-181.02469068540003	-237.62818254049006	1250	1450	0	2020-05-31 01:32:50.867833
A2AMF590HYL3VX	37	30	1	1172	297.62231161732973	12	10	-284.5	272.0685573770491	10.74276498242747	-297.42836679270397	1450	1400	0	2020-05-31 01:32:57.184660
A2AMF590HYL3VX	38	31	1	1077	254.59822001796638	5	149	-187.5	306.8759228705302	152.78035000696403	-203.66251075754315	1400	1350	0	2020-05-31 01:46:08.774608
A2AMF590HYL3VX	39	32	1	950	231.77412351622965	2	-155	-172.5	226.887252895838	-158.40282681304126	-169.19748458341257	1350	1300	0	2020-05-31 01:46:16.077299
A2AMF590HYL3VX	40	33	1	902	130.9028471247636	12	116	-55.5	337.7810544376062	121.18273428702538	-49.50050803870034	1300	1250	0	2020-05-31 01:46:23.376290
A2AMF590HYL3VX	41	34	1	1110	273.7917538639965	5	-43	-264.5	261.87407376869845	-38.70024573671676	-271.0428295746652	1250	1200	0	2020-05-31 01:46:29.151712
A2AMF590HYL3VX	42	35	1	867	104.42133425840532	8	94	-37.5	339.123293014933	97.5660136547542	-37.21139647777183	1200	1150	0	2020-05-31 01:46:34.852438
A2AMF590HYL3VX	43	36	0	0	286.39545100107864	10	0	0	194.4863210005452	-277.2901919510227	-71.64149497237074	1150	1350	0	2020-05-31 01:46:40.010447
A2AMF590HYL3VX	44	36	1	1028	211.65051522532906	0	90	188.5	63.863423725541764	93.23466791491094	190.00851900360553	1350	1300	0	2020-05-31 01:46:50.756051
A2AMF590HYL3VX	45	37	0	0	284.1082832672571	12	0	0	27.20091074328888	252.6884946236863	129.869323960215	1300	1500	0	2020-05-31 01:46:56.084236
A2AMF590HYL3VX	46	37	0	0	150.04978370315473	4	0	0	275.2952285866371	13.847744364828996	-149.40942930541522	1500	1700	0	2020-05-31 01:47:13.311192
A2AMF590HYL3VX	47	37	1	1131	115.79301738082881	14	4	-120.5	270.54541836252	1.1022571755378017	-115.78777095736794	1700	1650	0	2020-05-31 01:47:18.891556
A2AMF590HYL3VX	48	38	1	1022	286.5282288815272	12	-44	290.5	98.0587054988277	-40.16772210136474	283.69874875855965	1650	1600	0	2020-05-31 01:47:23.950884
A2AMF590HYL3VX	49	39	1	1054	217.0222884499933	5	22	-206.5	277.2484457107842	27.38214887639439	-215.28792722069454	1600	1550	0	2020-05-31 01:47:28.981974
A2AMF590HYL3VX	50	40	1	973	146.30859391540514	11	-36	-132.5	255.0798483691826	-37.67046338363003	-141.3758849378688	1550	1500	0	2020-05-31 01:47:33.969587
A2AMF590HYL3VX	51	41	1	1124	260.63839944016195	9	234	-73.5	341.4875046119377	247.1515176944324	-82.75567995049079	1500	1450	0	2020-05-31 01:47:48.846235
A2AMF590HYL3VX	52	42	1	1235	196.8617517571623	12	-108	-160.5	235.42701272441622	-111.71030449960774	-162.0967525075796	1450	1400	0	2020-05-31 01:48:03.053891
A2AMF590HYL3VX	53	43	1	1197	287.7368582311191	12	174	-224.5	307.9706358537606	177.03227103414562	-226.83049750244766	1400	1350	0	2020-05-31 01:48:08.281053
A2AMF590HYL3VX	54	44	0	0	195.2346414394842	11	0	0	348.24004982103554	191.1366843954933	-39.79111830926034	1350	1550	0	2020-05-31 01:48:15.373651
A2AMF590HYL3VX	55	44	1	1455	190.83489925923035	4	-39	183.5	103.95870629321503	-46.033677190130604	185.19951225539296	1550	1500	0	2020-05-31 01:48:20.819799
A2AMF590HYL3VX	56	45	1	1070	185.554241203137	12	-94	-160.5	242.67043917229094	-85.18942934522889	-164.84276616311132	1500	1450	0	2020-05-31 01:48:25.921054
A2AMF590HYL3VX	57	46	1	871	189.94443846426722	14	-23	188.5	99.77451753654363	-32.247098924321634	187.18711043891565	1450	1400	0	2020-05-31 01:48:30.788034
A2AMF590HYL3VX	58	47	1	967	232.3859371712371	4	-80	208.5	112.44848574901508	-88.73717986923015	214.77648079761912	1400	1350	0	2020-05-31 01:48:35.785268
A2AMF590HYL3VX	59	48	1	816	111.09882532332963	3	80	55.5	34.22739814239969	91.85780844614159	62.490735438908615	1350	1300	0	2020-05-31 01:48:40.602883
A2AMF590HYL3VX	60	49	1	1173	162.40754056664628	10	-93	120.5	133.43435148419627	-111.65891993396421	117.93428183563685	1300	1250	0	2020-05-31 01:48:45.778762
A2AMF590HYL3VX	61	50	1	1220	157.89756032862738	9	129	72.5	26.956243113729805	140.74246056289363	71.57652794341769	1250	1200	0	2020-05-31 01:48:58.351061
A2AMF590HYL3VX	62	51	0	0	271.89552013801176	5	0	0	86.3329057973466	17.3902145751109	271.338818284726	1200	1400	0	2020-05-31 01:49:03.561993
A2AMF590HYL3VX	63	51	1	1080	227.72925336588656	10	-178	142.5	139.3145130198369	-172.68697631824583	148.45814578070738	1400	1350	0	2020-05-31 01:49:08.661271
A2AMF590HYL3VX	64	52	1	1316	145.96143301362503	5	62	138.5	74.15921052555089	39.84239047066938	140.41838857134653	1350	1300	0	2020-05-31 01:49:13.995922
A2AMF590HYL3VX	65	53	1	990	135.64085765406602	14	22	-126.5	278.74349069727486	20.61891579765983	-134.06454630684289	1300	1250	0	2020-05-31 01:49:18.968272
A2AMF590HYL3VX	66	54	1	1015	240.23631346359733	3	211	-62.5	345.04659848332943	232.10095179774504	-61.988986773140745	1250	1200	0	2020-05-31 01:49:24.042348
A2AMF590HYL3VX	67	55	1	1015	229.377251716578	6	224	-15.5	356.0311122054166	228.82715498913427	-15.876295053604846	1200	1150	0	2020-05-31 01:49:29.022074
A2AMF590HYL3VX	68	56	0	0	207.57196454323702	3	0	0	260.53615579724794	-34.130059633383546	-204.74681803085616	1150	1350	0	2020-05-31 01:49:34.208251
A2AMF590HYL3VX	69	56	1	1208	258.16817955675225	3	-187	-172.5	222.76146842456046	-189.5436243714321	-175.28269565416014	1350	1300	0	2020-05-31 01:49:40.810936
A2AMF590HYL3VX	70	57	1	1151	187.21321535198962	8	-58	171.5	111.20531651955974	-67.71709423465438	174.53705380475913	1300	1250	0	2020-05-31 01:49:48.278425
A2AMF590HYL3VX	71	58	1	1062	144.06477554722068	12	-126	-3.5	182.3316084324286	-143.94550482560987	-5.860989163221012	1250	1200	0	2020-05-31 01:49:53.367032
A2AMF590HYL3VX	72	59	1	1077	291.233191419775	0	177	235.5	52.421769120959176	177.60684208309462	230.8085384681814	1200	1150	0	2020-05-31 01:50:05.015541
A2AMF590HYL3VX	73	60	0	0	286.52645022015776	8	0	0	351.56539738419946	283.42735970461484	-42.02782943045481	1150	1350	0	2020-05-31 01:50:18.961109
A2AMF590HYL3VX	74	60	1	1035	184.08755510036787	3	87	-145.5	301.1864740046945	95.3251504437127	-157.48442347011505	1350	1300	0	2020-05-31 01:50:28.217581
A2AMF590HYL3VX	75	61	1	938	111.48595997955329	11	7	108.5	80.34657875517601	18.69485695913422	109.90733185661486	1300	1250	0	2020-05-31 01:50:41.243141
A2AMF590HYL3VX	76	62	1	847	125.23935143481953	3	-52	-129.5	246.5377397490545	-49.86341289753484	-114.88487803894901	1250	1200	0	2020-05-31 01:50:46.114927
A2AMF590HYL3VX	77	63	1	1118	297.8051590765175	13	-256	-175.5	213.78868891573222	-247.50416263938212	-165.61884629705696	1200	1150	0	2020-05-31 01:50:51.218581
A2AMF590HYL3VX	78	64	1	1025	261.6631785205369	7	32	274.5	84.20919827442123	26.400919185959786	260.32789028378573	1150	1100	0	2020-05-31 01:50:56.983839
A2AMF590HYL3VX	79	65	1	797	104.42341564894897	3	-98	12.5	175.73169229641044	-104.13379253626964	7.771935911104323	1100	1050	0	2020-05-31 01:51:02.993364
A2AMF590HYL3VX	80	66	0	0	144.22176968987293	2	0	0	144.3871921158496	-117.24806052863644	83.98101663323654	1050	1250	0	2020-05-31 01:51:08.065985
A2AMF590HYL3VX	81	66	1	1113	190.88431453589027	5	-30	-173.5	259.49019020211483	-34.818037523811064	-187.6819804851472	1250	1200	0	2020-05-31 01:51:18.220946
A2AMF590HYL3VX	82	67	0	0	262.73524134076115	12	0	0	127.79877821452496	-161.0278556913029	207.60500170720582	1200	1400	0	2020-05-31 01:51:25.972173
A2AMF590HYL3VX	83	67	1	1078	192.00826337120364	6	148	103.5	34.989181797789826	157.30475292738294	110.10171619589093	1400	1350	0	2020-05-31 01:51:44.966028
A2AMF590HYL3VX	84	68	1	1205	162.14596709285985	9	-161	73.5	156.38723719394366	-148.57005730057918	64.948077093794	1350	1300	0	2020-05-31 01:51:51.645159
A2AMF590HYL3VX	85	69	0	0	287.1991692530157	11	0	0	307.1221394140983	173.32933221739827	-228.99848342880603	1300	1500	0	2020-05-31 01:51:59.346324
A2AMF590HYL3VX	86	69	1	1167	262.35015005828313	13	138	-238.5	302.16229425379237	139.65404559809687	-222.0908570465888	1500	1450	0	2020-05-31 01:52:06.437406
A2AMF590HYL3VX	87	70	1	1001	131.6180246958393	13	-108	-11.5	185.4824040748795	-131.01594940202767	-12.574793323148034	1450	1400	0	2020-05-31 01:52:13.273534
A2AMF590HYL3VX	88	71	1	946	122.48024220629618	2	-30	97.5	111.91045025320021	-45.70436043366472	113.6332749165606	1400	1350	0	2020-05-31 01:52:21.411366
A2AMF590HYL3VX	89	72	1	1030	133.02818125416468	3	-10	143.5	92.2106280261797	-5.1313180851023965	132.92917882278667	1350	1300	0	2020-05-31 01:52:26.443819
A2AMF590HYL3VX	90	73	1	944	257.72908752019976	13	139	224.5	59.39685462014448	131.20695770050898	221.8310546451322	1300	1250	0	2020-05-31 01:52:31.387879
A2AMF590HYL3VX	91	74	1	1196	261.34679376027964	13	-245	-40.5	189.6366691620272	-257.65895621540744	-43.74938731873717	1250	1200	0	2020-05-31 01:52:45.139910
A2AMF590HYL3VX	92	75	0	0	270.04955170839173	7	0	0	323.6146234951985	217.40210301728	-160.19702238670766	1200	1400	0	2020-05-31 01:52:50.331189
A2AMF590HYL3VX	93	75	1	1189	283.3864198971688	14	48	-270.5	282.1055977299938	59.43012521548293	-277.08468596984295	1400	1350	0	2020-05-31 01:53:04.134061
A2AMF590HYL3VX	94	76	1	1177	165.48333684519133	10	-40	-148.5	253.41348965969644	-47.23932560223986	-158.5975437705913	1350	1300	0	2020-05-31 01:53:09.767640
A2AMF590HYL3VX	95	77	0	0	297.177098697122	10	0	0	266.10092522649234	-20.207798967521803	-296.48924575931454	1300	1500	0	2020-05-31 01:53:15.528721
A2AMF590HYL3VX	96	77	1	1159	291.46544539420853	9	-30	278.5	95.9137419339867	-30.03000700597801	289.9143055077918	1500	1450	0	2020-05-31 01:53:21.406003
A2AMF590HYL3VX	97	78	1	1131	114.40256989302604	11	-117	-29.5	202.00417140775946	-106.06909532527446	-42.86367943850071	1450	1400	0	2020-05-31 01:53:31.937269
A2AMF590HYL3VX	98	79	0	0	223.72346267208758	3	0	0	180.41208036549608	-223.71767640809423	-1.609040879592472	1400	1600	0	2020-05-31 01:53:37.358574
A2AMF590HYL3VX	99	79	1	1334	166.82488001495102	4	-82	133.5	128.03910011569747	-102.79733938145209	131.3896784686581	1600	1550	0	2020-05-31 01:53:42.709206
A2AMF590HYL3VX	100	80	1	1408	267.99379159023886	13	254	29.5	7.16793739580365	265.8993349401546	33.4397369800642	1550	1500	0	2020-05-31 01:53:53.288733
A2AMF590HYL3VX	101	81	1	1267	192.03199643431657	11	-131	-135.5	226.14635750747834	-133.04334081823217	-138.47655801063618	1500	1450	0	2020-05-31 01:53:59.917889
A2AMF590HYL3VX	102	82	1	1105	281.0385213030238	10	242	111.5	26.040484150610173	252.50863639185036	123.37762764666235	1450	1400	0	2020-05-31 01:54:09.548859
A2AMF590HYL3VX	103	83	1	1145	189.30355060011266	0	-98	-158.5	240.37085431030198	-93.58866634406968	-164.55089122137204	1400	1350	0	2020-05-31 01:54:17.239174
A2AMF590HYL3VX	104	84	1	1254	248.9386193280957	5	-90	220.5	114.6984479227597	-104.0171258853275	226.165589149929	1350	1300	0	2020-05-31 01:54:22.498466
A2AMF590HYL3VX	105	85	1	1153	237.0094791542455	13	-189	127.5	147.31173263044846	-199.47224751399972	128.0012331217179	1300	1250	0	2020-05-31 01:54:27.675400
A2AMF590HYL3VX	106	86	1	1012	296.2383010137091	7	145	258.5	59.71758831731328	149.38188404552042	255.81669942851582	1250	1200	0	2020-05-31 01:54:32.694258
A2AMF590HYL3VX	107	87	1	1045	227.20674489066357	11	127	-180.5	306.814668718136	136.14877512279418	-181.89671782738108	1200	1150	0	2020-05-31 01:54:37.746634
A2AMF590HYL3VX	108	88	1	1149	157.10120088055425	5	-57	147.5	113.72340803335705	-63.20524334646108	143.82588269024075	1150	1100	0	2020-05-31 01:54:42.914646
A2AMF590HYL3VX	109	89	0	0	112.98213575527525	7	0	0	130.3198324658697	-73.10551260874695	86.1425970471972	1100	1300	0	2020-05-31 01:54:48.091449
A2AMF590HYL3VX	110	89	1	900	166.0750382266667	14	1	-158.5	269.4980238503945	-1.4549874782472312	-166.06866451389	1300	1250	0	2020-05-31 01:54:52.946661
A2AMF590HYL3VX	111	90	1	1007	211.52788318845438	4	-187	-110.5	212.08030850411387	-179.22852797301343	-112.3440257726914	1250	1200	0	2020-05-31 01:54:57.951132
A2AMF590HYL3VX	112	91	1	1134	200.336537101926	6	-82	180.5	115.20944494113346	-85.32902918054256	181.2558547388125	1200	1150	0	2020-05-31 01:55:10.701381
A2AMF590HYL3VX	113	92	1	1065	120.7267963741339	8	-48	-118.5	248.91557228814727	-43.43064761859744	-112.64429950153183	1150	1100	0	2020-05-31 01:55:28.770355
A2AMF590HYL3VX	114	93	0	0	296.13397923603077	1	0	0	257.7502147054591	-62.83193391915865	-289.3915716432398	1100	1300	0	2020-05-31 01:55:33.875009
A2AMF590HYL3VX	115	93	1	1117	232.3157586894535	3	-189	112.5	152.70214817981352	-206.44378135959568	106.54377913988152	1300	1250	0	2020-05-31 01:55:40.728341
A2AMF590HYL3VX	116	94	1	974	178.95439387399477	4	13	170.5	83.75637999676024	19.462396999553498	177.8929177618958	1250	1200	0	2020-05-31 01:55:45.700130
A2AMF590HYL3VX	117	95	1	1004	178.99656995442564	1	75	158.5	66.36868172363349	71.75075055119996	163.9865904602845	1200	1150	0	2020-05-31 01:55:50.728731
A2AMF590HYL3VX	118	96	1	1040	116.40516256190935	5	-70	82.5	132.09274583541244	-78.03018373904676	86.37969840602098	1150	1100	0	2020-05-31 01:55:56.348296
A2AMF590HYL3VX	119	97	0	0	282.04119751534927	8	0	0	131.98143033761272	-188.65445669855595	209.65861075487678	1100	1300	0	2020-05-31 01:56:01.881491
A2AMF590HYL3VX	120	97	1	1064	270.57546675868196	2	-156	-209.5	234.7304687694549	-156.23664297835182	-220.90992418298828	1300	1250	0	2020-05-31 01:56:07.653639
A2AMF590HYL3VX	121	98	1	1165	278.4926001585101	0	-85	-272.5	254.87467324271336	-72.66742399215656	-268.84488805516077	1250	1200	0	2020-05-31 01:56:17.400976
A2AMF590HYL3VX	122	99	1	1127	254.7784262889182	11	119	-213.5	300.51700893635996	129.37498817330567	-219.48612470362391	1200	1150	0	2020-05-31 01:56:22.487268
A2AMF590HYL3VX	123	100	1	945	158.09640923272025	9	32	-153.5	282.71127159268343	34.78723563877175	-154.22166789686955	1150	1100	0	2020-05-31 01:56:29.323836
A2AMF590HYL3VX	124	101	1	915	239.06730058970166	2	148	172.5	46.574894209378144	164.33625245444506	173.62825328982512	1100	1050	0	2020-05-31 01:56:34.243853
A2AMF590HYL3VX	125	102	0	0	142.01596013783572	0	0	0	20.299696721245226	133.1954583484058	49.26969463300381	1050	1250	0	2020-05-31 01:56:39.734725
A2AMF590HYL3VX	126	102	1	1141	289.90940366191046	4	-190	-229.5	229.36020360920696	-188.81841016926165	-219.98879588005616	1250	1200	0	2020-05-31 01:56:44.870195
A2AMF590HYL3VX	127	103	1	982	254.77336441170783	0	57	241.5	73.77409415623961	71.19011534288941	244.6250900687151	1200	1150	0	2020-05-31 01:56:51.076732
A2AMF590HYL3VX	128	104	1	899	254.74114317886801	0	-146	-209.5	236.93787546417605	-138.97353811252532	-213.49333884822497	1150	1100	0	2020-05-31 01:56:55.977362
A2AMF590HYL3VX	129	105	0	0	260.70849994434593	6	0	0	83.99539658155574	27.272290599044435	259.2781211531592	1100	1300	0	2020-05-31 01:57:04.554010
A2AMF590HYL3VX	130	105	1	1061	293.0926773284755	2	-123	265.5	113.53539848316053	-117.0364697791256	268.7113362796844	1300	1250	0	2020-05-31 01:57:09.699026
A2AMF590HYL3VX	131	106	1	1045	159.06073534843003	12	109	122.5	50.168755565532585	101.88294429316144	122.14820175401626	1250	1200	0	2020-05-31 01:57:21.828389
A2AMF590HYL3VX	132	107	1	1013	165.21001103826916	6	97	-117.5	309.0531727378337	104.08913706209135	-128.29574931748198	1200	1150	0	2020-05-31 01:57:26.846002
A2AMF590HYL3VX	133	108	1	1047	290.6368383921123	9	139	-234.5	300.9345187236963	149.4042247788513	-249.2953057095004	1150	1100	0	2020-05-31 01:57:31.907561
A2AMF590HYL3VX	134	109	0	1099	267.1776635644088	6	-203	5.5	178.31423249447718	-267.06202866846206	7.859818777934679	1100	1300	0	2020-05-31 01:57:41.966167
A2AMF590HYL3VX	135	109	1	1162	278.5057297897377	6	274	23.5	8.336715638610626	275.56278235402465	40.38062043880491	1300	1250	0	2020-05-31 01:57:47.521390
A2AMF590HYL3VX	136	110	1	1173	136.255017654529	8	-83	-83.5	222.67155229887712	-100.18166727074927	-92.3529283720278	1250	1200	0	2020-05-31 01:57:52.715362
A2AMF590HYL3VX	137	111	1	1083	238.43504519730106	8	-133	173.5	127.9099734062635	-146.49986745264545	188.11980122941952	1200	1150	0	2020-05-31 01:58:00.346727
A2AMF590HYL3VX	138	112	1	1143	137.3225066531003	1	90	95.5	43.819534069297845	99.08151328404355	95.08062136331819	1150	1100	0	2020-05-31 01:58:05.497592
A2AMF590HYL3VX	139	113	1	941	149.95378259963488	9	-57	-133.5	247.68814882831083	-56.92958221955639	-138.72692451087255	1100	1050	0	2020-05-31 01:58:10.480202
A2AMF590HYL3VX	140	114	1	956	181.2632409044287	7	-160	92.5	149.213885066861	-155.72034284264072	92.7768146044441	1050	1000	0	2020-05-31 01:58:22.087881
A2AMF590HYL3VX	141	115	0	0	223.6205288395459	3	0	0	84.96223735299975	19.636632581505065	222.75669143560458	1000	1200	0	2020-05-31 01:58:28.230117
A2AMF590HYL3VX	142	115	0	0	246.57950365983186	7	0	0	121.77793646246369	-129.85578886329415	209.61613898700787	1200	1400	0	2020-05-31 01:58:33.967325
A2AMF590HYL3VX	143	115	1	1077	245.3141521746034	9	10	233.5	84.57048587712964	23.211903097068333	244.21351480161124	1400	1350	0	2020-05-31 01:58:40.175635
A2AMF590HYL3VX	144	116	1	1301	275.59941307612064	13	226	-144.5	329.3993376723098	237.218375694679	-140.29425761833699	1350	1300	0	2020-05-31 01:58:46.136019
A2AMF590HYL3VX	145	117	1	1138	222.71820731585206	12	-229	-71.5	198.55920372839742	-211.1358088822162	-70.8877286816212	1300	1250	0	2020-05-31 01:58:54.200373
A2AMF590HYL3VX	146	118	1	893	102.44882898737093	12	116	0.5	353.69119289290677	101.82840667750916	-11.25780415549053	1250	1200	0	2020-05-31 01:58:59.092562
A2AMF590HYL3VX	147	119	1	814	111.39631488060293	13	79	67.5	46.001850068110706	77.37979509147662	80.1343015230028	1200	1150	0	2020-05-31 01:59:04.551240
A2AMF590HYL3VX	148	120	1	1096	110.25467366813615	1	-58	95.5	119.0125436342679	-53.473636589462835	96.41920584388392	1150	1100	0	2020-05-31 01:59:09.642770
A2AMF590HYL3VX	149	121	1	1016	243.76830641640228	3	-234	-65.5	196.88568776876744	-233.2585211726867	-70.80571667211815	1100	1050	0	2020-05-31 02:04:23.607847
A2AMF590HYL3VX	150	122	1	990	213.64346332078182	12	-6	222.5	91.85003832988427	-6.897190721944853	213.53210105237892	1050	1000	0	2020-05-31 02:04:28.620372
A2AMF590HYL3VX	151	123	0	0	117.32991772952523	3	0	0	59.2220602503984	60.03913938583609	100.80481802089277	1000	1200	0	2020-05-31 02:04:33.999837
A2AMF590HYL3VX	152	123	1	1152	292.19312979538796	14	55	287.5	80.17526994860401	49.85831797752321	287.9079249136373	1200	1150	0	2020-05-31 02:04:39.756367
A2AMF590HYL3VX	153	124	1	1120	260.70324440160135	6	192	160.5	40.928181359767464	196.96947120997157	170.7899559481917	1150	1100	0	2020-05-31 02:04:44.917557
A2AMF590HYL3VX	154	125	0	0	294.8506604379476	14	0	0	27.74532892804207	260.95038090077566	137.26547515101527	1100	1300	0	2020-05-31 02:04:53.977705
A2AMF590HYL3VX	155	125	1	1261	256.3415791541438	11	248	1.5	0.08218424259795576	256.34131544764386	0.3676925505510135	1300	1250	0	2020-05-31 02:04:59.867619
A2AMF590HYL3VX	156	126	1	1006	103.66088707434659	11	28	-98.5	278.4277364797362	15.192737719425738	-102.54150491205586	1250	1200	0	2020-05-31 02:05:04.870999
A2AMF590HYL3VX	157	127	1	1044	183.07128983877928	11	-101	-160.5	235.40199483567994	-103.95064018799913	-150.69625598447848	1200	1150	0	2020-05-31 02:05:09.943689
A2AMF590HYL3VX	158	128	1	1069	260.4185250106951	14	191	-168.5	315.6986985807439	186.37551478600474	-181.8845118667275	1150	1100	0	2020-05-31 02:05:19.113564
A2AMF590HYL3VX	159	129	1	1058	141.86007436478792	1	-56	-130.5	247.19768448448926	-54.97827494836563	-130.77335348795285	1100	1050	0	2020-05-31 02:05:26.334106
A2AMF590HYL3VX	160	130	0	0	216.26518690402662	5	0	0	52.94019311944241	130.33185425099998	172.5811079873161	1050	1250	0	2020-05-31 02:05:34.575274
A2AMF590HYL3VX	161	130	1	974	140.34231453402506	5	-137	43.5	164.24603973682198	-135.07056211323362	38.103917110742316	1250	1200	0	2020-05-31 02:05:40.090159
A2AMF590HYL3VX	162	131	1	1097	209.3401208182589	14	185	72.5	19.982262257160038	196.73752295995664	71.53763515649487	1200	1150	0	2020-05-31 02:05:45.385554
A2AMF590HYL3VX	163	132	1	1006	113.6686665556904	6	76	69.5	39.95287653377399	87.13531377213305	72.9931698885632	1150	1100	0	2020-05-31 02:05:51.306910
A2AMF590HYL3VX	164	133	0	0	217.94569794202027	10	0	0	155.4698176498203	-198.274505944424	90.48506807163773	1100	1300	0	2020-05-31 02:05:56.430350
A2AMF590HYL3VX	165	133	1	1214	253.59072088132524	1	-131	204.5	122.67207490402495	-136.8959084490512	213.4660721684343	1300	1250	0	2020-05-31 02:06:02.386188
A2AMF590HYL3VX	166	134	0	0	204.3637846444213	10	0	0	221.70640529053978	-152.5706055369807	-135.9660501752935	1250	1450	0	2020-05-31 02:06:08.315893
A2AMF590HYL3VX	167	134	1	1158	150.64179173076258	6	0	-138.5	266.7231804917779	-8.610702473076886	-150.3954960056138	1450	1400	0	2020-05-31 02:06:14.129695
A2AMF590HYL3VX	168	135	1	1022	186.89975240041838	1	-157	-80.5	208.3898258763883	-164.4218829658038	-88.86485159677704	1400	1350	0	2020-05-31 02:06:20.274668
A2AMF590HYL3VX	169	136	1	1057	240.94323692419408	14	237	10.5	2.28405241339372	240.75181393350758	9.602474016318412	1350	1300	0	2020-05-31 02:06:26.088642
A2AMF590HYL3VX	170	137	1	1191	128.83472595274822	3	-83	-95.5	234.05748583292464	-75.62253858255333	-104.30540863085656	1300	1250	0	2020-05-31 02:06:31.248888
A2AMF590HYL3VX	171	138	1	1037	138.5497286295008	9	99	-104.5	309.04755519197664	87.28150767505515	-107.60095594964575	1250	1200	0	2020-05-31 02:06:38.278248
A2AMF590HYL3VX	172	139	1	886	149.96052893115942	8	-101	-109.5	232.48709816358547	-91.31697356019991	-118.95112684257703	1200	1150	0	2020-05-31 02:06:43.167884
A2AMF590HYL3VX	173	140	1	1150	297.914141344493	13	-64	286.5	101.39661263659929	-58.86765134195593	292.04012607603846	1150	1100	0	2020-05-31 02:06:56.957692
A2AMF590HYL3VX	174	141	0	0	180.0410876391164	9	0	0	332.0642215304209	159.06148627879557	-84.34593541514921	1100	1300	0	2020-05-31 02:07:04.496449
A2AMF590HYL3VX	175	141	1	1020	170.66916781931644	0	-161	-51.5	198.18824628916056	-162.14187130526713	-53.272679806484184	1300	1250	0	2020-05-31 02:07:11.300818
A2AMF590HYL3VX	176	142	0	0	235.13461932230535	9	0	0	11.820140210813337	230.14869441779967	48.16500453262437	1250	1450	0	2020-05-31 02:07:18.305589
A2AMF590HYL3VX	177	142	1	1233	210.3866890601991	12	-71	-196.5	250.48617486292187	-70.27637112531991	-198.30227077663332	1450	1400	0	2020-05-31 02:07:23.370210
A2AMF590HYL3VX	178	143	1	1287	169.3366929173913	4	-81	139.5	123.34347544458167	-93.07707522685114	141.4622692996757	1400	1350	0	2020-05-31 02:07:30.303197
A2AMF590HYL3VX	179	144	0	0	249.91861910087198	4	0	0	7.059957944612236	248.0237552190583	30.716982604471117	1350	1550	0	2020-05-31 02:07:37.116403
A2AMF590HYL3VX	180	144	1	1182	105.42259175273342	14	77	84.5	38.96605518520501	81.96803281592604	66.29603644374805	1550	1500	0	2020-05-31 02:07:43.350782
A2AMF590HYL3VX	181	145	1	1358	280.951014452089	5	260	1.5	359.9943900477843	280.9510131053803	-0.027508514185649355	1500	1450	0	2020-05-31 02:07:49.180720
A2AMF590HYL3VX	182	146	1	1261	294.3444976129656	0	6	-278.5	269.33413792101675	-3.4206433536536642	-294.3246209104434	1450	1400	0	2020-05-31 02:07:54.460088
A2AMF590HYL3VX	183	147	1	1171	147.2798754460785	3	-95	-98.5	225.5519200120684	-103.13459539621867	-105.14093847722052	1400	1350	0	2020-05-31 02:07:59.646069
A2AMF590HYL3VX	184	148	1	1051	111.06434514511916	13	95	-52.5	330.3424957099025	96.51477735090914	-54.95622362770746	1350	1300	0	2020-05-31 02:08:05.368068
A2AMF590HYL3VX	185	149	1	990	261.55813258100295	1	217	-99.5	337.35594166864433	241.3957762369833	-100.70122111576313	1300	1250	0	2020-05-31 02:08:10.378430
A2AMF590HYL3VX	186	150	1	854	132.8887264453286	13	141	2.5	1.9985148950221188	132.80789438943793	4.634307295084384	1250	1200	0	2020-05-31 02:08:15.289309
