AEXA1CPBHT85H	1	1	0	0	152.60766560683942	4	0	0	238.85966824806775	-78.91890951536793	-130.61740053635307	1500	1700	1	2020-06-02 00:11:38.655535
AEXA1CPBHT85H	1	1	0	0	202.1846766415536	6	0	0	144.0752028267011	-163.7266818906503	118.62637609624343	1500	1700	0	2020-06-02 00:12:35.373969
AEXA1CPBHT85H	2	1	0	0	147.27596213134447	11	0	0	1.7391425355191092	147.20812091635545	4.469693276824121	1700	1900	0	2020-06-02 00:12:41.530159
AEXA1CPBHT85H	3	1	0	0	121.84692167409125	5	0	0	73.62841746226749	34.344458517364444	116.90650320063962	1900	2000	0	2020-06-02 00:12:47.443209
AEXA1CPBHT85H	4	1	0	0	260.5965220670399	9	0	0	33.258339467573464	217.91246452601354	142.91502761304042	2000	2000	0	2020-06-02 00:12:53.461577
AEXA1CPBHT85H	5	1	0	0	187.6816666242048	11	0	0	30.819381682253628	161.17850729057062	96.1555862881748	2000	2000	0	2020-06-02 00:12:59.462112
AEXA1CPBHT85H	6	1	0	0	275.42271906624137	13	0	0	134.01957042968672	-191.39235845198272	198.05716170850644	2000	2000	0	2020-06-02 00:13:06.430470
AEXA1CPBHT85H	7	1	0	0	148.7646977241858	11	0	0	59.35723717257219	75.82294016149295	127.99147250592529	2000	2000	0	2020-06-02 00:13:13.180182
AEXA1CPBHT85H	8	1	0	0	164.28220972242661	3	0	0	49.050533246456425	107.66943353014678	124.08036716008165	2000	2000	0	2020-06-02 00:13:19.500133
AEXA1CPBHT85H	9	1	0	0	259.61614772117264	8	0	0	288.8804166835019	84.01023642840697	-245.64776476252516	2000	2000	0	2020-06-02 00:13:29.264968
AEXA1CPBHT85H	10	1	0	0	169.71687780711466	5	0	0	177.07602670186162	-169.495923576858	8.657395879997779	2000	2000	0	2020-06-02 00:13:35.272756
AEXA1CPBHT85H	11	1	0	0	251.9751564285101	10	0	0	224.08118015051974	-181.00757427350678	-175.29328998222684	2000	2000	0	2020-06-02 00:13:41.293375
AEXA1CPBHT85H	12	1	1	678	154.66144794168048	8	-16	-116.5	264.7860618098975	-14.054834897506504	-154.02150854806277	2000	1950	0	2020-06-02 00:14:15.928713
AEXA1CPBHT85H	13	2	1	789	252.2274798429349	3	-73	-210.5	251.14442608889286	-81.5158212226432	-238.6920033815884	1950	1900	0	2020-06-02 00:14:20.984984
AEXA1CPBHT85H	14	3	1	958	198.69431960317098	0	-186	39.5	166.44437576488593	-193.1592576399399	46.571813691914336	1900	1850	0	2020-06-02 00:14:25.937798
AEXA1CPBHT85H	15	4	0	715	187.61388900260383	13	-78	118.5	134.58187315373752	-131.69139533951648	133.6276458679585	1850	2000	0	2020-06-02 00:14:30.670560
AEXA1CPBHT85H	16	4	1	707	113.03055593989471	6	-91	-39.5	208.2630550872348	-99.55537716892763	-53.52227062479907	2000	1950	0	2020-06-02 00:14:35.371078
AEXA1CPBHT85H	17	5	1	677	278.662653119354	11	-159	-222.5	231.36451703813452	-173.98678061008061	-217.67286100122146	1950	1900	0	2020-06-02 00:14:40.075686
AEXA1CPBHT85H	18	6	1	867	110.22106115470743	11	73	-92.5	313.77653112274186	76.25616298394569	-79.58442014009819	1900	1850	0	2020-06-02 00:14:44.945181
AEXA1CPBHT85H	19	7	1	651	105.65856215892188	8	45	55.5	55.08577988791157	60.47361544813182	86.64106181322013	1850	1800	0	2020-06-02 00:14:49.609755
AEXA1CPBHT85H	20	8	1	622	166.33801453101	8	59	-170.5	287.6657615857593	50.47755297298158	-158.49401163444105	1800	1750	0	2020-06-02 00:14:54.960418
AEXA1CPBHT85H	21	9	1	955	107.85926138372864	8	-79	46.5	148.80354711001922	-92.26241622823464	55.86829886412758	1750	1700	0	2020-06-02 00:15:00.612074
AEXA1CPBHT85H	22	10	1	758	177.43387802839274	8	132	98.5	40.21549340791403	135.49231732448942	114.5627034345577	1700	1650	0	2020-06-02 00:15:06.038864
AEXA1CPBHT85H	23	11	1	647	184.99584939294834	3	-62	168.5	113.99680172330747	-75.23515687208294	169.0063178199309	1650	1600	0	2020-06-02 00:15:10.688706
AEXA1CPBHT85H	24	12	0	795	284.6336332024682	5	78	-395.5	280.188801932287	50.349521558769524	-280.1450174977956	1600	1800	0	2020-06-02 00:15:15.488399
AEXA1CPBHT85H	25	12	1	723	195.67987534451242	6	76	175.5	66.19117832365015	78.99325853088455	179.02703349359493	1800	1750	0	2020-06-02 00:15:20.218744
AEXA1CPBHT85H	26	13	1	614	198.48832486452844	13	-43	180.5	102.92412119966336	-44.39399107075713	193.46004410300364	1750	1700	0	2020-06-02 00:15:25.207365
AEXA1CPBHT85H	27	14	1	556	107.42157924626095	12	5	105.5	90.94802438892805	-1.7773321378341225	107.40687491139728	1700	1650	0	2020-06-02 00:15:29.799723
AEXA1CPBHT85H	28	15	1	780	104.55163093410431	7	-53	-72.5	233.47573147992227	-62.22528526868856	-84.01819686360501	1650	1600	0	2020-06-02 00:15:34.664423
AEXA1CPBHT85H	29	16	1	1523	183.6611494215092	2	171	-29.5	346.61469335803815	178.6720452425419	-42.51726773532122	1600	1550	0	2020-06-02 00:15:40.069583
AEXA1CPBHT85H	30	17	1	663	237.28380080224892	10	99	-209.5	292.7034114525517	91.58228605432689	-218.89789173088164	1550	1500	0	2020-06-02 00:15:44.824678
AEXA1CPBHT85H	31	18	1	746	103.88843481757979	1	-76	-45.5	202.1306962739348	-96.23465544472066	-39.13691326973069	1500	1450	0	2020-06-02 00:15:49.544997
AEXA1CPBHT85H	32	19	1	854	297.4926171066983	12	-209	163.5	143.25448069208545	-238.38101285618404	177.978509777592	1450	1400	0	2020-06-02 00:15:55.581560
AEXA1CPBHT85H	33	20	1	694	251.29472314486912	3	-201	-106.5	205.81355414947083	-226.21947670549278	-109.42479718760929	1400	1350	0	2020-06-02 00:16:01.329286
AEXA1CPBHT85H	34	21	1	691	253.92396554593947	5	194	-82.5	335.9751091115633	231.9261956246462	-103.38094631823505	1350	1300	0	2020-06-02 00:16:27.587864
AEXA1CPBHT85H	35	22	1	815	133.95214990048947	9	132	-3.5	358.7588212450558	133.92072122268485	-2.901532381196935	1300	1250	0	2020-06-02 00:16:32.845739
AEXA1CPBHT85H	36	23	1	1048	100.89635159273027	4	23	86.5	75.54506052331607	25.185598224185114	97.7024022571286	1250	1200	0	2020-06-02 00:16:38.463924
AEXA1CPBHT85H	37	24	1	616	209.49828246029404	6	45	-187.5	279.83457216242016	35.783157492622486	-206.4197083460572	1200	1150	0	2020-06-02 00:16:43.525663
AEXA1CPBHT85H	38	25	1	720	109.57942594351127	14	-111	0.5	175.40241557405773	-109.22682770281757	8.783547124509342	1150	1100	0	2020-06-02 00:16:48.507539
AEXA1CPBHT85H	39	26	0	0	242.90042756118112	8	0	0	127.23092788455561	-146.9617999605033	193.39815682103492	1100	1300	0	2020-06-02 00:16:53.925308
AEXA1CPBHT85H	40	26	1	800	206.51437834288623	0	-159	-102.5	211.0522168605567	-176.92036437936167	-106.52404953916583	1300	1250	0	2020-06-02 00:16:59.294058
AEXA1CPBHT85H	41	27	0	624	256.89972337444976	0	-134	-152.5	227.7730783066794	-172.65423707824613	-190.23139143894625	1250	1450	0	2020-06-02 00:17:04.595880
AEXA1CPBHT85H	42	27	1	646	162.5473544216558	11	-152	-93.5	220.85322117926995	-122.9488320174405	-106.32604165972974	1450	1400	0	2020-06-02 00:17:09.751291
AEXA1CPBHT85H	43	28	1	582	120.71573245131276	14	79	-63.5	317.8041544214423	89.4326487097579	-81.0807585436518	1400	1350	0	2020-06-02 00:17:14.872551
AEXA1CPBHT85H	44	29	1	650	150.79764633708527	1	35	117.5	79.72827389549278	26.889734604411412	148.3808353990129	1350	1300	0	2020-06-02 00:17:19.500609
AEXA1CPBHT85H	45	30	1	696	271.07676191298725	8	170	-195.5	308.54216674050065	168.9053354026647	-212.0226368144301	1300	1250	0	2020-06-02 00:17:24.211058
AEXA1CPBHT85H	46	31	1	622	129.2209920327966	11	-68	98.5	126.20933857842198	-76.33564512561385	104.26377158532311	1250	1200	0	2020-06-02 00:17:33.357134
AEXA1CPBHT85H	47	32	1	610	144.9851918361305	12	49	145.5	71.85341197923903	45.155522709239136	137.77403463866096	1200	1150	0	2020-06-02 00:17:37.985928
AEXA1CPBHT85H	48	33	1	682	246.28229035430903	7	226	68.5	19.434547978424455	232.24966759345514	81.9454601847703	1150	1100	0	2020-06-02 00:17:42.772865
AEXA1CPBHT85H	49	34	1	1039	260.2063137199316	1	246	59.5	12.989824257603733	253.54763435284875	58.48865542812188	1100	1050	0	2020-06-02 00:17:48.265535
AEXA1CPBHT85H	50	35	0	0	261.5818046543448	13	0	0	227.2151050206133	-177.67887729336059	-191.97723065508242	1050	1250	0	2020-06-02 00:17:53.655741
AEXA1CPBHT85H	51	35	1	1039	272.2768831245568	4	-238	105.5	153.39154238637448	-243.43952980439536	121.95038504506023	1250	1200	0	2020-06-02 00:17:59.315411
AEXA1CPBHT85H	52	36	1	583	134.07586245408018	0	152	-38.5	349.62735434415583	131.88473340696552	-24.140297988613604	1200	1150	0	2020-06-02 00:18:04.180100
AEXA1CPBHT85H	53	37	1	727	205.70601437009378	13	-102	190.5	116.21471950638562	-90.86782341574043	184.54810488248054	1150	1100	0	2020-06-02 00:18:09.106264
AEXA1CPBHT85H	54	38	1	730	167.77352041639446	7	-130	61.5	154.28410739173145	-151.1566771377082	72.79844167011387	1100	1050	0	2020-06-02 00:18:14.087146
AEXA1CPBHT85H	55	39	0	798	259.5405542565105	7	78	-196.5	296.53646273981997	115.95422081717658	-232.198014587675	1050	1250	0	2020-06-02 00:18:21.037763
AEXA1CPBHT85H	56	39	1	1028	200.0530906744474	9	-163	-14.5	185.458771768714	-199.1458315507121	-19.030944915428535	1250	1200	0	2020-06-02 00:18:26.372862
AEXA1CPBHT85H	57	40	1	775	242.51933787092446	7	65	205.5	74.42932556425363	65.09869275629404	233.61889787166888	1200	1150	0	2020-06-02 00:18:31.237769
AEXA1CPBHT85H	58	41	1	981	105.74257052179759	13	44	-76.5	295.40185972785497	45.35980402550054	-95.51952365524821	1150	1100	0	2020-06-02 00:18:37.066717
AEXA1CPBHT85H	59	42	1	631	158.2986627072751	11	99	-150.5	302.8695543490884	85.9131512378286	-132.95637276677505	1100	1050	0	2020-06-02 00:18:41.970674
AEXA1CPBHT85H	60	43	0	0	199.4978215079528	10	0	0	41.912404920273545	148.45968308160187	133.26328558807685	1050	1250	0	2020-06-02 00:18:47.354258
AEXA1CPBHT85H	61	43	1	567	154.41992622797488	7	127	71.5	27.682421114835776	136.74443498519108	71.73892330411753	1250	1200	0	2020-06-02 00:18:51.722249
AEXA1CPBHT85H	62	44	1	602	117.42445625986981	10	77	36.5	34.517868383285666	96.7518229505606	66.54012085703974	1200	1150	0	2020-06-02 00:18:56.319784
AEXA1CPBHT85H	63	45	1	726	266.98544932967616	10	163	-155.5	316.7222183712227	194.37572666863127	-183.028159133535	1150	1100	0	2020-06-02 00:19:01.282418
AEXA1CPBHT85H	64	46	0	0	256.811209183527	14	0	0	201.994477485411	-238.1204783656438	-96.1802211747417	1100	1300	0	2020-06-02 00:19:06.359952
AEXA1CPBHT85H	65	46	1	614	112.12627544204298	5	60	-142.5	291.96019389187563	41.93100481721737	-103.99082882410056	1300	1250	0	2020-06-02 00:19:11.507489
AEXA1CPBHT85H	66	47	1	632	119.58713353734524	3	-76	58.5	151.83325553196283	-105.4253358809726	56.44981011538437	1250	1200	0	2020-06-02 00:19:16.241716
AEXA1CPBHT85H	67	48	1	695	254.93183641508068	9	-211	-121.5	206.79474480948983	-227.55908351783987	-114.92216812471924	1200	1150	0	2020-06-02 00:19:22.803551
AEXA1CPBHT85H	68	49	1	714	215.4396099778356	2	220	19.5	8.142402534480011	213.26778711975587	30.513546572701458	1150	1100	0	2020-06-02 00:19:27.412678
AEXA1CPBHT85H	69	50	1	686	167.21849406100344	10	-19	-150.5	261.4767229610393	-24.78365324302693	-165.3716882902247	1100	1050	0	2020-06-02 00:19:33.274697
AEXA1CPBHT85H	70	51	1	773	208.3803615746657	13	-52	208.5	100.37479145412985	-37.52646576306341	204.97350915989617	1050	1000	0	2020-06-02 00:19:38.054650
AEXA1CPBHT85H	71	52	1	795	286.8600759808446	0	29	-289.5	274.1605195353337	20.811975674783344	-286.10411541997814	1000	950	0	2020-06-02 00:19:42.953868
AEXA1CPBHT85H	72	53	1	644	145.6672098989522	5	118	32.5	20.954975288828443	136.03303618060224	52.09557665706714	950	900	0	2020-06-02 00:19:47.513581
AEXA1CPBHT85H	73	54	0	0	293.8999624562881	1	0	0	18.976988535198913	277.9262808109049	95.57285371079786	900	1100	0	2020-06-02 00:19:52.446049
AEXA1CPBHT85H	74	54	1	1079	227.3794917609589	10	193	-134.5	323.906262476671	183.73497121213686	-133.9510866964028	1100	1050	0	2020-06-02 00:19:58.027123
AEXA1CPBHT85H	75	55	0	0	276.35953726479215	2	0	0	218.07871478136823	-217.5403326044683	-170.44294508001013	1050	1250	0	2020-06-02 00:20:03.408094
AEXA1CPBHT85H	76	55	1	718	140.44044125163433	9	-116	-123.5	231.6970340686833	-87.04774586190689	-110.20983385939127	1250	1200	0	2020-06-02 00:20:08.385120
AEXA1CPBHT85H	77	56	1	951	101.28485679734726	6	83	71.5	39.03259788099902	78.67684006526159	63.78539843729435	1200	1150	0	2020-06-02 00:20:13.708696
AEXA1CPBHT85H	78	57	1	803	243.35769363075767	12	196	98.5	27.217273909414796	216.41277058988675	111.30354789893606	1150	1100	0	2020-06-02 00:20:18.542922
AEXA1CPBHT85H	79	58	1	580	142.17978267797795	6	8	154.5	97.57396177751457	-18.74013649584844	140.9393411595003	1100	1050	0	2020-06-02 00:20:23.089521
AEXA1CPBHT85H	80	59	1	778	217.2131193062611	5	3	204.5	87.69153905067799	8.74920207399981	217.0368417154662	1050	1000	0	2020-06-02 00:20:27.887497
AEXA1CPBHT85H	81	60	1	786	121.69236735366175	14	-109	19.5	169.07510829462365	-119.48687196005505	23.06338442943641	1000	950	0	2020-06-02 00:20:32.692599
AEXA1CPBHT85H	82	61	0	0	297.1777460586359	8	0	0	196.75732157673582	-284.55795210533876	-85.68188050052831	950	1150	0	2020-06-02 00:20:39.674211
AEXA1CPBHT85H	83	61	1	574	125.82704410885665	1	117	78.5	38.33585570740755	98.69726865618847	78.04674361547903	1150	1100	0	2020-06-02 00:20:44.840070
AEXA1CPBHT85H	84	62	1	668	221.61685587739686	2	213	7.5	7.989108493452202	219.46595495270174	30.80138674932643	1100	1050	0	2020-06-02 00:20:49.422160
AEXA1CPBHT85H	85	63	1	746	226.6941349209669	8	-236	61.5	162.88953914406616	-216.66049700866185	66.69677536077114	1050	1000	0	2020-06-02 00:20:54.185881
AEXA1CPBHT85H	86	64	1	713	235.39074887321715	11	-200	67.5	160.083777800911	-221.3124324417539	80.18486080182524	1000	950	0	2020-06-02 00:20:58.915656
AEXA1CPBHT85H	87	65	0	0	288.2507298690773	5	0	0	310.3131847313535	186.4882099259613	-219.79679440034232	950	1150	0	2020-06-02 00:21:03.866665
AEXA1CPBHT85H	88	65	1	630	164.62468088598308	1	136	37.5	18.91700907159734	155.73316319514998	53.371035572157965	1150	1100	0	2020-06-02 00:21:08.542000
AEXA1CPBHT85H	89	66	1	733	230.90093715622638	8	-193	-126.5	213.95658023327294	-191.523345520315	-128.97306269267875	1100	1050	0	2020-06-02 00:21:13.287357
AEXA1CPBHT85H	90	67	1	980	199.07413172157806	9	146	-116.5	321.0919714997566	154.91056050030582	-125.03290833289171	1050	1000	0	2020-06-02 00:21:18.564392
AEXA1CPBHT85H	91	68	1	620	108.80007185333965	2	104	-23.5	351.55077767836104	107.61920692444514	-15.986304646331837	1000	950	0	2020-06-02 00:21:23.187758
AEXA1CPBHT85H	92	69	1	778	274.0393106782352	13	-173	-207.5	229.4641235343707	-178.10474102380618	-208.2696449842013	950	900	0	2020-06-02 00:21:27.970645
AEXA1CPBHT85H	93	70	1	828	183.73316635269254	3	-109	-117.5	230.86461995631257	-115.96408721830394	-142.51388316094605	900	850	0	2020-06-02 00:21:32.811868
AEXA1CPBHT85H	94	71	1	611	131.1639783337808	7	-24	125.5	100.74257415348663	-24.448533178783034	128.86527242725427	850	800	0	2020-06-02 00:21:37.431434
AEXA1CPBHT85H	95	72	0	0	276.1734142311053	2	0	0	242.4320151166475	-127.81327139946335	-244.81732451408092	800	1000	0	2020-06-02 00:21:42.354289
AEXA1CPBHT85H	96	72	1	823	241.51097779489953	7	-167	-148.5	227.2395626887984	-163.97013554697364	-177.31708052005467	1000	950	0	2020-06-02 00:21:47.151372
AEXA1CPBHT85H	97	73	1	825	198.75562859589917	8	206	19.5	3.736891982340085	198.3330462890592	12.953866150802579	950	900	0	2020-06-02 00:21:51.888058
AEXA1CPBHT85H	98	74	1	572	196.2936077322529	13	115	185.5	58.20486094659347	103.42390019064067	166.83727792642736	900	850	0	2020-06-02 00:21:56.469455
AEXA1CPBHT85H	99	75	1	626	294.9003280492266	8	321	-100.5	344.07075170721555	283.57654879465326	-80.93543387945151	850	800	0	2020-06-02 00:22:01.127545
AEXA1CPBHT85H	100	76	1	603	142.27860658113684	8	93	-80.5	309.24000546570517	90.00121171382621	-110.19520761227754	800	750	0	2020-06-02 00:22:05.703606
AEXA1CPBHT85H	101	77	0	0	235.94441403698974	8	0	0	243.81183527287612	-104.12710716800493	-211.72461375116794	750	950	0	2020-06-02 00:22:10.478476
AEXA1CPBHT85H	102	77	0	0	282.3951953973931	11	0	0	169.11762035142647	-277.3168315915393	53.31436297623431	950	1150	0	2020-06-02 00:22:22.605905
AEXA1CPBHT85H	103	77	1	743	261.95762268749036	11	-120	-206.5	242.83822938921185	-119.58480244877114	-233.06924101513255	1150	1100	0	2020-06-02 00:22:27.664602
AEXA1CPBHT85H	104	78	1	660	270.0521653832087	10	284	-117.5	337.27317181733997	249.08458386402114	-104.33140519252736	1100	1050	0	2020-06-02 00:22:32.323935
AEXA1CPBHT85H	105	79	1	795	216.09675094487164	12	107	-156.5	310.60566589613296	140.6464185049141	-164.06215508358545	1050	1000	0	2020-06-02 00:22:37.142932
AEXA1CPBHT85H	106	80	1	795	276.81580971505036	10	1	-272.5	269.8424134058463	-0.7613546064467521	-276.81476269766074	1000	950	0	2020-06-02 00:22:41.926910
AEXA1CPBHT85H	107	81	0	587	222.97004126979138	4	25	152.5	84.900508553326	19.81879380870387	222.0874933800203	950	1150	0	2020-06-02 00:22:47.002315
AEXA1CPBHT85H	108	81	1	770	263.56720652484165	0	-194	-170.5	224.0687909727519	-189.37442296208005	-183.3166666811497	1150	1100	0	2020-06-02 00:22:51.273030
AEXA1CPBHT85H	109	82	1	1012	244.22353095905572	6	-137	189.5	126.14963646573912	-144.06651180300014	197.2054087773073	1100	1050	0	2020-06-02 00:22:56.410118
AEXA1CPBHT85H	110	83	1	803	280.78735104432485	9	207	-163.5	320.9360781002372	218.01547939067518	-176.94854408144477	1050	1000	0	2020-06-02 00:23:01.125020
AEXA1CPBHT85H	111	84	1	680	152.37891715524592	9	127	-76.5	331.5610761915629	133.9906302235736	-72.56614503812962	1000	950	0	2020-06-02 00:23:09.055818
AEXA1CPBHT85H	112	85	1	730	124.8316246284117	2	-78	59.5	151.15214794731838	-109.34052251237937	60.2294333701434	950	900	0	2020-06-02 00:23:13.686741
AEXA1CPBHT85H	113	86	0	691	286.00973436632137	3	230	-65.5	349.10294277310277	280.8525279749041	-54.06871260164625	900	1100	0	2020-06-02 00:23:18.381652
AEXA1CPBHT85H	114	86	1	677	102.19938101459162	3	-100	-51.5	204.44324181519397	-93.03941673039184	-42.28924702846051	1100	1050	0	2020-06-02 00:23:23.155213
AEXA1CPBHT85H	115	87	1	867	224.02016116116053	9	146	-168.5	304.74387063274406	127.67107499700215	-184.07913845893071	1050	1000	0	2020-06-02 00:23:27.937338
AEXA1CPBHT85H	116	88	1	722	201.4226910302583	9	183	101.5	30.723789959473507	173.15104509363144	102.90683186676243	1000	950	0	2020-06-02 00:23:32.743734
AEXA1CPBHT85H	117	89	0	719	181.1903326666071	2	-32	-216.5	246.74816144074256	-71.5291126560712	-166.47378981230295	950	1150	0	2020-06-02 00:23:38.173634
AEXA1CPBHT85H	118	89	1	737	155.53637810307848	6	-18	-163.5	269.27999170015084	-1.9544988597288495	-155.5240973213833	1150	1100	0	2020-06-02 00:23:43.466372
AEXA1CPBHT85H	119	90	1	742	160.58516442706036	0	-52	129.5	108.32352361298615	-50.48512207948264	152.44293188825037	1100	1050	0	2020-06-02 00:23:50.028043
AEXA1CPBHT85H	120	91	1	702	107.51659433129102	8	-99	44.5	157.85254625577468	-99.58366682403742	40.532842960721474	1050	1000	0	2020-06-02 00:23:57.573412
AEXA1CPBHT85H	121	92	1	900	273.0276761226065	0	175	198.5	49.869944526885746	175.97310660495836	208.7524315564034	1000	950	0	2020-06-02 00:24:02.519659
AEXA1CPBHT85H	122	93	1	755	269.84260328095843	13	284	-3.5	1.1127187432085606	269.7917179721116	5.240177392160416	950	900	0	2020-06-02 00:24:07.238036
AEXA1CPBHT85H	123	94	1	803	205.68009345198675	13	-36	209.5	100.0082936104379	-35.74529308690516	202.5501786337135	900	850	0	2020-06-02 00:24:12.043601
AEXA1CPBHT85H	124	95	1	776	272.20623383974635	6	-190	-155.5	218.48283961801917	-213.08156125222607	-169.38855331908502	850	800	0	2020-06-02 00:24:17.163571
AEXA1CPBHT85H	125	96	0	0	275.48554589029493	3	0	0	329.56800860792447	237.53217447551853	-139.53763679884221	800	1000	0	2020-06-02 00:24:21.971168
AEXA1CPBHT85H	126	96	1	796	204.2571794121243	5	86	179.5	62.16424099010089	95.37556700762197	180.62252506088862	1000	950	0	2020-06-02 00:24:26.774473
AEXA1CPBHT85H	127	97	0	0	222.98100655094447	14	0	0	232.35619692308032	-136.1858052220221	-176.56147863705093	950	1150	0	2020-06-02 00:24:31.722495
AEXA1CPBHT85H	128	97	1	663	208.8769616232283	14	207	-34.5	356.00708891802435	208.369948985032	-14.544739837025151	1150	1100	0	2020-06-02 00:24:37.484635
AEXA1CPBHT85H	129	98	1	630	191.53279522498696	3	138	94.5	42.02190339707969	142.28760128246262	128.2148593883709	1100	1050	0	2020-06-02 00:24:42.345765
AEXA1CPBHT85H	130	99	1	754	114.69174603756454	6	-56	120.5	126.51015299661323	-68.2376003074566	92.18365643336676	1050	1000	0	2020-06-02 00:24:47.128668
AEXA1CPBHT85H	131	100	1	708	106.22343872503235	10	-93	9.5	178.6785437648499	-106.1951878819139	2.4496949393159877	1000	950	0	2020-06-02 00:24:51.810195
AEXA1CPBHT85H	132	101	1	611	206.6051930163233	2	174	143.5	39.48536701521902	159.4552038858501	131.3763438943031	950	900	0	2020-06-02 00:24:56.426670
AEXA1CPBHT85H	133	102	1	754	104.40647676023116	1	-80	-10.5	187.61149203375348	-103.48655057760062	-13.829180707272483	900	850	0	2020-06-02 00:25:01.203448
AEXA1CPBHT85H	134	103	1	708	204.9491095414321	10	83	-148.5	298.68259404115474	98.36676098185171	-179.80021645082965	850	800	0	2020-06-02 00:25:05.911746
AEXA1CPBHT85H	135	104	0	0	203.97564293802333	12	0	0	67.06653208502999	79.4815511519921	187.85299023026823	800	1000	0	2020-06-02 00:25:10.704446
AEXA1CPBHT85H	136	104	1	585	123.33408782861741	9	32	106.5	81.45969664878523	18.315737858532035	121.96651576237903	1000	950	0	2020-06-02 00:25:16.532656
AEXA1CPBHT85H	137	105	1	626	143.17895648966558	11	96	110.5	35.50384587762336	116.55862919436386	83.15226720781784	950	900	0	2020-06-02 00:25:21.125808
AEXA1CPBHT85H	138	106	1	610	172.36366960428785	0	160	68.5	24.28640511425425	157.1096388100788	70.89284866911956	900	850	0	2020-06-02 00:25:25.743621
AEXA1CPBHT85H	139	107	1	723	138.1438298841195	0	-9	-133.5	264.3392736477123	-13.626184286804614	-137.4701598050813	850	800	0	2020-06-02 00:25:30.492885
AEXA1CPBHT85H	140	108	1	719	138.05787383883094	6	141	-17.5	351.7755179206018	136.63797569661415	-19.749433572384778	800	750	0	2020-06-02 00:25:35.723128
AEXA1CPBHT85H	141	109	0	0	232.70252403142635	1	0	0	259.8529680856146	-40.99632247642172	-229.06279976025309	750	950	0	2020-06-02 00:25:40.462459
AEXA1CPBHT85H	142	109	1	735	174.62549882321818	10	-8	167.5	95.25707389709052	-15.999984987865156	173.8909581307949	950	900	0	2020-06-02 00:25:45.699579
AEXA1CPBHT85H	143	110	1	830	242.44385928305095	8	235	-11.5	358.7080658308514	242.38222841333192	-5.466283330308437	900	850	0	2020-06-02 00:25:51.080188
AEXA1CPBHT85H	144	111	0	0	263.15874448449745	8	0	0	89.96186970014557	0.1751319413245393	263.1586862094051	850	1050	0	2020-06-02 00:25:56.074484
AEXA1CPBHT85H	145	111	1	754	220.5163419321186	5	-186	113.5	149.21023975518145	-189.4348709815277	112.8799659609047	1050	1000	0	2020-06-02 00:26:00.809824
AEXA1CPBHT85H	146	112	0	0	141.9585590848588	12	0	0	317.5183606540898	104.6935563934357	-95.87226787316467	1000	1200	0	2020-06-02 00:26:06.138262
AEXA1CPBHT85H	147	112	1	656	192.26822740350326	5	9	166.5	97.96454466393416	-26.64074023935141	190.41360830671908	1200	1150	0	2020-06-02 00:26:10.865589
AEXA1CPBHT85H	148	113	0	0	285.76998894697664	10	0	0	45.34115390774198	200.86314565957483	203.26948442522203	1150	1350	0	2020-06-02 00:26:15.937092
AEXA1CPBHT85H	149	113	1	865	172.57464253475896	5	-138	-104.5	221.6238336320423	-129.0033158554524	-114.6305009336443	1350	1300	0	2020-06-02 00:26:20.833473
AEXA1CPBHT85H	150	114	1	843	257.0635568089664	2	62	-225.5	282.5984944737817	56.07008548083265	-250.8741073794759	1300	1250	0	2020-06-02 00:26:25.649619
AEXA1CPBHT85H	151	115	1	869	169.5970226756367	2	-80	-156.5	239.9458196467181	-84.93736246882003	-146.79507674741927	1250	1200	0	2020-06-02 00:26:30.534669
AEXA1CPBHT85H	152	116	1	639	228.2338796048755	10	-130	-167.5	226.52592856319274	-157.0308992061394	-165.62608639343048	1200	1150	0	2020-06-02 00:26:35.378712
AEXA1CPBHT85H	153	117	1	948	240.33223562373328	7	204	-95.5	328.4554562469202	204.81922990786458	-125.73251981826726	1150	1100	0	2020-06-02 00:26:40.337550
AEXA1CPBHT85H	154	118	1	747	276.4130338012375	13	202	-182.5	321.1890744431951	215.38614007060153	-173.24253496382252	1100	1050	0	2020-06-02 00:26:45.093526
AEXA1CPBHT85H	155	119	1	666	162.86241673987905	6	-122	-111.5	214.03292481946502	-134.966706420833	-91.14908087450316	1050	1000	0	2020-06-02 00:26:49.754213
AEXA1CPBHT85H	156	120	1	635	114.95425548431157	5	-23	103.5	100.2388368618559	-20.4333278979302	113.12364900836626	1000	950	0	2020-06-02 00:26:54.415587
AEXA1CPBHT85H	157	121	0	0	157.97578876886305	13	0	0	85.58661421762542	12.156547123761134	157.50735919052232	950	1150	0	2020-06-02 00:27:01.559501
AEXA1CPBHT85H	158	121	1	652	202.26834710932215	13	-111	198.5	125.63240549496874	-117.83805043404473	164.39792611903826	1150	1100	0	2020-06-02 00:27:06.586483
AEXA1CPBHT85H	159	122	1	674	123.96684526502901	1	-81	98.5	122.70772971708871	-66.98596123739607	104.3104008335972	1100	1050	0	2020-06-02 00:27:10.935007
AEXA1CPBHT85H	160	123	1	675	104.54979127981056	3	96	44.5	36.06310973418363	84.51481800126838	61.54595352144961	1050	1000	0	2020-06-02 00:27:15.565155
AEXA1CPBHT85H	161	124	1	595	114.51946511649167	8	98	106.5	48.337772147654974	76.12543907445641	85.55480942815885	1000	950	0	2020-06-02 00:27:20.162822
AEXA1CPBHT85H	162	125	1	832	271.00992852305603	11	118	216.5	60.56141712694541	133.19875542323186	236.017950401604	950	900	0	2020-06-02 00:27:25.341671
AEXA1CPBHT85H	163	126	1	850	275.6685793046322	14	249	-71.5	344.0644544608068	265.0749566330428	-75.68641213470737	900	850	0	2020-06-02 00:27:30.213517
AEXA1CPBHT85H	164	127	1	795	194.1241516905613	7	-167	32.5	169.54846195444338	-190.90337856607417	35.21485938688697	850	800	0	2020-06-02 00:27:35.167627
AEXA1CPBHT85H	165	128	1	643	273.20512704247005	3	-222	97.5	157.44290201105844	-252.30430957912964	104.80256108555231	800	750	0	2020-06-02 00:27:39.643541
AEXA1CPBHT85H	166	129	0	0	263.0444677903007	1	0	0	256.0176007531	-63.557808607477334	-255.2504593533532	750	950	0	2020-06-02 00:27:44.422861
AEXA1CPBHT85H	167	129	1	735	278.7818714664172	7	-113	-219.5	245.0859354305607	-117.43922060533417	-252.83860726148927	950	900	0	2020-06-02 00:27:49.908249
AEXA1CPBHT85H	168	130	0	626	276.85979250777234	1	-151	300.5	117.42070099510318	-127.49961641650813	245.75433367712975	900	1100	0	2020-06-02 00:27:54.540417
AEXA1CPBHT85H	169	130	0	592	251.33709251955887	2	-31	304.5	98.84543929494018	-38.64798350582116	248.34787586592938	1100	1300	0	2020-06-02 00:27:59.175010
AEXA1CPBHT85H	170	130	1	618	150.94216593366525	4	-162	-71.5	208.96865657380278	-132.0570050565458	-73.10598383334687	1300	1250	0	2020-06-02 00:28:03.800797
AEXA1CPBHT85H	171	131	1	700	125.4655066596027	0	124	5.5	359.7988785677425	125.46473368478674	-0.4404120302072867	1250	1200	0	2020-06-02 00:28:08.608664
AEXA1CPBHT85H	172	132	1	707	180.53295521551888	6	-195	39.5	169.67797746516865	-177.61125316208998	32.3479623630381	1200	1150	0	2020-06-02 00:28:13.215874
AEXA1CPBHT85H	173	133	1	722	292.70632526435827	8	-53	-250.5	254.89070191567956	-76.29717737217989	-282.5875679763751	1150	1100	0	2020-06-02 00:28:17.952360
AEXA1CPBHT85H	174	134	1	779	239.36609783207007	12	-102	-197.5	239.960066213333	-119.82750096582265	-207.21365496423712	1100	1050	0	2020-06-02 00:28:22.731358
AEXA1CPBHT85H	175	135	0	616	202.4092469007566	0	141	-210.5	306.58482993129275	120.63839956731844	-162.5296273938	1050	1250	0	2020-06-02 00:28:27.349360
AEXA1CPBHT85H	176	135	1	671	235.3692299014048	6	91	178.5	62.36775131779473	109.16301492112886	208.52364508062325	1250	1200	0	2020-06-02 00:28:33.001065
AEXA1CPBHT85H	177	136	1	802	293.7849880634387	4	53	-267.5	278.2521662301876	42.16697064127951	-290.74312682911744	1200	1150	0	2020-06-02 00:28:37.675640
AEXA1CPBHT85H	178	137	1	771	202.56791919442588	0	123	-139.5	306.2829619306809	119.87432519350516	-163.2908694512992	1150	1100	0	2020-06-02 00:28:42.432080
AEXA1CPBHT85H	179	138	1	595	127.42292480465687	2	18	145.5	85.49093607525015	10.017582902135532	127.02853930740163	1100	1050	0	2020-06-02 00:28:47.030699
AEXA1CPBHT85H	180	139	1	819	233.40868321593908	2	-43	-211.5	260.6363964407952	-37.97541104409051	-230.29867901625266	1050	1000	0	2020-06-02 00:28:51.867277
AEXA1CPBHT85H	181	140	1	834	190.65695653441526	8	-14	186.5	97.54634789826399	-25.038625844111095	189.00566735102024	1000	950	0	2020-06-02 00:28:56.741607
AEXA1CPBHT85H	182	141	1	739	230.74285093128063	3	-9	240.5	90.17816928239775	-0.7175261818842291	230.7417353061069	950	900	0	2020-06-02 00:29:01.453096
AEXA1CPBHT85H	183	142	1	668	105.48233645113227	9	66	-103.5	299.2978897044339	51.61781633140369	-91.98980563283814	900	850	0	2020-06-02 00:29:06.124786
AEXA1CPBHT85H	184	143	0	0	182.19857059013881	4	0	0	300.1330060339631	91.46532886945158	-157.57668844055857	850	1050	0	2020-06-02 00:29:11.054542
AEXA1CPBHT85H	185	143	1	850	246.5478607502051	9	265	-39.5	352.23090214449314	244.28477174558287	-33.32863534126467	1050	1000	0	2020-06-02 00:29:15.827649
AEXA1CPBHT85H	186	144	1	667	293.3798711992361	9	269	77.5	20.403385730244075	274.9736258744397	102.28027130558492	1000	950	0	2020-06-02 00:29:20.500125
AEXA1CPBHT85H	187	145	1	740	116.96442868027002	10	-1	-99.5	267.1364318337652	-5.843295914992263	-116.81837813183252	950	900	0	2020-06-02 00:29:25.364373
AEXA1CPBHT85H	188	146	1	778	255.79322727978138	13	-176	-160.5	219.16058260655606	-198.33672702133762	-161.53240491204636	900	850	0	2020-06-02 00:29:30.027727
AEXA1CPBHT85H	189	147	0	641	206.9131686450362	5	16	-258.5	273.9855517228734	14.38148236360323	-206.41277170697205	850	1050	0	2020-06-02 00:29:34.679484
AEXA1CPBHT85H	190	147	1	907	169.6512028883988	10	-107	81.5	143.75866045400147	-136.8294587814691	100.29571202723926	1050	1000	0	2020-06-02 00:29:39.582311
AEXA1CPBHT85H	191	148	1	622	100.726675633629	9	-73	107.5	117.24278010527914	-46.10883296839153	89.55355217128621	1000	950	0	2020-06-02 00:29:44.674851
AEXA1CPBHT85H	192	149	1	703	288.7235244842252	14	-124	256.5	115.46313057391535	-124.13096277402974	260.6775358011991	950	900	0	2020-06-02 00:29:49.703155
AEXA1CPBHT85H	193	150	0	0	296.540416413442	2	0	0	214.04715761315552	-245.7065819381113	-166.02558284477666	900	1100	0	2020-06-02 00:29:54.888949
AEXA1CPBHT85H	194	150	0	671	245.2060039105328	1	-305	34.5	175.26158246316126	-244.36794422234738	20.255670571865565	1100	1300	0	2020-06-02 00:29:59.294295
AEXA1CPBHT85H	195	150	0	626	199.87215679472132	12	-86	111.5	126.8305909142176	-119.81357092710337	159.97995900571308	1300	1500	0	2020-06-02 00:30:03.927981
AEXA1CPBHT85H	196	150	1	842	279.5839763873146	5	183	-234.5	312.0706576884325	187.33427893430357	-207.54052083558776	1500	1450	0	2020-06-02 00:30:08.835630
