A3HCHUTNXEEHI8	1	1	0	166	183.3108676947446	3	-1	6.5	112.87675630529014	-71.2621387796819	168.8922194523641	1500	1700	0	2020-05-30 12:53:21.967864
A3HCHUTNXEEHI8	2	1	0	237	283.70479781274855	1	-1	-3.5	39.511852100063	218.87626243079436	180.50372308154363	1700	1900	0	2020-05-30 12:53:37.541115
A3HCHUTNXEEHI8	3	1	0	279	167.73123019074615	14	-3	-3.5	334.51653659432213	151.41257494235222	-72.16645848749711	1900	2000	0	2020-05-30 12:53:43.655888
A3HCHUTNXEEHI8	4	1	0	789	273.3620552137803	10	-563	-83.5	89.50253865891764	2.373392023480801	273.35175185281827	2000	2000	0	2020-05-30 12:53:48.170163
A3HCHUTNXEEHI8	5	1	1	1099	219.26224849549573	13	-22	-210.5	265.0288906260125	-18.999822374701495	-218.4374976166645	2000	1950	0	2020-05-30 12:53:53.269665
A3HCHUTNXEEHI8	6	2	1	849	103.00960475597347	4	63	-57.5	324.82819914605983	84.20298679026263	-59.33663023445746	1950	1900	0	2020-05-30 12:53:58.147964
A3HCHUTNXEEHI8	7	3	0	73	266.74325602507594	3	-4	-3.5	24.064477746574156	243.55984172349685	108.76841515111074	1900	2000	0	2020-05-30 12:54:02.260906
A3HCHUTNXEEHI8	8	3	1	705	150.80731787442477	0	-76	106.5	118.68389068933874	-72.3840228382865	132.30041709013702	2000	1950	0	2020-05-30 12:54:06.998810
A3HCHUTNXEEHI8	9	4	0	282	224.61807529098942	1	1	1.5	150.0010083543753	-194.52693585945724	112.30561416313614	1950	2000	0	2020-05-30 12:54:11.787880
A3HCHUTNXEEHI8	10	4	0	247	199.54724912149393	5	-2	-1.5	46.89750387775508	136.3517493879877	145.69593361103446	2000	2000	0	2020-05-30 12:54:16.068179
A3HCHUTNXEEHI8	11	4	0	306	249.92522150553552	0	0	3.5	120.57220004514961	-127.1178966776373	215.18284478286026	2000	2000	0	2020-05-30 12:54:20.376837
A3HCHUTNXEEHI8	12	4	0	223	196.6794659799305	9	-2	-1.5	335.90792891751823	179.5468505742113	-80.28537094036795	2000	2000	0	2020-05-30 12:54:25.909728
A3HCHUTNXEEHI8	13	4	0	32	258.9983299341062	6	-2	-1.5	34.957883535806275	212.2681528223951	148.39934705390203	2000	2000	0	2020-05-30 12:54:30.821453
A3HCHUTNXEEHI8	14	4	0	16	162.96014317359058	7	-1	-1.5	310.4875819166988	105.80728737064959	-123.93880022987926	2000	2000	0	2020-05-30 12:54:35.280124
A3HCHUTNXEEHI8	15	4	0	133	287.93505007748524	7	-1	-1.5	110.6070794029654	-101.34084400899577	269.5118297935516	2000	2000	0	2020-05-30 12:54:39.410086
A3HCHUTNXEEHI8	16	4	0	18	226.14630504440902	6	-1	-1.5	274.75081602424666	18.72997993810421	-225.36933938927254	2000	2000	0	2020-05-30 12:54:43.461414
A3HCHUTNXEEHI8	17	4	0	261	111.14297578015164	8	3	3.5	333.7802872834981	99.7070766307732	-49.10458160917875	2000	2000	0	2020-05-30 12:55:09.520687
A3HCHUTNXEEHI8	18	4	0	292	240.07729348340266	12	-4	-1.5	244.0728568452195	-104.96848931131939	-215.91369363246807	2000	2000	0	2020-05-30 12:55:15.522791
A3HCHUTNXEEHI8	19	4	0	122	211.24820334424197	14	-4	-4.5	205.84915238834685	-190.11177872623523	-92.10491303788949	2000	2000	0	2020-05-30 12:55:20.503610
A3HCHUTNXEEHI8	20	4	0	304	214.11831020139743	12	7	-10.5	277.32391356676226	27.295499202283253	-212.37138810772043	2000	2000	0	2020-05-30 12:55:24.801687
A3HCHUTNXEEHI8	21	4	0	62	103.40169937738955	5	-2	-3.5	105.67946750594363	-27.94487163320783	99.55398326302961	2000	2000	0	2020-05-30 12:55:30.198796
A3HCHUTNXEEHI8	22	4	0	122	293.5212562786739	5	0	-0.5	1.5212063210503768	293.4178099628261	7.792091120477108	2000	2000	0	2020-05-30 12:55:38.613419
A3HCHUTNXEEHI8	23	4	0	170	253.0392912659185	13	-2	-1.5	207.28418364032646	-224.88710326362667	-115.99428309211305	2000	2000	0	2020-05-30 12:55:43.899071
A3HCHUTNXEEHI8	24	4	0	71	101.24970336937835	11	-2	-1.5	54.56389609307572	58.70404092945062	82.49447260841475	2000	2000	0	2020-05-30 12:55:47.414135
A3HCHUTNXEEHI8	25	4	0	131	140.686473136422	4	-1	-5.5	27.819460814558905	124.42628418729646	65.65655737934578	2000	2000	0	2020-05-30 12:55:52.985362
A3HCHUTNXEEHI8	26	4	0	219	144.06950249645152	11	0	4.5	331.04781198896944	126.06426729115286	-69.7411074038821	2000	2000	0	2020-05-30 12:55:57.179679
A3HCHUTNXEEHI8	27	4	0	237	199.22669336184597	11	-1	-1.5	243.86757773783512	-87.74885339130365	-178.86143820400892	2000	2000	0	2020-05-30 12:56:01.802041
A3HCHUTNXEEHI8	28	4	0	726	248.70767244789397	11	-131	123.5	135.07617875312184	-176.09654823334114	175.6289043260006	2000	2000	0	2020-05-30 12:56:07.268472
A3HCHUTNXEEHI8	29	4	0	2	269.8598715986486	12	-2	-2.5	332.93938356010807	240.31715738771044	-122.76813171311821	2000	2000	0	2020-05-30 12:56:11.287011
A3HCHUTNXEEHI8	30	4	0	42	287.32737634626585	9	-2	-3.5	45.603279610728286	201.02068096497197	205.29906727115844	2000	2000	0	2020-05-30 12:56:15.364110
A3HCHUTNXEEHI8	31	4	0	9	279.2346425931074	0	-2	-5.5	88.26514020496793	8.453658183075753	279.1066485905059	2000	2000	0	2020-05-30 12:56:19.452994
A3HCHUTNXEEHI8	32	4	0	530	151.23795949974186	10	-2	-3.5	321.2585193913053	117.96221219906242	-94.64584981259839	2000	2000	0	2020-05-30 12:56:26.919536
A3HCHUTNXEEHI8	33	4	0	70	246.33061714701023	10	-2	-3.5	6.491205561548181	244.75144569151118	27.84785047256226	2000	2000	0	2020-05-30 12:56:28.009888
A3HCHUTNXEEHI8	34	4	0	849	177.54972019155286	5	-3	-6.5	141.55816803191217	-139.063997573492	110.3861753979117	2000	2000	0	2020-05-30 12:56:32.894185
A3HCHUTNXEEHI8	35	4	0	0	159.1667574843454	7	0	0	207.29138465284026	-141.4492989631186	-72.98049404411235	2000	2000	0	2020-05-30 12:56:38.860428
A3HCHUTNXEEHI8	36	4	0	562	169.50863824576874	4	-2	-2.5	85.36399349533431	13.700589293962283	168.95405379254166	2000	2000	0	2020-05-30 12:56:43.449941
A3HCHUTNXEEHI8	37	4	0	830	275.2231110860431	2	-2	-2.5	112.05194336573395	-103.3316936591769	255.088851111542	2000	2000	0	2020-05-30 12:56:48.293418
A3HCHUTNXEEHI8	38	4	0	454	283.34584601876963	7	-2	-2.5	28.807289028783778	248.2804900546927	136.53448910181615	2000	2000	0	2020-05-30 12:56:52.790027
A3HCHUTNXEEHI8	39	4	0	883	201.4232636586292	8	-2	-2.5	49.315490284698654	131.30649890032933	152.74139743184057	2000	2000	0	2020-05-30 12:56:57.644952
A3HCHUTNXEEHI8	40	4	0	343	104.23357741007702	3	-2	-2.5	157.3942283766183	-96.22546810067352	40.066169626117016	2000	2000	0	2020-05-30 12:57:02.048175
A3HCHUTNXEEHI8	41	4	0	146	209.58319379169032	9	-2	-2.5	310.21180439330146	135.31006110111673	-160.05093715669793	2000	2000	0	2020-05-30 12:57:06.132004
A3HCHUTNXEEHI8	42	4	0	461	213.14836558122678	1	-2	-2.5	166.00057599545755	-206.8174665621398	51.56317750843614	2000	2000	0	2020-05-30 12:57:10.653475
A3HCHUTNXEEHI8	43	4	0	520	297.11242198013554	8	-2	-2.5	240.12543373193097	-147.99255103316992	-257.63151230700936	2000	2000	0	2020-05-30 12:57:15.235453
A3HCHUTNXEEHI8	44	4	0	150	243.0873628766299	13	-2	-2.5	260.4315063168679	-40.40756959327944	-239.70543237456806	2000	2000	0	2020-05-30 12:57:19.338383
A3HCHUTNXEEHI8	45	4	0	149	206.03394058957107	14	-2	-2.5	232.79183110658767	-124.59133499256471	-164.09443598013135	2000	2000	0	2020-05-30 12:57:23.476071
A3HCHUTNXEEHI8	46	4	0	748	217.74524231046107	5	-2	-2.5	37.239354022914256	173.35013531725372	131.76767864059545	2000	2000	0	2020-05-30 12:57:28.189011
A3HCHUTNXEEHI8	47	4	0	258	172.06046814102746	5	-2	-2.5	193.37021296514206	-167.39698048864338	-39.787631497668606	2000	2000	0	2020-05-30 12:57:32.485710
A3HCHUTNXEEHI8	48	4	0	208	254.52328456831003	0	-2	-2.5	220.8885964734815	-192.4154713707777	-166.60848947338295	2000	2000	0	2020-05-30 12:57:36.741609
A3HCHUTNXEEHI8	49	4	0	255	133.03658912878547	4	-2	-2.5	266.73297722708503	-7.581676809581543	-132.8203757854055	2000	2000	0	2020-05-30 12:57:41.028092
A3HCHUTNXEEHI8	50	4	0	118	230.4824715795208	9	-2	-2.5	247.29501823291824	-88.96306580081371	-212.62112460601062	2000	2000	0	2020-05-30 12:57:45.097466
A3HCHUTNXEEHI8	51	4	0	271	154.89887730575802	2	-2	-2.5	329.7464651739476	133.8023354197712	-78.04227845725241	2000	2000	0	2020-05-30 12:57:49.415295
A3HCHUTNXEEHI8	52	4	0	79	220.3383546784459	1	-2	-2.5	196.8897645554497	-210.83417002247916	-64.01518017889957	2000	2000	0	2020-05-30 12:57:53.482696
A3HCHUTNXEEHI8	53	4	0	249	231.2801861645891	3	-2	-2.5	155.47315052908942	-210.41104432473165	96.00894197158308	2000	2000	0	2020-05-30 12:57:57.964225
A3HCHUTNXEEHI8	54	4	0	1320	261.97979826715493	8	-2	-2.5	341.3131014818702	248.16915742536503	-83.93738143928239	2000	2000	0	2020-05-30 12:58:03.082410
A3HCHUTNXEEHI8	55	4	0	490	285.78796978516436	1	-2	-2.5	100.98484938089923	-54.456731546086985	280.55164954646665	2000	2000	0	2020-05-30 12:58:07.634555
A3HCHUTNXEEHI8	56	4	0	318	152.09256896747144	10	-2	-2.5	16.34134641764355	145.94841005911687	42.79265283130886	2000	2000	0	2020-05-30 12:58:11.905171
A3HCHUTNXEEHI8	57	4	0	192	265.1318616283971	9	-2	-2.5	4.488357542276091	264.31877007691224	20.74829717272956	2000	2000	0	2020-05-30 12:58:16.138148
A3HCHUTNXEEHI8	58	4	0	249	213.7953837668879	11	-2	-2.5	195.96587550288038	-205.54837454213148	-58.8075832109985	2000	2000	0	2020-05-30 12:58:20.342866
A3HCHUTNXEEHI8	59	4	0	260	147.5636524930143	9	-2	-2.5	304.640814953458	83.87960204323635	-121.40528776847978	2000	2000	0	2020-05-30 12:58:24.622868
A3HCHUTNXEEHI8	60	4	0	125	151.82928631715683	4	-2	-2.5	122.08717428069161	-80.65307380371469	128.63597424355964	2000	2000	0	2020-05-30 12:58:28.760870
A3HCHUTNXEEHI8	61	4	0	222	282.632719517346	11	-2	-2.5	118.85612584775637	-136.40190134867206	247.53944221121188	2000	2000	0	2020-05-30 12:58:32.995460
A3HCHUTNXEEHI8	62	4	0	232	273.00258227169985	10	-2	-2.5	117.95729707611261	-127.98725945799697	241.14242957938285	2000	2000	0	2020-05-30 12:58:37.254153
A3HCHUTNXEEHI8	63	4	0	178	178.54552112554939	12	-2	-2.5	0.898249748656843	178.52357999440167	2.799017680628229	2000	2000	0	2020-05-30 12:58:41.474928
A3HCHUTNXEEHI8	64	4	0	344	180.27451510486588	4	-2	-2.5	245.86184721918391	-73.72113904040441	-164.51168485818835	2000	2000	0	2020-05-30 12:58:45.818327
A3HCHUTNXEEHI8	65	4	0	609	190.56030384009517	10	-2	-2.5	59.55066049577819	96.57144926359113	164.2777665624872	2000	2000	0	2020-05-30 12:58:50.432425
A3HCHUTNXEEHI8	66	4	0	546	176.56890346928068	12	-2	-2.5	341.9288336469033	167.85910495556948	-54.7713296886179	2000	2000	0	2020-05-30 12:58:55.003608
A3HCHUTNXEEHI8	67	4	1	504	146.51632347702414	11	-133	-27.5	192.5387692269549	-143.0218109408072	-31.80871956611867	2000	1950	0	2020-05-30 12:58:59.502566
A3HCHUTNXEEHI8	68	5	0	610	151.0053097953366	6	-20	321.5	101.7350076011943	-30.712299579063846	147.8491063244936	1950	2000	0	2020-05-30 12:59:04.138442
A3HCHUTNXEEHI8	69	5	1	1002	256.0432842206541	3	-231	126.5	150.00584712563753	-221.7530522614678	127.99901252439948	2000	1950	0	2020-05-30 12:59:09.153203
A3HCHUTNXEEHI8	70	6	0	60	171.24313955166986	13	-6	-0.5	200.53114025868504	-160.36606869900208	-60.057779292441595	1950	2000	0	2020-05-30 12:59:17.337028
A3HCHUTNXEEHI8	72	6	0	38	135.79102285397528	13	-1	-2.5	102.76922625197312	-30.01317142303627	132.43266752905146	2000	2000	0	2020-05-30 12:59:34.789567
A3HCHUTNXEEHI8	73	6	0	559	181.88709117750494	10	-2	-2.5	202.1834263696977	-168.4237799445801	-68.67564550984324	2000	2000	0	2020-05-30 12:59:39.343507
A3HCHUTNXEEHI8	74	6	0	73	261.8877728302353	1	-2	-2.5	264.55599130778864	-24.84607165874914	-260.70649834844784	2000	2000	0	2020-05-30 12:59:43.427334
A3HCHUTNXEEHI8	75	6	0	148	121.3654152660797	12	-2	-2.5	350.04085925114526	119.53660060786805	-20.989643584944666	2000	2000	0	2020-05-30 12:59:47.576251
A3HCHUTNXEEHI8	76	6	0	44	248.14407020830495	13	-2	-2.5	105.90979537272095	-68.02215463593217	238.63877735655097	2000	2000	0	2020-05-30 12:59:51.636472
A3HCHUTNXEEHI8	77	6	0	713	128.17337580816388	6	-2	-2.5	162.9385864358919	-122.53257096595527	37.605628814499866	2000	2000	0	2020-05-30 12:59:56.348099
A3HCHUTNXEEHI8	78	6	0	109	290.951283083645	11	-3	-3.5	250.37363495782083	-97.72617996897016	-274.04788427698503	2000	2000	0	2020-05-30 13:00:15.500876
A3HCHUTNXEEHI8	79	6	0	392	295.6073510445568	10	-2	-1.5	332.7934172579617	262.90249216852646	-135.15171328236175	2000	2000	0	2020-05-30 13:00:19.924882
A3HCHUTNXEEHI8	80	6	0	49	292.42690630854133	6	-3	-1.5	118.10271938660861	-137.74879035394827	257.95109282421816	2000	2000	0	2020-05-30 13:00:26.440421
A3HCHUTNXEEHI8	81	6	1	908	233.29041898218676	9	124	-152.5	314.02851785834645	162.14064890610823	-167.73440184169255	2000	1950	0	2020-05-30 13:00:35.562487
A3HCHUTNXEEHI8	82	7	0	192	261.4942173504967	7	-5	1.5	58.81486196540802	135.4030442849827	223.70793751252504	1950	2000	0	2020-05-30 13:00:39.760071
A3HCHUTNXEEHI8	83	7	0	53	232.38941415289435	14	-3	-3.5	149.65311135558858	-200.547968711613	117.411038901678	2000	2000	0	2020-05-30 13:00:54.527790
A3HCHUTNXEEHI8	84	7	0	272	260.4513286711377	12	-3	-2.5	31.925111447609495	221.0554616072365	137.72936324608693	2000	2000	0	2020-05-30 13:00:58.820565
A3HCHUTNXEEHI8	85	7	0	650	249.53835197396108	11	-290	78.5	157.8326560483854	-231.09392104285962	94.15406928496006	2000	2000	0	2020-05-30 13:01:04.055337
A3HCHUTNXEEHI8	86	7	0	7	279.97962592457003	11	-3	-0.5	106.21715366672751	-78.19231624945611	268.83926910406376	2000	2000	0	2020-05-30 13:01:07.470243
A3HCHUTNXEEHI8	87	7	0	128	223.87444355905092	6	-4	-1.5	357.32457298008416	223.6304172995614	-10.450020923362231	2000	2000	0	2020-05-30 13:01:11.621667
A3HCHUTNXEEHI8	88	7	0	63	279.6854519588332	0	-2	-2.5	332.257806723811	247.53590869837467	-130.19188124567032	2000	2000	0	2020-05-30 13:01:15.674385
A3HCHUTNXEEHI8	89	7	0	134	111.3959839770354	12	-3	-2.5	198.60918077816171	-105.57189999138187	-35.54770285716918	2000	2000	0	2020-05-30 13:01:22.301834
A3HCHUTNXEEHI8	90	7	0	249	102.87806142521836	2	-3	-5.5	257.5708846853809	-22.142610110377316	-100.4669116680254	2000	2000	0	2020-05-30 13:01:25.882076
A3HCHUTNXEEHI8	91	7	0	0	169.58887437066818	1	0	0	153.81890059862536	-152.18972807273607	74.82428068118614	2000	2000	0	2020-05-30 13:01:32.195297
A3HCHUTNXEEHI8	92	7	0	49	238.98212589445467	0	-3	-2.5	243.99699705600128	-104.77412616046124	-214.79022087689359	2000	2000	0	2020-05-30 13:01:36.284913
A3HCHUTNXEEHI8	93	7	0	261	293.0138442085174	3	-2	0.5	271.2655758514764	6.4716999137710625	-292.9423663420493	2000	2000	0	2020-05-30 13:01:40.522524
A3HCHUTNXEEHI8	94	7	0	303	190.39147403311165	7	-1	3.5	36.34427266166809	153.3547330943251	112.83279320334732	2000	2000	0	2020-05-30 13:01:44.831628
A3HCHUTNXEEHI8	95	7	0	1	201.95033472616726	6	0	-3.5	211.59953222283443	-172.00740337375333	-105.81772479424185	2000	2000	0	2020-05-30 13:01:48.846242
A3HCHUTNXEEHI8	96	7	0	623	179.45839065911474	7	86	88.5	32.20328635067007	151.85097846966494	95.63782889508103	2000	2000	0	2020-05-30 13:01:53.461440
A3HCHUTNXEEHI8	97	7	0	610	292.9490509314559	2	-105	148.5	109.17584609910298	-96.22453574917948	276.69475087448916	2000	2000	0	2020-05-30 13:01:58.134770
A3HCHUTNXEEHI8	98	7	0	115	201.63784607908576	14	0	-0.5	26.58538538680757	180.3183578352859	90.23918660426233	2000	2000	0	2020-05-30 13:02:02.293508
A3HCHUTNXEEHI8	99	7	0	305	206.34318132681756	12	13	-7.5	208.12730804564484	-181.97452091080658	-97.27683290154098	2000	2000	0	2020-05-30 13:02:06.616399
A3HCHUTNXEEHI8	100	7	0	17	103.08252077335874	12	-1	-1.5	138.16623987134827	-76.80504747700569	68.75311462795585	2000	2000	0	2020-05-30 13:02:10.592945
A3HCHUTNXEEHI8	101	7	1	736	275.1899502298827	8	115	198.5	60.12106590135407	137.09109535755857	238.6116935131011	2000	1950	0	2020-05-30 13:02:15.385689
A3HCHUTNXEEHI8	102	8	0	820	193.45566675390282	8	1	2.5	185.9057270613062	-192.42890803966682	-19.905033279513713	1950	2000	0	2020-05-30 13:02:20.299733
A3HCHUTNXEEHI8	103	8	0	692	234.43911221245156	2	165	-348.5	295.04991613831686	99.26332001149825	-212.38759529515218	2000	2000	0	2020-05-30 13:02:24.942439
A3HCHUTNXEEHI8	104	8	1	634	247.63499600823496	13	-85	-200.5	244.21976423467947	-107.70153817612648	-222.98760037835046	2000	1950	0	2020-05-30 13:02:29.565754
A3HCHUTNXEEHI8	105	9	0	289	296.5708560275997	0	-3	-0.5	37.977845432173105	233.7716073237512	182.49687190254286	1950	2000	0	2020-05-30 13:02:33.853969
A3HCHUTNXEEHI8	106	9	1	612	280.4549646476983	2	-62	256.5	102.3837213291293	-60.145763099580805	273.9296887464205	2000	1950	0	2020-05-30 13:02:38.494583
A3HCHUTNXEEHI8	107	10	0	213	293.25964828955716	9	1	1.5	66.95846839465088	114.78131780680542	269.8637997165383	1950	2000	0	2020-05-30 13:02:43.607548
A3HCHUTNXEEHI8	108	10	0	630	100.43135159873219	1	46	-162.5	272.5150907673343	4.407180668932957	-100.33460590693298	2000	2000	0	2020-05-30 13:02:53.595913
A3HCHUTNXEEHI8	109	10	1	665	102.53793517606127	6	-10	68.5	104.73864143322604	-26.086699853658807	99.16406728707359	2000	1950	0	2020-05-30 13:02:58.278659
A3HCHUTNXEEHI8	110	11	0	588	159.92353845170695	5	504	-248.5	330.5947923104925	139.32045923538885	-78.5197286632789	1950	2000	0	2020-05-30 13:03:02.926176
A3HCHUTNXEEHI8	111	11	1	563	238.720168762026	11	-150	-172.5	239.82286733130468	-119.99865263675748	-206.3677357028782	2000	1950	0	2020-05-30 13:03:07.520146
A3HCHUTNXEEHI8	112	12	0	933	126.12539138811059	13	64	35.5	17.272522281707204	120.43755292330015	37.44876765197162	1950	2000	0	2020-05-30 13:03:12.414524
A3HCHUTNXEEHI8	113	12	0	702	227.98929604007833	7	158	-33.5	343.0003668742417	218.02767492695287	-66.65622307629982	2000	2000	0	2020-05-30 13:03:18.393340
A3HCHUTNXEEHI8	114	12	1	1850	284.4550199231301	5	269	-15.5	354.87291603143774	283.3168964443797	-25.42035697217791	2000	1950	0	2020-05-30 13:03:24.299156
A3HCHUTNXEEHI8	115	13	1	921	183.1277546450662	2	-118	-154.5	223.41882140118477	-133.01464803033087	-125.86849459142174	1950	1900	0	2020-05-30 13:03:32.189494
A3HCHUTNXEEHI8	116	14	0	902	199.7159011645742	13	127	-44.5	348.50557277057857	195.71041725451943	-39.797911453239394	1900	2000	0	2020-05-30 13:03:34.117360
A3HCHUTNXEEHI8	117	14	1	777	272.9021034243325	14	60	-227.5	290.1026172035537	93.79716002090902	-256.27651243420075	2000	1950	0	2020-05-30 13:03:38.945226
A3HCHUTNXEEHI8	118	15	1	1292	167.27502212633715	6	-160	-63.5	203.73564793308984	-153.1256185503468	-67.33110700813012	1950	1900	0	2020-05-30 13:03:44.335116
A3HCHUTNXEEHI8	119	16	1	872	160.20036347243783	9	-159	-5.5	180.990628402611	-160.17641934755076	-2.769682598919046	1900	1850	0	2020-05-30 13:03:49.179888
A3HCHUTNXEEHI8	120	17	0	0	172.8357849672692	13	0	0	267.50910767810257	-7.511543310540694	-172.67247980597833	1850	2000	0	2020-05-30 13:03:55.025648
A3HCHUTNXEEHI8	121	17	1	1082	239.97706657577785	11	196	-101.5	335.2996396931817	218.02049679317787	-100.27988562204904	2000	1950	0	2020-05-30 13:04:00.120327
A3HCHUTNXEEHI8	122	18	1	728	257.05990985809103	3	225	-34.5	349.91845647164257	253.090806938756	-44.99822995784647	1950	1900	0	2020-05-30 13:04:04.868427
A3HCHUTNXEEHI8	123	19	1	1027	139.64067612343158	11	68	96.5	56.026868683045706	78.03177778229363	115.80397266218401	1900	1850	0	2020-05-30 13:04:09.905679
A3HCHUTNXEEHI8	124	20	0	75	190.71485227131765	14	-2	0.5	146.31342396914485	-158.69079528595324	105.779895861086	1850	2000	0	2020-05-30 13:04:13.986200
A3HCHUTNXEEHI8	125	20	0	404	214.34165070637894	8	-4	-0.5	225.07448593220568	-151.36527176726176	-151.75934149289904	2000	2000	0	2020-05-30 13:04:21.593454
A3HCHUTNXEEHI8	126	20	0	53	257.51019362958823	3	0	-1.5	8.662289937367387	254.57283336843878	38.783660656430065	2000	2000	0	2020-05-30 13:04:28.585624
A3HCHUTNXEEHI8	127	20	0	244	218.1795470165028	13	-3	-2.5	268.7845862696764	-4.627889381632743	-218.130459533275	2000	2000	0	2020-05-30 13:04:30.858053
A3HCHUTNXEEHI8	128	20	1	1428	297.2401531512734	13	122	-281.5	295.7006950555736	128.90414183277937	-267.83470810137203	2000	1950	0	2020-05-30 13:04:37.446908
A3HCHUTNXEEHI8	129	21	1	1098	116.63777734222593	2	23	-119.5	284.2764298952314	28.762918125184495	-113.03568305742486	1950	1900	0	2020-05-30 13:04:42.562450
A3HCHUTNXEEHI8	130	22	0	692	158.8461569811264	3	25	95.5	83.56700164966223	17.797322670091262	157.8459910591628	1900	2000	0	2020-05-30 13:04:47.274376
A3HCHUTNXEEHI8	131	22	1	728	221.37952371405066	8	84	201.5	69.09174045814139	79.00430104251615	206.80235476571198	2000	1950	0	2020-05-30 13:04:52.059133
A3HCHUTNXEEHI8	132	23	1	1466	259.4133180460667	12	218	-35.5	352.1968276286359	257.0112349288131	-35.220657291371026	1950	1900	0	2020-05-30 13:04:57.529134
A3HCHUTNXEEHI8	133	24	1	685	232.32516883478405	8	-239	-10.5	179.01416418394166	-232.29077984079956	3.9972084088905016	1900	1850	0	2020-05-30 13:05:03.329958
A3HCHUTNXEEHI8	134	25	0	638	276.639837493408	5	-119	127.5	139.77784459445786	-211.22734727791868	178.64100159345477	1850	2000	0	2020-05-30 13:05:08.005586
A3HCHUTNXEEHI8	135	25	1	664	197.5085900779761	10	40	-187.5	288.9127116975039	64.01792793366337	-186.84578683414372	2000	1950	0	2020-05-30 13:05:12.631745
A3HCHUTNXEEHI8	136	26	0	166	161.69296820896793	1	-2	-4.5	299.60947299876295	79.89017009025898	-140.57800927305738	1950	2000	0	2020-05-30 13:05:16.809226
A3HCHUTNXEEHI8	137	26	0	271	143.31355575907287	12	-2	-3.5	282.7031215418297	31.5145580875488	-139.8056075157767	2000	2000	0	2020-05-30 13:05:23.549284
A3HCHUTNXEEHI8	138	26	1	1316	174.01420258596784	3	-58	-149.5	251.94018563064725	-53.946088749240886	-165.44111402637884	2000	1950	0	2020-05-30 13:05:31.100905
A3HCHUTNXEEHI8	139	27	0	0	260.3586466861697	5	0	0	247.04613760532385	-101.53720678102295	-239.74323878550058	1950	2000	0	2020-05-30 13:05:45.229880
A3HCHUTNXEEHI8	140	27	0	0	238.48249935014834	1	0	0	214.15500108643607	-197.34945943813477	-133.89209594210368	2000	2000	0	2020-05-30 13:05:51.305375
A3HCHUTNXEEHI8	141	27	0	0	224.22027503470895	14	0	0	270.20834033584265	0.8153135336866428	-224.21879270141991	2000	2000	0	2020-05-30 13:05:57.365109
A3HCHUTNXEEHI8	142	27	1	925	187.5195911653318	0	77	167.5	70.27096990470024	63.30140669270898	176.51212134450554	2000	1950	0	2020-05-30 13:06:03.968590
A3HCHUTNXEEHI8	143	28	1	761	220.89075136891182	3	118	137.5	47.38744740441773	149.5512603678119	162.564278249317	1950	1900	0	2020-05-30 13:06:09.266085
A3HCHUTNXEEHI8	144	29	1	686	121.42940297160663	6	-49	74.5	138.89195185449643	-91.49353922083326	79.8375362025074	1900	1850	0	2020-05-30 13:06:14.043150
A3HCHUTNXEEHI8	145	30	1	663	146.44907142567334	1	-110	93.5	136.10108985023174	-105.52597279498843	101.5460466345851	1850	1800	0	2020-05-30 13:06:18.736633
A3HCHUTNXEEHI8	146	31	1	844	103.9817710266421	14	-8	-128.5	278.2241332538384	14.874157647461764	-102.91242947339005	1800	1750	0	2020-05-30 13:06:38.597947
A3HCHUTNXEEHI8	147	32	0	0	267.36768992539015	9	0	0	167.46884895698088	-260.99850685445557	58.010869979550314	1750	1950	0	2020-05-30 13:06:44.359389
A3HCHUTNXEEHI8	148	32	0	5	105.46332214973924	2	-6	-2.5	232.9357988941356	-63.56374961627069	-84.15558242671563	1950	2000	0	2020-05-30 13:06:48.475220
A3HCHUTNXEEHI8	149	32	1	801	175.88467788409523	12	-17	-196.5	268.4588696198913	-4.7303403301607965	-175.8210561757402	2000	1950	0	2020-05-30 13:06:53.280135
A3HCHUTNXEEHI8	150	33	1	919	285.4548865478017	13	-14	-269.5	267.4434776393595	-12.732694759953453	-285.1707746915315	1950	1900	0	2020-05-30 13:06:58.227161
A3HCHUTNXEEHI8	151	34	1	1021	234.81101310621005	9	-198	86.5	155.51689932224198	-213.6976391127381	97.31151480480969	1900	1850	0	2020-05-30 13:07:09.365967
A3HCHUTNXEEHI8	152	35	1	668	148.54060738840548	14	112	110.5	52.06042852912024	91.32722704899068	117.14798181299808	1850	1800	0	2020-05-30 13:07:14.970909
A3HCHUTNXEEHI8	153	36	1	1089	257.978431882417	5	29	-278.5	277.5604096685208	33.942595578192595	-255.73574549117322	1800	1750	0	2020-05-30 13:07:19.119676
A3HCHUTNXEEHI8	154	37	0	981	248.7370050639597	5	-188	-28.5	186.51568230093926	-247.13037142279	-28.225470919404884	1750	1950	0	2020-05-30 13:07:24.980713
A3HCHUTNXEEHI8	155	37	0	86	127.54682439030636	2	-4	0.5	81.69335694968902	18.426808174731608	126.20873643509506	1950	2000	0	2020-05-30 13:07:30.339403
A3HCHUTNXEEHI8	156	37	1	640	211.73889356896373	4	-104	182.5	118.6403944503014	-101.48872388021614	185.83163878891614	2000	1950	0	2020-05-30 13:07:34.845397
A3HCHUTNXEEHI8	157	38	1	1146	255.1098980940235	3	-224	128.5	153.27067411033406	-227.84918472001837	114.74235978036182	1950	1900	0	2020-05-30 13:07:40.980155
A3HCHUTNXEEHI8	158	39	1	1814	282.07905421021906	7	189	203.5	46.90485126690937	192.71978010789223	205.97980284313647	1900	1850	0	2020-05-30 13:07:47.610374
A3HCHUTNXEEHI8	159	40	1	1161	153.4808436931608	4	-65	157.5	114.09539317145361	-62.659638510473904	140.10759823257692	1850	1800	0	2020-05-30 13:07:52.788334
A3HCHUTNXEEHI8	160	41	0	73	205.59906207971193	7	0	-0.5	116.28318823609904	-91.04093500419235	184.34349047801948	1800	2000	0	2020-05-30 13:07:56.925749
A3HCHUTNXEEHI8	161	41	0	673	248.49600194189043	4	-146	-75.5	200.11624091632638	-233.33695099989436	-85.46420466591204	2000	2000	0	2020-05-30 13:08:01.519586
A3HCHUTNXEEHI8	162	41	1	718	291.3070254318115	3	307	11.5	2.839094776323563	290.94946733639733	14.4288087726164	2000	1950	0	2020-05-30 13:08:06.334912
A3HCHUTNXEEHI8	163	42	0	624	229.1947789369666	5	-46	176.5	96.5062453839256	-25.970407613984182	227.71865233293585	1950	2000	0	2020-05-30 13:08:10.940654
A3HCHUTNXEEHI8	164	42	1	1006	173.0745203287905	9	137	131.5	50.24047322240961	110.69272253986297	133.04852785263665	2000	1950	0	2020-05-30 13:08:15.910309
A3HCHUTNXEEHI8	165	43	1	1367	154.89818872837662	8	-159	30.5	171.9654625188253	-153.37770753427586	21.650120158140616	1950	1900	0	2020-05-30 13:08:26.285663
A3HCHUTNXEEHI8	166	44	1	780	129.19449443536112	7	-103	-4.5	186.84427448408545	-128.27381786767137	-15.396267146942758	1900	1850	0	2020-05-30 13:08:30.381153
A3HCHUTNXEEHI8	167	45	1	1560	242.30142876688805	10	229	-22.5	354.6509879488617	241.24628311671597	-22.587900850779583	1850	1800	0	2020-05-30 13:08:38.212811
A3HCHUTNXEEHI8	168	46	0	167	181.41203300298866	11	-2	2.5	251.68915565285806	-56.99460802488264	-172.22642182420046	1800	2000	0	2020-05-30 13:08:42.373462
A3HCHUTNXEEHI8	169	46	0	87	215.1071911739133	9	-7	-3.5	177.0605257356535	-214.82416686788756	11.030912212889504	2000	2000	1	2020-05-30 13:09:08.600643
A3HCHUTNXEEHI8	1	1	0	0	276.3808309572541	8	0	0	243.5352129345859	-123.16848679275004	-247.41844632485757	1500	1700	0	2020-05-30 13:09:58.769595
A3HCHUTNXEEHI8	2	1	0	0	165.95526762137666	8	0	0	246.51275127534225	-66.14063644822626	-152.20567355229014	1700	1900	0	2020-05-30 13:10:04.511875
A3HCHUTNXEEHI8	3	1	0	0	133.18461870575803	4	0	0	28.886122727193317	116.6139954546748	64.33753744040284	1900	2000	0	2020-05-30 13:10:10.388450
A3HCHUTNXEEHI8	4	1	0	0	100.35328831366499	13	0	0	132.43154728646218	-67.70925494598528	74.06915194617216	2000	2000	0	2020-05-30 13:10:16.427187
A3HCHUTNXEEHI8	5	1	0	0	219.5816484832933	1	0	0	207.36630243841495	-195.0073638168291	-100.9367544943438	2000	2000	0	2020-05-30 13:10:22.423585
A3HCHUTNXEEHI8	6	1	0	0	277.1688935740842	8	0	0	216.9116572540217	-221.61384846816114	-166.4629019698171	2000	2000	0	2020-05-30 13:10:28.430686
A3HCHUTNXEEHI8	7	1	0	0	265.5690071584229	3	0	0	94.51721087568684	-20.91583062991806	264.7440756507519	2000	2000	0	2020-05-30 13:10:34.435940
A3HCHUTNXEEHI8	8	1	0	0	127.57462523198164	14	0	0	11.069921686139983	125.20092023805958	24.495194929283805	2000	2000	0	2020-05-30 13:10:40.472578
A3HCHUTNXEEHI8	9	1	0	0	152.7818033008749	0	0	0	261.89277454289044	-21.54621892739949	-151.25488378825924	2000	2000	0	2020-05-30 13:10:46.471164
A3HCHUTNXEEHI8	10	1	0	0	280.3134259422841	5	0	0	24.11480109209764	255.85009866922977	114.52660727728633	2000	2000	0	2020-05-30 13:10:52.502253
A3HCHUTNXEEHI8	11	1	0	0	217.9515325167997	5	0	0	351.52092315358726	215.56927304181252	-32.136568681893664	2000	2000	0	2020-05-30 13:10:58.526708
A3HCHUTNXEEHI8	12	1	0	0	213.80284500151188	2	0	0	136.35431683867594	-154.71239586068165	147.56602284329628	2000	2000	0	2020-05-30 13:11:04.483816
A3HCHUTNXEEHI8	13	1	0	0	259.9089217297761	13	0	0	194.80002812021894	-251.28599185041645	-66.39275483429887	2000	2000	0	2020-05-30 13:11:10.529216
A3HCHUTNXEEHI8	14	1	0	0	277.184921628982	2	0	0	170.10555409827424	-273.0620697422485	47.62968451023286	2000	2000	0	2020-05-30 13:11:16.524871
A3HCHUTNXEEHI8	15	1	0	0	123.28716001329116	2	0	0	163.69230937583555	-118.3270229539215	34.618484412304845	2000	2000	0	2020-05-30 13:11:22.534391
A3HCHUTNXEEHI8	16	1	0	0	114.21617675919494	12	0	0	100.91176674177889	-21.620791293676245	112.15113203763462	2000	2000	0	2020-05-30 13:11:28.557443
A3HCHUTNXEEHI8	17	1	0	0	174.71180836413183	4	0	0	201.82582501991644	-162.18817685243016	-64.95545605374473	2000	2000	0	2020-05-30 13:11:34.552648
A3HCHUTNXEEHI8	18	1	0	0	267.42134651805554	5	0	0	129.3096801109639	-169.41452610759902	206.91277127637045	2000	2000	0	2020-05-30 13:11:40.577108
A3HCHUTNXEEHI8	19	1	0	0	266.87680165923075	12	0	0	345.05309846776964	257.8470971911895	-68.83387054305211	2000	2000	0	2020-05-30 13:11:46.549760
A3HCHUTNXEEHI8	20	1	0	0	165.2420806944671	8	0	0	4.0224881990708194	164.83502244189648	11.591402366247747	2000	2000	0	2020-05-30 13:11:52.563030
A3HCHUTNXEEHI8	21	1	0	0	242.2565368785707	2	0	0	56.30848137690216	134.38485353771543	201.56621939215177	2000	2000	0	2020-05-30 13:11:58.563001
A3HCHUTNXEEHI8	22	1	0	0	271.5055675324045	8	0	0	338.00789141483165	251.7495845843968	-101.6731029460431	2000	2000	0	2020-05-30 13:12:04.595897
A3HCHUTNXEEHI8	23	1	0	0	282.90457177310304	13	0	0	83.01591638761599	34.39938985552715	280.8054107521617	2000	2000	0	2020-05-30 13:12:10.588540
A3HCHUTNXEEHI8	24	1	0	0	150.5669594537997	7	0	0	54.57325944790209	87.27787530189413	122.69059361641864	2000	2000	0	2020-05-30 13:12:16.639617
A3HCHUTNXEEHI8	25	1	0	0	187.6564349808627	0	0	0	101.91498221121871	-38.743556497992145	183.6133830079214	2000	2000	0	2020-05-30 13:12:22.621236
A3HCHUTNXEEHI8	26	1	0	0	162.05562346598313	7	0	0	49.040225842146754	106.23216174024554	122.37954448739713	2000	2000	0	2020-05-30 13:12:28.665483
A3HCHUTNXEEHI8	27	1	0	0	281.761620037483	2	0	0	58.4301392185461	147.51285889609423	240.06158998567003	2000	2000	0	2020-05-30 13:12:34.676477
A3HCHUTNXEEHI8	28	1	0	0	156.53909868231923	11	0	0	67.06585417744128	60.999039525781335	144.16520590352252	2000	2000	0	2020-05-30 13:12:40.677398
A3HCHUTNXEEHI8	29	1	0	0	253.70712791453417	13	0	0	23.442036393032044	232.7669031642858	100.93005273926002	2000	2000	0	2020-05-30 13:12:46.674088
A3HCHUTNXEEHI8	30	1	0	0	286.25768567216994	6	0	0	337.77849642346837	264.9969589024602	-108.25929234405089	2000	2000	0	2020-05-30 13:12:52.702603
A3HCHUTNXEEHI8	31	1	0	0	112.05943557329361	9	0	0	84.22911610450873	11.267656229004988	111.49151099572607	2000	2000	0	2020-05-30 13:12:58.785499
A3HCHUTNXEEHI8	32	1	0	0	279.68243562952847	4	0	0	150.65829726600654	-243.80277150320393	137.04916419672858	2000	2000	0	2020-05-30 13:13:04.874936
A3HCHUTNXEEHI8	33	1	0	0	156.89215661337047	2	0	0	312.18795949636063	105.36326500389092	-116.24857502143512	2000	2000	0	2020-05-30 13:13:10.833033
A3HCHUTNXEEHI8	34	1	0	22	135.38430220809343	11	4	-4.5	161.28614711177846	-128.2269041191024	43.43696978845207	2000	2000	0	2020-05-30 13:13:14.804677
A3HCHUTNXEEHI8	35	1	0	111	127.7314491500752	1	-4	-4.5	59.773913002533874	64.30172339104729	110.36580752624198	2000	2000	0	2020-05-30 13:13:19.566812
A3HCHUTNXEEHI8	36	1	0	0	179.15365717293975	4	0	0	205.49822602904825	-161.70384252192702	-77.12263086852684	2000	2000	0	2020-05-30 13:13:25.588610
A3HCHUTNXEEHI8	37	1	0	0	110.89944972565084	8	0	0	241.56945207628632	-52.79846685670955	-97.52440641723025	2000	2000	0	2020-05-30 13:13:31.595687
A3HCHUTNXEEHI8	38	1	1	776	270.895088282918	14	-209	-162.5	225.40733326101514	-190.18512453918308	-192.9087018768862	2000	1950	0	2020-05-30 13:13:36.373913
A3HCHUTNXEEHI8	39	2	0	240	170.2669888182831	13	-3	-0.5	61.15511997299873	82.14359603555745	149.14180202610027	1950	2000	0	2020-05-30 13:13:43.350170
A3HCHUTNXEEHI8	40	2	0	0	100.77115127561606	4	0	0	348.80861141367205	98.85492104411544	-19.55836176101668	2000	2000	0	2020-05-30 13:13:49.368014
A3HCHUTNXEEHI8	41	2	0	71	114.68922920705458	0	-5	0.5	208.9609696239129	-100.34731364395778	-55.53409709853459	2000	2000	0	2020-05-30 13:13:53.370396
A3HCHUTNXEEHI8	42	2	0	669	289.3814001481756	11	144	169.5	50.093325029642756	185.64945468240603	221.9816990831537	2000	2000	0	2020-05-30 13:14:14.898345
A3HCHUTNXEEHI8	43	2	1	1531	240.72556553967382	14	-105	-227.5	245.6175940571724	-99.37747451102508	-219.2553658732355	2000	1950	0	2020-05-30 13:14:32.076857
A3HCHUTNXEEHI8	44	3	1	758	245.33380131902626	5	276	-38.5	355.9500418507523	244.72116552745348	-17.327008181684782	1950	1900	0	2020-05-30 13:14:42.149841
A3HCHUTNXEEHI8	45	4	1	1120	257.3616996074659	3	-208	-138.5	211.26281515767096	-219.99170427771563	-133.56157558905036	1900	1850	0	2020-05-30 13:14:47.316073
A3HCHUTNXEEHI8	46	5	1	1019	171.51236496655122	3	-118	103.5	137.12667193880293	-125.69450100800228	116.69354632013196	1850	1800	0	2020-05-30 13:14:52.296273
A3HCHUTNXEEHI8	47	6	1	1014	120.78213873126975	6	64	-78.5	300.18616624199984	60.73061905476776	-104.40362515604701	1800	1750	0	2020-05-30 13:14:57.701574
A3HCHUTNXEEHI8	48	7	1	679	161.19202486912798	0	-124	39.5	170.9048718079075	-159.16539803474143	25.480285513547457	1750	1700	0	2020-05-30 13:15:22.638753
A3HCHUTNXEEHI8	49	8	1	1263	167.780632889922	13	143	-84.5	329.70002220482587	144.86108472100275	-84.64990789361346	1700	1650	0	2020-05-30 13:15:31.406798
A3HCHUTNXEEHI8	50	9	1	790	237.16623249850093	7	22	195.5	83.70942983372744	25.98647529924088	235.73825514552138	1650	1600	0	2020-05-30 13:15:36.682653
A3HCHUTNXEEHI8	51	10	1	1156	156.40665357607406	14	149	21.5	6.864168757145581	155.2855741877376	18.693093164339697	1600	1550	0	2020-05-30 13:15:41.876811
A3HCHUTNXEEHI8	52	11	1	1214	249.3396803536012	8	183	152.5	42.00838056700717	185.2710877057586	166.86791261102638	1550	1500	0	2020-05-30 13:15:47.374095
A3HCHUTNXEEHI8	53	12	1	1329	164.4285049941726	1	-137	69.5	152.44324962429008	-145.7745917816794	76.06905839763881	1500	1450	0	2020-05-30 13:16:00.929919
A3HCHUTNXEEHI8	54	13	0	0	112.3796340926297	1	0	0	30.689235632448923	96.64066113114666	57.35647108154596	1450	1650	0	2020-05-30 13:16:05.940721
A3HCHUTNXEEHI8	55	13	0	0	267.56342370485936	9	0	0	157.9035771651648	-247.911456930958	100.64837418972978	1650	1850	0	2020-05-30 13:16:11.615906
A3HCHUTNXEEHI8	56	13	1	860	134.18406778312195	13	43	113.5	64.2527630517775	58.28980343594671	120.86216472587341	1850	1800	0	2020-05-30 13:16:28.510009
A3HCHUTNXEEHI8	57	14	0	37	211.05541702403588	6	-2	2.5	23.427183581419904	193.65729553723568	83.91210246676852	1800	2000	0	2020-05-30 13:16:34.398959
A3HCHUTNXEEHI8	58	14	1	1011	171.0153604588533	4	57	168.5	69.56059021364602	59.72141230089304	160.2485769848153	2000	1950	0	2020-05-30 13:16:37.563746
A3HCHUTNXEEHI8	59	15	1	1705	170.07423830941497	14	-148	82.5	149.43122053339016	-146.43719760923753	86.49505010623896	1950	1900	0	2020-05-30 13:16:47.641067
A3HCHUTNXEEHI8	60	16	1	1273	243.55294381946234	0	-116	-222.5	243.04092872970173	-110.41567727518171	-217.08619176490498	1900	1850	0	2020-05-30 13:16:55.849033
A3HCHUTNXEEHI8	61	17	0	126	108.37749199655424	12	-2	-2.5	22.616162386055603	100.04345531068962	41.67718585702766	1850	2000	0	2020-05-30 13:17:04.029830
A3HCHUTNXEEHI8	62	17	0	0	283.0863118632738	7	0	0	325.24073690648044	232.57091124385886	-161.39588349010592	2000	2000	0	2020-05-30 13:17:08.093958
A3HCHUTNXEEHI8	63	17	1	1330	261.20464858579817	2	-273	-20.5	188.0301215506338	-258.6434758280206	-36.48864007373295	2000	1950	0	2020-05-30 13:17:17.917402
A3HCHUTNXEEHI8	64	18	1	1056	233.60835298634117	4	-195	-128.5	211.99007781099795	-198.1325539599988	-123.75925681046706	1950	1900	0	2020-05-30 13:17:22.961651
A3HCHUTNXEEHI8	65	19	1	1549	231.47387366256947	12	-250	40.5	164.77496937660052	-223.34957138716274	60.7875246208124	1900	1850	0	2020-05-30 13:17:30.807928
A3HCHUTNXEEHI8	66	20	0	0	249.34037166664632	13	0	0	72.14856474421363	76.43527150914926	237.33577524718848	1850	2000	0	2020-05-30 13:17:37.579126
A3HCHUTNXEEHI8	67	20	1	1088	277.7254223896588	4	278	-19.5	357.2496543796851	277.4055096570161	-13.326419378268906	2000	1950	0	2020-05-30 13:17:46.992272
A3HCHUTNXEEHI8	68	21	1	1371	154.27968152012886	5	110	112.5	52.694335168401	93.50383079620089	122.71615116351974	1950	1900	0	2020-05-30 13:18:31.441821
A3HCHUTNXEEHI8	69	22	0	0	287.75070350423465	8	0	0	73.62034319688944	81.14593696093257	276.0720997890122	1900	2000	0	2020-05-30 13:18:42.345147
A3HCHUTNXEEHI8	70	22	0	0	226.2074218053252	5	0	0	152.80938105500056	-201.20951155659642	103.36600088505021	2000	2000	0	2020-05-30 13:18:48.371193
A3HCHUTNXEEHI8	71	22	1	1321	195.3645116510481	8	193	57.5	14.276170190336703	189.33133837981603	48.17610112867281	2000	1950	0	2020-05-30 13:18:53.712466
A3HCHUTNXEEHI8	72	23	1	1358	296.4999142116178	2	232	-200.5	319.0431906642885	223.91789621827002	-194.35270741793326	1950	1900	0	2020-05-30 13:19:05.393223
A3HCHUTNXEEHI8	73	24	1	1455	277.30176115564007	12	-218	-156.5	214.0388482438787	-229.788387292544	-155.22101599175116	1900	1850	0	2020-05-30 13:19:17.856511
A3HCHUTNXEEHI8	74	25	0	0	298.1093645461976	5	0	0	33.70337510274416	248.0035708343365	165.4189290364194	1850	2000	0	2020-05-30 13:19:23.782833
A3HCHUTNXEEHI8	75	25	0	0	123.44691478210001	13	0	0	5.374973584420717	122.90411567539438	11.563698338695096	2000	2000	0	2020-05-30 13:19:29.813285
A3HCHUTNXEEHI8	76	25	0	0	199.58154300605418	12	0	0	188.99403180683655	-197.12761412426	-31.200898358129056	2000	2000	0	2020-05-30 13:19:35.813954
A3HCHUTNXEEHI8	77	25	0	0	183.74057503043448	9	0	0	300.3719230779127	92.9012635480015	-158.5243014294638	2000	2000	0	2020-05-30 13:19:41.827910
A3HCHUTNXEEHI8	78	25	0	0	167.68233306714785	4	0	0	130.94142165117657	-109.8800668135939	126.66386911776398	2000	2000	0	2020-05-30 13:19:47.832674
A3HCHUTNXEEHI8	79	25	1	944	101.80981412480392	4	-13	-104.5	264.26912746884517	-10.16631045769108	-101.30095944168033	2000	1950	0	2020-05-30 13:19:54.286245
A3HCHUTNXEEHI8	80	26	1	970	120.73718974987622	5	-67	105.5	120.53350185256801	-61.33957373018269	103.99483488758996	1950	1900	0	2020-05-30 13:19:59.291583
A3HCHUTNXEEHI8	81	27	1	1097	175.2870912187399	4	-180	9.5	176.40696958748745	-174.94253972975625	10.985087201724792	1900	1850	0	2020-05-30 13:20:04.405007
A3HCHUTNXEEHI8	82	28	0	0	171.94194755072238	12	0	0	189.37833309211243	-169.64374641521874	-28.018433748950383	1850	2000	0	2020-05-30 13:20:12.699689
A3HCHUTNXEEHI8	83	28	0	0	112.77783775289345	11	0	0	312.89710589668414	76.7660546180583	-82.61848187055513	2000	2000	0	2020-05-30 13:20:18.722007
A3HCHUTNXEEHI8	84	28	0	0	143.99320521547236	2	0	0	226.39430786336203	-99.3108874328621	-104.26596177814947	2000	2000	0	2020-05-30 13:20:24.734060
A3HCHUTNXEEHI8	85	28	0	0	184.18711633739147	5	0	0	306.0368272382229	108.35822575650167	-148.9408900724942	2000	2000	0	2020-05-30 13:20:30.745127
A3HCHUTNXEEHI8	86	28	0	0	236.8158341120747	10	0	0	347.7203729918107	231.39778647951096	-50.36669235298607	2000	2000	0	2020-05-30 13:20:36.730569
A3HCHUTNXEEHI8	87	28	0	0	170.95372474822784	4	0	0	251.68856709206156	-53.710566030572984	-162.2971074972327	2000	2000	0	2020-05-30 13:20:42.764698
A3HCHUTNXEEHI8	88	28	0	0	100.32347087949192	13	0	0	266.0528756022062	-6.905850273568095	-100.08550365216395	2000	2000	0	2020-05-30 13:20:48.780429
A3HCHUTNXEEHI8	89	28	1	1029	245.28586946130025	0	-98	-274.5	247.18178711511317	-95.12397060222624	-226.0897785709315	2000	1950	0	2020-05-30 13:20:53.832295
A3HCHUTNXEEHI8	90	29	1	1818	275.54713036787325	0	-253	102.5	157.38226439064917	-254.35513571222006	105.97021275239497	1950	1900	0	2020-05-30 13:21:14.980308
A3HCHUTNXEEHI8	91	30	1	1025	188.9189990591716	3	127	133.5	45.0866215238165	133.38379345726437	133.78771187395768	1900	1850	0	2020-05-30 13:21:22.685635
A3HCHUTNXEEHI8	92	31	1	787	280.18878807692346	4	-216	-246.5	230.459519828638	-178.37468951509055	-216.07458690093608	1850	1800	0	2020-05-30 13:40:24.668880
A3HCHUTNXEEHI8	93	32	0	0	270.0221924235927	13	0	0	5.378933820617053	268.83314929640727	25.312491790009997	1800	2000	0	2020-05-30 13:40:30.498399
A3HCHUTNXEEHI8	94	32	1	731	254.92367590525876	2	30	227.5	73.5644036545816	72.12744170168224	244.50708106437295	2000	1950	0	2020-05-30 13:42:44.843213
A3HCHUTNXEEHI8	95	33	1	1208	221.18787171127184	6	137	124.5	37.834679534743415	174.69061821482336	135.6733669512365	1950	1900	0	2020-05-30 13:48:36.055926
A3HCHUTNXEEHI8	96	34	1	1846	151.26149406905571	11	-76	92.5	142.00342399910534	-119.20124892785716	93.1187512912518	1900	1850	0	2020-05-30 13:48:42.242520
A3HCHUTNXEEHI8	97	35	1	964	149.57975827460675	8	-93	101.5	127.73357240143221	-91.54139880044178	118.2974065275662	1850	1800	0	2020-05-30 13:48:53.954827
A3HCHUTNXEEHI8	98	36	1	776	168.05263087374658	3	-77	-141.5	249.4352171068858	-59.031213887258026	-157.34358115469635	1800	1750	0	2020-05-30 13:49:07.605020
A3HCHUTNXEEHI8	99	37	1	1311	208.30170028688627	10	-190	-89.5	203.96558792314073	-190.34392332904926	-84.60962825892109	1750	1700	0	2020-05-30 13:49:13.704001
A3HCHUTNXEEHI8	100	38	0	836	158.6143134681268	9	218	-1.5	2.9226605980925857	158.40799898692387	8.087415775383064	1700	1900	0	2020-05-30 13:49:27.008569
A3HCHUTNXEEHI8	101	38	1	882	150.6154329332358	5	-33	142.5	106.22828341928523	-42.091758568695774	144.61428870710074	1900	1850	0	2020-05-30 13:49:31.942404
A3HCHUTNXEEHI8	102	39	1	1350	249.81420195774527	13	-89	227.5	108.77645391221716	-80.40935498060696	236.51949418893125	1850	1800	0	2020-05-30 13:49:37.282589
A3HCHUTNXEEHI8	103	40	1	1002	153.22468549572025	1	-37	159.5	100.8254422220231	-28.778274500457577	150.49789088900448	1800	1750	0	2020-05-30 13:49:43.870730
A3HCHUTNXEEHI8	104	41	0	128	216.35378955290457	6	-1	-0.5	70.30648387931134	72.90878546424854	203.69897215261224	1750	1950	0	2020-05-30 13:49:49.243658
A3HCHUTNXEEHI8	105	41	1	689	278.5409011099733	14	232	74.5	16.740205955258762	266.73650779874737	80.22885390235051	1950	1900	0	2020-05-30 13:49:53.926905
A3HCHUTNXEEHI8	106	42	1	1423	133.11109515230757	12	69	93.5	53.75888510585675	78.69322719776959	107.35892904573377	1900	1850	0	2020-05-30 13:49:59.315217
A3HCHUTNXEEHI8	107	43	1	1098	138.077304610181	6	-85	-91.5	225.53952563382063	-96.71169974635275	-98.55043977874487	1850	1800	0	2020-05-30 13:50:04.453936
A3HCHUTNXEEHI8	108	44	1	1168	226.6103419167236	9	-177	-170.5	221.51877689700422	-169.67189374775182	-150.21216840078566	1800	1750	0	2020-05-30 13:50:12.627072
A3HCHUTNXEEHI8	109	45	1	1449	277.7673821687097	1	-205	183.5	139.18500055622195	-210.2210131713835	181.5539705378404	1750	1700	0	2020-05-30 13:50:16.936538
A3HCHUTNXEEHI8	110	46	0	137	118.03077491813778	14	-1	-0.5	77.59325288080063	25.358951893046388	115.2744003960214	1700	1900	0	2020-05-30 13:50:24.099132
A3HCHUTNXEEHI8	111	46	1	1330	217.46704852497072	11	184	88.5	24.123239937208023	198.4753201557681	88.87893160489345	1900	1850	0	2020-05-30 13:50:26.403651
A3HCHUTNXEEHI8	112	47	1	1279	237.77152611532793	0	21	218.5	85.07767643108758	20.402012542315017	236.89461056646115	1850	1800	0	2020-05-30 13:50:31.708146
A3HCHUTNXEEHI8	113	48	0	706	141.5265360639927	1	-114	-154.5	224.22484340335558	-101.419083343936	-98.71134658157789	1800	2000	0	2020-05-30 13:50:36.396230
A3HCHUTNXEEHI8	114	48	1	699	118.99387974103229	8	-53	-111.5	239.72439337924538	-59.99195345226063	-102.76433689176926	2000	1950	0	2020-05-30 13:50:44.235019
A3HCHUTNXEEHI8	115	49	1	954	102.48964581908785	14	90	58.5	35.4040383733794	83.53797428081707	59.37621033022921	1950	1900	0	2020-05-30 13:50:49.934136
A3HCHUTNXEEHI8	116	50	0	58	127.9995456062291	3	-4	-2.5	231.83524259255574	-79.09410621329361	-100.63799500050344	1900	2000	0	2020-05-30 13:50:56.312705
A3HCHUTNXEEHI8	117	50	1	666	198.24970318262913	13	55	-230.5	282.7017548202226	43.5903680583476	-193.3980988131433	2000	1950	0	2020-05-30 13:51:03.380696
A3HCHUTNXEEHI8	118	51	0	215	167.22878930803748	4	0	1.5	205.68902177320598	-150.69991191907832	-72.49140998086618	1950	2000	0	2020-05-30 13:51:07.626448
A3HCHUTNXEEHI8	119	51	1	1280	228.8213681882762	14	181	-105.5	330.4430310962054	199.04384852506334	-112.87499680569788	2000	1950	0	2020-05-30 13:51:12.878899
A3HCHUTNXEEHI8	120	52	0	204	277.4234471903146	10	-1	-1.5	9.754414002421576	273.412739088126	47.0025866871773	1950	2000	0	2020-05-30 13:51:35.575894
A3HCHUTNXEEHI8	121	52	1	855	136.1873728962463	4	-48	123.5	109.98829986237199	-46.55269072214058	127.98377835846998	2000	1950	0	2020-05-30 13:51:44.348838
A3HCHUTNXEEHI8	122	53	1	963	190.8196513717007	7	62	200.5	68.19459481634513	70.88099481826686	177.16665578824424	1950	1900	0	2020-05-30 13:51:50.330072
A3HCHUTNXEEHI8	123	54	1	941	125.27326477652676	9	-18	120.5	98.85493621731085	-19.283726654079125	123.78016300724659	1900	1850	0	2020-05-30 13:51:56.854245
A3HCHUTNXEEHI8	124	55	1	1264	245.43850358689565	0	168	-176.5	312.53096780491074	165.91363044063218	-180.86659801351914	1850	1800	0	2020-05-30 13:52:02.208126
A3HCHUTNXEEHI8	125	56	1	1137	227.51052286708142	8	196	-109.5	329.10360254788816	195.22614118959	-116.82376389876781	1800	1750	0	2020-05-30 13:52:07.304859
A3HCHUTNXEEHI8	126	57	1	862	277.09115084745827	2	-221	-155.5	213.1828423561058	-231.9054113555799	-151.65548477377317	1750	1700	0	2020-05-30 13:52:12.202688
A3HCHUTNXEEHI8	127	58	1	727	144.9913919467884	6	55	-112.5	299.51178854929157	71.42314020184769	-126.17939127438532	1700	1650	0	2020-05-30 13:52:18.177218
A3HCHUTNXEEHI8	128	59	0	0	103.40561737687648	2	0	0	324.5933620121973	84.28185258617836	-59.91069211530341	1650	1850	0	2020-05-30 13:52:26.124789
A3HCHUTNXEEHI8	129	59	1	951	257.9549203465634	9	195	-161.5	314.46676404391474	180.69623673918795	-184.09131147150106	1850	1800	0	2020-05-30 13:52:32.474892
A3HCHUTNXEEHI8	130	60	1	1786	277.10225759398935	2	235	-140.5	328.61228136292755	236.55179383483764	-144.32224359815817	1800	1750	0	2020-05-30 13:52:38.204633
A3HCHUTNXEEHI8	131	61	0	878	169.14553891771249	10	260	1.5	4.440448035978388	168.63782217506412	13.095734718405065	1750	1950	0	2020-05-30 13:52:49.267258
A3HCHUTNXEEHI8	132	61	1	799	134.81100612145457	3	70	75.5	47.11921581355764	91.73553974934178	98.78561696105255	1950	1900	0	2020-05-30 13:52:54.070318
A3HCHUTNXEEHI8	133	62	1	643	183.4709531754482	11	-87	186.5	109.13225779375482	-60.13257880998609	173.336850163975	1900	1850	0	2020-05-30 13:53:03.074549
A3HCHUTNXEEHI8	134	63	1	1127	161.72563910333463	14	32	-145.5	282.7887926457354	35.79922343821889	-157.71365807881864	1850	1800	0	2020-05-30 13:53:08.186426
A3HCHUTNXEEHI8	135	64	1	869	270.8371973880065	6	63	-254.5	280.3236040675693	48.53606511317349	-266.45269349796365	1800	1750	0	2020-05-30 13:53:14.814071
A3HCHUTNXEEHI8	136	65	1	1095	197.61447679977397	5	-93	-143.5	238.04989262761467	-104.57374563942349	-167.67770622175613	1750	1700	0	2020-05-30 13:53:20.818971
A3HCHUTNXEEHI8	137	66	0	702	230.73071911269776	11	-119	81.5	146.43792738749676	-192.26499642448124	127.55718675228319	1700	1900	0	2020-05-30 13:53:29.510951
A3HCHUTNXEEHI8	138	66	1	1245	224.36991179091376	12	140	165.5	52.83223856886377	135.55326986001543	178.79364739084062	1900	1850	0	2020-05-30 13:53:34.784055
A3HCHUTNXEEHI8	139	67	1	1082	123.84001059732977	11	49	100.5	68.99141822436731	44.39760695562508	115.60796132343387	1850	1800	0	2020-05-30 13:53:41.926011
A3HCHUTNXEEHI8	140	68	1	1470	290.88159239480694	7	-301	-13.5	180.70050492994437	-290.85985247384133	-3.5562639151029365	1800	1750	0	2020-05-30 13:53:52.310033
A3HCHUTNXEEHI8	141	69	0	0	297.73040152233335	5	0	0	204.47634597257363	-270.9740835679467	-123.35492704047644	1750	1950	0	2020-05-30 13:53:59.330911
A3HCHUTNXEEHI8	142	69	0	0	103.40513811365159	4	0	0	276.41149040308585	11.547068282257131	-102.75839528908698	1950	2000	0	2020-05-30 13:54:05.314838
A3HCHUTNXEEHI8	143	69	0	0	293.9092094567394	7	0	0	32.46152732497323	247.9864947091136	157.75082201171656	2000	2000	0	2020-05-30 13:54:11.351756
A3HCHUTNXEEHI8	144	69	0	0	215.11566549364503	6	0	0	211.54387086520603	-183.33014076725524	-112.53803369098001	2000	2000	0	2020-05-30 13:54:17.360889
A3HCHUTNXEEHI8	145	69	1	1350	223.5042682708759	7	180	-103.5	332.34844423674025	197.97702742927652	-103.72682654726866	2000	1950	0	2020-05-30 13:54:31.436354
A3HCHUTNXEEHI8	146	70	1	1197	219.25257102838867	2	146	-142.5	318.4682178690994	164.12985424591537	-145.37221484098396	1950	1900	0	2020-05-30 13:54:37.059262
A3HCHUTNXEEHI8	147	71	0	920	186.81517684923284	13	-27	109.5	103.38876205379121	-43.2583805108976	181.73778588060475	1900	2000	0	2020-05-30 13:54:42.011640
A3HCHUTNXEEHI8	148	71	0	794	218.47364042706712	7	30	-215.5	298.90366650860994	105.59670102049795	-191.25916525762364	2000	2000	0	2020-05-30 13:54:53.504010
A3HCHUTNXEEHI8	149	71	1	1263	214.5849540208083	0	-56	192.5	105.6190745323276	-57.77495074781056	206.66097250860037	2000	1950	0	2020-05-30 13:54:59.466104
A3HCHUTNXEEHI8	150	72	1	1123	265.4589835949539	10	-233	-111.5	205.09787854804222	-240.3955422392878	-112.59864671808808	1950	1900	0	2020-05-30 13:55:09.884945
A3HCHUTNXEEHI8	151	73	1	1233	126.40516520366383	5	122	-67.5	332.57368793178193	112.19772430881267	-58.223160770343036	1900	1850	0	2020-05-30 13:55:15.100772
A3HCHUTNXEEHI8	152	74	1	769	121.66579893153212	8	60	76.5	47.966467977596764	81.46321090196896	90.367648520858	1850	1800	0	2020-05-30 13:55:19.886287
A3HCHUTNXEEHI8	153	75	1	1176	205.52445590758057	12	42	197.5	77.35303794313292	44.998155521696134	200.5379464733602	1800	1750	0	2020-05-30 13:55:25.069669
A3HCHUTNXEEHI8	154	76	1	946	148.69320287650237	14	43	135.5	68.80183484556689	53.76667602949497	138.63193402103292	1750	1700	0	2020-05-30 13:55:30.022046
A3HCHUTNXEEHI8	155	77	1	1019	280.94379805131575	2	-113	-274.5	245.79125779628808	-115.20443206664818	-256.2369147794664	1700	1650	0	2020-05-30 13:55:39.831555
A3HCHUTNXEEHI8	156	78	1	930	231.13884692955503	14	-200	97.5	152.10704932001383	-204.2858740902533	108.13162445420606	1650	1600	0	2020-05-30 13:55:44.762939
A3HCHUTNXEEHI8	157	79	1	1119	297.12630016783714	12	298	20.5	4.714170843000094	296.1211488315117	24.419325669096096	1600	1550	0	2020-05-30 13:55:49.941600
A3HCHUTNXEEHI8	158	80	1	1271	126.66373651776657	0	-34	-143.5	254.10860313320214	-34.682406601626	-121.82295687169017	1550	1500	0	2020-05-30 13:55:55.185442
A3HCHUTNXEEHI8	159	81	1	1048	158.7836746771928	14	-78	168.5	110.49387907777741	-55.59132590239729	148.7341918605337	1500	1450	0	2020-05-30 13:56:11.543400
A3HCHUTNXEEHI8	160	82	1	1143	232.97656506882535	7	18	-228.5	273.4493609649802	14.017348720171555	-232.55449642207677	1450	1400	0	2020-05-30 13:56:16.689126
A3HCHUTNXEEHI8	161	83	1	953	247.22261667098607	6	5	-249.5	269.646909369728	-1.5235229847268623	-247.21792222928403	1400	1350	0	2020-05-30 13:56:21.671889
A3HCHUTNXEEHI8	162	84	1	725	188.04287035961818	6	-84	-167.5	244.08954713241533	-82.16832089690037	-169.1404390855959	1350	1300	0	2020-05-30 13:56:26.378206
A3HCHUTNXEEHI8	163	85	1	975	127.74003925577478	1	-118	65.5	154.5891090340499	-115.38166861113996	54.81412388769854	1300	1250	0	2020-05-30 13:56:34.999512
A3HCHUTNXEEHI8	164	86	1	784	134.57932149700875	9	-31	-153.5	256.74855812014704	-30.84892969204268	-130.99594387404005	1250	1200	0	2020-05-30 13:56:39.795645
A3HCHUTNXEEHI8	165	87	1	1170	208.3905202941238	12	-139	-152.5	225.68771760085468	-145.57509302467537	-149.1123778876614	1200	1150	0	2020-05-30 13:56:44.988067
A3HCHUTNXEEHI8	166	88	1	953	201.125428785941	11	77	-194.5	293.2278267067995	79.32150738110431	-184.82298712854427	1150	1100	0	2020-05-30 13:56:49.964106
A3HCHUTNXEEHI8	167	89	1	984	191.6874592999315	5	-34	-197.5	258.11496603313594	-39.47776108265344	-187.57821950526088	1100	1050	0	2020-05-30 13:56:59.342273
A3HCHUTNXEEHI8	168	90	1	889	251.92384980615392	6	-219	97.5	153.69558712463797	-225.8377152723005	111.63759430290914	1050	1000	0	2020-05-30 13:57:04.240313
A3HCHUTNXEEHI8	169	91	1	966	147.58599333911843	6	106	-73.5	329.70261452934443	127.42848767299537	-74.45539577000162	1000	950	0	2020-05-30 13:57:11.945953
A3HCHUTNXEEHI8	170	92	0	0	102.5158216159594	12	0	0	41.9622700962413	76.22925737792276	68.54629093689617	950	1150	0	2020-05-30 13:57:16.890396
A3HCHUTNXEEHI8	171	92	1	1126	170.35218586699943	6	-77	138.5	114.84366542379958	-71.57241176154089	154.58737692418862	1150	1100	0	2020-05-30 13:57:26.128474
A3HCHUTNXEEHI8	172	93	1	888	293.69966638637015	7	-224	193.5	138.39052294963773	-219.59579342412835	195.03123223189837	1100	1050	0	2020-05-30 13:57:31.034007
A3HCHUTNXEEHI8	173	94	0	0	282.5532291161878	14	0	0	191.9014358217763	-276.4794132962516	-58.27058698301773	1050	1250	0	2020-05-30 13:57:38.113508
A3HCHUTNXEEHI8	174	94	1	1126	235.59215519721502	1	-230	112.5	148.60681711233477	-201.10447489973032	122.72185528980725	1250	1200	0	2020-05-30 13:57:45.524763
A3HCHUTNXEEHI8	175	95	0	0	101.7680592023913	10	0	0	189.69162187854707	-100.31563523583836	-17.13216860329267	1200	1400	0	2020-05-30 13:57:50.735933
A3HCHUTNXEEHI8	176	95	1	1091	210.11367388186392	2	-47	-205.5	255.2578512083064	-53.4675072600804	-203.19690356776482	1400	1350	0	2020-05-30 13:57:59.045603
A3HCHUTNXEEHI8	177	96	0	0	278.64543973245645	7	0	0	72.72912022023414	82.72692882739214	266.0818226231954	1350	1550	0	2020-05-30 13:58:06.903808
A3HCHUTNXEEHI8	178	96	1	922	210.67164227928248	9	156	-143.5	318.544284282388	157.8915786373915	-139.4732600036379	1550	1500	0	2020-05-30 13:58:14.160855
A3HCHUTNXEEHI8	179	97	1	967	139.96041713962018	8	77	-115.5	305.18811001203676	80.65397211608179	-114.38468056429055	1500	1450	0	2020-05-30 13:58:19.111233
A3HCHUTNXEEHI8	180	98	1	1071	100.62724533115866	4	28	93.5	70.67352402482098	33.302635260798354	94.95671112471948	1450	1400	0	2020-05-30 13:58:29.285280
A3HCHUTNXEEHI8	181	99	1	972	111.22870829236624	1	-72	-99.5	238.03483613279263	-58.884872881897515	-94.36311405454502	1400	1350	0	2020-05-30 13:58:34.317119
A3HCHUTNXEEHI8	182	100	1	1031	195.39795985431238	9	4	190.5	90.10379535218254	-0.35397701432774814	195.39763922704083	1350	1300	0	2020-05-30 13:58:45.105513
A3HCHUTNXEEHI8	183	101	1	1200	266.5545404182168	4	-170	-199.5	228.95319569675593	-175.03978922671732	-201.0283442826736	1300	1250	0	2020-05-30 13:58:52.367078
A3HCHUTNXEEHI8	184	102	1	1041	178.07630409193544	4	110	154.5	52.623440856715035	108.10135892262964	141.5106578252121	1250	1200	0	2020-05-30 13:58:55.408537
A3HCHUTNXEEHI8	185	103	0	0	175.24039445247575	9	0	0	50.820259210377245	110.70903931203641	135.84073197117746	1200	1400	0	2020-05-30 13:59:00.619520
A3HCHUTNXEEHI8	186	103	1	1012	245.21714129406868	11	3	-244.5	272.58490790431813	11.059256524411591	-244.96762894219822	1400	1350	0	2020-05-30 13:59:08.417628
A3HCHUTNXEEHI8	187	104	1	1217	177.5184677456021	8	156	70.5	25.061010974295144	160.80639127527652	75.19382232450376	1350	1300	0	2020-05-30 13:59:18.580880
A3HCHUTNXEEHI8	188	105	1	1213	258.5694188680051	9	13	-263.5	272.5883817293774	11.677103262303602	-258.3056128564367	1300	1250	0	2020-05-30 13:59:23.759339
A3HCHUTNXEEHI8	189	106	1	1173	155.44650054480087	4	-153	-16.5	186.3863421939887	-154.48187140767263	-17.29063150981111	1250	1200	0	2020-05-30 13:59:28.954834
A3HCHUTNXEEHI8	190	107	0	0	140.9192698275388	2	0	0	213.77195367093915	-117.1400839406209	-78.3354411688029	1200	1400	0	2020-05-30 13:59:34.154959
A3HCHUTNXEEHI8	191	107	1	1064	173.42804455695014	10	-139	-80.5	210.03191745042156	-150.14476370142242	-86.79767607425619	1400	1350	0	2020-05-30 13:59:39.236170
A3HCHUTNXEEHI8	192	108	0	0	225.4878889354793	11	0	0	180.15096053167008	-225.48710627294946	-0.5941054036513478	1350	1550	0	2020-05-30 13:59:48.861232
A3HCHUTNXEEHI8	193	108	1	1381	178.11643966039685	1	-168	81.5	151.2926440614891	-156.22316892301768	85.55575707657599	1550	1500	0	2020-05-30 13:59:57.942037
A3HCHUTNXEEHI8	194	109	1	1081	237.62208421687947	4	-120	203.5	119.68847770113746	-117.6904103793809	206.42970283441932	1500	1450	0	2020-05-30 14:00:03.027728
A3HCHUTNXEEHI8	195	110	1	1225	171.23533263735587	6	-142	-106.5	215.38064021833432	-139.61218792603228	-99.14623606538049	1450	1400	0	2020-05-30 14:00:08.337560
A3HCHUTNXEEHI8	196	111	1	1024	152.70295003050856	2	114	45.5	22.154033612276294	141.42941273879885	57.58395749146182	1400	1350	0	2020-05-30 14:00:13.379702
A3HCHUTNXEEHI8	197	112	1	1239	287.49374157100095	5	248	98.5	20.829799458059117	268.7033976690866	102.23079537782232	1350	1300	0	2020-05-30 14:00:18.633430
A3HCHUTNXEEHI8	198	113	1	1085	134.79014231230695	6	-128	19.5	171.53817296576582	-133.32283312948044	19.834430440541468	1300	1250	0	2020-05-30 14:00:27.071301
A3HCHUTNXEEHI8	199	114	0	0	154.8746924305109	4	0	0	2.790959753968112	154.69098510778963	7.541185704314246	1250	1450	0	2020-05-30 14:00:32.349828
A3HCHUTNXEEHI8	200	114	1	1098	218.54049568177066	5	-202	54.5	161.20182191630792	-206.88343794161452	70.4215262422802	1450	1400	0	2020-05-30 14:00:37.475866
A3HCHUTNXEEHI8	201	115	1	1319	248.09609653368616	4	-227	63.5	163.5085141196572	-237.88990164943797	70.42774885279846	1400	1350	0	2020-05-30 14:00:45.461946
A3HCHUTNXEEHI8	202	116	0	0	104.16093918760932	0	0	0	80.83633975562947	16.58815724432267	102.83158217047169	1350	1550	0	2020-05-30 14:00:50.807754
A3HCHUTNXEEHI8	203	116	1	1240	182.56245217541732	6	171	-1.5	0.14814419555926328	182.56184192900028	0.4720336770328807	1550	1500	0	2020-05-30 14:00:57.173632
A3HCHUTNXEEHI8	204	117	1	1252	115.05300267519907	9	-58	-88.5	237.36975146603808	-62.0383590600937	-96.89393907624074	1500	1450	0	2020-05-30 14:01:02.428523
A3HCHUTNXEEHI8	205	118	1	1186	157.6897589841754	3	97	-117.5	310.4891108989186	102.38851572487734	-119.92769461698107	1450	1400	0	2020-05-30 14:01:07.647880
A3HCHUTNXEEHI8	206	119	1	1337	215.50531818153928	5	-75	189.5	112.2373040042626	-81.55659127358696	199.47697757976874	1400	1350	0	2020-05-30 14:01:13.019532
A3HCHUTNXEEHI8	207	120	1	1120	242.66091802047322	6	-205	127.5	148.10217023001414	-206.01710604837166	128.22352806717183	1350	1300	0	2020-05-30 14:01:18.111794
A3HCHUTNXEEHI8	208	121	1	985	129.95356530474905	12	106	-101.5	315.14257000975886	92.11941651983723	-91.66210904981628	1300	1250	0	2020-05-30 14:01:28.465800
A3HCHUTNXEEHI8	209	122	1	1005	209.08239196169825	4	41	196.5	77.15423447285802	46.48473127484211	203.84949444806318	1250	1200	0	2020-05-30 14:01:33.490800
A3HCHUTNXEEHI8	210	123	0	0	132.6846146356145	0	0	0	41.363662673350106	99.58382716996455	87.68277098258334	1200	1400	0	2020-05-30 14:01:38.707571
A3HCHUTNXEEHI8	211	123	0	0	246.70649092139632	8	0	0	301.8790620308504	130.29261900931914	-209.49445361259905	1400	1600	0	2020-05-30 14:01:44.095512
A3HCHUTNXEEHI8	212	123	1	1098	204.25009346514366	7	-162	127.5	138.63443129441583	-153.2913991130653	134.98091583064195	1600	1550	0	2020-05-30 14:01:49.245350
A3HCHUTNXEEHI8	213	124	1	1010	205.25904704140373	8	-110	165.5	122.9956927967487	-111.77914803437208	172.15312502843253	1550	1500	0	2020-05-30 14:01:54.237527
A3HCHUTNXEEHI8	214	125	1	1285	228.87861257828627	2	-98	198.5	116.10839840845004	-100.72279366025512	205.5245438701542	1500	1450	0	2020-05-30 14:01:59.543336
A3HCHUTNXEEHI8	215	126	1	1261	257.94949910157675	10	-250	-34.5	187.80106539943014	-255.56225818155076	-35.012516046418966	1450	1400	0	2020-05-30 14:02:05.206424
A3HCHUTNXEEHI8	216	127	0	0	115.61518217632654	9	0	0	25.238669779948495	104.57849694928285	49.297143177815215	1400	1600	0	2020-05-30 14:02:11.097793
A3HCHUTNXEEHI8	217	127	1	919	124.59507706827875	3	111	-40.5	341.7655142896366	118.33839677978631	-38.98662690256986	1600	1550	0	2020-05-30 14:02:16.052386
A3HCHUTNXEEHI8	218	128	1	1366	271.0471312732069	7	200	178.5	41.610772363265596	202.65468964676737	179.99340025569677	1550	1500	0	2020-05-30 14:02:22.217046
A3HCHUTNXEEHI8	219	129	1	1378	257.0731556254844	6	-218	-151.5	214.05212999182297	-212.99242404456237	-143.9473328786117	1500	1450	0	2020-05-30 14:02:27.618507
A3HCHUTNXEEHI8	220	130	1	1257	259.5849885017194	12	115	227.5	65.12739170376426	109.18199903369505	235.50723416159428	1450	1400	0	2020-05-30 14:02:32.876086
A3HCHUTNXEEHI8	221	131	1	1091	197.32368934549493	3	183	76.5	20.59135177684042	184.71719819765923	69.39881171118179	1400	1350	0	2020-05-30 14:02:37.974554
A3HCHUTNXEEHI8	222	132	0	0	216.80879839691514	7	0	0	40.74648993489284	164.2554237378049	141.51399519138855	1350	1550	0	2020-05-30 14:02:43.334173
A3HCHUTNXEEHI8	223	132	1	1234	289.0128787706291	4	282	30.5	6.744002205246042	287.0131279922357	33.93977689082366	1550	1500	0	2020-05-30 14:02:49.374110
A3HCHUTNXEEHI8	224	133	1	1385	258.6290046298152	5	238	-103.5	337.16175278000804	238.35359348397714	-100.38190329478685	1500	1450	0	2020-05-30 14:02:53.950744
A3HCHUTNXEEHI8	225	134	1	1376	287.847854363193	0	-257	-124.5	206.06023223319315	-258.58314357591024	-126.45609957567937	1450	1400	0	2020-05-30 14:02:59.370930
A3HCHUTNXEEHI8	226	135	1	1162	217.4001658535674	13	-49	215.5	100.87410701740791	-41.01290197145713	213.49654326250402	1400	1350	0	2020-05-30 14:03:04.543057
A3HCHUTNXEEHI8	227	136	1	1337	145.21090702490272	9	3	-145.5	271.514800185469	3.8386751409814974	-145.16016014098687	1350	1300	0	2020-05-30 14:03:09.889751
A3HCHUTNXEEHI8	228	137	1	1227	298.12459524688506	13	259	-146.5	331.02025387101975	260.796722074601	-144.4414900444549	1300	1250	0	2020-05-30 14:03:15.109686
A3HCHUTNXEEHI8	229	138	1	1217	250.3965678130028	6	209	132.5	34.1115056703207	207.31527116879312	140.4237142107468	1250	1200	0	2020-05-30 14:03:21.095954
A3HCHUTNXEEHI8	230	139	1	947	236.06755616412306	4	-1	223.5	90.1921177565122	-0.7915536654886911	236.06622908856752	1200	1150	0	2020-05-30 14:03:26.042917
A3HCHUTNXEEHI8	231	140	1	897	186.47605204796338	10	186	-22.5	353.332896412062	185.21500260328074	-21.649960694224266	1150	1100	0	2020-05-30 14:03:30.952897
A3HCHUTNXEEHI8	232	141	0	0	282.15062502690967	13	0	0	52.62705138914015	171.2656270245667	224.22546733802963	1100	1300	0	2020-05-30 14:03:36.599747
A3HCHUTNXEEHI8	233	141	0	0	126.23605667169997	14	0	0	193.02941322785017	-122.9860407266384	-28.460073619129787	1300	1500	0	2020-05-30 14:03:41.364243
A3HCHUTNXEEHI8	234	141	1	1248	116.05086625173536	11	95	-58.5	327.71805887153977	98.11290846071738	-61.98113221906372	1500	1450	0	2020-05-30 14:03:46.596884
A3HCHUTNXEEHI8	235	142	0	0	227.2355018744744	11	0	0	142.51478152534114	-180.31372625784545	138.28569497657753	1450	1650	0	2020-05-30 14:03:52.101009
A3HCHUTNXEEHI8	236	142	1	1125	283.5129248759339	7	270	61.5	14.343664863536905	274.675036901872	70.23676156160818	1650	1600	0	2020-05-30 14:03:59.127645
A3HCHUTNXEEHI8	237	143	1	993	162.62799628986312	12	94	-137.5	309.35686231409215	103.13030744866741	-125.74579461277848	1600	1550	0	2020-05-30 14:04:04.119934
A3HCHUTNXEEHI8	238	144	1	975	222.85560248016188	3	121	-193.5	301.87436336146783	117.68077616604307	-189.25077140596707	1550	1500	0	2020-05-30 14:04:09.121349
A3HCHUTNXEEHI8	239	145	1	841	154.75173585482187	10	160	-57.5	337.7294297458252	143.20795312224087	-58.647948920815836	1500	1450	0	2020-05-30 14:04:13.969845
A3HCHUTNXEEHI8	240	146	1	1346	161.25326757457316	14	-140	-59.5	204.3347653937879	-146.9264652798346	-66.44719786304348	1450	1400	0	2020-05-30 14:04:19.353366
A3HCHUTNXEEHI8	241	147	0	0	259.7632378431447	11	0	0	47.61287132179432	175.11587449023122	191.86289437063056	1400	1600	0	2020-05-30 14:04:24.749144
A3HCHUTNXEEHI8	242	147	1	1103	185.05195686772595	13	78	-172.5	295.0359241973547	78.31147690987571	-167.66496152973855	1600	1550	0	2020-05-30 14:04:29.939787
A3HCHUTNXEEHI8	243	148	1	1183	206.63621368737995	9	-214	-64.5	196.90210710454613	-197.71012696627017	-60.076871606616486	1550	1500	0	2020-05-30 14:04:35.121567
A3HCHUTNXEEHI8	244	149	1	1153	243.03194747241184	8	204	-114.5	331.17375626957886	212.91686872782273	-117.17907024452894	1500	1450	0	2020-05-30 14:04:40.292717
A3HCHUTNXEEHI8	245	150	1	984	131.08651540255724	3	45	114.5	70.8286502825183	43.048074692340975	123.81654891680476	1450	1400	0	2020-05-30 14:04:45.425982
