A2DT28O8YHDU9B	1	1	0	329	280.773350983137	9	-12	-3.5	35.016146781844895	229.9506704961623	161.10978791080703	1500	1700	0	2020-06-01 01:56:22.747780
A2DT28O8YHDU9B	2	1	0	0	143.87259640841333	2	0	0	296.45580146171596	64.0962947159118	-128.80601306223699	1700	1900	0	2020-06-01 01:56:29.857675
A2DT28O8YHDU9B	3	1	1	1451	155.97350949326812	10	-24	150.5	97.16247205590037	-19.44730518105831	154.7563826950003	1900	1850	0	2020-06-01 01:56:45.657185
A2DT28O8YHDU9B	4	2	1	1237	208.2319992363195	12	172	-106.5	324.7864877099075	170.1274035753242	-120.07177877700212	1850	1800	0	2020-06-01 01:56:51.674785
A2DT28O8YHDU9B	5	3	1	926	165.62239259325327	1	-9	173.5	90.91482731361033	-2.644338763229495	165.60128139848132	1800	1750	0	2020-06-01 01:56:57.444813
A2DT28O8YHDU9B	6	4	1	1357	270.4619799370537	3	111	-242.5	297.85704597026887	126.37799401498623	-239.11981352497608	1750	1700	0	2020-06-01 01:57:02.817151
A2DT28O8YHDU9B	7	5	1	1203	205.1400452172319	4	158	136.5	44.68997206027871	145.83868846842995	144.2688985801728	1700	1650	0	2020-06-01 01:57:08.908985
A2DT28O8YHDU9B	8	6	1	1526	260.0336615262554	8	-267	-8.5	181.9481358362905	-259.8833643086724	-8.839801036054029	1650	1600	0	2020-06-01 01:57:18.198704
A2DT28O8YHDU9B	9	7	1	1573	209.9138447095013	11	214	-32.5	349.4995461446318	206.3985149513805	-38.25539473838154	1600	1550	0	2020-06-01 01:57:24.649100
A2DT28O8YHDU9B	10	8	1	1236	178.2132046775103	0	58	161.5	67.15789057558887	69.18111915268177	164.23738634735582	1550	1500	0	2020-06-01 01:57:35.555839
A2DT28O8YHDU9B	11	9	1	1469	217.06104222716158	3	191	93.5	25.07280775814931	196.60738446893708	91.9838704612128	1500	1450	0	2020-06-01 01:57:41.618222
A2DT28O8YHDU9B	12	10	1	996	139.0475388915064	5	100	115.5	52.14322829878982	85.33203967517478	109.78461220343853	1450	1400	0	2020-06-01 01:57:47.347113
A2DT28O8YHDU9B	13	11	1	1251	267.4110800339978	4	78	242.5	70.11069941212261	90.97430701245447	251.4604565106666	1400	1350	0	2020-06-01 01:57:53.219978
A2DT28O8YHDU9B	14	12	1	1191	221.44627981074962	7	-143	-160.5	230.70588365814845	-140.24223997028022	-171.37843787985452	1350	1300	0	2020-06-01 01:57:58.790633
A2DT28O8YHDU9B	15	13	0	0	121.71503105141795	12	0	0	223.00762578991433	-89.0056895589939	-83.02129853221788	1300	1500	0	2020-06-01 01:58:09.200795
A2DT28O8YHDU9B	16	13	0	0	214.4300824992842	8	0	0	43.635078583583734	155.19366827300234	147.97021865436008	1500	1700	0	2020-06-01 01:58:15.305651
A2DT28O8YHDU9B	17	13	0	0	270.1346396723293	3	0	0	140.51309885431792	-208.48180606194853	171.77910260578048	1700	1900	0	2020-06-01 01:58:23.921543
A2DT28O8YHDU9B	18	13	1	1395	209.53691823852472	10	-167	124.5	143.23216380861984	-167.85321844922288	125.42335173776715	1900	1850	0	2020-06-01 01:58:29.298175
A2DT28O8YHDU9B	19	14	1	988	135.17962151900846	0	-39	-116.5	254.51196305254305	-36.097983486415245	-130.27073985449255	1850	1800	0	2020-06-01 01:58:35.461831
A2DT28O8YHDU9B	20	15	1	1579	136.63367719067963	4	129	11.5	4.552781316430439	136.20254787821344	10.845630185923945	1800	1750	0	2020-06-01 01:58:41.008403
A2DT28O8YHDU9B	21	16	1	1093	258.2153034130672	0	158	181.5	44.05993148355388	185.55682040771256	179.56561284634168	1750	1700	0	2020-06-01 01:58:46.177718
A2DT28O8YHDU9B	22	17	0	0	240.19253882211774	11	0	0	74.59537753149627	63.80328017331766	231.56337608728126	1700	1900	0	2020-06-01 01:58:52.547056
A2DT28O8YHDU9B	23	17	0	1085	117.05188412017384	14	-2	66.5	142.54969078700742	-92.92526694288101	71.17610792728773	1900	2000	0	2020-06-01 01:58:58.496843
A2DT28O8YHDU9B	24	17	1	1328	206.03182258124525	1	89	191.5	64.7011770143477	88.04549297129253	186.2715842086275	2000	1950	0	2020-06-01 01:59:03.906635
A2DT28O8YHDU9B	25	18	0	0	295.898105719863	11	0	0	187.03591679974528	-293.6698630348268	-36.24500674174708	1950	2000	0	2020-06-01 01:59:11.966567
A2DT28O8YHDU9B	26	18	1	1329	163.87534926426892	7	137	61.5	25.868028928388007	147.45526451439108	71.49877665720643	2000	1950	0	2020-06-01 01:59:17.417619
A2DT28O8YHDU9B	27	19	1	1197	140.7054043359326	3	115	-58.5	330.90724286361456	122.95312332009293	-68.41447416426075	1950	1900	0	2020-06-01 01:59:23.472923
A2DT28O8YHDU9B	28	20	1	1471	227.0378373076439	5	-221	70.5	160.69451335721624	-214.271340154516	75.05979188433629	1900	1850	0	2020-06-01 01:59:29.725905
A2DT28O8YHDU9B	29	21	1	1582	171.55686929074216	7	-54	165.5	103.84129723189537	-41.042126718199164	166.57521795059455	1850	1800	0	2020-06-01 01:59:35.892132
A2DT28O8YHDU9B	30	22	1	1363	186.5864980258914	12	-192	-56.5	196.8090473471848	-178.6143745289943	-53.957635763459116	1800	1750	0	2020-06-01 01:59:41.768410
A2DT28O8YHDU9B	31	23	1	1260	264.1570829032902	3	-267	-61.5	190.60871941125484	-259.6419366503955	-48.63156567917317	1750	1700	0	2020-06-01 01:59:47.584301
A2DT28O8YHDU9B	32	24	1	1364	176.78875590287964	3	-175	-48.5	197.56078044681223	-168.54994372408945	-53.34023513534823	1700	1650	0	2020-06-01 01:59:53.811198
A2DT28O8YHDU9B	33	25	1	1444	257.6015241630048	4	-147	-218.5	237.10848606079986	-139.89053040325393	-216.3080783387422	1650	1600	0	2020-06-01 02:00:03.156757
A2DT28O8YHDU9B	34	26	0	0	203.994923608918	0	0	0	318.254676811392	152.20300448207294	-135.82405635541286	1600	1800	0	2020-06-01 02:00:18.076693
A2DT28O8YHDU9B	35	26	1	1360	253.2963148236079	4	232	93.5	21.66776885025928	235.39850404207283	93.52308483991806	1800	1750	0	2020-06-01 02:00:23.954204
A2DT28O8YHDU9B	36	27	1	1368	284.16642461490903	4	-184	222.5	129.2175815407976	-179.66907242684374	220.1580825036827	1750	1700	0	2020-06-01 02:00:30.624845
A2DT28O8YHDU9B	37	28	1	1469	159.17107393379297	9	-144	54.5	161.39789639371594	-150.8554515800406	50.77463447252981	1700	1650	0	2020-06-01 02:00:36.882777
A2DT28O8YHDU9B	38	29	1	921	115.02660495295203	1	-30	117.5	101.03805369267108	-22.023098797076983	112.89864023262935	1650	1600	0	2020-06-01 02:00:42.235105
A2DT28O8YHDU9B	39	30	1	1399	144.23969837887495	0	5	-135.5	271.43847784322026	3.6209266306485253	-144.19424218312005	1600	1550	0	2020-06-01 02:00:48.369564
A2DT28O8YHDU9B	40	31	1	1228	108.17469626796137	5	-104	42.5	154.3978724083991	-97.55372391474293	46.744367179712775	1550	1500	0	2020-06-01 02:00:58.543392
A2DT28O8YHDU9B	41	32	1	1269	261.353027565605	13	-12	272.5	91.54419359007593	-7.0429413309888895	261.25811374025517	1500	1450	0	2020-06-01 02:01:04.330595
A2DT28O8YHDU9B	42	33	1	1192	238.9825803988149	1	-124	-207.5	239.27930948149438	-122.08506193710977	-205.4456409512942	1450	1400	0	2020-06-01 02:01:10.093785
A2DT28O8YHDU9B	43	34	1	1296	220.56184382340717	5	103	178.5	60.60435408117349	108.26003416372689	192.16475211039548	1400	1350	0	2020-06-01 02:01:15.921700
A2DT28O8YHDU9B	44	35	0	0	240.65206840692434	11	0	0	24.938854609606906	218.21325662780882	101.47114200804606	1350	1550	0	2020-06-01 02:01:22.350904
A2DT28O8YHDU9B	45	35	1	1121	155.43514353108336	2	-137	82.5	145.51876671243562	-128.1270020618957	87.99747261802156	1550	1500	0	2020-06-01 02:01:27.918399
A2DT28O8YHDU9B	46	36	1	1371	262.4705177811966	11	-79	233.5	106.01451533955954	-72.41059570200458	252.28451861818684	1500	1450	0	2020-06-01 02:01:33.763152
A2DT28O8YHDU9B	47	37	1	1139	110.8927018429374	3	-62	-80.5	230.85553724328665	-70.00410597512003	-86.0035840453802	1450	1400	0	2020-06-01 02:01:38.852694
A2DT28O8YHDU9B	48	38	1	1113	228.72910807046537	1	87	-219.5	291.5278082631179	83.93277698482532	-212.772869103009	1400	1350	0	2020-06-01 02:01:44.364290
A2DT28O8YHDU9B	49	39	1	1291	299.47299999602103	3	286	71.5	13.971680766263761	290.6131454968034	72.30544509973373	1350	1300	0	2020-06-01 02:01:50.113397
A2DT28O8YHDU9B	50	40	1	1226	251.99741363601956	4	-93	234.5	110.70338646288975	-89.08867903576646	235.72421120221256	1300	1250	0	2020-06-01 02:01:55.561045
A2DT28O8YHDU9B	51	41	0	1074	247.05445342487792	1	-89	-153.5	229.0093764468932	-162.05178941913792	-186.4808850877766	1250	1450	0	2020-06-01 02:02:01.099438
A2DT28O8YHDU9B	52	41	1	1395	213.29174389074979	1	207	-7.5	357.4185766185125	213.07530076463968	-9.606467405635781	1450	1400	0	2020-06-01 02:02:07.146694
A2DT28O8YHDU9B	53	42	0	0	156.89145686826078	0	0	0	76.40220592625865	36.88591760874991	152.49379764569392	1400	1600	0	2020-06-01 02:02:13.566652
A2DT28O8YHDU9B	54	42	1	1199	121.01013277634571	14	-116	2.5	182.06724852454442	-120.9313765779265	-4.365133848640689	1600	1550	0	2020-06-01 02:02:23.266001
A2DT28O8YHDU9B	55	43	1	1415	188.12704847880002	9	107	-149.5	306.2814489946079	111.32459621611693	-151.65296121956635	1550	1500	0	2020-06-01 02:02:31.792253
A2DT28O8YHDU9B	56	44	1	1163	148.54475997365176	2	-133	-73.5	209.01409904235328	-129.90244923311792	-72.04789656101724	1500	1450	0	2020-06-01 02:02:37.409634
A2DT28O8YHDU9B	57	45	1	1091	248.02301924175927	3	1	251.5	88.70759385392563	5.59411696910258	247.95992403841007	1450	1400	0	2020-06-01 02:02:45.288782
A2DT28O8YHDU9B	58	46	1	1259	156.2988438045586	13	127	71.5	25.601900542957257	140.9531409360067	67.5391785182204	1400	1350	0	2020-06-01 02:02:51.700521
A2DT28O8YHDU9B	59	47	1	1090	230.71648474220683	0	-7	234.5	93.51669507493922	-14.152005547468605	230.2820380984704	1350	1300	0	2020-06-01 02:02:58.049901
A2DT28O8YHDU9B	60	48	1	1194	286.1288176291805	12	-158	-229.5	237.14923123715485	-155.21138072188776	-240.3728927568124	1300	1250	0	2020-06-01 02:03:03.655764
A2DT28O8YHDU9B	61	49	0	0	191.48260824221612	6	0	0	191.67505813831744	-187.52102354873958	-38.7486127038771	1250	1450	0	2020-06-01 02:03:10.105878
A2DT28O8YHDU9B	62	49	0	0	204.7177517714303	12	0	0	155.96321213200574	-186.96547099569548	83.38627312517755	1450	1650	0	2020-06-01 02:03:16.307646
A2DT28O8YHDU9B	63	49	0	0	204.82573267111434	0	0	0	253.11677016017117	-59.48592496016354	-195.99746298330646	1650	1850	0	2020-06-01 02:03:28.457177
A2DT28O8YHDU9B	64	49	1	1337	138.95945068146003	4	128	-9.5	356.6207742288229	138.71783709528506	-8.19088550152403	1850	1800	0	2020-06-01 02:03:34.314817
A2DT28O8YHDU9B	65	50	1	1104	187.78934060001492	5	-45	178.5	101.34340097249645	-36.936077637055064	184.12105423274616	1800	1750	0	2020-06-01 02:03:39.737767
A2DT28O8YHDU9B	66	51	1	1142	289.80256850193507	0	212	172.5	37.64477869020009	229.4693111346262	177.0010281261634	1750	1700	0	2020-06-01 02:03:44.922285
A2DT28O8YHDU9B	67	52	1	1126	259.5321901576479	13	249	-8.5	357.5572124959146	259.29634793217093	-11.061721252321119	1700	1650	0	2020-06-01 02:03:50.288528
A2DT28O8YHDU9B	68	53	1	1051	269.79634256521155	13	55	254.5	78.04284104321508	55.89647502999545	263.94251370475746	1650	1600	0	2020-06-01 02:03:55.735337
A2DT28O8YHDU9B	69	54	1	1509	238.64112276482166	10	210	119.5	28.966614747407213	208.78760722734248	115.5738748279024	1600	1550	0	2020-06-01 02:04:01.774554
A2DT28O8YHDU9B	70	55	1	1184	271.98265286925795	7	-166	227.5	125.29263569760619	-157.13871758748766	221.9954659373904	1550	1500	0	2020-06-01 02:04:07.444266
A2DT28O8YHDU9B	71	56	0	0	224.63086136522674	14	0	0	343.35861389167223	215.22241449606676	-64.3299011049057	1500	1700	0	2020-06-01 02:04:13.278576
A2DT28O8YHDU9B	72	56	0	0	141.77695516084566	3	0	0	132.80608881357827	-96.34017361011965	104.01574863188962	1700	1900	0	2020-06-01 02:04:19.604478
A2DT28O8YHDU9B	73	56	1	1311	256.941087020324	12	160	193.5	50.436525162951085	163.65417262079723	198.08087737837798	1900	1850	0	2020-06-01 02:04:25.670312
A2DT28O8YHDU9B	74	57	1	1407	154.89916905087546	6	18	-148.5	278.4526033510298	22.76881775078821	-153.21662282821367	1850	1800	0	2020-06-01 02:04:31.627400
A2DT28O8YHDU9B	75	58	1	1240	282.75147019754854	1	10	-270.5	272.7741012493674	13.684686520907798	-282.42011835862485	1800	1750	0	2020-06-01 02:04:37.275951
A2DT28O8YHDU9B	76	59	1	1065	295.6336910518247	7	5	-304.5	272.09743282861575	10.819877701129094	-295.43562671326276	1750	1700	0	2020-06-01 02:04:42.767790
A2DT28O8YHDU9B	77	60	1	1287	116.02902544557843	12	-47	-101.5	247.00258449050082	-45.331334245142536	-106.8073259725467	1700	1650	0	2020-06-01 02:04:48.902247
A2DT28O8YHDU9B	78	61	1	1011	115.33131548683615	4	-91	-70.5	218.77932676289475	-89.90814196193558	-72.23460625542697	1650	1600	0	2020-06-01 02:04:57.806306
A2DT28O8YHDU9B	79	62	1	1102	207.8460931752437	13	136	135.5	44.19213926916322	149.0269476185735	144.88259844337082	1600	1550	0	2020-06-01 02:05:02.952017
A2DT28O8YHDU9B	80	63	1	1313	181.7031073333115	11	99	156.5	61.41368254622331	86.94169839100638	159.55300152447208	1550	1500	0	2020-06-01 02:05:08.330766
A2DT28O8YHDU9B	81	64	1	1267	146.02448970513996	1	48	-127.5	290.93143988373083	52.167332345942775	-136.38812642438666	1500	1450	0	2020-06-01 02:05:14.768714
A2DT28O8YHDU9B	82	65	0	0	219.80690414066953	8	0	0	142.48514120253714	-174.34983415630472	133.85518457487748	1450	1650	0	2020-06-01 02:05:21.282620
A2DT28O8YHDU9B	83	65	0	7	161.02846475726153	7	-5	3.5	182.05108297255723	-160.9252961730754	-5.7632901791065265	1650	1850	0	2020-06-01 02:05:29.732126
A2DT28O8YHDU9B	84	65	1	919	135.44878927549368	4	136	-26.5	351.9233120519013	134.10525980512853	-19.030339166606357	1850	1800	0	2020-06-01 02:05:34.682774
A2DT28O8YHDU9B	85	66	1	1130	270.43512860344754	4	-267	22.5	175.18339303441329	-269.48010416930146	22.70753706736263	1800	1750	0	2020-06-01 02:05:39.866992
A2DT28O8YHDU9B	86	67	1	1011	187.2331868679939	7	61	185.5	71.13605179012067	60.53661892542853	177.17670285289367	1750	1700	0	2020-06-01 02:05:44.847509
A2DT28O8YHDU9B	87	68	1	1274	226.1078129970897	8	90	216.5	71.11583425457576	73.1811380680194	213.9375238928327	1700	1650	0	2020-06-01 02:05:51.606736
A2DT28O8YHDU9B	88	69	1	1286	165.35199281164506	5	150	-14.5	353.715260856634	164.35825183536983	-18.101010480176814	1650	1600	0	2020-06-01 02:05:57.746350
A2DT28O8YHDU9B	89	70	1	1586	298.0131646260457	1	-239	194.5	142.4479384323397	-236.26479649282342	181.6336759211665	1600	1550	0	2020-06-01 02:06:04.517469
A2DT28O8YHDU9B	90	71	1	1537	260.5366870167592	0	162	-187.5	311.261991584324	171.82476712978288	-195.84589524027461	1550	1500	0	2020-06-01 02:06:14.183212
A2DT28O8YHDU9B	91	72	1	1219	116.07656227761444	2	-115	-14.5	187.58656336179624	-115.06048944591723	-15.324884294991437	1500	1450	0	2020-06-01 02:06:20.396307
A2DT28O8YHDU9B	92	73	1	1297	165.27577833467478	3	-67	146.5	113.86828089518065	-66.87642921563857	151.14108018503188	1450	1400	0	2020-06-01 02:06:26.477271
A2DT28O8YHDU9B	93	74	0	0	272.053695638802	7	0	0	51.51293952611568	169.30931981573212	212.94968310439924	1400	1600	0	2020-06-01 02:06:31.907506
A2DT28O8YHDU9B	94	74	1	1424	273.80987652586356	5	-272	-16.5	183.66656844617185	-273.24941574541714	-17.510147854796074	1600	1550	0	2020-06-01 02:06:38.270133
A2DT28O8YHDU9B	95	75	1	1219	206.01616195628566	1	31	203.5	77.51840113600082	44.525460381992175	201.1470665084882	1550	1500	0	2020-06-01 02:06:47.628211
A2DT28O8YHDU9B	96	76	0	0	132.36678490683	4	0	0	43.09041522377204	96.66436146169228	90.42658331361578	1500	1700	0	2020-06-01 02:06:54.310361
A2DT28O8YHDU9B	97	76	1	1213	233.56456737931302	4	10	-236.5	272.0672378547371	8.425206349171072	-233.41255971575208	1700	1650	0	2020-06-01 02:07:00.828531
A2DT28O8YHDU9B	98	77	1	1239	162.69261529888612	4	-135	87.5	144.80394476540522	-132.94989703416468	93.7721277960374	1650	1600	0	2020-06-01 02:07:10.027371
A2DT28O8YHDU9B	99	78	1	1331	251.693633624843	7	244	45.5	11.02230287449399	247.0505996458247	48.121579586658854	1600	1550	0	2020-06-01 02:07:16.305022
A2DT28O8YHDU9B	100	79	1	1092	105.67213657302518	9	69	-90.5	306.73328085505204	63.20152910049697	-84.68864839674276	1550	1500	0	2020-06-01 02:07:22.704812
A2DT28O8YHDU9B	101	80	1	1285	107.13967088366907	4	-55	90.5	123.26763386261067	-58.7715292975105	89.5813396924426	1500	1450	0	2020-06-01 02:07:28.856723
A2DT28O8YHDU9B	102	81	1	1195	251.97752009197353	9	-247	-79.5	197.78162675658785	-239.93989181000507	-76.9514064192721	1450	1400	0	2020-06-01 02:07:35.334554
A2DT28O8YHDU9B	103	82	1	1221	164.0139642029585	9	174	-4.5	356.8652144353142	163.76854253538517	-8.969109733139634	1400	1350	0	2020-06-01 02:07:41.302623
A2DT28O8YHDU9B	104	83	1	1277	220.55884838632124	14	213	-67.5	339.67793593015983	206.83022096202882	-76.59938184018576	1350	1300	0	2020-06-01 02:07:46.562088
A2DT28O8YHDU9B	105	84	0	0	151.6132490020556	2	0	0	102.04733094874827	-31.644664089627447	148.2740452932136	1300	1500	0	2020-06-01 02:07:51.892335
A2DT28O8YHDU9B	106	84	1	1017	243.83007902772053	2	242	11.5	3.080743806859658	243.47769310429626	13.104213035301346	1500	1450	0	2020-06-01 02:07:56.965336
A2DT28O8YHDU9B	107	85	1	1195	241.23074348771746	10	-3	-243.5	271.17593949834634	4.950676067576059	-241.17993782674145	1450	1400	0	2020-06-01 02:08:02.194374
A2DT28O8YHDU9B	108	86	1	1151	285.25922777297313	1	-223	175.5	143.76175049281989	-230.08035320816614	168.6293512329288	1400	1350	0	2020-06-01 02:08:07.711667
A2DT28O8YHDU9B	109	87	1	1214	211.6351081977341	2	-149	148.5	133.6656318257868	-146.12316920087727	153.09290788458625	1350	1300	0	2020-06-01 02:08:16.605332
A2DT28O8YHDU9B	110	88	1	1195	135.57357478888594	10	-90	-95.5	227.21203392236623	-92.09339168631155	-99.49372537376037	1300	1250	0	2020-06-01 02:08:19.270198
A2DT28O8YHDU9B	111	89	1	1148	231.58595608293382	0	-181	148.5	138.89842042925432	-174.5105015795229	152.24368588979277	1250	1200	0	2020-06-01 02:08:24.372141
A2DT28O8YHDU9B	112	90	1	1141	177.0136749077603	9	-161	55.5	161.74362823132861	-168.10356659218726	55.45297109566186	1200	1150	0	2020-06-01 02:08:30.537553
A2DT28O8YHDU9B	113	91	0	0	270.4560837784139	14	0	0	179.1177616602112	-270.42402220967415	4.164308429752002	1150	1350	0	2020-06-01 02:08:40.063862
A2DT28O8YHDU9B	114	91	1	1042	140.7765079406308	14	63	-136.5	296.9362919614261	63.77168711029321	-125.50377329413388	1350	1300	0	2020-06-01 02:08:45.163045
A2DT28O8YHDU9B	115	92	0	0	225.18744827754108	5	0	0	211.3105798366205	-192.39179793392347	-117.02471084989953	1300	1500	0	2020-06-01 02:08:50.817266
A2DT28O8YHDU9B	116	92	1	1186	176.79133483985925	14	-21	-183.5	263.56673949809647	-19.808726705282304	-175.6780874804102	1500	1450	0	2020-06-01 02:08:56.797613
A2DT28O8YHDU9B	117	93	1	1183	211.69738690750393	11	-88	-180.5	242.9864591654315	-96.1531776477441	-188.6010340684981	1450	1400	0	2020-06-01 02:09:02.499188
A2DT28O8YHDU9B	118	94	1	1375	294.24428106036726	14	-22	-278.5	266.3936827842195	-18.508129407247868	-293.66161833405636	1400	1350	0	2020-06-01 02:09:07.856658
A2DT28O8YHDU9B	119	95	1	1215	190.68186386552918	11	-79	167.5	117.09961918602501	-86.86302376465898	169.74801415537235	1350	1300	0	2020-06-01 02:09:14.277246
A2DT28O8YHDU9B	120	96	0	0	208.17076925044998	3	0	0	151.64252193837842	-183.1905504893824	98.87513024882006	1300	1500	0	2020-06-01 02:09:19.996737
A2DT28O8YHDU9B	121	96	1	1489	175.05513398355697	6	-162	6.5	176.042021463325	-174.63761738136975	12.083150638777415	1500	1450	0	2020-06-01 02:09:26.001862
A2DT28O8YHDU9B	122	97	1	1316	181.7932864006966	0	45	167.5	74.12425643703855	49.729923709449025	174.85918239605854	1450	1400	0	2020-06-01 02:09:32.407986
A2DT28O8YHDU9B	123	98	1	1275	132.87511804211806	7	-119	-69.5	209.87185929114952	-115.22152593416278	-66.1800344220964	1400	1350	0	2020-06-01 02:09:38.653963
A2DT28O8YHDU9B	124	99	0	0	266.00307849299884	7	0	0	332.0360069376698	234.94521155744647	-124.73325672802433	1350	1550	0	2020-06-01 02:09:45.352195
A2DT28O8YHDU9B	125	99	1	1243	210.85471408642533	12	-201	42.5	168.60911680295493	-206.70142720294413	41.64409255505707	1550	1500	0	2020-06-01 02:09:50.625056
A2DT28O8YHDU9B	126	100	1	1294	252.40036105663418	11	-88	231.5	109.24908937528002	-83.2102506778951	238.28973214060474	1500	1450	0	2020-06-01 02:09:55.945359
A2DT28O8YHDU9B	127	101	1	1323	241.67278800734087	8	-245	45.5	170.9341064051195	-238.6537579866827	38.08044461498571	1450	1400	0	2020-06-01 02:10:01.788350
A2DT28O8YHDU9B	128	102	1	1126	122.32189922353065	2	25	-116.5	286.79814524597816	35.351127572636834	-117.10228353450134	1400	1350	0	2020-06-01 02:10:06.923438
A2DT28O8YHDU9B	129	103	0	0	167.6805866571122	0	0	0	325.81512304372467	138.71022819589	-94.21386169517433	1350	1550	0	2020-06-01 02:10:12.549474
A2DT28O8YHDU9B	130	103	1	1064	285.39267756869197	6	101	266.5	71.24679531892976	91.75158505045076	270.24179367847097	1550	1500	0	2020-06-01 02:10:17.550647
A2DT28O8YHDU9B	131	104	1	1279	188.2096026628609	9	-198	-9.5	182.82882195138743	-187.98025753316085	-9.28855813775754	1500	1450	0	2020-06-01 02:10:23.224712
A2DT28O8YHDU9B	132	105	1	1472	158.68015955482616	8	-94	133.5	122.45981766029828	-85.16491011037073	133.88924946476308	1450	1400	0	2020-06-01 02:10:29.492010
A2DT28O8YHDU9B	133	106	1	1302	108.65496368109619	1	103	-48.5	333.3274173499275	97.09258648603834	-48.77428402336108	1400	1350	0	2020-06-01 02:10:35.602513
A2DT28O8YHDU9B	134	107	0	0	218.66728621470597	11	0	0	208.40093531465544	-192.34866844004253	-104.00659503053987	1350	1550	0	2020-06-01 02:10:41.733942
A2DT28O8YHDU9B	135	107	1	1329	223.9418291157741	1	-201	-47.5	191.34681777494902	-219.5647111290591	-44.05996430469958	1550	1500	0	2020-06-01 02:10:47.144913
A2DT28O8YHDU9B	136	108	1	1105	218.87526088043654	11	-201	-42.5	191.48598381703962	-214.49194373373004	-43.58423911009049	1500	1450	0	2020-06-01 02:10:52.986937
A2DT28O8YHDU9B	137	109	1	1041	224.57871284387335	14	-157	-143.5	215.83860377287075	-182.05911557418884	-131.49173623827116	1450	1400	0	2020-06-01 02:10:58.636588
A2DT28O8YHDU9B	138	110	1	1242	160.96570149376356	0	-165	73.5	155.49671924636044	-146.46873187730424	66.75977561102013	1400	1350	0	2020-06-01 02:11:04.413329
A2DT28O8YHDU9B	139	111	1	1169	256.9600686732275	12	-135	-214.5	238.24010113316737	-135.25371484293996	-218.48320190287967	1350	1300	0	2020-06-01 02:11:10.759213
A2DT28O8YHDU9B	140	112	0	0	175.70767574992945	12	0	0	182.04423933478466	-175.59585230074035	-6.267692734885178	1300	1500	0	2020-06-01 02:11:17.472407
A2DT28O8YHDU9B	141	112	1	958	112.36645529845659	3	106	-2.5	356.2388037667911	112.1244318520363	-7.371028299912585	1500	1450	0	2020-06-01 02:11:29.246439
A2DT28O8YHDU9B	142	113	0	0	208.70926964467506	4	0	0	308.6189215882451	130.2633141625282	-163.06755722401732	1450	1650	0	2020-06-01 02:11:35.704125
A2DT28O8YHDU9B	143	113	1	1278	231.0783614907129	8	64	211.5	72.60954872366105	69.06510682360943	220.51580480472595	1650	1600	0	2020-06-01 02:11:41.424886
A2DT28O8YHDU9B	144	114	1	1239	290.6779015297594	1	75	-280.5	284.1681630105571	71.14884212108834	-281.8359180490893	1600	1550	0	2020-06-01 02:11:50.262117
A2DT28O8YHDU9B	145	115	1	1093	156.3459589595746	4	-109	114.5	136.7703176568948	-113.915838410855	107.0852027226029	1550	1500	0	2020-06-01 02:11:55.827656
A2DT28O8YHDU9B	146	116	1	1252	132.31311351755366	7	124	-31.5	343.69472858044236	126.99140937814741	-37.147569945567334	1500	1450	0	2020-06-01 02:12:08.626437
A2DT28O8YHDU9B	147	117	1	926	102.78480089107953	14	95	-27.5	348.49576955803457	100.71985234892801	-20.49943016351921	1450	1400	0	2020-06-01 02:12:14.507220
A2DT28O8YHDU9B	148	118	1	1273	226.75052096697303	7	-41	-230.5	257.8504265431221	-47.722930936886065	-221.67165046885648	1400	1350	0	2020-06-01 02:12:20.009708
A2DT28O8YHDU9B	149	119	1	916	120.06156298140418	5	102	50.5	28.519191411115543	105.49296125424327	57.32376497883239	1350	1300	0	2020-06-01 02:12:26.011746
A2DT28O8YHDU9B	150	120	0	0	195.7900187921119	14	0	0	318.7625771700026	147.23106415573307	-129.06101350208726	1300	1500	0	2020-06-01 02:12:31.771669
A2DT28O8YHDU9B	151	120	1	1020	100.6015124217829	9	-36	88.5	113.19110612768077	-39.616798118231955	92.4725559742424	1500	1450	0	2020-06-01 02:12:43.419771
A2DT28O8YHDU9B	152	121	0	0	237.96828920407677	9	0	0	164.02220391611579	-228.77520341289133	65.50429734074945	1450	1650	0	2020-06-01 02:12:52.134279
A2DT28O8YHDU9B	153	121	1	1597	223.1784557794112	0	216	-23.5	351.5480979639104	220.75464761025748	-32.80257127960615	1650	1600	0	2020-06-01 02:12:58.514011
A2DT28O8YHDU9B	154	122	1	1434	266.39254934253387	6	268	-6.5	356.56382709979533	265.9136252805138	-15.966660120038334	1600	1550	0	2020-06-01 02:13:04.682278
A2DT28O8YHDU9B	155	123	1	1309	188.51264165849085	11	-156	72.5	157.5515749430555	-174.22783828385414	71.9838623025866	1550	1500	0	2020-06-01 02:13:10.803949
A2DT28O8YHDU9B	156	124	0	0	199.34577029650202	8	0	0	161.42077213526136	-188.95666292543817	63.51468862545177	1500	1700	0	2020-06-01 02:13:19.349236
A2DT28O8YHDU9B	157	124	1	864	116.8986484180023	11	46	91.5	56.03670987075038	65.3067880242491	96.95523420585144	1700	1650	0	2020-06-01 02:13:24.892013
A2DT28O8YHDU9B	158	125	1	1145	185.2138597316815	1	-154	-16.5	183.6705048937038	-184.8339317301748	-11.857129411121036	1650	1600	0	2020-06-01 02:13:31.619117
A2DT28O8YHDU9B	159	126	1	1478	239.76200897902683	10	-10	-238.5	267.0441075983944	-12.363848998080826	-239.44301240088757	1600	1550	0	2020-06-01 02:13:37.719738
A2DT28O8YHDU9B	160	127	1	1458	127.27978942276832	12	22	-122.5	282.54862795701547	27.653842577928856	-124.23932463668407	1550	1500	0	2020-06-01 02:13:47.188191
A2DT28O8YHDU9B	161	128	1	1133	150.8460326543331	9	34	-155.5	283.1332191502093	34.2746268082182	-146.9005633913958	1500	1450	0	2020-06-01 02:13:53.252867
A2DT28O8YHDU9B	162	129	1	1080	274.70394908180856	10	-161	-198.5	227.4671525026993	-185.70337904296224	-202.42656607561852	1450	1400	0	2020-06-01 02:14:01.486219
A2DT28O8YHDU9B	163	130	0	0	195.76424989180393	1	0	0	155.70094803218345	-178.42151174029232	80.55684753023411	1400	1600	0	2020-06-01 02:14:07.818409
A2DT28O8YHDU9B	164	130	1	1152	116.44127807210766	4	-15	-124.5	261.49636615845947	-17.21842058746874	-115.16117935979526	1600	1550	0	2020-06-01 02:14:14.032401
A2DT28O8YHDU9B	165	131	1	1253	297.4633164875832	8	122	258.5	67.7607646877884	112.58234566170792	275.33550461409766	1550	1500	0	2020-06-01 02:14:22.324715
A2DT28O8YHDU9B	166	132	1	1221	210.9185872272722	0	-57	-220.5	256.50064519460557	-49.23565685474479	-205.09144431699306	1500	1450	0	2020-06-01 02:14:28.426404
A2DT28O8YHDU9B	167	133	1	1082	168.1238443486792	11	140	69.5	23.563593484358066	154.10516236276575	67.21031149849345	1450	1400	0	2020-06-01 02:14:36.958190
A2DT28O8YHDU9B	168	134	0	0	237.9060190476603	0	0	0	246.5342364080413	-94.73441932697058	-218.23075790063922	1400	1600	0	2020-06-01 02:14:49.720730
A2DT28O8YHDU9B	169	134	1	1248	281.0091574610384	1	283	-76.5	344.63669546230557	270.96737493360945	-74.45017326072121	1600	1550	0	2020-06-01 02:14:55.858285
A2DT28O8YHDU9B	170	135	1	1163	210.9490756864567	14	159	-151.5	319.19680199942496	159.67971349772657	-137.84738528624473	1550	1500	0	2020-06-01 02:15:03.543005
A2DT28O8YHDU9B	171	136	1	1297	298.58536922554663	0	218	187.5	42.350048181034026	220.66740693919328	201.14452075631712	1500	1450	0	2020-06-01 02:15:08.108255
A2DT28O8YHDU9B	172	137	1	935	274.94264612070276	9	173	-216.5	307.89612173510415	168.87851278879933	-216.96429792502113	1450	1400	0	2020-06-01 02:15:13.051695
A2DT28O8YHDU9B	173	138	0	95	126.44814145178071	8	-2	-4.5	7.24349515086228	125.43899307525541	15.943383984448452	1400	1600	0	2020-06-01 02:15:17.722390
A2DT28O8YHDU9B	174	138	1	1128	178.74842515939218	3	84	156.5	63.17659848603063	80.6588084833552	159.51537891691902	1600	1550	0	2020-06-01 02:15:26.549388
A2DT28O8YHDU9B	175	139	1	1196	261.1553213588382	14	191	-203.5	320.7988876072666	202.3776723610697	-165.06174482221363	1550	1500	0	2020-06-01 02:15:38.575558
A2DT28O8YHDU9B	176	140	1	1175	237.356180898737	7	-209	0.5	178.22065749942163	-237.241732562115	7.370002833097728	1500	1450	0	2020-06-01 02:15:45.105683
A2DT28O8YHDU9B	177	141	1	1204	280.77867353773763	10	-42	-275.5	258.8170290880858	-54.454999143628214	-275.4474842540387	1450	1400	0	2020-06-01 02:15:52.287780
A2DT28O8YHDU9B	178	142	0	0	179.31405394551638	4	0	0	242.3980357600055	-83.08093796773001	-158.9059082878222	1400	1600	0	2020-06-01 02:15:58.590605
A2DT28O8YHDU9B	179	142	1	1295	201.06551987365447	0	64	188.5	75.24577931003384	51.20599631828093	194.4358228905238	1600	1550	0	2020-06-01 02:16:08.791686
A2DT28O8YHDU9B	180	143	1	1283	255.89083483954278	7	211	-125.5	329.56629842716154	220.63313858957414	-129.61920193779903	1550	1500	0	2020-06-01 02:16:14.432854
A2DT28O8YHDU9B	181	144	1	1152	262.5438216626624	3	127	-245.5	297.65903499227943	121.87517690013428	-232.5418232249779	1500	1450	0	2020-06-01 02:16:20.076478
A2DT28O8YHDU9B	182	145	1	1366	130.34874552339235	4	-128	-5.5	183.15170089580278	-130.15158858092383	-7.166550731281998	1450	1400	0	2020-06-01 02:16:25.825989
A2DT28O8YHDU9B	183	146	1	1123	144.03381689638124	9	-94	-99.5	226.3059149991367	-99.4996799998401	-104.14199004085575	1400	1350	0	2020-06-01 02:16:35.673042
A2DT28O8YHDU9B	184	147	0	0	173.07571146858822	7	0	0	142.48592609020966	-137.2843090125175	105.39554259698846	1350	1550	0	2020-06-01 02:16:41.666715
A2DT28O8YHDU9B	185	147	1	1060	100.74624922206476	8	29	106.5	66.01280053478878	40.95662822760724	92.04543082923753	1550	1500	0	2020-06-01 02:16:47.192238
A2DT28O8YHDU9B	186	148	0	0	286.88244036872396	6	0	0	104.20509949280265	-70.39913443961585	278.11058315365733	1500	1700	0	2020-06-01 02:16:53.957532
A2DT28O8YHDU9B	187	148	1	1329	262.6541608749406	5	-10	265.5	91.70279283244334	-7.80475964853531	262.53817617967064	1700	1650	0	2020-06-01 02:16:59.655048
A2DT28O8YHDU9B	188	149	1	1046	159.28312462908264	7	135	78.5	29.5478641904052	138.56740298377858	78.55054819627286	1650	1600	0	2020-06-01 02:17:05.303726
A2DT28O8YHDU9B	189	150	1	1284	266.7246340857251	3	105	247.5	66.28196684570975	107.2862367078845	244.1960152034093	1600	1550	0	2020-06-01 02:17:13.632762
