A33VGSEJ44ORMF	1	1	1	1456	239.89942803091316	12	213	-127.5	331.1264515714997	210.0769421942318	-115.84219407401037	1500	1450	0	2020-05-30 21:56:20.009630
A33VGSEJ44ORMF	2	2	1	855	129.14443288728705	12	51	-121.5	293.4260766831312	51.343376408667005	-118.4995453355705	1450	1400	0	2020-05-30 21:56:24.898557
A33VGSEJ44ORMF	3	3	1	1104	130.99558598096124	13	134	30.5	15.856436770630102	126.01111599773948	35.791649745431585	1400	1350	0	2020-05-30 21:56:29.933155
A33VGSEJ44ORMF	4	4	1	1111	138.5921942395413	11	-68	104.5	116.27941148697167	-61.36155834220081	124.2680790144735	1350	1300	0	2020-05-30 21:56:35.847306
A33VGSEJ44ORMF	5	5	1	815	118.20029291723145	12	-80	-72.5	213.70684198694468	-98.32938864836898	-65.59451633907611	1300	1250	0	2020-05-30 21:56:41.412158
A33VGSEJ44ORMF	6	6	0	0	194.6099427263542	6	0	0	304.582421530425	110.45888670227842	-160.22441810300978	1250	1450	0	2020-05-30 21:56:47.108617
A33VGSEJ44ORMF	7	6	1	1216	291.3007479807799	11	80	-280.5	284.7371289367854	74.10245403513328	-281.7178590010452	1450	1400	0	2020-05-30 21:56:52.922747
A33VGSEJ44ORMF	8	7	1	1007	206.63138737921105	11	156	-122.5	318.19378740223306	154.02380543992228	-137.74323071593224	1400	1350	0	2020-05-30 21:57:03.004181
