A2PUL3ZDXOW0VZ	1	1	1	1236	165.14598080668503	2	27	-165	278.827029451305	25.3419841627277	-163.19000831943737	1500	1450	0	2020-05-31 21:19:14.045186
A2PUL3ZDXOW0VZ	2	2	1	953	222.827854540018	11	94	186	59.242248542078535	113.95624806719844	191.4842716396168	1450	1400	0	2020-05-31 21:19:18.978542
A2PUL3ZDXOW0VZ	3	3	1	767	269.95714197297	11	262	14	1.582723132738062	269.85415036363014	7.45627478957032	1400	1350	0	2020-05-31 21:19:23.848961
A2PUL3ZDXOW0VZ	4	4	1	881	237.66938684669054	2	-226	46	168.24248044189318	-232.682783147242	48.429948079007886	1350	1300	0	2020-05-31 21:19:28.653632
A2PUL3ZDXOW0VZ	5	5	1	992	248.25439017320963	1	-195	-134	215.86899861306932	-201.17512823225255	-145.46068204504246	1300	1250	0	2020-05-31 21:19:33.741320
A2PUL3ZDXOW0VZ	6	6	1	1063	196.01519323738495	14	-180	-73	204.25352625771913	-178.71425802366628	-80.51813434835535	1250	1200	0	2020-05-31 21:19:38.711283
A2PUL3ZDXOW0VZ	7	7	1	1006	274.32453826927554	5	86	-264	288.5021475060469	87.05420393521182	-260.14518614392574	1200	1150	0	2020-05-31 21:19:43.878839
A2PUL3ZDXOW0VZ	8	8	1	1092	103.0736080965612	10	52	77	57.13043279063942	55.94097515143446	86.57237426078876	1150	1100	0	2020-05-31 21:19:48.886940
A2PUL3ZDXOW0VZ	9	9	1	975	255.01058478533247	11	73	233	73.07127856056275	74.25443908021512	243.9603997156913	1100	1050	0	2020-05-31 21:19:53.808112
A2PUL3ZDXOW0VZ	10	10	0	0	243.89772735501595	9	0	0	29.138575466921157	213.0311506015379	118.75954817330091	1050	1250	0	2020-05-31 21:19:58.930164
A2PUL3ZDXOW0VZ	11	10	1	885	172.33549613268116	12	50	-149	289.6491448843463	57.94944546145159	-162.30029266149708	1250	1200	0	2020-05-31 21:20:03.835759
A2PUL3ZDXOW0VZ	12	11	1	865	206.6680103480716	12	86	192	63.55489955068271	92.03755282304148	185.04257718583708	1200	1150	0	2020-05-31 21:20:08.651396
A2PUL3ZDXOW0VZ	13	12	0	0	176.03051167065297	7	0	0	179.0649431574647	-176.0070705118474	2.8726588501724932	1150	1350	0	2020-05-31 21:20:14.041476
A2PUL3ZDXOW0VZ	14	12	0	0	265.0282348927965	6	0	0	304.03789692808726	148.34720321946185	-219.62029183878934	1350	1550	0	2020-05-31 21:20:19.108831
A2PUL3ZDXOW0VZ	15	12	1	972	265.7206182098896	8	12	-273	273.4390906701791	15.939894254146052	-265.24209076429133	1550	1500	0	2020-05-31 21:20:24.483597
A2PUL3ZDXOW0VZ	16	13	1	1148	298.66326056203513	2	192	219	50.96780573702183	188.08526906650772	231.99929907162542	1500	1450	0	2020-05-31 21:20:29.316309
A2PUL3ZDXOW0VZ	17	14	1	1078	205.33546927389767	6	120	180	55.26105049650897	117.00801124298455	168.73582976621583	1450	1400	0	2020-05-31 21:20:34.419509
A2PUL3ZDXOW0VZ	18	15	1	876	156.38879139177178	3	151	-64	340.69592717892283	147.59621550963607	-51.69923829431316	1400	1350	0	2020-05-31 21:20:39.320540
A2PUL3ZDXOW0VZ	19	16	1	921	142.6807695342606	14	-86	-101	230.55141778428396	-90.6572922204756	-110.17739043079614	1350	1300	0	2020-05-31 21:20:44.208776
A2PUL3ZDXOW0VZ	20	17	1	1070	156.4684226409891	9	-87	131	120.88431602509266	-80.31623471363712	134.28205287819793	1300	1250	0	2020-05-31 21:20:49.285420
A2PUL3ZDXOW0VZ	21	18	1	1153	181.6077162113194	8	-118	150	126.740672987009	-108.63667504336337	145.53156160439494	1250	1200	0	2020-05-31 21:20:54.437383
A2PUL3ZDXOW0VZ	22	19	0	0	220.59917053540482	5	0	0	207.9445587128951	-194.87762835679834	-103.37651574191406	1200	1400	0	2020-05-31 21:20:59.630151
A2PUL3ZDXOW0VZ	23	19	0	0	282.63915019699306	4	0	0	76.47761292236764	66.08817797851852	274.8040064401501	1400	1600	0	2020-05-31 21:21:05.029117
A2PUL3ZDXOW0VZ	24	19	0	0	239.54670129883917	5	0	0	287.216655346835	70.90240477994742	-228.81317947088573	1600	1800	0	2020-05-31 21:21:10.685806
A2PUL3ZDXOW0VZ	25	19	0	0	136.11589706150312	5	0	0	205.26438621368675	-123.0961407957738	-58.093696336562594	1800	2000	0	2020-05-31 21:21:16.495725
A2PUL3ZDXOW0VZ	26	19	1	1073	181.05531795611444	7	100	-143	304.4569967787829	102.43884138440238	-149.28935640564248	2000	1950	0	2020-05-31 21:21:21.576875
A2PUL3ZDXOW0VZ	27	20	1	1085	272.93991111941625	9	260	-109	336.41817586347514	250.146613340285	-109.19188118290108	1950	1900	0	2020-05-31 21:21:26.623479
A2PUL3ZDXOW0VZ	28	21	1	1699	170.45611784830487	6	168	26	9.54317848672301	168.09716548962948	28.26006132808843	1900	1850	0	2020-05-31 21:21:32.354706
A2PUL3ZDXOW0VZ	29	22	1	1029	181.49112592966054	13	-62	176	108.4198568629687	-57.34717897816011	172.1927113860014	1850	1800	0	2020-05-31 21:21:37.413713
A2PUL3ZDXOW0VZ	30	23	1	1025	163.42807299855133	2	37	143	76.00673467014289	39.518189860803076	158.57820693318908	1800	1750	0	2020-05-31 21:21:42.389174
A2PUL3ZDXOW0VZ	31	24	1	1117	259.64066270279363	4	22	254	84.10483689551376	26.66731958473003	258.26755079744675	1750	1700	0	2020-05-31 21:21:47.596259
A2PUL3ZDXOW0VZ	32	25	1	898	260.92051852646557	4	197	-162	319.43476006396565	198.21244080838832	-169.68012640524765	1700	1650	0	2020-05-31 21:21:52.421902
A2PUL3ZDXOW0VZ	33	26	1	838	204.00539970332412	11	105	-165	306.446954642746	121.19518273623105	-164.10341492377484	1650	1600	0	2020-05-31 21:21:57.286896
A2PUL3ZDXOW0VZ	34	27	1	1047	241.44852020541748	9	93	220	68.84475662963209	87.13784729913966	225.17633862699188	1600	1550	0	2020-05-31 21:22:02.783490
A2PUL3ZDXOW0VZ	35	28	1	961	150.73078710170873	1	155	48	16.302309086572258	144.67050206100873	42.31094437277796	1550	1500	0	2020-05-31 21:22:07.284810
A2PUL3ZDXOW0VZ	36	29	0	0	254.91878425676387	0	0	0	333.83280424843633	228.79241381966457	-112.41716036939327	1500	1700	0	2020-05-31 21:22:12.867099
A2PUL3ZDXOW0VZ	37	29	1	870	116.02392986219724	10	104	-47	336.38340017454954	106.3065430125949	-46.480869326846445	1700	1650	0	2020-05-31 21:22:17.681631
A2PUL3ZDXOW0VZ	38	30	1	963	226.09177775281114	3	207	-37	352.218093422568	224.00961913719127	-30.613436615921803	1650	1600	0	2020-05-31 21:22:22.670015
A2PUL3ZDXOW0VZ	39	31	1	1143	295.03708005818055	0	134	244	58.539828523940464	153.98154417763993	251.66756378589346	1600	1550	0	2020-05-31 21:25:31.608133
A2PUL3ZDXOW0VZ	40	32	1	1007	147.8172836284501	2	145	-53	338.2883502243514	137.33073718981996	-54.68288545965969	1550	1500	0	2020-05-31 21:25:36.623260
A2PUL3ZDXOW0VZ	41	33	0	0	221.14134599238753	3	0	0	340.95778867984575	209.0401519396576	-72.15060487875148	1500	1700	0	2020-05-31 21:25:42.129296
A2PUL3ZDXOW0VZ	42	33	1	994	118.10501856753386	5	99	5	2.3319539711657455	118.00721085824661	4.805579704347917	1700	1650	0	2020-05-31 21:25:47.122692
A2PUL3ZDXOW0VZ	43	34	1	1201	231.97229368155052	12	30	231	82.56694416433022	30.00972281587521	230.02295879410357	1650	1600	0	2020-05-31 21:25:52.411470
A2PUL3ZDXOW0VZ	44	35	1	1051	176.11598640515507	7	21	-151	273.1035579482542	9.535063905417635	-175.85767888773117	1600	1550	0	2020-05-31 21:25:57.429211
A2PUL3ZDXOW0VZ	45	36	0	0	197.24215852215679	0	0	0	191.09606187148117	-193.554892771342	-37.96014466192052	1550	1750	0	2020-05-31 21:26:03.010944
A2PUL3ZDXOW0VZ	46	36	1	969	157.71073519958213	5	-175	44	160.96783228019038	-149.08957911160567	51.42930485158228	1750	1700	0	2020-05-31 21:26:07.965153
A2PUL3ZDXOW0VZ	47	37	1	956	221.4480468977747	9	-114	-186	241.48277792978786	-105.72436767644109	-194.58056314610593	1700	1650	0	2020-05-31 21:26:13.043264
A2PUL3ZDXOW0VZ	48	38	1	968	157.0420941804731	3	20	142	70.78831573715638	51.67614988082479	148.29630770212424	1650	1600	0	2020-05-31 21:26:17.882902
A2PUL3ZDXOW0VZ	49	39	1	1511	112.13124099933492	1	112	-2	3.779299646138039	111.88739448472737	7.390951459042885	1600	1550	0	2020-05-31 21:26:23.466876
A2PUL3ZDXOW0VZ	50	40	1	985	124.25265543181166	0	82	-76	312.4914593734715	83.93022097146137	-91.62117871724955	1550	1500	0	2020-05-31 21:26:31.278187
A2PUL3ZDXOW0VZ	51	41	1	1004	223.37610661983632	10	-36	214	97.98707697601449	-31.038052637213887	221.20923194370985	1500	1450	0	2020-05-31 21:26:33.402944
A2PUL3ZDXOW0VZ	52	42	0	0	297.36493016956854	8	0	0	95.97017493649507	-30.929150949310547	295.7520740693244	1450	1650	0	2020-05-31 21:26:38.847448
A2PUL3ZDXOW0VZ	53	42	1	918	295.2050193893647	4	-198	-195	224.72075861985908	-209.75632737771022	-207.72165654473784	1650	1600	0	2020-05-31 21:26:43.819108
A2PUL3ZDXOW0VZ	54	43	0	991	270.14302355841653	13	254	339	55.52387709441657	152.91790184167792	222.6956857993036	1600	1800	0	2020-05-31 21:26:48.834889
A2PUL3ZDXOW0VZ	55	43	1	931	202.31654175015765	6	-174	74	160.74348146320432	-190.99723580685043	66.7236013707718	1800	1750	0	2020-05-31 21:26:53.751155
A2PUL3ZDXOW0VZ	56	44	0	0	261.11471342609315	5	0	0	235.10527808654132	-149.37597731040364	-214.1674834566455	1750	1950	0	2020-05-31 21:26:59.536949
A2PUL3ZDXOW0VZ	57	44	1	1018	167.52382484574247	8	-126	116	141.77911153306803	-131.611974742743	103.6461287036934	1950	1900	0	2020-05-31 21:27:04.531634
A2PUL3ZDXOW0VZ	58	45	1	1055	226.84867146163708	1	-128	170	125.81928587032722	-132.7587948830805	183.94407336226388	1900	1850	0	2020-05-31 21:27:09.945573
A2PUL3ZDXOW0VZ	59	46	1	1118	295.49552750322823	1	-220	-157	214.1285770216447	-244.60546670426854	-165.78833623870557	1850	1800	0	2020-05-31 21:27:14.797635
A2PUL3ZDXOW0VZ	60	47	1	1070	165.89392123191897	8	-98	130	130.68274236874728	-108.14127413397607	125.80245597913569	1800	1750	0	2020-05-31 21:27:19.765641
A2PUL3ZDXOW0VZ	61	48	1	972	178.8131612525612	10	121	-103	319.4009331592741	135.76959792945345	-116.3647838274493	1750	1700	0	2020-05-31 21:27:24.767368
A2PUL3ZDXOW0VZ	62	49	1	1063	206.48706824552482	3	-119	170	126.7027429652928	-123.40979017262474	165.55039426766933	1700	1650	0	2020-05-31 21:27:29.830626
A2PUL3ZDXOW0VZ	63	50	0	0	258.33687243999896	5	0	0	212.69338316777242	-217.40937970146837	-139.53888805599337	1650	1850	0	2020-05-31 21:27:35.468396
A2PUL3ZDXOW0VZ	64	50	1	954	137.09498294522203	13	121	-28	349.9146980726752	134.9766096894614	-24.007273595506703	1850	1800	0	2020-05-31 21:27:43.270314
A2PUL3ZDXOW0VZ	65	51	1	1110	293.19472703079344	2	231	179	38.33197649613023	229.99084312512042	181.84432913142422	1800	1750	0	2020-05-31 21:27:45.516538
A2PUL3ZDXOW0VZ	66	52	1	837	153.14839560023023	1	-110	-108	227.03847657321768	-104.37171450505255	-112.07576136792657	1750	1700	0	2020-05-31 21:27:50.439997
A2PUL3ZDXOW0VZ	67	53	1	1091	237.74927417042971	3	111	223	64.25718210469718	103.26220101579392	214.1532983867863	1700	1650	0	2020-05-31 21:27:55.872316
A2PUL3ZDXOW0VZ	68	54	1	968	294.2639114880876	12	279	-118	333.6066237654263	263.5907703391255	-130.80961507586295	1650	1600	0	2020-05-31 21:28:00.523791
A2PUL3ZDXOW0VZ	69	55	1	1013	259.7299835770404	3	220	14	4.88874324384188	258.78510111887726	22.134493620187726	1600	1550	0	2020-05-31 21:28:05.504955
A2PUL3ZDXOW0VZ	70	56	1	963	193.62012831722942	11	-33	188	100.45106875443514	-35.12186806116948	190.40800527675876	1550	1500	0	2020-05-31 21:28:10.496476
A2PUL3ZDXOW0VZ	71	57	0	0	257.47384832597663	5	0	0	215.9396786135872	-208.45993450994538	-151.11994665131837	1500	1700	0	2020-05-31 21:28:16.091886
A2PUL3ZDXOW0VZ	72	57	1	878	235.887595005748	13	-191	-110	209.49828435409168	-205.3095899779413	-116.15046164645851	1700	1650	0	2020-05-31 21:28:20.883899
A2PUL3ZDXOW0VZ	73	58	1	1131	271.8966173741848	14	-213	-128	211.6715965865387	-231.40346159970562	-142.75926764731398	1650	1600	0	2020-05-31 21:28:26.004524
A2PUL3ZDXOW0VZ	74	59	1	899	111.55469467262145	9	-73	49	140.30742378491507	-85.83936452825608	71.2464272850714	1600	1550	0	2020-05-31 21:28:30.934347
A2PUL3ZDXOW0VZ	75	60	1	911	194.49994560143082	13	54	185	72.94911943342967	57.031433520488285	185.95065052200727	1550	1500	0	2020-05-31 21:28:35.862097
A2PUL3ZDXOW0VZ	76	61	0	0	227.02902082031784	12	0	0	264.7360365156005	-20.828619127348073	-226.07154823170512	1500	1700	0	2020-05-31 21:29:03.710143
A2PUL3ZDXOW0VZ	77	61	1	1065	260.07095503761803	0	117	207	60.30300808088014	128.84254864053653	225.91259219881863	1700	1650	0	2020-05-31 21:29:08.835816
A2PUL3ZDXOW0VZ	78	62	1	861	276.35809727279144	6	250	-87	340.40173753151686	260.34801638588056	-92.69686236424039	1650	1600	0	2020-05-31 21:29:13.652158
A2PUL3ZDXOW0VZ	79	63	1	885	101.9351978773535	13	-107	21	174.3542123877375	-101.44072035987543	10.028201192874501	1600	1550	0	2020-05-31 21:29:18.535440
A2PUL3ZDXOW0VZ	80	64	1	844	139.13799778709088	12	0	-115	272.24563678417786	5.451944607399731	-139.03114301550696	1550	1500	0	2020-05-31 21:29:23.428770
A2PUL3ZDXOW0VZ	81	65	1	872	299.5367086726187	1	230	-185	318.0390938463878	222.7358593673693	-200.27724981710915	1500	1450	0	2020-05-31 21:29:28.262891
A2PUL3ZDXOW0VZ	82	66	0	0	197.71269584687275	1	0	0	169.41656531383236	-194.34930472927192	36.31332882409185	1450	1650	0	2020-05-31 21:29:33.974786
A2PUL3ZDXOW0VZ	83	66	1	922	254.54134485124794	6	268	-1	359.1684843780654	254.51453982251854	-3.693948783287517	1650	1600	0	2020-05-31 21:29:38.708000
A2PUL3ZDXOW0VZ	84	67	1	762	117.47120519590987	9	20	115	82.72321805383416	14.879214304023163	116.52507469156377	1600	1550	0	2020-05-31 21:29:43.448748
A2PUL3ZDXOW0VZ	85	68	1	845	141.58730380288586	14	-78	-147	242.65719186652564	-65.0329388898892	-125.76836429529737	1550	1500	0	2020-05-31 21:29:48.311678
A2PUL3ZDXOW0VZ	86	69	1	925	158.10899254051031	11	3	143	91.46692349930704	-4.04756617014695	158.05717551023562	1500	1450	0	2020-05-31 21:29:53.280066
A2PUL3ZDXOW0VZ	87	70	1	996	163.85961847825746	8	101	115	39.55566640428445	126.33678666797219	104.35032775344493	1450	1400	0	2020-05-31 21:29:58.225935
A2PUL3ZDXOW0VZ	88	71	1	862	194.16056867068005	1	-179	26	175.1057247928374	-193.45262540989873	16.56526934701832	1400	1350	0	2020-05-31 21:30:03.116510
A2PUL3ZDXOW0VZ	89	72	0	0	208.92374269455533	1	0	0	272.11853081938324	7.723265899692968	-208.78094124067792	1350	1550	0	2020-05-31 21:30:08.554520
A2PUL3ZDXOW0VZ	90	72	1	821	108.48946700889157	11	69	74	51.018229306649765	68.24780547381948	84.33386923342879	1550	1500	0	2020-05-31 21:30:13.284416
A2PUL3ZDXOW0VZ	91	73	1	983	276.17121874802183	11	270	-89	340.7095392726384	260.665852566171	-91.23516520902952	1500	1450	0	2020-05-31 21:30:18.271561
A2PUL3ZDXOW0VZ	92	74	1	908	223.8341663484744	0	187	-131	322.0052625477053	176.39638668348107	-137.78987186991768	1450	1400	0	2020-05-31 21:30:23.240935
A2PUL3ZDXOW0VZ	93	75	1	948	269.5586982712075	7	-87	301	108.00560133351144	-83.32328108507042	256.3574119133017	1400	1350	0	2020-05-31 21:30:28.157153
A2PUL3ZDXOW0VZ	94	76	1	781	170.41364929815015	8	96	-130	307.268031630411	103.19304275836132	-135.6171367983557	1350	1300	0	2020-05-31 21:30:32.946978
A2PUL3ZDXOW0VZ	95	77	1	875	229.62284865597064	2	159	172	55.1028163268944	131.36850815821506	188.33206760710664	1300	1250	0	2020-05-31 21:30:37.838884
A2PUL3ZDXOW0VZ	96	78	1	807	121.44439473006528	2	-106	66	156.33177243059032	-111.22914149428811	48.75263166020419	1250	1200	0	2020-05-31 21:30:42.679046
A2PUL3ZDXOW0VZ	97	79	1	837	100.14491223583835	5	-67	-46	208.650582248545	-87.88317232109515	-48.01615842093641	1200	1150	0	2020-05-31 21:30:47.515133
A2PUL3ZDXOW0VZ	98	80	1	923	236.22085092973327	9	37	208	72.93725592137558	69.31163145825803	225.8233560962238	1150	1100	0	2020-05-31 21:30:52.473464
A2PUL3ZDXOW0VZ	99	81	1	846	130.27320644276816	5	-92	-107	226.81003471068067	-89.16151301820315	-94.98069758211341	1100	1050	0	2020-05-31 21:30:57.315763
A2PUL3ZDXOW0VZ	100	82	1	837	139.19825682836557	9	-24	-117	251.19158297299543	-44.87818046064722	-131.76533543613513	1050	1000	0	2020-05-31 21:31:02.132088
A2PUL3ZDXOW0VZ	101	83	1	901	203.86802412587798	7	-172	25	174.17280330161782	-202.81456223948868	20.698420340551145	1000	950	0	2020-05-31 21:31:07.107324
A2PUL3ZDXOW0VZ	102	84	0	779	231.61322771310816	0	-183	-216	227.95339210045546	-155.11946293481535	-171.99604492690676	950	1150	0	2020-05-31 21:31:11.852386
A2PUL3ZDXOW0VZ	103	84	1	765	148.64710969705675	3	-81	-114	234.8672970930614	-85.5422697946983	-121.56678534723154	1150	1100	0	2020-05-31 21:31:16.601820
A2PUL3ZDXOW0VZ	104	85	1	768	185.45766597335353	7	92	-128	310.67328416605386	120.87107509956002	-140.65819945015824	1100	1050	0	2020-05-31 21:31:21.385219
A2PUL3ZDXOW0VZ	105	86	0	939	273.44901216379935	12	214	-53	350.2018259377442	269.4602995630629	-46.53503210208526	1050	1250	0	2020-05-31 21:31:26.356589
A2PUL3ZDXOW0VZ	106	86	0	0	177.4682880316723	1	0	0	15.610819067206005	170.92179699476662	47.75701591360573	1250	1450	0	2020-05-31 21:31:31.586721
A2PUL3ZDXOW0VZ	107	86	1	779	129.0983828414327	9	-52	-130	255.1043041194514	-33.18605575630472	-124.76008238059384	1450	1400	0	2020-05-31 21:31:36.450972
A2PUL3ZDXOW0VZ	108	87	1	815	219.24936020399014	7	119	167	53.97824345258072	128.93888519930655	177.32751008633448	1400	1350	0	2020-05-31 21:31:41.211432
A2PUL3ZDXOW0VZ	109	88	1	1029	255.2791590015981	1	-159	187	129.56985718775653	-162.6175574731744	196.78155152864818	1350	1300	0	2020-05-31 21:31:46.266344
A2PUL3ZDXOW0VZ	110	89	1	815	176.7584366029777	1	-174	34	165.6994493758973	-171.2812861458525	43.66080538138845	1300	1250	0	2020-05-31 21:31:51.053204
A2PUL3ZDXOW0VZ	111	90	1	900	237.21602328403418	14	71	205	60.506192616892264	116.78844324880004	206.47494091587302	1250	1200	0	2020-05-31 21:31:55.981637
A2PUL3ZDXOW0VZ	112	91	1	952	276.55855305209974	10	232	-159	322.4879010600201	219.37309537796412	-168.40450792826698	1200	1150	0	2020-05-31 21:32:29.010312
A2PUL3ZDXOW0VZ	113	92	0	0	173.2170169937351	14	0	0	5.589622180261555	172.39338022263595	16.871793965716165	1150	1350	0	2020-05-31 21:32:34.169241
A2PUL3ZDXOW0VZ	114	92	1	785	170.89588407657362	11	3	-158	265.0952203378665	-14.611604719812624	-170.2700919181805	1350	1300	0	2020-05-31 21:32:39.004075
A2PUL3ZDXOW0VZ	115	93	1	883	157.03405645681562	3	161	57	16.337571314723284	150.6931846290314	44.17305732732356	1300	1250	0	2020-05-31 21:32:43.898840
A2PUL3ZDXOW0VZ	116	94	1	829	165.08128410424123	11	149	-20	356.6568546231811	164.80034649470701	-9.62684562718841	1250	1200	0	2020-05-31 21:32:48.705566
A2PUL3ZDXOW0VZ	117	95	1	1032	186.50766548844268	13	192	-75	331.3920923069047	163.73823156314364	-89.3023001412796	1200	1150	0	2020-05-31 21:32:53.796671
A2PUL3ZDXOW0VZ	118	96	1	929	188.0324694426136	14	-165	-17	185.1489419486892	-187.2737149352721	-16.87498915643706	1150	1100	0	2020-05-31 21:32:59.308481
A2PUL3ZDXOW0VZ	119	97	1	948	163.37931509501686	14	180	-50	340.13463057039655	153.65721436675372	-55.51811482720122	1100	1050	0	2020-05-31 21:33:03.640804
A2PUL3ZDXOW0VZ	120	98	1	976	239.34954085559724	1	12	-218	271.8083421546467	7.552982317748808	-239.23033914178401	1050	1000	0	2020-05-31 21:33:08.664315
A2PUL3ZDXOW0VZ	121	99	1	998	292.0455239380791	2	257	109	18.96608695578548	276.1906971662125	94.91726318804517	1000	950	0	2020-05-31 21:33:13.621917
A2PUL3ZDXOW0VZ	122	100	1	736	137.04506616077353	8	18	136	85.2298952824409	11.396378643842292	136.57039471575445	950	900	0	2020-05-31 21:33:18.368540
A2PUL3ZDXOW0VZ	123	101	0	0	230.1311034666135	8	0	0	17.925187392993685	218.9603549236841	70.8285800680449	900	1100	0	2020-05-31 21:33:23.265769
A2PUL3ZDXOW0VZ	124	101	1	943	255.89512787198254	5	-281	79	163.7944333198974	-245.72753806088164	71.41633921699058	1100	1050	0	2020-05-31 21:33:28.581199
A2PUL3ZDXOW0VZ	125	102	1	766	136.72333045155725	4	-153	20	173.80006612451314	-135.9236478071669	14.765874730573055	1050	1000	0	2020-05-31 21:33:33.335789
A2PUL3ZDXOW0VZ	126	103	1	915	178.04907382521424	6	118	-138	310.78763540823843	116.31184425400991	-134.80737211387043	1000	950	0	2020-05-31 21:33:38.261578
A2PUL3ZDXOW0VZ	127	104	0	0	254.437275780715	12	0	0	131.21217733077418	-167.6358361503259	191.40677559818175	950	1150	0	2020-05-31 21:33:43.270776
A2PUL3ZDXOW0VZ	128	104	1	752	155.39542038813522	4	-67	-138	240.75994971314074	-75.9059575817783	-135.59506731883187	1150	1100	0	2020-05-31 21:33:48.500565
A2PUL3ZDXOW0VZ	129	105	1	860	223.71368770554713	1	185	-104	331.4280109491457	196.46914017384185	-106.99388312500092	1100	1050	0	2020-05-31 21:33:53.428805
A2PUL3ZDXOW0VZ	130	106	0	0	281.5702019225695	3	0	0	267.48822532403904	-12.339728983309206	-281.2996795222757	1050	1250	0	2020-05-31 21:33:58.479645
A2PUL3ZDXOW0VZ	131	106	1	885	220.24991178313218	14	-132	-146	225.57445448644287	-154.17093432024757	-157.29382267368103	1250	1200	0	2020-05-31 21:34:03.368775
A2PUL3ZDXOW0VZ	132	107	0	0	288.3535087921893	8	0	0	66.6937628139878	114.0857629062871	264.8248189555836	1200	1400	0	2020-05-31 21:34:08.533395
A2PUL3ZDXOW0VZ	133	107	1	882	149.3877582668752	9	77	110	50.418779159965354	95.1856090950045	115.13645009820017	1400	1350	0	2020-05-31 21:34:13.488791
A2PUL3ZDXOW0VZ	134	108	0	0	222.802397122177	5	0	0	75.3167209244509	56.47498265905126	215.526064542199	1350	1550	0	2020-05-31 21:34:19.430321
A2PUL3ZDXOW0VZ	135	108	1	833	242.9035482007806	11	-246	-50	191.7468525392283	-237.81633606251032	-49.452239891961355	1550	1500	0	2020-05-31 21:34:23.646487
A2PUL3ZDXOW0VZ	136	109	0	798	226.14954786541776	9	-146	-61	206.79151621455037	-201.87297512892363	-101.93586175792042	1500	1700	0	2020-05-31 21:34:28.451349
A2PUL3ZDXOW0VZ	137	109	0	0	258.22842753752474	1	0	0	198.9585127398065	-244.2205858482805	-83.89413708016386	1700	1900	0	2020-05-31 21:34:34.183472
A2PUL3ZDXOW0VZ	138	109	1	863	274.96433817923594	6	-45	274	104.7040835700648	-69.79334084087162	265.959163866589	1900	1850	0	2020-05-31 21:34:39.047087
A2PUL3ZDXOW0VZ	139	110	1	774	214.35257965215584	0	162	-106	323.81826618066725	173.01437582035604	-126.54269699601953	1850	1800	0	2020-05-31 21:34:43.829937
A2PUL3ZDXOW0VZ	140	111	1	1002	245.98471124768838	11	174	189	49.886483327404136	158.48894933076048	188.12158596939446	1800	1750	0	2020-05-31 21:34:48.863346
A2PUL3ZDXOW0VZ	141	112	0	0	292.6673892976926	12	0	0	93.56293479295704	-18.187777757804643	292.1017040322768	1750	1950	0	2020-05-31 21:34:54.595850
A2PUL3ZDXOW0VZ	142	112	1	897	159.76518119825124	6	20	-140	279.30618814536734	25.835692003586743	-157.6623929223639	1950	1900	0	2020-05-31 21:34:59.499903
A2PUL3ZDXOW0VZ	143	113	1	779	111.79106934710235	7	-72	116	137.1605267406239	-81.97209806735466	76.01196171790751	1900	1850	0	2020-05-31 21:35:04.665574
A2PUL3ZDXOW0VZ	144	114	1	952	230.68471001650948	11	47	229	80.52353524173768	37.98049766118798	227.5366283322524	1850	1800	0	2020-05-31 21:35:09.605386
A2PUL3ZDXOW0VZ	145	115	1	1481	211.37074378356215	3	-195	96	149.09133323581221	-181.35339596550023	108.57502981531604	1800	1750	0	2020-05-31 21:35:15.127045
A2PUL3ZDXOW0VZ	146	116	1	953	112.36747286494197	0	141	-5	352.66752593438895	111.44856152541983	-14.341098004273615	1750	1700	0	2020-05-31 21:35:20.085628
A2PUL3ZDXOW0VZ	147	117	1	808	138.95244598803248	11	115	16	0.2558604315396096	138.95106052012628	0.6205049470292537	1700	1650	0	2020-05-31 21:35:24.885261
A2PUL3ZDXOW0VZ	148	118	1	1168	245.521522046976	11	-214	139	147.67206096201005	-207.46597276691253	131.2961839968795	1650	1600	0	2020-05-31 21:35:30.096737
A2PUL3ZDXOW0VZ	149	119	1	881	143.1541522776779	0	-33	-101	248.46343009623232	-52.5511742764851	-133.15962374722707	1600	1550	0	2020-05-31 21:35:34.993512
A2PUL3ZDXOW0VZ	150	120	1	906	288.845157548764	6	55	-251	278.0274148491149	40.33633310294791	-286.0148689686925	1550	1500	0	2020-05-31 21:35:39.862777
A2PUL3ZDXOW0VZ	151	121	1	856	222.64594301917515	13	93	181	59.1014829015002	114.33293178020575	191.0476292798228	1500	1450	0	2020-05-31 21:35:57.258964
A2PUL3ZDXOW0VZ	152	122	1	943	270.0695704438843	3	111	211	58.644323574267794	140.53047835619358	230.62687946708118	1450	1400	0	2020-05-31 21:36:02.215656
A2PUL3ZDXOW0VZ	153	123	1	791	196.8135988499228	14	130	128	41.216092883799206	148.04906799556656	129.68063139074565	1400	1350	0	2020-05-31 21:36:06.991059
A2PUL3ZDXOW0VZ	154	124	1	774	109.97009842585608	2	-33	96	106.44208782881059	-31.126603628225556	105.47301595367324	1350	1300	0	2020-05-31 21:36:11.801204
A2PUL3ZDXOW0VZ	155	125	1	821	166.66737899719703	8	-208	-48	193.26900762695757	-162.21788809041115	-38.254045606734934	1300	1250	0	2020-05-31 21:36:16.870380
A2PUL3ZDXOW0VZ	156	126	1	766	120.24673241446071	1	-113	-21	195.900328795981	-115.64606085531773	-32.943364506423215	1250	1200	0	2020-05-31 21:36:21.349413
A2PUL3ZDXOW0VZ	157	127	1	861	153.09683110063617	4	121	57	22.576222007379457	141.36496303265048	58.77573410714735	1200	1150	0	2020-05-31 21:36:26.219849
A2PUL3ZDXOW0VZ	158	128	1	752	105.09301318404552	5	-4	-87	258.2603283809008	-21.382777349577488	-102.89469496976197	1150	1100	0	2020-05-31 21:36:31.035129
A2PUL3ZDXOW0VZ	159	129	0	0	141.50463099940055	13	0	0	22.004794130516654	131.19637334470127	53.019545598526825	1100	1300	0	2020-05-31 21:36:36.134047
A2PUL3ZDXOW0VZ	160	129	1	892	187.93910312566527	2	-30	186	100.60185387707847	-34.57762907084919	184.73086924366	1300	1250	0	2020-05-31 21:36:41.044374
A2PUL3ZDXOW0VZ	161	130	1	797	170.25680304559205	14	-76	-124	235.48606504661308	-96.46863793284544	-140.2896321140201	1250	1200	0	2020-05-31 21:36:45.811819
A2PUL3ZDXOW0VZ	162	131	1	836	184.43228042820795	4	-34	-194	267.86751959593323	-6.862764264469544	-184.3045537435238	1200	1150	0	2020-05-31 21:36:50.706542
A2PUL3ZDXOW0VZ	163	132	1	798	257.8558897831474	8	229	-117	336.1051532900631	235.75516222233156	-104.44694050751701	1150	1100	0	2020-05-31 21:36:55.470559
A2PUL3ZDXOW0VZ	164	133	1	798	273.9177453550974	11	81	-234	288.84995632164265	88.50034684020045	-259.2269658611623	1100	1050	0	2020-05-31 21:37:00.295626
A2PUL3ZDXOW0VZ	165	134	1	854	174.51787921729778	14	14	194	91.7978497731262	-5.475192885826952	174.4319707776253	1050	1000	0	2020-05-31 21:37:05.135790
A2PUL3ZDXOW0VZ	166	135	1	906	111.65793512933631	6	-75	-43	208.5626896175401	-98.06855121371176	-53.385894580784814	1000	950	0	2020-05-31 21:37:10.031472
A2PUL3ZDXOW0VZ	167	136	0	0	203.3546452453697	1	0	0	98.90943317893401	-31.49415250283099	200.9010455448119	950	1150	0	2020-05-31 21:37:15.004094
A2PUL3ZDXOW0VZ	168	136	1	962	108.39567757502265	6	8	120	83.59940181783712	12.08387505948812	107.72002079694818	1150	1100	0	2020-05-31 21:37:19.995958
A2PUL3ZDXOW0VZ	169	137	1	837	240.76818707069995	3	201	12	358.3732708811793	240.6711527991519	-6.834918846544193	1100	1050	0	2020-05-31 21:37:24.857421
A2PUL3ZDXOW0VZ	170	138	1	876	241.2483532621548	1	-41	233	104.9725146553258	-62.32787543052571	233.057941070495	1050	1000	0	2020-05-31 21:37:29.690721
A2PUL3ZDXOW0VZ	171	139	1	876	289.9661957320323	8	-155	255	118.72691080346435	-139.36802552789612	254.27730556965355	1000	950	0	2020-05-31 21:37:34.599453
A2PUL3ZDXOW0VZ	172	140	1	821	153.03115607210387	14	-134	-20	200.3354459932666	-143.49335516162077	-53.18074607624057	950	900	0	2020-05-31 21:37:39.422045
A2PUL3ZDXOW0VZ	173	141	0	773	189.55154787443956	12	-294	-88	190.65889183370908	-186.28097890969696	-35.05975182514838	900	1100	0	2020-05-31 21:37:44.801177
A2PUL3ZDXOW0VZ	174	141	0	0	226.27529964110207	12	0	0	26.609719016135813	202.30782870132703	101.3511404663265	1100	1300	0	2020-05-31 21:37:49.492230
A2PUL3ZDXOW0VZ	175	141	0	0	154.6666165082761	3	0	0	34.973993733611415	126.7357284860933	88.65561114344305	1300	1500	0	2020-05-31 21:37:54.813820
A2PUL3ZDXOW0VZ	176	141	1	785	251.13793451722128	10	171	142	39.97943754591522	192.44074061788973	161.3592994035801	1500	1450	0	2020-05-31 21:37:59.596083
A2PUL3ZDXOW0VZ	177	142	1	886	221.5322703277105	6	-54	-232	255.64650338200212	-54.91866223554705	-214.61707139649377	1450	1400	0	2020-05-31 21:38:04.506229
A2PUL3ZDXOW0VZ	178	143	1	812	175.96061123788846	1	-83	115	125.85714743877436	-103.07180460740783	142.61255134869324	1400	1350	0	2020-05-31 21:38:09.350894
A2PUL3ZDXOW0VZ	179	144	1	874	251.45504494896423	9	-185	-113	205.98008190278264	-226.04460383379637	-110.15206175059853	1350	1300	0	2020-05-31 21:38:14.209847
A2PUL3ZDXOW0VZ	180	145	0	0	268.04594187903587	13	0	0	296.3909159558064	119.14458817324675	-240.11079539838875	1300	1500	0	2020-05-31 21:38:19.519806
A2PUL3ZDXOW0VZ	181	145	1	819	126.93709904120603	2	132	11	2.7446082007219363	126.79148911753639	6.0782728101492856	1500	1450	0	2020-05-31 21:38:24.396955
A2PUL3ZDXOW0VZ	182	146	1	829	113.85650259128872	11	66	79	43.127208063644275	83.09677115660524	77.83463114621225	1450	1400	0	2020-05-31 21:38:29.507533
A2PUL3ZDXOW0VZ	183	147	1	828	113.01816300006595	5	15	-89	289.6920283146095	38.08308237763773	-106.40857110462265	1400	1350	0	2020-05-31 21:38:34.056527
A2PUL3ZDXOW0VZ	184	148	1	859	111.8898932631892	7	140	59	16.942485515119987	107.03362146688212	32.6060130977717	1350	1300	0	2020-05-31 21:38:38.900028
A2PUL3ZDXOW0VZ	185	149	1	846	137.13701420187226	5	-102	-23	191.41572861999117	-134.42401585654378	-27.14304008773117	1300	1250	0	2020-05-31 21:38:43.975411
A2PUL3ZDXOW0VZ	186	150	0	981	130.20599761795225	14	178	38	14.85187936619739	125.85603592581559	33.37454174555812	1250	1450	0	2020-05-31 21:38:48.701448
A2PUL3ZDXOW0VZ	187	150	1	786	134.51906504994437	9	-126	-72	214.31567056325758	-111.10523317042276	-75.83538767657981	1450	1400	0	2020-05-31 21:38:53.845865
