A3DRKIY58M1KWO	1	1	1	1328	150.59366485421194	11	151	3.5	359.1324017648863	150.57640009748096	-2.2802692617409273	1500	1450	0	2020-05-30 17:53:56.633472
A3DRKIY58M1KWO	2	2	0	0	143.61159374862336	1	0	0	126.14396624068706	-84.70444441936789	115.97175067500642	1450	1650	0	2020-05-30 17:56:19.452828
A3DRKIY58M1KWO	3	2	0	0	213.7673663695952	14	0	0	128.6124882105816	-133.401508394081	167.0345008756475	1650	1850	0	2020-05-30 17:56:24.776824
A3DRKIY58M1KWO	4	2	1	800	282.02396081860616	14	243	-115.5	334.16847978772995	253.84390127272746	-122.88526462703528	1850	1800	0	2020-05-30 17:56:52.701065
A3DRKIY58M1KWO	5	3	0	0	192.06844316360963	14	0	0	10.241126996282635	189.00845534993024	34.148069718889936	1800	2000	0	2020-05-30 17:56:58.370303
A3DRKIY58M1KWO	6	3	1	976	283.2004871104953	10	276	33.5	7.537408649881989	280.75347318707276	37.14839421855862	2000	1950	0	2020-05-30 17:57:03.180887
A3DRKIY58M1KWO	1	1	1	918	186.41523267239623	13	-198	19.5	173.58359669417072	-185.2475212805479	20.832542612858852	1500	1450	0	2020-05-30 18:26:52.628413
A3DRKIY58M1KWO	2	2	0	169	185.02016062346058	13	-4	3.5	63.854326999408286	81.53003806696104	166.08826788768386	1450	1650	0	2020-05-30 18:27:53.787450
A3DRKIY58M1KWO	3	2	1	920	219.56613136118213	10	-32	-223.5	257.9913260940414	-45.682878451983605	-214.76117120479944	1650	1600	0	2020-05-30 18:39:43.828233
A3DRKIY58M1KWO	4	3	0	158	225.19130460402104	14	-73	50.5	180.43352321166267	-225.18485847497806	-1.703872901682917	1600	1800	0	2020-05-30 18:41:11.091025
A3DRKIY58M1KWO	5	3	0	24	114.00338250210113	14	-3	2.5	184.82683588145187	-113.59907604770662	-9.592765139820136	1800	2000	0	2020-05-30 18:41:27.740573
A3DRKIY58M1KWO	6	3	1	1122	129.488577554274	2	133	59.5	24.712372578329493	117.62974444071584	54.134415484432004	2000	1950	0	2020-05-30 18:41:35.527586
A3DRKIY58M1KWO	7	4	0	0	127.8841422171885	7	-7	-2.5	156.46925120066214	-117.25005742007343	51.05661431798602	1950	2000	0	2020-05-30 18:41:43.262899
A3DRKIY58M1KWO	8	4	0	1109	253.22329681981063	6	280	128.5	31.158327523430344	216.6935081908804	131.0189358841796	2000	2000	0	2020-05-30 18:41:48.152550
A3DRKIY58M1KWO	9	4	0	173	232.48849920080175	12	-5	-0.5	232.10449992172147	-142.79983569952532	-183.46419047004727	2000	2000	0	2020-05-30 18:41:53.554429
A3DRKIY58M1KWO	10	4	0	154	243.02642811386056	1	-9	0.5	134.2884542853784	-169.69831949729806	173.9664482639523	2000	2000	0	2020-05-30 18:42:08.964595
A3DRKIY58M1KWO	11	4	0	247	168.87431892554673	5	-6	1.5	230.5228475454127	-107.36530560710939	-130.3503998630586	2000	2000	0	2020-05-30 18:42:20.610689
A3DRKIY58M1KWO	12	4	1	929	107.50357923762608	4	-56	84.5	126.19510555332076	-63.48481230949991	86.75654531462234	2000	1950	0	2020-05-30 18:42:46.748243
A3DRKIY58M1KWO	13	5	1	1044	103.45094496182926	3	-59	-93.5	232.5065755825745	-62.96752550070633	-82.08037978599592	1950	1900	0	2020-05-30 18:43:04.121909
A3DRKIY58M1KWO	14	6	1	919	175.19483331252343	2	142	-108.5	323.6375991116554	141.08142836229956	-103.87136366995578	1900	1850	0	2020-05-30 18:43:10.058347
A3DRKIY58M1KWO	15	7	1	1006	213.7920076465739	12	-205	4.5	177.80372715645936	-213.6349584894283	8.193109591172174	1850	1800	0	2020-05-30 18:43:32.701942
A3DRKIY58M1KWO	16	8	0	1418	196.1701533433731	8	249	-11.5	7.346631835771467	194.55973348007674	25.08464013941656	1800	2000	0	2020-05-30 18:43:38.435072
A3DRKIY58M1KWO	17	8	0	0	234.1724820513117	6	0	0	352.264861798636	232.04170979574033	-31.518189433108727	2000	2000	0	2020-05-30 18:43:45.494739
A3DRKIY58M1KWO	18	8	1	1122	277.08433516489856	3	186	-218.5	310.36632242934985	179.459812275162	-211.1158558041945	2000	1950	0	2020-05-30 18:44:03.410526
A3DRKIY58M1KWO	19	9	1	1783	173.0050025692011	3	107	-155.5	309.1704107121768	109.27497909207715	-134.1257240740768	1950	1900	0	2020-05-30 18:44:12.264589
A3DRKIY58M1KWO	20	10	1	1242	270.24357510708336	1	-123	-244.5	244.55701097802975	-116.10009494449285	-244.03351786289022	1900	1850	0	2020-05-30 18:44:20.293645
A3DRKIY58M1KWO	21	11	1	1014	217.90283875481083	3	193	-89.5	336.8276119480333	200.32354483742608	-85.74453056127159	1850	1800	0	2020-05-30 18:44:31.523379
A3DRKIY58M1KWO	22	12	0	0	291.76065649177883	7	0	0	246.53426990918211	-116.17923437578031	-267.6315866566786	1800	2000	0	2020-05-30 18:44:37.292143
A3DRKIY58M1KWO	23	12	0	113	288.1087751219943	11	-6	-8.5	352.76480364032756	285.81471559247353	-36.28518503589788	2000	2000	0	2020-05-30 18:44:47.519443
A3DRKIY58M1KWO	24	12	1	1174	210.2096479025688	12	-201	-69.5	199.9726670076057	-197.5667304802255	-71.80169272848582	2000	1950	0	2020-05-30 18:44:57.452330
A3DRKIY58M1KWO	25	13	1	821	136.08027443786693	11	125	-67.5	330.7779124447296	118.76187437103509	-66.43386400747484	1950	1900	0	2020-05-30 18:45:11.762793
A3DRKIY58M1KWO	26	14	1	879	134.17122454899157	11	95	-97.5	319.85436942215676	102.56158101204952	-86.50456402574794	1900	1850	0	2020-05-30 18:45:23.243101
A3DRKIY58M1KWO	27	15	1	973	286.29885547410197	5	-181	235.5	127.59452301437892	-174.66217814068227	226.84831534074328	1850	1800	0	2020-05-30 18:45:29.031095
A3DRKIY58M1KWO	28	16	1	1011	175.46878425885774	0	-153	-104.5	215.41528688305374	-143.00235849723836	-101.68392062420132	1800	1750	0	2020-05-30 18:45:34.029576
A3DRKIY58M1KWO	29	17	1	963	185.8614465083857	13	88	-155.5	297.3888891180362	85.50139696605795	-165.02723537356525	1750	1700	0	2020-05-30 18:45:38.858149
A3DRKIY58M1KWO	30	18	1	990	260.43188225738453	11	-121	-229.5	242.88139250178864	-118.71370416712601	-231.80125482629356	1700	1650	0	2020-05-30 18:45:43.615125
A3DRKIY58M1KWO	31	19	1	1091	106.85443135038315	1	29	96.5	64.99508277209739	45.166945112770925	96.83912725956222	1650	1600	0	2020-05-30 18:45:48.486837
A3DRKIY58M1KWO	32	20	1	915	207.6036240703167	11	-65	195.5	110.3552834638158	-72.21293568727486	194.63955570889203	1600	1550	0	2020-05-30 18:45:53.603251
A3DRKIY58M1KWO	33	21	1	902	135.45071721333946	10	34	-153.5	285.39061677520255	35.94838003027821	-130.59330291713565	1550	1500	0	2020-05-30 18:45:58.303943
A3DRKIY58M1KWO	34	22	1	1119	280.23348477785123	6	233	-139.5	328.3567734928364	238.5715574416098	-147.01842731651993	1500	1450	0	2020-05-30 18:46:03.705899
A3DRKIY58M1KWO	35	23	1	1062	195.2016470765582	13	189	16.5	3.9078106379192867	194.74780278433337	13.30324517084374	1450	1400	0	2020-05-30 18:46:11.951807
A3DRKIY58M1KWO	36	24	1	979	128.9896928803183	14	-35	-116.5	251.7165789417191	-40.46635232875362	-122.4778151281448	1400	1350	0	2020-05-30 18:46:20.094891
A3DRKIY58M1KWO	37	25	0	0	236.79091286876863	9	0	0	118.33847638557239	-112.3997631240698	208.41360240367655	1350	1550	0	2020-05-30 18:46:25.251127
A3DRKIY58M1KWO	38	25	1	917	147.2354935282927	5	-102	87.5	139.57082860508203	-112.07686899456046	95.48332834006182	1550	1500	0	2020-05-30 18:46:41.951061
A3DRKIY58M1KWO	39	26	1	971	283.12557344980416	11	-250	-118.5	205.56847695048697	-255.39911867841997	-122.1940281665467	1500	1450	0	2020-05-30 18:46:51.686125
A3DRKIY58M1KWO	40	27	1	855	163.55377279972913	10	-68	-157.5	249.84855508139376	-56.34472497808877	-153.54187886100962	1450	1400	0	2020-05-30 18:46:57.055897
A3DRKIY58M1KWO	41	28	1	1159	276.4265395760234	3	266	-21.5	357.3559493722462	276.1322553822217	-12.75183592673374	1400	1350	0	2020-05-30 18:47:02.501342
A3DRKIY58M1KWO	42	29	1	864	217.22635911425922	10	174	-123.5	324.4531677563092	176.7441837101344	-126.28849757074228	1350	1300	0	2020-05-30 18:47:07.217002
A3DRKIY58M1KWO	43	30	0	0	238.95498063455585	10	0	0	58.63069955089354	124.38854505721723	204.02689192508325	1300	1500	0	2020-05-30 18:47:16.498218
A3DRKIY58M1KWO	44	30	1	1048	288.03202739271416	0	228	-176.5	323.21056714261397	230.66809767545067	-172.49544202310386	1500	1450	0	2020-05-30 18:47:22.075195
A3DRKIY58M1KWO	45	31	1	953	220.31353150543418	3	33	-206.5	281.18332591146753	42.72955996171024	-216.1301387356112	1450	1400	0	2020-05-30 18:47:51.810979
A3DRKIY58M1KWO	46	32	1	866	126.36354352051997	12	125	-6.5	359.22542389608947	126.35199654857966	-1.7082444936413828	1400	1350	0	2020-05-30 18:47:57.267443
A3DRKIY58M1KWO	47	33	1	1157	270.3642708540548	4	-80	-253.5	251.83552822017052	-84.2849247286461	-256.8908141953136	1350	1300	0	2020-05-30 18:48:06.530472
