A37OUZOGQKGMW0	1	1	0	0	262.14245198486867	0	0	0	159.1190550599432	-244.92573901440696	93.4347232076265	1500	1700	0	2020-05-31 21:32:31.789180
A37OUZOGQKGMW0	2	1	0	0	125.09776346858676	2	0	0	63.151951861039954	56.497390382896754	111.6131502322421	1700	1900	0	2020-05-31 21:32:31.855186
A37OUZOGQKGMW0	3	1	1	1875	121.46636130800363	4	119	-30	340.7662301559338	114.68639736521392	-40.01383746649071	1900	1850	0	2020-05-31 21:32:36.289082
A37OUZOGQKGMW0	4	2	1	1498	294.2467972617794	2	-300	-6	181.0611404609779	-294.1963346390209	-5.449255341783151	1850	1800	0	2020-05-31 21:32:42.380046
A37OUZOGQKGMW0	5	3	0	0	251.94180638193916	0	0	0	21.836992133500203	233.8639401165839	93.71409347660241	1800	2000	0	2020-05-31 21:32:49.165537
A37OUZOGQKGMW0	6	3	0	0	120.2200129202185	12	0	0	183.29479376187655	-120.02129442097473	-6.909442238791894	2000	2000	0	2020-05-31 21:32:56.803499
A37OUZOGQKGMW0	7	3	1	1968	258.90046066238426	2	139	217	57.38591722562865	139.5416099657635	218.07702221774196	2000	1950	0	2020-05-31 21:33:04.060926
A37OUZOGQKGMW0	8	4	0	295	230.83279533390075	9	1	1	165.05432209350195	-223.0239015246735	59.532501630414004	1950	2000	0	2020-05-31 21:33:09.127512
A37OUZOGQKGMW0	9	4	1	1681	225.0797820305881	8	-211	-88	202.53659209818184	-207.8915514992244	-86.26709160614136	2000	1950	0	2020-05-31 21:33:15.494256
A37OUZOGQKGMW0	10	5	1	1850	243.5995076949158	11	147	195	53.12637732004865	146.1723742321803	194.87010330097527	1950	1900	0	2020-05-31 21:33:22.601795
A37OUZOGQKGMW0	11	6	1	1817	229.5110504106037	10	81	212	68.44431989612961	84.32356126757315	213.45926842311746	1900	1850	0	2020-05-31 21:33:29.527172
A37OUZOGQKGMW0	12	7	1	1818	126.73666778795551	2	35	121	72.93802372561632	37.18529352888206	121.158726087581	1850	1800	0	2020-05-31 21:33:36.249995
A37OUZOGQKGMW0	13	8	0	0	172.00660275241884	11	0	0	8.036795345713417	170.31723776857126	24.04807496063632	1800	2000	0	2020-05-31 21:33:42.809147
A37OUZOGQKGMW0	14	8	0	0	218.3232806482382	7	0	0	187.60333685612548	-216.40374657590849	-28.887252221687003	2000	2000	0	2020-05-31 21:33:52.830109
A37OUZOGQKGMW0	15	8	0	0	296.98865864486913	4	0	0	349.41902028919014	291.9387706186473	-54.5345539392361	2000	2000	0	2020-05-31 21:34:00.543378
A37OUZOGQKGMW0	16	8	1	1634	159.64295228363034	0	-150	-57	200.36928764573966	-149.66027102075	-55.56685605492838	2000	1950	0	2020-05-31 21:34:06.784131
A37OUZOGQKGMW0	17	9	1	1666	181.7376102233693	3	-174	56	162.7605694619839	-173.57298116802835	53.86073874488336	1950	1900	0	2020-05-31 21:34:13.124060
A37OUZOGQKGMW0	18	10	0	0	222.42865196410216	3	0	0	337.35611640387185	205.28287489278387	-85.63554454968643	1900	2000	0	2020-05-31 21:34:19.891698
A37OUZOGQKGMW0	19	10	1	1817	276.59244759023886	1	148	-237	301.7670614411812	145.6168284054251	-235.15765211683845	2000	1950	0	2020-05-31 21:34:26.659999
A37OUZOGQKGMW0	20	11	1	1599	114.52292761784845	7	-75	86	132.07498411491287	-76.74211170779654	85.00675997114016	1950	1900	0	2020-05-31 21:34:33.486392
A37OUZOGQKGMW0	21	12	0	0	208.48480365747093	9	0	0	192.9340680683428	-203.195185047648	-46.66508469451535	1900	2000	0	2020-05-31 21:34:40.207234
A37OUZOGQKGMW0	22	12	0	0	105.81901316074482	0	0	0	112.3416571617925	-40.22484784323693	97.87555957593459	2000	2000	0	2020-05-31 21:34:47.044458
A37OUZOGQKGMW0	23	12	0	0	199.05656986617976	9	0	0	139.99652632253816	-152.47842162700294	127.96034129771311	2000	2000	0	2020-05-31 21:34:53.776112
A37OUZOGQKGMW0	24	12	0	0	141.70171542370574	13	0	0	250.5000143192246	-47.30097119114871	-133.5739281386716	2000	2000	0	2020-05-31 21:35:00.294813
A37OUZOGQKGMW0	25	12	0	0	285.4917397396563	2	0	0	22.897990162973336	262.99472080004614	111.08244816748251	2000	2000	0	2020-05-31 21:35:06.839037
A37OUZOGQKGMW0	26	12	0	0	222.7932602159628	1	0	0	315.74799018311234	159.5817918570279	-155.46860938902725	2000	2000	0	2020-05-31 21:35:13.552502
A37OUZOGQKGMW0	27	12	0	0	297.9199114332815	13	0	0	141.2140680784931	-232.22612627891206	186.6207381346058	2000	2000	0	2020-05-31 21:35:20.051230
A37OUZOGQKGMW0	28	12	1	1794	290.2557508015052	0	9	292	88.15334371599916	9.353390716112594	290.1050067741976	2000	1950	0	2020-05-31 21:35:27.366059
A37OUZOGQKGMW0	29	13	0	0	295.98423246182335	3	0	0	179.80614083957704	-295.9825382583943	1.0014550078926971	1950	2000	0	2020-05-31 21:35:37.530852
A37OUZOGQKGMW0	30	13	0	0	119.18196904335647	7	0	0	92.18697233071971	-4.5480554442134675	119.09515916580297	2000	2000	0	2020-05-31 21:35:43.573213
A37OUZOGQKGMW0	31	13	1	1648	110.14370856414727	10	-44	103	112.66041366479898	-42.43490774197605	101.6411095039492	2000	1950	0	2020-05-31 21:35:50.030341
A37OUZOGQKGMW0	32	14	1	1623	178.3361309181363	4	-113	140	129.0213969008872	-112.28231294949416	138.55128216498937	1950	1900	0	2020-05-31 21:35:56.132193
A37OUZOGQKGMW0	33	15	1	1511	123.30838714470133	12	113	47	23.170631127647177	113.36198079309328	48.51824039362818	1900	1850	0	2020-05-31 21:36:02.276454
A37OUZOGQKGMW0	34	16	0	0	249.34359687313156	12	0	0	193.12140610096776	-242.83353995852045	-56.604780476956215	1850	2000	0	2020-05-31 21:36:08.724648
A37OUZOGQKGMW0	35	16	0	0	246.716759372177	12	0	0	13.203609738288904	240.19468203768852	56.35311948705587	2000	2000	0	2020-05-31 21:36:15.327487
A37OUZOGQKGMW0	36	16	1	1996	270.59625564927876	3	-226	-150	213.449594894741	-225.77768401622492	-149.15351478151467	2000	1950	0	2020-05-31 21:36:22.403322
A37OUZOGQKGMW0	37	17	1	1455	199.9730996923328	4	-199	28	171.04431168618143	-197.53523348194508	31.129923446631143	1950	1900	0	2020-05-31 21:36:28.350545
A37OUZOGQKGMW0	38	18	0	0	238.32005243847988	10	0	0	292.82962599034875	92.46632225971912	-219.65069233226097	1900	2000	0	2020-05-31 21:36:35.178342
A37OUZOGQKGMW0	39	18	1	1879	115.03551042948273	11	70	-89	311.3683343768702	76.02664684991626	-86.33144055632192	2000	1950	0	2020-05-31 21:36:41.781223
A37OUZOGQKGMW0	40	19	0	0	246.99353773296463	10	0	0	58.17261295630256	130.25500084974814	209.8557657904055	1950	2000	0	2020-05-31 21:36:48.302866
A37OUZOGQKGMW0	41	19	0	0	269.6336386488907	8	0	0	190.7250090928285	-264.923586878582	-50.17760662314421	2000	2000	0	2020-05-31 21:36:55.114347
A37OUZOGQKGMW0	42	19	1	1931	166.69526557996437	13	150	81	27.99229057332269	147.19371224053586	78.2388819170186	2000	1950	0	2020-05-31 21:37:01.996436
A37OUZOGQKGMW0	43	20	1	1471	215.1152205333914	12	-218	-7	181.41977767812512	-215.0491794263853	-5.329965587877591	1950	1900	0	2020-05-31 21:37:08.096207
A37OUZOGQKGMW0	44	21	0	0	285.312051235166	10	0	0	131.02986314238632	-187.29375286759497	215.2301482524933	1900	2000	0	2020-05-31 21:37:14.644106
A37OUZOGQKGMW0	45	21	0	219	151.63696925935096	6	-2	-1	280.7612768950776	28.31326022682806	-148.97023105805155	2000	2000	0	2020-05-31 21:37:23.688591
