A1I0DV4B4MFQCL	1	1	1	1361	255.20233182963185	11	122	211	62.71433191188104	116.99170630484177	226.80646116714394	1500	1450	0	2020-05-31 09:04:33.066573
A1I0DV4B4MFQCL	2	2	0	0	237.7264625786689	7	0	0	33.364911996829925	198.54553327408604	130.74227406266135	1450	1650	0	2020-05-31 09:04:39.172176
A1I0DV4B4MFQCL	3	2	1	1571	238.5209056250424	13	121	200	58.21281143465545	125.64464251622188	202.74527424125372	1650	1600	0	2020-05-31 09:04:45.194871
A1I0DV4B4MFQCL	4	3	1	1440	200.7146171714818	12	-202	43	167.00719307727306	-195.57598137774198	45.12641193832736	1600	1550	0	2020-05-31 09:04:51.152589
A1I0DV4B4MFQCL	5	4	1	1474	286.70753315397485	11	-54	-280	259.86047308483046	-50.473676609129264	-282.2297247576779	1550	1500	0	2020-05-31 09:04:57.346144
A1I0DV4B4MFQCL	6	5	1	1416	189.29203692113634	4	127	138	47.02297574549818	129.04133382959893	138.49118890828706	1500	1450	0	2020-05-31 09:05:03.167874
A1I0DV4B4MFQCL	7	6	1	1409	270.4771406007417	3	186	-203	314.00843596610986	187.91785454791292	-194.53730626710862	1450	1400	0	2020-05-31 09:05:09.106830
A1I0DV4B4MFQCL	8	7	0	0	296.285372350158	11	0	0	345.76108120200047	287.1830408325637	-72.87607924987364	1400	1600	0	2020-05-31 09:05:14.933382
A1I0DV4B4MFQCL	9	7	1	1505	138.23379567619196	12	-139	32	166.27351677218635	-134.28577557567345	32.801108900265085	1600	1550	0	2020-05-31 09:05:20.823252
A1I0DV4B4MFQCL	10	8	1	1282	104.06317923226062	11	100	3	1.707302226284071	104.01698257970179	3.1004204456187696	1550	1500	0	2020-05-31 09:05:26.786018
A1I0DV4B4MFQCL	11	9	0	0	273.7728769366055	13	0	0	304.8659848625662	156.50469293083222	-224.6282912653071	1500	1700	0	2020-05-31 09:05:32.796227
A1I0DV4B4MFQCL	12	9	1	1398	186.43069457562254	10	43	-182	286.1111761491626	51.73490145346441	-179.1086370099147	1700	1650	0	2020-05-31 09:05:39.041011
A1I0DV4B4MFQCL	13	10	1	1312	107.16809140802035	6	-76	-87	231.88869261481605	-66.14319925305975	-84.32127257464654	1650	1600	0	2020-05-31 09:05:44.993077
A1I0DV4B4MFQCL	14	11	1	1318	218.62180748837355	0	200	84	23.47966601810073	200.52025646282848	87.10408404641512	1600	1550	0	2020-05-31 09:05:50.710346
A1I0DV4B4MFQCL	15	12	1	1449	286.585813482455	1	-280	47	170.3767805650947	-282.55308456502854	47.90806708883501	1550	1500	0	2020-05-31 09:05:56.587163
A1I0DV4B4MFQCL	16	13	1	1315	213.49863594736087	4	148	-152	316.6110616750914	155.15101906904863	-146.66229519961647	1500	1450	0	2020-05-31 09:06:02.345173
A1I0DV4B4MFQCL	17	14	1	1257	160.9731768935912	11	-122	-117	223.06786385660678	-117.59821348079434	-109.92280866745047	1450	1400	0	2020-05-31 09:06:08.066723
A1I0DV4B4MFQCL	18	15	1	1345	200.45320363663765	2	-122	178	124.28155443089152	-112.90728531776195	165.6304071430268	1400	1350	0	2020-05-31 09:06:13.945472
A1I0DV4B4MFQCL	19	16	1	1291	290.2773811799538	6	213	-201	318.1242868105762	216.13895991323673	-193.76508465746983	1350	1300	0	2020-05-31 09:06:19.884900
A1I0DV4B4MFQCL	20	17	1	1260	166.97482142099582	1	-143	84	149.29626324885683	-143.56811944908057	85.25717604065936	1300	1250	0	2020-05-31 09:06:25.441016
A1I0DV4B4MFQCL	21	18	0	0	275.25582723127513	3	0	0	39.760679732864	211.59538330128717	176.0487551513925	1250	1450	0	2020-05-31 09:06:31.146685
A1I0DV4B4MFQCL	22	18	1	1317	183.09147233695307	7	-198	-23	188.1893015997952	-181.22446033464215	-26.08030327528752	1450	1400	0	2020-05-31 09:06:36.828433
A1I0DV4B4MFQCL	23	19	1	1169	119.1609888254273	0	-55	-110	244.9649554232088	-50.42565589050309	-107.9657097687325	1400	1350	0	2020-05-31 09:06:43.938230
A1I0DV4B4MFQCL	24	20	1	1072	146.77580958745597	10	91	114	50.097057187894755	94.15507225924817	112.5964504232211	1350	1300	0	2020-05-31 09:06:49.606262
A1I0DV4B4MFQCL	25	21	1	1186	213.49907571392257	11	91	-189	297.1621934031201	97.46466514330224	-189.95392699073955	1300	1250	0	2020-05-31 09:06:55.276850
A1I0DV4B4MFQCL	26	22	0	0	245.80384888195684	8	0	0	151.19680856280434	-215.39295847115557	118.42890511284367	1250	1450	0	2020-05-31 09:07:00.981911
A1I0DV4B4MFQCL	27	22	1	1369	237.33034683370474	1	-217	117	151.04294500681254	-207.65998127914511	114.90441985995011	1450	1400	0	2020-05-31 09:07:06.882967
A1I0DV4B4MFQCL	28	23	1	1149	203.3475898757472	7	136	-148	314.0803535415648	141.46210887571587	-146.07776716773225	1400	1350	0	2020-05-31 09:07:12.563846
A1I0DV4B4MFQCL	29	24	0	0	288.7348727370676	7	0	0	32.200952757699056	244.322917598809	153.86402656402893	1350	1550	0	2020-05-31 09:07:18.610714
A1I0DV4B4MFQCL	30	24	1	880	234.5938331692135	1	-11	-228	268.4364425691866	-6.401089393790472	-234.50648736356416	1550	1500	0	2020-05-31 09:07:23.873201
A1I0DV4B4MFQCL	31	25	1	1006	155.63542123234598	8	157	-9	353.45193010038014	154.62013838662565	-17.748158988202196	1500	1450	0	2020-05-31 09:07:28.918277
A1I0DV4B4MFQCL	32	26	1	802	188.45419234030717	6	181	-2	358.2245121239597	188.3637167945565	-5.838904518623606	1450	1400	0	2020-05-31 09:07:33.717595
A1I0DV4B4MFQCL	33	27	1	1007	293.630788464314	12	268	-92	341.1333866360543	277.8551651768852	-94.95023495863805	1400	1350	0	2020-05-31 09:07:39.096120
A1I0DV4B4MFQCL	34	28	1	778	118.10401158423306	1	-57	-120	243.64742421628452	-52.42561942657811	-105.83058149716581	1350	1300	0	2020-05-31 09:07:44.383747
A1I0DV4B4MFQCL	35	29	1	925	153.6297938681711	12	151	40	14.528145840511279	148.71740861914313	38.538888639704695	1300	1250	0	2020-05-31 09:07:49.784718
A1I0DV4B4MFQCL	36	30	1	1007	179.05797378280536	1	137	-109	321.5266300511732	140.1840231900841	-111.4010665004863	1250	1200	0	2020-05-31 09:07:55.172243
A1I0DV4B4MFQCL	37	31	1	1042	233.68359784696483	8	-208	95	152.63580871435843	-207.5350639586819	107.41145716527548	1200	1150	0	2020-05-31 09:08:23.304720
A1I0DV4B4MFQCL	38	32	1	1099	223.09324129574674	3	206	80	20.71395014636471	208.67203471073466	78.90865758282948	1150	1100	0	2020-05-31 09:08:28.788706
A1I0DV4B4MFQCL	39	33	1	735	114.31732283304001	2	99	57	33.87323311040498	94.91455874332243	63.71559336829474	1100	1050	0	2020-05-31 09:08:33.859994
A1I0DV4B4MFQCL	40	34	1	831	165.77282947244618	13	-150	76	150.69954950098196	-144.56475291143323	81.12745039107898	1050	1000	0	2020-05-31 09:08:39.021618
A1I0DV4B4MFQCL	41	35	1	993	298.020308694504	6	-292	-90	195.32454462496315	-287.4239852709272	-78.76266301583078	1000	950	0	2020-05-31 09:08:44.462439
A1I0DV4B4MFQCL	42	36	0	0	280.6627152637576	10	0	0	280.6607269766723	51.920650652699294	-275.81842899818247	950	1150	0	2020-05-31 09:08:50.265194
A1I0DV4B4MFQCL	43	36	1	1100	227.36530756683342	5	127	168	54.23497380295957	132.8864929330259	184.48892400608122	1150	1100	0	2020-05-31 09:08:55.506714
A1I0DV4B4MFQCL	44	37	1	891	279.8138079530885	8	123	258	65.74670359739433	114.9394840044454	255.11699696021768	1100	1050	0	2020-05-31 09:09:00.381186
A1I0DV4B4MFQCL	45	38	0	0	219.7765082141285	0	0	0	355.12707275248266	218.9821359594777	-18.66916423999012	1050	1250	0	2020-05-31 09:09:05.805840
A1I0DV4B4MFQCL	46	38	1	902	118.75496443607804	7	-104	76	141.48809639184395	-92.92324302712838	73.94601059918918	1250	1200	0	2020-05-31 09:09:10.734586
A1I0DV4B4MFQCL	47	39	1	859	106.65780865595045	0	123	25	10.760013755153244	104.78252795738199	19.912558402922503	1200	1150	0	2020-05-31 09:09:16.066212
A1I0DV4B4MFQCL	48	40	1	1036	256.7712159443952	4	252	43	10.749645078028829	252.26527990632783	47.89244085808621	1150	1100	0	2020-05-31 09:09:21.741743
A1I0DV4B4MFQCL	49	41	1	842	143.91141899441723	12	-130	67	151.03304220104582	-125.90797801904307	69.69704145903813	1100	1050	0	2020-05-31 09:09:26.947578
A1I0DV4B4MFQCL	50	42	1	838	146.99547242951195	8	128	-68	329.9463576509903	127.23294638512213	-73.61688847632752	1050	1000	0	2020-05-31 09:09:32.184828
A1I0DV4B4MFQCL	51	43	1	922	116.99961830559458	9	-84	-88	227.42023445851132	-79.16381010769761	-86.1510409274735	1000	950	0	2020-05-31 09:09:37.521001
A1I0DV4B4MFQCL	52	44	1	940	104.21612630554722	5	90	47	27.51449264413848	92.4286579675009	48.1450326457518	950	900	0	2020-05-31 09:09:43.059347
A1I0DV4B4MFQCL	53	45	1	897	103.90665272489888	4	20	93	76.25936529749916	24.680647779895928	100.9329386556116	900	850	0	2020-05-31 09:09:48.044753
A1I0DV4B4MFQCL	54	46	1	774	125.73479659390323	5	111	-84	325.77868072698396	103.96650358819713	-70.71212913040881	850	800	0	2020-05-31 09:09:53.288371
A1I0DV4B4MFQCL	55	47	0	0	104.05012643806147	5	0	0	213.2084248374639	-87.05705414710566	-56.98682422283675	800	1000	0	2020-05-31 09:09:58.120159
A1I0DV4B4MFQCL	56	47	0	0	234.04205419363973	13	0	0	155.23431806925413	-212.5168675967303	98.04215480114874	1000	1200	0	2020-05-31 09:10:03.387015
A1I0DV4B4MFQCL	57	47	1	909	154.33687734379214	7	125	-107	319.5037066514303	117.36516645011501	-100.22619124944106	1200	1150	0	2020-05-31 09:10:08.447284
A1I0DV4B4MFQCL	58	48	1	1025	226.01072837513846	7	81	-205	293.98171981180684	91.86096579359914	-206.500392987829	1150	1100	0	2020-05-31 09:10:13.992437
A1I0DV4B4MFQCL	59	49	1	1006	136.4806028989704	12	-132	-55	200.60225170180672	-127.75208253832393	-48.024580943384805	1100	1050	0	2020-05-31 09:10:19.025934
A1I0DV4B4MFQCL	60	50	1	904	138.55187300437234	14	-42	-147	259.5136601691763	-25.216592970558008	-136.23782496787345	1050	1000	0	2020-05-31 09:10:24.297889
A1I0DV4B4MFQCL	61	51	1	830	176.2104925393667	4	-40	-167	257.15784437120095	-39.16558514711969	-171.802778269299	1000	950	0	2020-05-31 09:10:29.518697
A1I0DV4B4MFQCL	62	52	1	793	204.52225593191918	2	-134	-160	231.18976769289188	-128.1828884353188	-159.36906940764902	950	900	0	2020-05-31 09:10:34.727314
A1I0DV4B4MFQCL	63	53	1	901	130.5137889128352	11	97	-83	321.53841827111836	102.19561081853074	-81.17823739039612	900	850	0	2020-05-31 09:10:40.024648
A1I0DV4B4MFQCL	64	54	0	0	161.99480723914948	5	0	0	125.0200422118027	-92.96281679347268	132.66586699777918	850	1050	0	2020-05-31 09:10:45.271949
A1I0DV4B4MFQCL	65	54	0	0	243.35089447650756	10	0	0	342.749254594377	232.4040188734128	-72.1666810515954	1050	1250	0	2020-05-31 09:10:50.732211
A1I0DV4B4MFQCL	66	54	1	1004	162.97016192432238	11	87	-142	303.39769922196473	89.7064718185689	-136.05889383463384	1250	1200	0	2020-05-31 09:10:56.208231
A1I0DV4B4MFQCL	67	55	1	947	270.7036679147499	7	279	-3	2.1607167321341247	270.5111979001048	10.206254609283512	1200	1150	0	2020-05-31 09:11:01.642862
A1I0DV4B4MFQCL	68	56	1	952	295.287074370681	5	-72	-286	257.70182709775537	-62.895919259016416	-288.5109350283961	1150	1100	0	2020-05-31 09:11:06.773821
A1I0DV4B4MFQCL	69	57	1	906	184.09678812314803	4	32	166	79.2550973772102	34.322384877053786	180.86901695318258	1100	1050	0	2020-05-31 09:11:12.110649
A1I0DV4B4MFQCL	70	58	1	763	127.68925896991985	10	74	93	51.97797291911274	78.65203481057556	100.59027923434385	1050	1000	0	2020-05-31 09:11:17.269802
A1I0DV4B4MFQCL	71	59	1	946	257.5459121654826	7	-185	155	137.94720658842482	-191.23504090502408	172.5081331508873	1000	950	0	2020-05-31 09:11:22.469778
A1I0DV4B4MFQCL	72	60	1	868	128.81172341344868	2	90	83	43.30449342492616	93.73873469588497	88.34879572669507	950	900	0	2020-05-31 09:11:27.785506
A1I0DV4B4MFQCL	73	61	1	822	237.54250654153216	10	-131	236	123.10028113050774	-129.7234050385936	198.99316721743702	900	850	0	2020-05-31 09:11:38.392001
A1I0DV4B4MFQCL	74	62	0	0	164.81137124098683	5	0	0	241.85741328729068	-77.73615374175131	-145.32679894559428	850	1050	0	2020-05-31 09:11:43.503715
A1I0DV4B4MFQCL	75	62	1	817	155.45939896261928	4	-17	165	96.54454772667964	-17.71859165237837	154.44635390864718	1050	1000	0	2020-05-31 09:11:48.787127
A1I0DV4B4MFQCL	76	63	1	827	104.94964492837309	11	-6	91	97.04475551689416	-12.87150877997221	104.15734363125188	1000	950	0	2020-05-31 09:11:53.718974
A1I0DV4B4MFQCL	77	64	0	0	261.8002231275998	13	0	0	262.59225850226636	-33.75379403651001	-259.6151733196693	950	1150	0	2020-05-31 09:11:58.619142
A1I0DV4B4MFQCL	78	64	1	960	272.1831059578483	3	187	163	36.997720196679424	217.38161124945563	163.79523271283512	1150	1100	0	2020-05-31 09:12:03.621366
A1I0DV4B4MFQCL	79	65	1	847	164.05114809379967	7	107	-104	317.53670454269025	121.02216898205161	-110.75384330023736	1100	1050	0	2020-05-31 09:12:08.496737
A1I0DV4B4MFQCL	80	66	1	735	108.69512754155485	6	109	44	23.307306911549027	99.82516275468986	43.006599868794055	1050	1000	0	2020-05-31 09:12:13.494153
A1I0DV4B4MFQCL	81	67	1	975	204.52228062092254	3	1	183	90.92548901221515	-3.3034700650394826	204.49559984486896	1000	950	0	2020-05-31 09:12:18.263661
A1I0DV4B4MFQCL	82	68	1	769	149.2527905359367	0	-12	-143	265.7401429303098	-11.086505392153235	-148.84046788744638	950	900	0	2020-05-31 09:12:23.058554
A1I0DV4B4MFQCL	83	69	0	0	274.0841514471944	3	0	0	56.26625844919096	152.20832214959913	227.93584347998555	900	1100	0	2020-05-31 09:12:27.992963
A1I0DV4B4MFQCL	84	69	1	799	188.72971873547192	12	-204	1	178.05092392696756	-188.62052927221387	6.4189306773205885	1100	1050	0	2020-05-31 09:12:32.806680
A1I0DV4B4MFQCL	85	70	1	1001	234.24372726358615	13	225	108	26.14694765294538	210.2728152183131	103.22532122741242	1050	1000	0	2020-05-31 09:12:37.836971
A1I0DV4B4MFQCL	86	71	1	807	174.85719198615482	7	123	-105	325.1767346864313	143.54331134503707	-99.85166677319292	1000	950	0	2020-05-31 09:12:42.658397
A1I0DV4B4MFQCL	87	72	1	818	182.64355680197022	6	-41	174	103.46051179226066	-42.51488166997488	177.6264441964162	950	900	0	2020-05-31 09:12:47.511482
A1I0DV4B4MFQCL	88	73	1	755	136.80436656987413	13	-105	37	160.12978896251195	-128.65971429856225	46.49852287112815	900	850	0	2020-05-31 09:12:52.294386
A1I0DV4B4MFQCL	89	74	0	0	237.66421965121893	1	0	0	261.84599116212803	-33.70896133647225	-235.26152942637913	850	1050	0	2020-05-31 09:12:57.175171
A1I0DV4B4MFQCL	90	74	1	948	141.001400284512	2	3	126	89.3722520645627	1.544818271626022	140.99293747809082	1050	1000	0	2020-05-31 09:13:02.163370
A1I0DV4B4MFQCL	91	75	1	747	241.86854692404134	10	123	-217	299.80380856785183	120.21632104446515	-209.8771787157462	1000	950	0	2020-05-31 09:13:06.943811
A1I0DV4B4MFQCL	92	76	1	921	178.80455803868585	4	-158	-97	214.1470492879033	-147.978594725232	-100.36635630805435	950	900	0	2020-05-31 09:13:11.900057
A1I0DV4B4MFQCL	93	77	0	759	258.12953662503696	6	-283	230	143.510939468036	-207.52851076730448	153.50170975256623	900	1100	0	2020-05-31 09:13:16.665496
A1I0DV4B4MFQCL	94	77	1	823	175.97881414355942	0	148	-52	343.89768987978044	169.07480842729115	-48.808320834138776	1100	1050	0	2020-05-31 09:13:21.533844
A1I0DV4B4MFQCL	95	78	1	783	136.5869579085503	1	29	-125	285.33443998513025	36.12080198366695	-131.72427541941087	1050	1000	0	2020-05-31 09:13:26.342337
A1I0DV4B4MFQCL	96	79	0	0	184.33716004366624	12	0	0	259.1450299029049	-34.71504563255004	-181.03881953794934	1000	1200	0	2020-05-31 09:13:31.380886
A1I0DV4B4MFQCL	97	79	1	792	210.9300417077088	6	12	-208	273.8177476987249	14.04434905784357	-210.46196510143398	1200	1150	0	2020-05-31 09:13:36.190142
A1I0DV4B4MFQCL	98	80	1	844	270.39696170885054	9	258	-52	349.0366560924148	265.4619619903036	-51.42434868460836	1150	1100	0	2020-05-31 09:13:41.061816
A1I0DV4B4MFQCL	99	81	1	913	278.3729901656752	8	-268	-25	182.6895656465932	-278.0663448166447	-13.062524032129396	1100	1050	0	2020-05-31 09:13:46.023662
A1I0DV4B4MFQCL	100	82	1	711	122.06261966690269	2	-45	-117	250.06981605836557	-41.608077823655044	-114.75212843240689	1050	1000	0	2020-05-31 09:13:50.721074
A1I0DV4B4MFQCL	101	83	1	725	129.62647173234046	13	-115	-87	219.27141057211202	-100.35113127210974	-82.05286482617814	1000	950	0	2020-05-31 09:13:55.476508
A1I0DV4B4MFQCL	102	84	1	790	116.2973859270998	5	87	-35	337.22779277504696	107.23212301685719	-45.01503933991838	950	900	0	2020-05-31 09:14:00.296933
A1I0DV4B4MFQCL	103	85	1	785	149.70568337686524	2	-129	34	162.85241372027056	-143.05103725963588	44.138332255268736	900	850	0	2020-05-31 09:14:05.111404
A1I0DV4B4MFQCL	104	86	1	746	188.5623030730569	9	-131	161	128.46710808892155	-117.29805818934084	147.63775833175393	850	800	0	2020-05-31 09:14:09.891369
A1I0DV4B4MFQCL	105	87	1	775	112.20425271365673	14	-99	28	168.06236719912727	-109.7776490158285	23.209095277233697	800	750	0	2020-05-31 09:14:14.690136
A1I0DV4B4MFQCL	106	88	1	731	183.54369720733476	13	137	-66	332.27289999716686	162.46804691455628	-85.39568207062537	750	700	0	2020-05-31 09:14:19.439063
A1I0DV4B4MFQCL	107	89	0	0	198.61463050539373	2	0	0	21.6912222471738	184.55057083672054	73.4088431637134	700	900	0	2020-05-31 09:14:24.168804
A1I0DV4B4MFQCL	108	89	1	810	126.73093300501641	0	-115	-19	186.75559704744293	-125.85103637983413	-14.907918112319546	900	850	0	2020-05-31 09:14:29.054960
A1I0DV4B4MFQCL	109	90	0	0	281.7834561722451	10	0	0	189.5846494466519	-277.8499512951374	-46.91823459664031	850	1050	0	2020-05-31 09:14:33.903081
A1I0DV4B4MFQCL	110	90	1	842	270.3910748635284	12	-247	58	163.24687236283273	-258.91449534653316	77.93983234075026	1050	1000	0	2020-05-31 09:14:38.783748
A1I0DV4B4MFQCL	111	91	1	852	215.10854804863789	14	-213	59	165.02984183697944	-207.80787108257263	55.56596224058416	1000	950	0	2020-05-31 09:14:49.924660
A1I0DV4B4MFQCL	112	92	1	696	111.64274139584522	7	98	16	10.571339266173343	109.74785628430975	20.48193710023701	950	900	0	2020-05-31 09:14:54.663712
A1I0DV4B4MFQCL	113	93	0	829	295.353366371749	14	231	41	7.957554705382077	292.5093786358977	40.8885612019506	900	1100	0	2020-05-31 09:14:59.513561
A1I0DV4B4MFQCL	114	93	1	773	234.24969683585667	14	37	-251	284.7252607796551	59.542612214530855	-226.5559484947609	1100	1050	0	2020-05-31 09:15:04.306630
A1I0DV4B4MFQCL	115	94	1	730	209.1254041687004	11	-124	154	125.26345405382314	-120.73582005791451	170.75214910408945	1050	1000	0	2020-05-31 09:15:09.076063
A1I0DV4B4MFQCL	116	95	1	930	184.4297519249114	9	-106	-133	233.95644269156233	-108.51848669338752	-149.12434892015935	1000	950	0	2020-05-31 09:15:14.055233
A1I0DV4B4MFQCL	117	96	1	776	167.67321420343842	10	17	154	85.46034618593303	13.271172767123108	167.14718883276893	950	900	0	2020-05-31 09:15:18.851501
A1I0DV4B4MFQCL	118	97	1	782	277.5889751188129	7	-104	242	112.72856359739325	-107.25091591632399	256.03296690587047	900	850	0	2020-05-31 09:15:23.650260
A1I0DV4B4MFQCL	119	98	0	0	293.52219256513274	13	0	0	341.20543945102094	277.87154539711116	-94.56575377410195	850	1050	0	2020-05-31 09:15:28.501721
A1I0DV4B4MFQCL	120	98	1	790	116.87203919543296	0	73	-77	325.3968001809883	96.19791946218177	-66.37042893372325	1050	1000	0	2020-05-31 09:15:33.335923
A1I0DV4B4MFQCL	121	99	0	0	206.31164625203905	6	0	0	65.52601415793927	85.47079865998897	187.77443371143508	1000	1200	0	2020-05-31 09:15:38.339277
A1I0DV4B4MFQCL	122	99	1	970	199.96580079315558	7	172	129	36.397977304146444	160.95542178304584	118.65780077807693	1200	1150	0	2020-05-31 09:15:43.347809
A1I0DV4B4MFQCL	123	100	1	722	144.5950415940517	4	144	-4	358.6917957293116	144.55735295997977	-3.3011753648318525	1150	1100	0	2020-05-31 09:15:48.106951
A1I0DV4B4MFQCL	124	101	1	807	143.3167841791044	2	-46	-118	247.83323058598148	-54.0739578117108	-132.72417908586704	1100	1050	0	2020-05-31 09:15:53.016094
A1I0DV4B4MFQCL	125	102	1	955	204.08966965013104	1	-5	179	92.56459722343831	-9.132139330064604	203.8852552029104	1050	1000	0	2020-05-31 09:15:57.916434
A1I0DV4B4MFQCL	126	103	1	779	150.17850986271296	1	-139	71	153.03616821941569	-133.85304410803474	68.09513497745253	1000	950	0	2020-05-31 09:16:02.710393
A1I0DV4B4MFQCL	127	104	1	807	137.86730305501817	13	133	25	12.727514329020737	134.4797459583908	30.374186057092892	950	900	0	2020-05-31 09:16:07.543127
A1I0DV4B4MFQCL	128	105	1	768	107.54556922737572	9	-41	-103	248.00998906204097	-40.269894282840795	-99.721537668094	900	850	0	2020-05-31 09:16:12.352545
A1I0DV4B4MFQCL	129	106	1	770	206.31578358350959	8	196	83	16.012446961670417	198.31110124277183	56.91141958830984	850	800	0	2020-05-31 09:16:17.131325
A1I0DV4B4MFQCL	130	107	0	0	183.3455320367238	6	0	0	172.9084510297151	-181.94296770318297	22.63494248253848	800	1000	0	2020-05-31 09:16:21.983120
A1I0DV4B4MFQCL	131	107	1	714	174.8538245972064	4	-123	92	135.783434341033	-125.31931145621249	121.93822268842295	1000	950	0	2020-05-31 09:16:26.702848
A1I0DV4B4MFQCL	132	108	1	752	100.30307430630263	3	-70	-97	230.90752547569392	-63.248498008765516	-77.84814843611152	950	900	0	2020-05-31 09:16:31.466376
A1I0DV4B4MFQCL	133	109	0	0	210.16656730912186	7	0	0	9.208302381495814	207.4581691043935	33.631742243786874	900	1100	0	2020-05-31 09:16:36.658023
A1I0DV4B4MFQCL	134	109	1	704	235.95270844355326	10	215	31	7.1962475077474375	234.0940871758467	29.557384376083245	1100	1050	0	2020-05-31 09:16:41.295260
A1I0DV4B4MFQCL	135	110	1	829	227.42062492972698	6	23	183	79.21276326982098	42.5646114780295	223.4018677029177	1050	1000	0	2020-05-31 09:16:46.028070
A1I0DV4B4MFQCL	136	111	1	802	231.76882812590446	2	-151	155	130.99474472201362	-152.03798786474886	174.93210093317214	1000	950	0	2020-05-31 09:16:50.830411
A1I0DV4B4MFQCL	137	112	1	902	270.6245594751657	14	252	-68	345.0834947518397	261.50504406999545	-69.66178376324612	950	900	0	2020-05-31 09:16:55.753651
A1I0DV4B4MFQCL	138	113	1	785	244.676987031178	5	-243	154	151.83634722533594	-215.70797824607746	115.48548005548153	900	850	0	2020-05-31 09:17:00.574537
A1I0DV4B4MFQCL	139	114	0	737	141.17017364945366	4	31	-77	298.18151742100423	66.66993644227958	-124.43527435176613	850	1050	0	2020-05-31 09:17:05.345612
A1I0DV4B4MFQCL	140	114	1	820	217.44974740704436	5	121	193	61.52481046907239	103.67529183224684	191.14347101296931	1050	1000	0	2020-05-31 09:17:10.207562
A1I0DV4B4MFQCL	141	115	0	787	289.93414171727983	1	204	45	14.131352178728669	281.1603183187693	70.78617051532035	1000	1200	0	2020-05-31 09:17:15.025518
A1I0DV4B4MFQCL	142	115	1	802	298.4938260441313	5	170	-254	302.4738548079889	160.2657219584131	-251.82029813264208	1200	1150	0	2020-05-31 09:17:19.875583
A1I0DV4B4MFQCL	143	116	1	853	133.15753647546052	6	104	-45	336.63126241880786	122.23478164492464	-52.81654737325409	1150	1100	0	2020-05-31 09:17:24.740366
A1I0DV4B4MFQCL	144	117	1	925	243.58424250368705	9	116	-181	301.75641865126204	128.20062352168412	-207.11804200683827	1100	1050	0	2020-05-31 09:17:29.698052
A1I0DV4B4MFQCL	145	118	1	858	142.68201962259047	11	-86	84	130.12716591234076	-91.95659735207032	109.09694279406048	1050	1000	0	2020-05-31 09:17:34.593961
A1I0DV4B4MFQCL	146	119	1	849	108.43703865675585	0	-27	74	112.04434084961066	-40.69902559304447	100.50960485656817	1000	950	0	2020-05-31 09:17:39.467973
A1I0DV4B4MFQCL	147	120	1	865	229.82062644271437	8	209	72	20.45598396418816	215.3283562531028	80.3194828908809	950	900	0	2020-05-31 09:17:44.461727
A1I0DV4B4MFQCL	148	121	1	711	118.58813479450964	2	-20	-106	266.19744682217157	-7.864571056667073	-118.32706468148115	900	850	0	2020-05-31 09:17:52.461772
A1I0DV4B4MFQCL	149	122	1	763	183.3304418290038	11	141	34	21.90630524231361	170.0931043104617	68.39873366699221	850	800	0	2020-05-31 09:17:57.255594
A1I0DV4B4MFQCL	150	123	1	739	263.41347262640267	10	-30	-259	266.86654078700445	-14.398686856918284	-263.0196482734645	800	750	0	2020-05-31 09:18:02.014333
A1I0DV4B4MFQCL	151	124	1	707	292.98318106459885	8	257	-117	338.47233326813654	272.54481645918236	-107.51031303071409	750	700	0	2020-05-31 09:18:06.825637
A1I0DV4B4MFQCL	152	125	0	0	250.7170098208802	10	0	0	209.77736403227775	-217.61276863730504	-124.5138624392083	700	900	0	2020-05-31 09:18:11.525270
A1I0DV4B4MFQCL	153	125	1	644	178.42907084578917	1	153	23	8.872841535465842	176.2938258956022	27.52126948348768	900	850	0	2020-05-31 09:18:16.161032
A1I0DV4B4MFQCL	154	126	0	0	288.2666959239555	4	0	0	270.9595373977259	4.827401742885028	-288.22627252096055	850	1050	0	2020-05-31 09:18:21.024743
A1I0DV4B4MFQCL	155	126	1	748	231.38229977873348	3	-9	-244	269.7220474721591	-1.1224743499376872	-231.379577107033	1050	1000	0	2020-05-31 09:18:25.802310
A1I0DV4B4MFQCL	156	127	1	716	204.6448705993933	0	-53	-207	243.58706780422986	-91.03367955821298	-183.28227478055544	1000	950	0	2020-05-31 09:18:30.545783
A1I0DV4B4MFQCL	157	128	1	666	184.65241434649056	2	-149	97	147.900372965529	-156.42374676180512	98.12301245368845	950	900	0	2020-05-31 09:18:35.259405
A1I0DV4B4MFQCL	158	129	1	807	244.77014774878737	9	226	-33	347.8514223566096	239.28856003674755	-51.5112634722064	900	850	0	2020-05-31 09:18:40.079045
A1I0DV4B4MFQCL	159	130	1	690	145.76569147631332	1	60	80	61.34967417346948	69.88923397483055	127.91845756566624	850	800	0	2020-05-31 09:18:44.810095
A1I0DV4B4MFQCL	160	131	1	763	132.60222810256852	5	-61	-110	238.80775787842842	-68.67617746921539	-113.43250656660304	800	750	0	2020-05-31 09:18:49.599143
A1I0DV4B4MFQCL	161	132	1	671	190.47200419445926	0	205	-21	358.6887444204721	190.42212589549777	-4.358709819809023	750	700	0	2020-05-31 09:18:54.294385
A1I0DV4B4MFQCL	162	133	0	0	268.34226620586037	9	0	0	158.6700916962809	-249.9612192196544	97.60615102912672	700	900	0	2020-05-31 09:18:59.052221
A1I0DV4B4MFQCL	163	133	1	720	109.73533117353975	8	-114	-46	195.67355646762456	-105.65499113274734	-29.645670113956378	900	850	0	2020-05-31 09:19:03.784420
A1I0DV4B4MFQCL	164	134	0	774	298.97565080357634	2	79	194	68.90450425845872	107.60835178945896	278.9388506439683	850	1050	0	2020-05-31 09:19:08.597484
A1I0DV4B4MFQCL	165	134	1	675	121.04957178633208	12	123	55	27.837991255897556	107.04069036665855	56.52689125967831	1050	1000	0	2020-05-31 09:19:13.304286
A1I0DV4B4MFQCL	166	135	1	768	103.15563072465683	14	-56	88	123.86734468918009	-57.48574041391313	85.65321826566682	1000	950	0	2020-05-31 09:19:18.126666
A1I0DV4B4MFQCL	167	136	1	726	201.62815791725717	8	-75	-166	245.72562202215227	-82.89069636167366	-183.80164994303837	950	900	0	2020-05-31 09:19:22.845964
A1I0DV4B4MFQCL	168	137	1	723	194.56410474263453	2	151	-83	333.85447937374994	174.65587115985574	-85.73515920376384	900	850	0	2020-05-31 09:19:27.611041
A1I0DV4B4MFQCL	169	138	0	0	153.21186565259495	6	0	0	310.58519199879134	99.67626347851683	-116.35513858747322	850	1050	0	2020-05-31 09:19:32.611068
A1I0DV4B4MFQCL	170	138	0	906	283.405970467558	2	186	-148	327.0434863505475	237.80132930453556	-154.17351224401096	1050	1250	0	2020-05-31 09:19:37.562083
A1I0DV4B4MFQCL	171	138	1	883	209.74424858996673	1	107	206	63.90896811371676	92.2452273905677	188.3705599084746	1250	1200	0	2020-05-31 09:19:42.344369
A1I0DV4B4MFQCL	172	139	1	687	104.97641938278876	0	95	-23	342.3821168257946	100.05263118952051	-31.772938461604937	1200	1150	0	2020-05-31 09:19:47.180657
A1I0DV4B4MFQCL	173	140	1	915	275.87120151201225	1	51	231	74.5923530240885	73.29478169597387	265.9563776257693	1150	1100	0	2020-05-31 09:19:52.013485
A1I0DV4B4MFQCL	174	141	1	931	241.53756870436467	9	197	175	39.25506930284496	187.03139464947483	152.8386551599041	1100	1050	0	2020-05-31 09:19:57.244207
A1I0DV4B4MFQCL	175	142	1	814	234.65784364502298	4	-2	223	91.88113468531576	-7.7029008473813	234.53138148799505	1050	1000	0	2020-05-31 09:20:01.855206
A1I0DV4B4MFQCL	176	143	1	893	173.97674795212478	11	-64	168	110.21432460812123	-60.11467673864795	163.26093981294184	1000	950	0	2020-05-31 09:20:06.769673
A1I0DV4B4MFQCL	177	144	1	748	132.9859525368876	9	118	31	18.78839121623367	125.89973427336542	42.83130259564021	950	900	0	2020-05-31 09:20:11.549086
A1I0DV4B4MFQCL	178	145	1	855	141.4539906228145	7	-170	9	174.4662851042381	-140.79476225763457	13.640615233025624	900	850	0	2020-05-31 09:20:16.482542
A1I0DV4B4MFQCL	179	146	1	715	155.93906104861824	13	-141	-89	209.35720083484185	-135.9134083748328	-76.44956628170377	850	800	0	2020-05-31 09:20:21.193854
A1I0DV4B4MFQCL	180	147	1	702	195.9473390177854	6	-131	-122	221.37546602920935	-147.0377415408123	-129.5193507964281	800	750	0	2020-05-31 09:20:25.923286
A1I0DV4B4MFQCL	181	148	0	0	240.12948056769176	0	0	0	341.8013479505508	228.1180597057876	-74.9954550207956	750	950	0	2020-05-31 09:20:30.693375
A1I0DV4B4MFQCL	182	148	1	802	218.06166736273468	13	195	-30	355.95141557633553	217.51750342439325	-15.395664228444774	950	900	0	2020-05-31 09:20:35.527967
A1I0DV4B4MFQCL	183	149	1	781	211.16271553991083	2	3	174	83.71759167638281	23.10735170807009	209.89459909971205	900	850	0	2020-05-31 09:20:40.333450
A1I0DV4B4MFQCL	184	150	1	762	185.0307640527846	13	23	-206	281.7091811726225	37.55092132452068	-181.18032993025736	850	800	0	2020-05-31 09:20:45.168128
