A2HJDLSU95MH8Q	1	1	1	1022	299.6588731000759	8	295	-71.5	347.6178744711745	292.6885744084545	-64.25603970331484	1500	1450	0	2020-05-30 20:53:56.218603
A2HJDLSU95MH8Q	2	2	1	832	223.79726453391095	14	190	75.5	14.582178528333243	216.58820145412975	56.34506725283612	1450	1400	0	2020-05-30 20:54:01.443526
A2HJDLSU95MH8Q	3	3	1	1105	212.26564333222228	12	-151	197.5	124.53470918637501	-120.33453519933907	174.86081029665058	1400	1350	0	2020-05-30 20:54:06.544821
A2HJDLSU95MH8Q	4	4	1	1266	293.47340999660156	5	159	-235.5	301.58416844554995	153.7068578294813	-250.00168845674025	1350	1300	0	2020-05-30 20:54:11.839110
A2HJDLSU95MH8Q	5	5	0	0	267.0690755689319	13	0	0	114.22667407906316	-109.59116150728647	243.54808240823354	1300	1500	0	2020-05-30 20:54:17.548157
A2HJDLSU95MH8Q	6	5	1	922	167.78547507570738	13	146	-92.5	326.8225063127878	140.43297565394175	-91.817999299485	1500	1450	0	2020-05-30 20:54:23.026536
A2HJDLSU95MH8Q	7	6	1	1173	234.64529596012804	4	-215	131.5	148.97059834268114	-201.0682329648037	120.95445675388524	1450	1400	0	2020-05-30 20:54:28.579578
A2HJDLSU95MH8Q	8	7	1	877	136.37491790683058	13	145	61.5	22.110447585098267	126.34590820951621	51.330592367586036	1400	1350	0	2020-05-30 20:54:33.467052
A2HJDLSU95MH8Q	9	8	1	919	109.00221685996003	4	123	-34.5	348.14569557164	106.67754070725128	-22.39164105282372	1350	1300	0	2020-05-30 20:54:38.841536
A2HJDLSU95MH8Q	10	9	0	0	255.53546915018458	5	0	0	71.03380542730777	83.0516407641363	241.66257666463332	1300	1500	0	2020-05-30 20:54:44.155704
A2HJDLSU95MH8Q	11	9	1	1047	297.81663198425804	2	-236	198.5	140.48023465728824	-229.73727157071392	189.51393705395662	1500	1450	0	2020-05-30 20:54:49.625780
A2HJDLSU95MH8Q	12	10	1	1383	133.56561256003909	9	-73	-130.5	242.70618907789614	-61.2469876090847	-118.69532158998979	1450	1400	0	2020-05-30 20:54:55.007287
A2HJDLSU95MH8Q	13	11	1	1049	299.0367353249368	8	-198	204.5	135.33281065631994	-212.67557180783092	210.21910053562794	1400	1350	0	2020-05-30 20:55:00.487637
A2HJDLSU95MH8Q	14	12	0	0	127.75802455673761	10	0	0	228.68068504946433	-84.35286028636034	-95.9515909203685	1350	1550	0	2020-05-30 20:55:05.850361
A2HJDLSU95MH8Q	15	12	1	772	144.44195511640268	2	-135	19.5	172.34576595577516	-143.15496390040786	19.238885324306278	1550	1500	0	2020-05-30 20:55:11.568977
A2HJDLSU95MH8Q	16	13	1	970	230.0817597913559	9	204	-115.5	329.7581102402357	198.76919820999248	-115.88106847817689	1500	1450	0	2020-05-30 20:55:16.499601
A2HJDLSU95MH8Q	17	14	1	1151	298.3689290267845	14	221	216.5	45.53683455218855	208.9926899976661	212.9461747393688	1450	1400	0	2020-05-30 20:55:21.669361
A2HJDLSU95MH8Q	18	15	1	976	246.42282508999233	14	247	-74.5	343.5851270771029	236.37879131061786	-69.63674133576565	1400	1350	0	2020-05-30 20:55:26.673329
A2HJDLSU95MH8Q	19	16	1	986	255.55572993208665	0	-227	145.5	148.83593622338552	-218.67622730729406	132.24764161137344	1350	1300	0	2020-05-30 20:55:31.658828
A2HJDLSU95MH8Q	20	17	1	973	214.9248172313579	12	-74	-177.5	249.29759172719247	-75.97896672566124	-201.04694396392466	1300	1250	0	2020-05-30 20:55:36.638357
A2HJDLSU95MH8Q	21	18	0	0	181.78164818507696	2	0	0	260.84469674831524	-28.923472325005115	-179.46587521182894	1250	1450	0	2020-05-30 20:55:41.914546
A2HJDLSU95MH8Q	22	18	1	1003	125.13832433041938	1	-71	129.5	115.67498039289903	-54.218126903905734	112.78295496774858	1450	1400	0	2020-05-30 20:55:48.244296
A2HJDLSU95MH8Q	23	19	1	1172	213.07871922440268	14	-83	191.5	114.20001578864762	-87.34592858831469	194.35336206342524	1400	1350	0	2020-05-30 20:55:53.435538
A2HJDLSU95MH8Q	24	20	1	1074	203.98328136869821	3	-154	-134.5	219.97886773703394	-156.3086084578341	-131.06028383883893	1350	1300	0	2020-05-30 20:55:58.513453
A2HJDLSU95MH8Q	25	21	1	929	266.9629764835272	7	274	47.5	9.826212297997046	263.0466098810211	45.559980718237846	1300	1250	0	2020-05-30 20:56:03.466524
A2HJDLSU95MH8Q	26	22	1	1091	285.59862796379406	4	-257	122.5	155.27646039854662	-259.41963609975295	119.44885391109209	1250	1200	0	2020-05-30 20:56:08.559993
A2HJDLSU95MH8Q	27	23	1	995	179.56275581475794	12	129	131.5	44.618424976685816	127.81280788112662	126.12164531646658	1200	1150	0	2020-05-30 20:56:13.581098
A2HJDLSU95MH8Q	28	24	1	959	165.1430739038094	11	-118	-112.5	220.92622060048348	-124.77446996125003	-108.18302317964762	1150	1100	0	2020-05-30 20:56:18.546290
A2HJDLSU95MH8Q	29	25	1	834	125.88895543334426	11	101	-92.5	322.69322021849166	100.13229784617297	-76.29909585403908	1100	1050	0	2020-05-30 20:56:23.389000
A2HJDLSU95MH8Q	30	26	1	862	286.232496719781	0	-301	-2.5	181.600588691301	-286.1208168438049	-7.995020142145056	1050	1000	0	2020-05-30 20:56:28.279605
A2HJDLSU95MH8Q	31	27	0	0	247.25893567006477	4	0	0	76.16897913588936	59.109525935191876	240.08966077782298	1000	1200	0	2020-05-30 20:56:33.287196
A2HJDLSU95MH8Q	32	27	1	958	268.2955628714807	6	-252	-39.5	187.57525382367294	-265.9540320285827	-35.36893982386613	1200	1150	0	2020-05-30 20:56:38.267421
A2HJDLSU95MH8Q	33	28	1	874	269.6139926725118	2	125	-232.5	295.7745342402268	117.2364949504334	-242.79066970654011	1150	1100	0	2020-05-30 20:56:43.146256
A2HJDLSU95MH8Q	34	29	1	959	165.12640483503458	13	184	-32.5	353.25487972696754	163.98347642928022	-19.394561915945136	1100	1050	0	2020-05-30 20:56:48.110127
A2HJDLSU95MH8Q	35	30	1	934	231.19548656609587	12	-208	136.5	149.4235513175584	-199.0480303812331	117.60626943273695	1050	1000	0	2020-05-30 20:56:53.054827
A2HJDLSU95MH8Q	36	31	1	855	271.7152764979202	0	-243	-126.5	209.74060355094693	-235.92498967840135	-134.79091485551774	1000	950	0	2020-05-30 20:57:05.074284
A2HJDLSU95MH8Q	37	32	1	860	157.4245107055151	4	-120	-105.5	219.0399817485054	-122.27266028175028	-99.15580224320979	950	900	0	2020-05-30 20:57:09.936457
A2HJDLSU95MH8Q	38	33	0	0	223.80132272199086	12	0	0	292.7402668062101	86.51136274615156	-206.40449648182687	900	1100	0	2020-05-30 20:57:14.861987
A2HJDLSU95MH8Q	39	33	0	0	224.69699052932782	8	0	0	116.67881161836327	-100.88638560355042	200.77518460404556	1100	1300	0	2020-05-30 20:57:19.969005
A2HJDLSU95MH8Q	40	33	1	1112	191.1690437868399	14	170	-96.5	331.38144687670024	167.81352459414572	-91.56540976626903	1300	1250	0	2020-05-30 20:57:25.086902
A2HJDLSU95MH8Q	41	34	1	1125	260.3175462690813	6	152	216.5	55.85451592815944	146.1152419375409	215.44270925025324	1250	1200	0	2020-05-30 20:57:30.273061
A2HJDLSU95MH8Q	42	35	1	938	136.51416802625448	3	-100	-74.5	215.65422006853365	-110.92452213890867	-79.57303852533974	1200	1150	0	2020-05-30 20:57:35.220686
A2HJDLSU95MH8Q	43	36	1	1005	201.8361250978879	11	71	-171.5	292.4737884586381	77.15402614552085	-186.50758066112633	1150	1100	0	2020-05-30 20:57:40.194204
A2HJDLSU95MH8Q	44	37	0	0	253.17054087675962	1	0	0	174.83104742367533	-252.1409885328511	22.808872604924154	1100	1300	0	2020-05-30 20:57:45.308075
A2HJDLSU95MH8Q	45	37	1	1104	229.19014076831837	13	151	-145.5	316.86242416896306	167.2432575154195	-156.7093278686137	1300	1250	0	2020-05-30 20:57:50.419425
A2HJDLSU95MH8Q	46	38	1	978	177.4438410227346	9	81	175.5	70.60079661478503	58.937620050087176	167.36987082427072	1250	1200	0	2020-05-30 20:57:55.413296
A2HJDLSU95MH8Q	47	39	1	889	185.85011450263374	8	169	103.5	28.50621418243908	163.3186420029207	88.69772395593866	1200	1150	0	2020-05-30 20:58:00.315315
A2HJDLSU95MH8Q	48	40	1	928	167.29878752825135	14	-121	-145.5	233.6611343430542	-99.13452450945185	-134.76360917810075	1150	1100	0	2020-05-30 20:58:05.246515
A2HJDLSU95MH8Q	49	41	1	988	202.5177505110861	3	56	194.5	72.0544568462108	62.39833587981442	192.6652198802378	1100	1050	0	2020-05-30 20:58:10.249912
A2HJDLSU95MH8Q	50	42	1	969	196.15216174494623	11	-131	-109.5	229.09774591291455	-128.4346587165112	-148.25723927548646	1050	1000	0	2020-05-30 20:58:15.222573
A2HJDLSU95MH8Q	51	43	1	915	183.84154610517146	9	166	68.5	23.280882247756686	168.872856909294	72.66135337050224	1000	950	0	2020-05-30 20:58:20.146133
A2HJDLSU95MH8Q	52	44	0	938	245.3544843244214	5	-129	-150.5	235.61855506832669	-138.55161920872357	-202.4901770277848	950	1150	0	2020-05-30 20:58:25.095502
A2HJDLSU95MH8Q	53	44	1	904	126.86885553084583	14	-12	121.5	96.37304000676521	-14.08260937559318	126.08483896520266	1150	1100	0	2020-05-30 20:58:30.056506
A2HJDLSU95MH8Q	54	45	1	912	265.06657429245536	7	269	49.5	9.641176130247118	261.32275612988957	44.39263380129671	1100	1050	0	2020-05-30 20:58:34.935099
A2HJDLSU95MH8Q	55	46	1	974	245.3432065467554	4	-224	-132.5	211.086094008322	-210.11006355713886	-126.67695208939533	1050	1000	0	2020-05-30 20:58:40.173871
A2HJDLSU95MH8Q	56	47	0	0	223.22535561107495	0	0	0	92.20927445175404	-8.605239014596954	223.0594298593819	1000	1200	0	2020-05-30 20:58:44.879331
A2HJDLSU95MH8Q	57	47	1	967	272.1672616450106	11	58	-256.5	283.7603705898903	64.73816815390211	-264.3557979228388	1200	1150	0	2020-05-30 20:58:49.918213
A2HJDLSU95MH8Q	58	48	1	828	214.7776625219873	4	174	-70.5	338.10198137000265	199.28127199556337	-80.10255270738232	1150	1100	0	2020-05-30 20:58:54.792211
A2HJDLSU95MH8Q	59	49	1	920	172.55784518801897	3	147	84.5	28.609406668844013	151.48928692714458	82.6269077373563	1100	1050	0	2020-05-30 20:58:59.688749
A2HJDLSU95MH8Q	60	50	1	954	266.63625270406453	11	-209	162.5	141.49036444665907	-208.64378928195976	166.0200603846744	1050	1000	0	2020-05-30 20:59:04.656740
A2HJDLSU95MH8Q	61	51	1	977	231.29534238900646	0	54	230.5	81.08680772013105	35.83640507485749	228.50227019038226	1000	950	0	2020-05-30 20:59:09.655118
A2HJDLSU95MH8Q	62	52	0	801	189.71680915316574	14	77	-101.5	314.19414937891105	132.2500497427943	-136.0234980372404	950	1150	0	2020-05-30 20:59:14.466278
A2HJDLSU95MH8Q	63	52	1	900	205.93367516409478	0	210	66.5	13.008650985434924	200.64861159690088	46.35529344990624	1150	1100	0	2020-05-30 20:59:20.181623
A2HJDLSU95MH8Q	64	53	1	1071	209.14749312917004	2	41	154.5	74.06165549616789	57.432485338180655	201.10739297722472	1100	1050	0	2020-05-30 20:59:25.245533
A2HJDLSU95MH8Q	65	54	1	978	219.97941857440185	1	-112	219.5	115.20100194215973	-93.66616169361578	199.0416909843697	1050	1000	0	2020-05-30 20:59:30.247468
A2HJDLSU95MH8Q	66	55	1	836	284.954914486058	12	292	47.5	11.230783055656905	279.4982154668443	55.498205742223	1000	950	0	2020-05-30 20:59:35.092327
A2HJDLSU95MH8Q	67	56	0	0	245.53095833276012	6	0	0	231.35977188501423	-153.31644419560547	-191.77987235113955	950	1150	0	2020-05-30 20:59:40.049943
A2HJDLSU95MH8Q	68	56	1	936	160.57663396124573	11	46	141.5	76.99518020414003	36.13504469405627	156.45802606220767	1150	1100	0	2020-05-30 20:59:45.006363
A2HJDLSU95MH8Q	69	57	1	1014	252.71702529731434	10	-23	244.5	96.70287234228867	-29.49726422674748	250.9896537275209	1100	1050	0	2020-05-30 20:59:50.030530
A2HJDLSU95MH8Q	70	58	1	858	180.03313702954338	3	-164	24.5	172.67422992789415	-178.56356111343558	22.956155409534457	1050	1000	0	2020-05-30 20:59:54.899156
A2HJDLSU95MH8Q	71	59	0	0	180.47240771263793	7	0	0	330.7163278695212	157.40960390473012	-88.27517512954925	1000	1200	0	2020-05-30 20:59:59.914187
A2HJDLSU95MH8Q	72	59	1	968	262.0723592520907	5	-244	-59.5	196.9509637309418	-250.68652873495586	-76.40802179598043	1200	1150	0	2020-05-30 21:00:04.901935
A2HJDLSU95MH8Q	73	60	1	1075	207.41450909684218	0	39	188.5	78.50043502050542	41.35025905725304	203.25091552015724	1150	1100	0	2020-05-30 21:00:09.999408
A2HJDLSU95MH8Q	74	61	1	798	189.72975396286475	13	60	-147.5	288.64454218739553	60.655846348456066	-179.77276724398965	1100	1050	0	2020-05-30 21:00:18.060127
A2HJDLSU95MH8Q	75	62	1	905	256.6655013605192	5	199	-118.5	326.921336608015	215.0656763028058	-140.08545415232604	1050	1000	0	2020-05-30 21:00:22.970000
A2HJDLSU95MH8Q	76	63	1	877	259.57589658794114	1	241	114.5	22.236921077986473	240.27043613818972	98.23321030790764	1000	950	0	2020-05-30 21:00:27.862087
A2HJDLSU95MH8Q	77	64	1	828	125.30382500916954	7	87	119.5	57.95582036629344	66.48282880487635	106.21243823597162	950	900	0	2020-05-30 21:00:32.703586
A2HJDLSU95MH8Q	78	65	0	0	258.54852144941736	1	0	0	110.39288301415917	-90.09268542050211	242.34406528199173	900	1100	0	2020-05-30 21:00:37.614386
A2HJDLSU95MH8Q	79	65	0	0	238.61885323121723	13	0	0	88.26353441855666	7.230724503462679	238.50927390886966	1100	1300	0	2020-05-30 21:00:42.737950
A2HJDLSU95MH8Q	80	65	1	860	180.00114782143956	0	166	-33.5	347.28124914584384	175.58437756364737	-39.630033719671026	1300	1250	0	2020-05-30 21:00:47.604210
A2HJDLSU95MH8Q	81	66	1	880	206.68589219065856	12	146	124.5	49.00436387178104	135.58626469761487	155.9981501685095	1250	1200	0	2020-05-30 21:00:52.489489
A2HJDLSU95MH8Q	82	67	1	1134	260.17676740375043	5	-24	-221.5	265.1671773104602	-21.919550380255636	-259.251776479531	1200	1150	0	2020-05-30 21:00:57.642767
A2HJDLSU95MH8Q	83	68	1	882	171.50715649334228	5	98	-114.5	310.21381902596767	110.73220415325416	-130.96978159787028	1150	1100	0	2020-05-30 21:01:02.550281
A2HJDLSU95MH8Q	84	69	1	980	282.8394676530093	2	134	-255.5	297.9702937904347	132.65558999277079	-249.80123879978578	1100	1050	0	2020-05-30 21:01:07.540513
A2HJDLSU95MH8Q	85	70	0	1026	174.1885429911452	8	-125	12.5	168.3233629565709	-170.5837838811479	35.25366911638944	1050	1250	0	2020-05-30 21:01:12.579683
A2HJDLSU95MH8Q	86	70	1	851	235.68291937236	6	44	-236.5	282.0844059118229	49.34079274195274	-230.46024528207465	1250	1200	0	2020-05-30 21:01:17.450372
A2HJDLSU95MH8Q	87	71	1	827	153.03925289858964	0	111	88.5	34.68140541799496	125.84857750913059	87.08127506351079	1200	1150	0	2020-05-30 21:01:22.288567
A2HJDLSU95MH8Q	88	72	1	1023	219.2342947108246	4	94	-178.5	296.2995101324043	97.13471964042577	-196.54140077278524	1150	1100	0	2020-05-30 21:01:27.330819
A2HJDLSU95MH8Q	89	73	1	1030	144.38048871812686	6	-3	120.5	86.54524810498854	8.700406535533611	144.11810590138077	1100	1050	0	2020-05-30 21:01:34.534700
A2HJDLSU95MH8Q	90	74	1	845	118.72657000233238	6	-50	-105.5	243.83382105686644	-52.35558388282604	-106.55933211505737	1050	1000	0	2020-05-30 21:01:39.397393
A2HJDLSU95MH8Q	91	75	0	0	198.55748704266597	4	0	0	286.21856587035217	55.457555008932054	-190.65554084035884	1000	1200	0	2020-05-30 21:01:44.434402
A2HJDLSU95MH8Q	92	75	1	970	253.81163883723573	10	-119	-243.5	244.8759784569851	-107.76310442405233	-229.79874093243893	1200	1150	0	2020-05-30 21:01:49.387439
A2HJDLSU95MH8Q	93	76	1	1013	215.51353186348922	8	-201	-67.5	199.00894610474757	-203.76108979693316	-70.1961587342308	1150	1100	0	2020-05-30 21:01:54.410793
A2HJDLSU95MH8Q	94	77	1	891	102.81789290079462	6	15	111.5	77.36873815139118	22.483773750362385	100.32945239809588	1100	1050	0	2020-05-30 21:01:59.314999
A2HJDLSU95MH8Q	95	78	0	0	235.65617430195275	11	0	0	133.08362367864177	-160.9684965439613	172.11326389040752	1050	1250	0	2020-05-30 21:02:04.380397
A2HJDLSU95MH8Q	96	78	1	1020	298.0214492503861	2	-137	288.5	113.32400128662476	-117.99569391092464	273.66731706906444	1250	1200	0	2020-05-30 21:02:09.413294
A2HJDLSU95MH8Q	97	79	1	970	286.29546542983667	8	-259	-133.5	209.7482268321795	-248.56578011953619	-142.05684242321166	1200	1150	0	2020-05-30 21:02:14.394850
A2HJDLSU95MH8Q	98	80	1	821	182.57795215804856	9	88	-153.5	297.9354052499714	85.53335903091401	-161.30329540066884	1150	1100	0	2020-05-30 21:02:19.265743
A2HJDLSU95MH8Q	99	81	0	730	105.7720516768697	10	-170	-1.5	179.19305343979306	-105.76156161526673	1.489631039731776	1100	1300	0	2020-05-30 21:02:23.982883
A2HJDLSU95MH8Q	100	81	1	820	107.71078859414769	9	-43	-93.5	245.25952853329707	-45.07790250397755	-97.8243154098973	1300	1250	0	2020-05-30 21:02:28.803713
A2HJDLSU95MH8Q	101	82	1	946	203.3159868144025	10	199	-55.5	343.70657991014724	195.15031209643345	-57.04161799054179	1250	1200	0	2020-05-30 21:02:33.768233
A2HJDLSU95MH8Q	102	83	1	977	190.01306083068988	13	166	37.5	11.690121839871477	186.07176392071344	38.500155294254824	1200	1150	0	2020-05-30 21:02:38.757214
A2HJDLSU95MH8Q	103	84	1	948	275.4002547593489	0	-222	-194.5	224.24213411484067	-197.29611824671932	-192.1445863049251	1150	1100	0	2020-05-30 21:02:45.330821
A2HJDLSU95MH8Q	104	85	0	0	294.2751706887238	2	0	0	348.15193875116665	288.005787546691	-60.41971882992989	1100	1300	0	2020-05-30 21:02:50.450513
A2HJDLSU95MH8Q	105	85	1	1003	165.84379261748956	6	137	-30.5	347.35747541264715	161.8228416277652	-36.29781642562128	1300	1250	0	2020-05-30 21:02:55.459072
A2HJDLSU95MH8Q	106	86	1	976	225.22006180017468	5	-115	205.5	116.87846675175979	-101.82188106790666	200.8889762357994	1250	1200	0	2020-05-30 21:03:00.445503
A2HJDLSU95MH8Q	107	87	1	1102	254.62067766869941	11	-243	67.5	164.42628083437125	-245.27248713674126	68.36005083544642	1200	1150	0	2020-05-30 21:03:05.560261
A2HJDLSU95MH8Q	108	88	1	862	114.05285966926138	11	80	45.5	17.62704310220314	108.69783220426925	34.537458980486036	1150	1100	0	2020-05-30 21:03:10.433917
A2HJDLSU95MH8Q	109	89	1	940	198.20843998956394	14	-212	27.5	176.59436564521002	-197.85840210550788	11.774480852747915	1100	1050	0	2020-05-30 21:03:15.403158
A2HJDLSU95MH8Q	110	90	0	0	294.9066518006723	14	0	0	209.80035443850562	-255.90889775310401	-146.56250996443237	1050	1250	0	2020-05-30 21:03:20.459562
A2HJDLSU95MH8Q	111	90	1	1150	174.46186493857377	2	-102	137.5	122.6655387727923	-94.16301523791174	146.86820241001777	1250	1200	0	2020-05-30 21:03:25.620339
A2HJDLSU95MH8Q	112	91	1	797	131.15198003122836	12	66	-81.5	301.0071622797957	67.56231578977088	-112.41074393150772	1200	1150	0	2020-05-30 21:03:33.828318
A2HJDLSU95MH8Q	113	92	1	856	142.77107605726243	1	-10	-139.5	264.3521089835832	-14.05077722843361	-142.07799202489295	1150	1100	0	2020-05-30 21:03:38.722849
A2HJDLSU95MH8Q	114	93	1	951	241.97849314161343	8	139	-188.5	305.1043651805737	139.15398708284755	-197.96403466799862	1100	1050	0	2020-05-30 21:03:43.668055
A2HJDLSU95MH8Q	115	94	1	912	164.27405401648053	11	36	160.5	74.0516220221051	45.13777435483132	157.95108783829852	1050	1000	0	2020-05-30 21:03:48.596102
A2HJDLSU95MH8Q	116	95	1	853	134.9789662434236	3	-104	-63.5	215.04589359818914	-110.50624708079528	-77.50929417986924	1000	950	0	2020-05-30 21:03:53.453214
A2HJDLSU95MH8Q	117	96	0	0	170.15202366302452	13	0	0	58.5071142593941	88.88617347001257	145.0894872913999	950	1150	0	2020-05-30 21:03:58.419685
A2HJDLSU95MH8Q	118	96	1	1097	216.737401026523	11	77	-168.5	292.40775839653674	82.61933609118066	-200.37251884323956	1150	1100	0	2020-05-30 21:04:03.539809
A2HJDLSU95MH8Q	119	97	1	873	183.19566416034152	10	-187	-48.5	202.26204814406773	-169.54041715978	-69.40243739550085	1100	1050	0	2020-05-30 21:04:08.429108
A2HJDLSU95MH8Q	120	98	0	0	230.16439189680048	5	0	0	148.0757336340275	-195.35152196754953	121.71043571603039	1050	1250	0	2020-05-30 21:04:13.490360
A2HJDLSU95MH8Q	121	98	1	908	185.5943289268286	5	145	76.5	18.73483178023016	175.76064917439666	59.61081388132954	1250	1200	0	2020-05-30 21:04:18.413691
A2HJDLSU95MH8Q	122	99	1	963	238.64285251891855	0	-163	173.5	131.12778689334348	-156.96509925501573	179.7564148347128	1200	1150	0	2020-05-30 21:04:23.390168
A2HJDLSU95MH8Q	123	100	1	940	138.32729363066463	5	124	-26.5	346.61893648727585	134.57204218074907	-32.012585438961416	1150	1100	0	2020-05-30 21:04:28.361583
A2HJDLSU95MH8Q	124	101	1	889	190.9834818569085	4	-173	-76.5	204.47014534110184	-173.82881616123706	-79.1089945212992	1100	1050	0	2020-05-30 21:04:33.255793
A2HJDLSU95MH8Q	125	102	1	945	171.1748049805809	7	-148	-105.5	217.78295782588873	-135.28583007248253	-104.87401032543423	1050	1000	0	2020-05-30 21:04:38.201750
A2HJDLSU95MH8Q	126	103	1	878	288.81227895088153	9	283	-42.5	352.3684756024458	286.25415947052494	-38.354773609357665	1000	950	0	2020-05-30 21:04:43.097490
A2HJDLSU95MH8Q	127	104	0	0	289.626045632603	12	0	0	103.07095756644063	-65.50112659099062	282.12204579594567	950	1150	0	2020-05-30 21:04:48.061294
A2HJDLSU95MH8Q	128	104	1	858	253.80863865390754	6	261	19.5	11.122022695507194	249.04175508734482	48.95946566665896	1150	1100	0	2020-05-30 21:04:52.929241
A2HJDLSU95MH8Q	129	105	0	748	198.0418488012947	4	273	-33.5	350.9384173506845	195.57021349625114	-31.190791424162548	1100	1300	0	2020-05-30 21:04:57.679894
A2HJDLSU95MH8Q	130	105	1	946	277.6201177166299	9	-281	43.5	173.05647722202372	-275.5839956056837	33.56175095256439	1300	1250	0	2020-05-30 21:05:02.640841
A2HJDLSU95MH8Q	131	106	1	924	160.6103844182774	14	155	-59.5	335.0790734146198	145.6559797274219	-67.67592742350637	1250	1200	0	2020-05-30 21:05:07.572096
A2HJDLSU95MH8Q	132	107	1	1025	229.14464045016564	9	152	150.5	46.79820103043393	156.8655450707327	167.03432885696762	1200	1150	0	2020-05-30 21:05:12.621788
A2HJDLSU95MH8Q	133	108	1	943	258.35096446011323	3	-207	188.5	137.32655195338842	-189.94706655797685	175.11519849370643	1150	1100	0	2020-05-30 21:05:17.580660
A2HJDLSU95MH8Q	134	109	1	998	245.5801799856022	8	-105	212.5	112.65228481214758	-94.58216867748757	226.6359154459506	1100	1050	0	2020-05-30 21:05:22.596238
A2HJDLSU95MH8Q	135	110	0	0	235.94098185841824	14	0	0	89.18209344542171	3.367981430549671	235.91694220932484	1050	1250	0	2020-05-30 21:05:27.659680
A2HJDLSU95MH8Q	136	110	1	891	185.7605527655727	1	149	-44.5	340.7062708549369	175.32770508743798	-61.37734755219956	1250	1200	0	2020-05-30 21:05:32.556489
A2HJDLSU95MH8Q	137	111	1	852	161.36749702874732	12	139	-26.5	350.55997257922627	159.1822292842717	-26.466714518661515	1200	1150	0	2020-05-30 21:05:37.432873
A2HJDLSU95MH8Q	138	112	0	0	159.70350688563286	2	0	0	40.93001461675249	120.65765668771384	104.62762538736683	1150	1350	0	2020-05-30 21:05:42.585182
A2HJDLSU95MH8Q	139	112	0	885	283.54959478112903	0	-187	33.5	182.5182888517208	-283.2757560079911	-12.458682058852554	1350	1550	0	2020-05-30 21:05:47.492920
A2HJDLSU95MH8Q	140	112	1	799	100.75010815685626	4	-126	-4.5	190.56793960834648	-99.04119761439998	-18.47770193296796	1550	1500	0	2020-05-30 21:05:52.305340
A2HJDLSU95MH8Q	141	113	1	940	156.42873963614392	2	73	-156.5	292.2379874754964	59.20117013765723	-144.7935497129781	1500	1450	0	2020-05-30 21:05:57.259716
A2HJDLSU95MH8Q	142	114	1	935	191.43002323428115	9	-161	-79.5	209.631769456839	-166.39497979493217	-94.64758050009276	1450	1400	0	2020-05-30 21:06:02.204845
A2HJDLSU95MH8Q	143	115	1	1148	274.1956987744744	5	-89	254.5	107.60709031065335	-82.94086605257996	261.35051935068026	1400	1350	0	2020-05-30 21:06:07.363370
A2HJDLSU95MH8Q	144	116	1	971	141.0385240907899	0	-57	-91.5	241.22369830706694	-67.8947016282829	-123.62109354197916	1350	1300	0	2020-05-30 21:06:12.333483
A2HJDLSU95MH8Q	145	117	1	800	105.88578884570667	4	90	22.5	2.511547223253654	105.78407605490672	4.639992746469598	1300	1250	0	2020-05-30 21:06:17.809043
A2HJDLSU95MH8Q	146	118	1	941	246.70380891264873	0	-120	186.5	122.31477921021286	-131.88054478683213	208.49530267787105	1250	1200	0	2020-05-30 21:06:22.763008
A2HJDLSU95MH8Q	147	119	1	865	101.65647714275168	14	-105	14.5	178.9849888035685	-101.64052606240062	1.8007795071178545	1200	1150	0	2020-05-30 21:06:27.650872
A2HJDLSU95MH8Q	148	120	1	865	127.16234989952358	12	-124	7.5	178.42829104700434	-127.11450889335578	3.487816045871595	1150	1100	0	2020-05-30 21:06:32.534095
A2HJDLSU95MH8Q	149	121	1	881	145.9340745659651	14	-32	-115.5	263.758027466733	-15.867061802506825	-145.06891627492115	1100	1050	0	2020-05-30 21:06:40.659945
A2HJDLSU95MH8Q	150	122	1	826	261.2322210753441	6	-235	49.5	168.18282167563325	-255.69567402974695	53.497622474562824	1050	1000	0	2020-05-30 21:06:45.501093
A2HJDLSU95MH8Q	151	123	1	868	213.39287010445167	4	-165	-126.5	224.783847480158	-151.45971978552117	-150.32122369747657	1000	950	0	2020-05-30 21:06:50.381344
A2HJDLSU95MH8Q	152	124	1	797	113.55139572873578	3	9	122.5	80.55798543893246	18.62803426848344	112.01301625809458	950	900	0	2020-05-30 21:06:55.188505
A2HJDLSU95MH8Q	153	125	1	853	167.11245268416306	2	77	107.5	56.25241815575244	92.83683988670921	138.95284452635778	900	850	0	2020-05-30 21:07:00.052698
A2HJDLSU95MH8Q	154	126	0	0	289.5172776406389	1	0	0	245.96488717807293	-117.9193503352022	-264.41497852612406	850	1050	0	2020-05-30 21:07:04.916604
A2HJDLSU95MH8Q	155	126	0	0	256.7074461117011	11	0	0	103.70163718108428	-60.805242110336266	249.40215600731142	1050	1250	0	2020-05-30 21:07:09.975359
A2HJDLSU95MH8Q	156	126	1	898	254.88765136415986	7	200	-61.5	342.42442022185367	242.9893569543795	-76.96679300084317	1250	1200	0	2020-05-30 21:07:14.935467
A2HJDLSU95MH8Q	157	127	0	735	253.05205245422346	6	-213	-22.5	196.12239952228816	-243.09968372496056	-70.27008626805008	1200	1400	0	2020-05-30 21:07:19.648017
A2HJDLSU95MH8Q	158	127	0	0	204.98802731560522	0	0	0	280.0494987602326	35.770186155265876	-201.8429714534567	1400	1600	0	2020-05-30 21:07:25.065749
A2HJDLSU95MH8Q	159	127	1	973	290.21991145825245	6	139	250.5	60.00825619104606	145.0737370171192	251.35872341083297	1600	1550	0	2020-05-30 21:07:30.583281
A2HJDLSU95MH8Q	160	128	1	879	299.79709611545877	4	-286	78.5	163.66143223514376	-287.690134586203	84.33673755270625	1550	1500	0	2020-05-30 21:07:35.476511
A2HJDLSU95MH8Q	161	129	1	787	135.8594648641897	9	-52	173.5	103.36288433335791	-31.399527023159564	132.1811782967071	1500	1450	0	2020-05-30 21:07:40.273390
A2HJDLSU95MH8Q	162	130	1	992	298.7621291252741	5	-284	95.5	158.85598938889441	-278.64848720800893	107.76748292576491	1450	1400	0	2020-05-30 21:07:45.285530
A2HJDLSU95MH8Q	163	131	1	967	207.10865478457671	6	-101	-172.5	247.78634580923057	-78.29979229787854	-191.7371570999895	1400	1350	0	2020-05-30 21:07:50.254624
A2HJDLSU95MH8Q	164	132	1	775	228.07989689207702	2	195	-139.5	314.6551891059234	160.30334929568298	-162.24449319125364	1350	1300	0	2020-05-30 21:07:55.049093
A2HJDLSU95MH8Q	165	133	1	896	262.6138035457393	4	246	-130.5	330.54481485478715	228.6684974565619	-129.13840669498174	1300	1250	0	2020-05-30 21:07:59.960286
A2HJDLSU95MH8Q	166	134	1	798	127.18865171650302	7	-121	-79.5	216.40851005515339	-102.36214537380218	-75.49135261693552	1250	1200	0	2020-05-30 21:08:04.757272
A2HJDLSU95MH8Q	167	135	0	1086	254.53592279594193	3	50	198.5	79.45702045379137	46.57321353549579	250.23882947008607	1200	1400	0	2020-05-30 21:08:09.855157
A2HJDLSU95MH8Q	168	135	1	795	124.38292699212519	2	74	-134.5	292.04689479423797	46.68903951816642	-115.28766679918299	1400	1350	0	2020-05-30 21:08:14.669663
A2HJDLSU95MH8Q	169	136	1	1135	280.23497972434404	13	304	-27.5	354.7654768565242	279.0662899659249	-25.56657321108618	1350	1300	0	2020-05-30 21:08:19.827523
A2HJDLSU95MH8Q	170	137	1	1054	239.75135435710337	13	-100	201.5	115.07590917760321	-101.61108959143242	217.1540890430278	1300	1250	0	2020-05-30 21:08:24.893780
A2HJDLSU95MH8Q	171	138	1	890	188.40098341886167	11	164	118.5	31.219665601545763	161.1179602040752	97.65210419070466	1250	1200	0	2020-05-30 21:08:29.794770
A2HJDLSU95MH8Q	172	139	1	823	195.82308604691622	13	186	50.5	16.16593569042161	188.08012093983893	54.5210889123971	1200	1150	0	2020-05-30 21:08:34.628762
A2HJDLSU95MH8Q	173	140	1	739	131.0257516492635	7	144	-57.5	340.07052937927074	123.17900266281143	-44.66185059141159	1150	1100	0	2020-05-30 21:08:39.385166
A2HJDLSU95MH8Q	174	141	1	875	292.0204848273645	13	-263	58.5	168.3630065819263	-286.0180674433812	58.90355383813841	1100	1050	0	2020-05-30 21:08:44.267627
A2HJDLSU95MH8Q	175	142	0	1037	180.70222538677436	10	-113	-69.5	226.9773453135584	-123.29086656232836	-132.10850268640073	1050	1250	0	2020-05-30 21:08:49.317709
A2HJDLSU95MH8Q	176	142	1	949	132.37696521863796	12	-39	-105.5	262.49853783189945	-17.28201051442252	-131.24402094219712	1250	1200	0	2020-05-30 21:08:54.286134
A2HJDLSU95MH8Q	177	143	1	888	203.62151956335413	10	-182	-108.5	213.91357862451554	-168.98144311254657	-113.6089570099585	1200	1150	0	2020-05-30 21:08:59.202911
A2HJDLSU95MH8Q	178	144	1	787	207.41344872495242	7	-95	-196.5	248.39327135527427	-76.37663001488602	-192.83917936858077	1150	1100	0	2020-05-30 21:09:03.988822
A2HJDLSU95MH8Q	179	145	1	855	251.34720327985406	11	-219	96.5	162.3061777213864	-239.4570370879024	76.39204137661997	1100	1050	0	2020-05-30 21:09:08.842969
A2HJDLSU95MH8Q	180	146	0	759	131.07991728413913	5	-154	135.5	139.14283931907005	-99.14135155123718	85.74926896371048	1050	1250	0	2020-05-30 21:09:13.618814
A2HJDLSU95MH8Q	181	146	1	947	103.63326744202985	2	78	45.5	31.642523401577456	88.22691907369166	54.36786616628932	1250	1200	0	2020-05-30 21:09:18.580380
A2HJDLSU95MH8Q	182	147	1	1085	273.1497749585669	2	-65	226.5	108.2632130826332	-85.60044402080776	259.39036902583007	1200	1150	0	2020-05-30 21:09:23.666873
A2HJDLSU95MH8Q	183	148	1	794	124.96485139079763	8	87	76.5	39.8454624836483	95.94493550510875	80.06736809740072	1150	1100	0	2020-05-30 21:09:28.486007
A2HJDLSU95MH8Q	184	149	0	817	174.3369706669886	11	91	56.5	23.384249930360042	160.01758796455016	69.19357544851903	1100	1300	0	2020-05-30 21:09:33.324288
A2HJDLSU95MH8Q	185	149	1	933	196.19975961345529	3	-1	168.5	95.33107530359575	-18.229041587760737	195.35108833884016	1300	1250	0	2020-05-30 21:09:38.269872
A2HJDLSU95MH8Q	186	150	1	1011	277.2431421559497	8	-118	-270.5	252.40971976827493	-83.78514686901516	-264.2797930917945	1250	1200	0	2020-05-30 21:09:43.364972
