A3819RK0CXM0T9	1	1	0	0	158.52766409550162	9	0	0	85.13330825001768	13.44912157217496	157.9561376221673	1500	1700	0	2020-05-31 07:23:45.730107
A3819RK0CXM0T9	2	1	1	935	147.74804292370666	1	-106	111.5	131.80042273774512	-98.47968067226154	110.14189340334977	1700	1650	0	2020-05-31 07:23:50.677598
A3819RK0CXM0T9	3	2	1	1257	107.31606303046183	10	-108	-10.5	190.2564759719129	-105.60121447171109	-19.108136655826307	1650	1600	0	2020-05-31 07:23:55.969098
A3819RK0CXM0T9	4	3	1	1183	258.95195357479747	6	106	-240.5	295.58365806923405	111.82283630174292	-233.5631981747931	1600	1550	0	2020-05-31 07:24:01.805579
A3819RK0CXM0T9	5	4	1	978	120.34539731637656	1	-100	47.5	154.92758656431369	-109.005603866156	50.99797036168413	1550	1500	0	2020-05-31 07:24:07.483126
A3819RK0CXM0T9	6	5	1	1180	236.6416977680558	14	-190	-143.5	216.28787499985552	-190.745879789095	-140.05464100140338	1500	1450	0	2020-05-31 07:24:13.356975
A3819RK0CXM0T9	7	6	1	1211	195.86786723884066	2	181	-66.5	339.49168552862005	183.454028012695	-68.62099549415925	1450	1400	0	2020-05-31 07:24:18.552940
A3819RK0CXM0T9	8	7	1	1266	248.68089120649483	13	-41	236.5	100.4334992298027	-45.03466230390152	244.56914123092076	1400	1350	0	2020-05-31 07:24:24.301059
A3819RK0CXM0T9	9	8	1	1138	261.3472691074503	7	-2	-252.5	268.4892108710571	-6.890470180829715	-261.25641904192355	1350	1300	0	2020-05-31 07:24:29.434098
A3819RK0CXM0T9	10	9	1	1130	260.81547858752344	7	-158	200.5	130.70000841572687	-170.07738632465367	197.7331447476963	1300	1250	0	2020-05-31 07:24:35.007807
A3819RK0CXM0T9	11	10	1	990	258.16920300797284	9	214	146.5	32.64924265052749	217.375639739859	139.28089829355253	1250	1200	0	2020-05-31 07:24:40.457418
A3819RK0CXM0T9	12	11	1	986	234.09662125813279	4	-80	212.5	108.54756804396874	-74.46423043999319	221.9376184189	1200	1150	0	2020-05-31 07:24:45.460578
A3819RK0CXM0T9	13	12	0	0	222.26710914586175	13	0	0	356.39565016272627	221.82745559317175	-13.973108212486027	1150	1350	0	2020-05-31 07:24:50.624090
A3819RK0CXM0T9	14	12	1	982	143.43458859611707	5	153	27.5	7.718983104402328	142.1348924083442	19.26534624152323	1350	1300	0	2020-05-31 07:24:55.959985
A3819RK0CXM0T9	15	13	1	1137	158.50722920756684	3	23	154.5	82.40429285167606	20.951822172160522	157.1163990763736	1300	1250	0	2020-05-31 07:25:01.862423
A3819RK0CXM0T9	16	14	0	0	262.79500402340193	10	0	0	122.93358660514	-142.87285033354271	220.56419196512599	1250	1450	0	2020-05-31 07:25:07.528364
A3819RK0CXM0T9	17	14	1	1119	143.1014188524763	13	48	125.5	62.34007153923902	66.43092778255566	126.74757556474495	1450	1400	0	2020-05-31 07:25:13.128436
A3819RK0CXM0T9	18	15	1	1055	169.0310903443268	11	-164	-74.5	204.79354441999027	-153.45060444521403	-70.88315384060184	1400	1350	0	2020-05-31 07:25:18.585305
A3819RK0CXM0T9	19	16	1	1023	143.60357284290154	11	88	92.5	45.827143539853665	100.0666160011223	102.99834219700075	1350	1300	0	2020-05-31 07:25:24.384018
A3819RK0CXM0T9	20	17	1	1048	130.4350688483898	4	-93	96.5	134.9690231783385	-92.18164346566519	92.28137294954585	1300	1250	0	2020-05-31 07:25:29.742781
A3819RK0CXM0T9	21	18	0	0	163.94944727593187	3	0	0	328.62809208193465	139.98104560947098	-85.35061881534763	1250	1450	0	2020-05-31 07:25:35.022117
A3819RK0CXM0T9	22	18	1	1054	134.02364639801084	1	116	-70.5	328.2994159690286	114.02808940806186	-70.42678907749591	1450	1400	0	2020-05-31 07:25:40.791293
A3819RK0CXM0T9	23	19	1	1063	139.49518643171274	14	-113	74.5	150.6411699843848	-121.57930712529517	68.3913672662818	1400	1350	0	2020-05-31 07:25:46.232556
A3819RK0CXM0T9	24	20	1	1342	197.59688188265488	14	-124	-137.5	227.50656211010354	-133.47783236308823	-145.69899106513805	1350	1300	0	2020-05-31 07:25:51.595690
A3819RK0CXM0T9	25	21	1	1134	140.1419562821412	3	-72	116.5	119.63825292127817	-69.30331771929586	121.80647792167666	1300	1250	0	2020-05-31 07:25:57.156681
A3819RK0CXM0T9	26	22	1	1211	180.4598806497727	12	163	-41.5	347.4532424784223	176.1503275489765	-39.20243141080046	1250	1200	0	2020-05-31 07:26:02.736993
A3819RK0CXM0T9	27	23	1	1134	231.20443427602027	7	214	-78.5	339.8553582910837	217.06078193651229	-79.62479120226591	1200	1150	0	2020-05-31 07:26:07.936590
A3819RK0CXM0T9	28	24	1	1024	168.7658850662475	13	156	33.5	16.101654478700958	162.1453927993124	46.80593505262512	1150	1100	0	2020-05-31 07:26:12.947391
A3819RK0CXM0T9	29	25	0	0	233.3648737877522	9	0	0	352.8810226342758	231.56585101937995	-28.920943270298878	1100	1300	0	2020-05-31 07:26:18.416018
A3819RK0CXM0T9	30	25	1	1117	146.43962295577387	3	-124	-59.5	206.61346232190428	-130.924199321886	-65.60043599971178	1300	1250	0	2020-05-31 07:26:23.950641
A3819RK0CXM0T9	31	26	1	1209	161.72414470507718	8	-86	-128.5	233.15393452959523	-96.9806631131707	-129.41966605859574	1250	1200	0	2020-05-31 07:26:29.646546
A3819RK0CXM0T9	32	27	1	980	273.2330019048733	11	-159	199.5	129.9760836775983	-175.54340357745102	209.38191610163625	1200	1150	0	2020-05-31 07:26:35.039529
A3819RK0CXM0T9	33	28	0	0	276.39314629176283	7	0	0	158.15878917309783	-256.55322474802495	102.82808073891682	1150	1350	0	2020-05-31 07:26:40.218468
A3819RK0CXM0T9	34	28	1	1164	275.3231579377898	9	-275	34.5	172.92961981895277	-273.2295187959409	33.88910378537187	1350	1300	0	2020-05-31 07:26:45.871445
A3819RK0CXM0T9	35	29	1	1228	197.2175479676041	7	164	-111.5	327.2381289028001	165.8455433201399	-106.7240225403907	1300	1250	0	2020-05-31 07:26:51.600632
A3819RK0CXM0T9	36	30	1	1177	112.55902081694762	7	100	-22.5	351.5477616782823	111.33648728704416	-16.544478409786784	1250	1200	0	2020-05-31 07:26:57.170383
A3819RK0CXM0T9	37	31	1	1071	121.00443128513746	4	-116	28.5	163.21358774204273	-115.84819224327899	34.94665569984953	1200	1150	0	2020-05-31 07:27:13.422667
A3819RK0CXM0T9	38	32	0	0	206.46913582768573	11	0	0	172.79362186315237	-204.83818308928304	25.900247066634392	1150	1350	0	2020-05-31 07:27:19.067747
A3819RK0CXM0T9	39	32	1	1256	150.3776910511114	10	87	118.5	56.3202443959772	83.39201433772966	125.13681277130006	1350	1300	0	2020-05-31 07:27:24.592659
A3819RK0CXM0T9	40	33	1	1164	243.8059090503702	6	215	-111.5	333.35850765295413	217.9209735386911	-109.32415368904749	1300	1250	0	2020-05-31 07:27:30.267951
A3819RK0CXM0T9	41	34	0	0	212.24545757601763	12	0	0	115.07449339865441	-89.94882791403045	192.24292605592862	1250	1450	0	2020-05-31 07:27:35.617784
A3819RK0CXM0T9	42	34	1	1101	181.945815764746	9	91	153.5	56.59297289887227	100.17629614076496	151.8847904360955	1450	1400	0	2020-05-31 07:27:40.730995
A3819RK0CXM0T9	43	35	1	1139	230.02193423920377	13	131	-186.5	307.33854040974256	139.51367274153233	-182.88254522866092	1400	1350	0	2020-05-31 07:27:46.351166
A3819RK0CXM0T9	44	36	1	1184	219.717477225423	10	6	217.5	85.00401177506113	19.134314088775255	218.8827261860935	1350	1300	0	2020-05-31 07:27:51.918380
A3819RK0CXM0T9	45	37	1	956	115.57122084858737	7	32	-109.5	287.57896825124675	34.90481776053497	-110.17422922597099	1300	1250	0	2020-05-31 07:27:57.346189
A3819RK0CXM0T9	46	38	1	941	253.96808234516976	5	-38	247.5	97.45722335724152	-32.9614888014976	251.8200291995688	1250	1200	0	2020-05-31 07:28:02.685328
A3819RK0CXM0T9	47	39	0	0	221.05783270604374	5	0	0	88.33080758362014	6.439145576178025	220.96403056819454	1200	1400	0	2020-05-31 07:28:07.927349
A3819RK0CXM0T9	48	39	1	1138	130.84450786985764	6	-8	128.5	95.40853775880998	-12.332966677747557	130.26197899859653	1400	1350	0	2020-05-31 07:28:13.519357
A3819RK0CXM0T9	49	40	1	1231	244.15976215189872	4	229	115.5	25.831130947695087	219.76384637777969	106.38534334820471	1350	1300	0	2020-05-31 07:28:19.182918
A3819RK0CXM0T9	50	41	1	1136	156.49571105374662	7	-79	140.5	120.1498145833542	-78.60196382064282	135.32419909889032	1300	1250	0	2020-05-31 07:28:24.696708
A3819RK0CXM0T9	51	42	1	1179	276.62743375684477	3	159	222.5	54.353826953991565	161.2123925312925	224.79613342144924	1250	1200	0	2020-05-31 07:28:30.266065
A3819RK0CXM0T9	52	43	0	0	173.3559438860803	2	0	0	242.72273962671918	-79.4484817564004	-154.07862287558495	1200	1400	0	2020-05-31 07:28:35.476412
A3819RK0CXM0T9	53	43	1	1061	244.37186512472078	14	80	-230.5	289.79180765530106	82.74514108742474	-229.9366219003769	1400	1350	0	2020-05-31 07:28:40.938424
A3819RK0CXM0T9	54	44	1	1086	287.67562530918934	7	-218	207.5	134.44338059720187	-201.43164991183295	205.38392296095103	1350	1300	0	2020-05-31 07:28:46.430565
A3819RK0CXM0T9	55	45	1	1123	282.463568027468	0	268	-78.5	344.3403223569075	271.9790698335443	-76.24337896032719	1300	1250	0	2020-05-31 07:28:51.579970
A3819RK0CXM0T9	56	46	1	1032	169.14726709263232	3	166	-3.5	359.21137108014983	169.13124466692892	-2.3280984347150113	1250	1200	0	2020-05-31 07:28:57.030623
A3819RK0CXM0T9	57	47	0	0	265.7130286823904	1	0	0	260.08970829467296	-45.730818982700676	-261.74817249933244	1200	1400	0	2020-05-31 07:29:03.026432
A3819RK0CXM0T9	58	47	1	1048	222.56531586416935	12	-108	189.5	117.33158542903628	-102.1884950264256	197.71907168999064	1400	1350	0	2020-05-31 07:29:08.577006
A3819RK0CXM0T9	59	48	1	1017	235.20607833842604	0	-245	16.5	176.39510533578013	-234.74069035236664	14.788765338463117	1350	1300	0	2020-05-31 07:29:14.008491
A3819RK0CXM0T9	60	49	1	1090	263.10573564602095	11	178	-205.5	312.1703238736472	176.63256325579755	-195.00145057799065	1300	1250	0	2020-05-31 07:29:19.673414
A3819RK0CXM0T9	61	50	1	986	209.11439131953261	1	-65	189.5	108.92312794238828	-67.8156480953874	197.81270568479974	1250	1200	0	2020-05-31 07:29:25.408693
A3819RK0CXM0T9	62	51	1	1031	205.62013451236015	4	151	-142.5	320.78473891248257	159.30956924600545	-130.00038793608763	1200	1150	0	2020-05-31 07:29:30.441965
A3819RK0CXM0T9	63	52	1	1058	138.45303773420582	9	67	122.5	56.60158406069635	76.21253500123262	115.58932981255369	1150	1100	0	2020-05-31 07:29:36.459413
A3819RK0CXM0T9	64	53	1	910	120.63943281258585	11	31	110.5	78.60764569593962	23.829488389863233	118.2625394299471	1100	1050	0	2020-05-31 07:29:41.873017
A3819RK0CXM0T9	65	54	1	984	109.5646823549289	13	70	88.5	52.847018509817204	66.17107021660591	87.32587867250739	1050	1000	0	2020-05-31 07:29:47.233650
A3819RK0CXM0T9	66	55	0	0	238.51118155411055	8	0	0	69.93639317899262	81.82439264210537	224.0364981316403	1000	1200	0	2020-05-31 07:29:52.732925
A3819RK0CXM0T9	67	55	0	0	207.29801535022926	4	0	0	106.29330548502091	-58.158403916655324	198.9725288124244	1200	1400	0	2020-05-31 07:29:58.390682
A3819RK0CXM0T9	68	55	1	1212	265.75217997926165	12	242	-99.5	339.5477878372403	249.00021378148327	-92.86072743902837	1400	1350	0	2020-05-31 07:30:04.004119
A3819RK0CXM0T9	69	56	0	0	147.73902709192245	1	0	0	24.655382384759747	134.27014830924224	61.63073420852531	1350	1550	0	2020-05-31 07:30:10.071833
A3819RK0CXM0T9	70	56	1	1174	294.5166939156754	8	209	202.5	44.31835265767603	210.71755993969845	205.7624672482307	1550	1500	0	2020-05-31 07:30:15.678373
A3819RK0CXM0T9	71	57	1	1311	133.01785747774898	5	-129	39.5	158.0028925603382	-123.33452528596735	49.82314000999758	1500	1450	0	2020-05-31 07:30:21.569301
A3819RK0CXM0T9	72	58	1	1099	179.57996482854355	10	161	-70.5	337.4887659480269	165.896776306098	-68.75480622520453	1450	1400	0	2020-05-31 07:30:27.293850
A3819RK0CXM0T9	73	59	1	1130	280.7168529636903	3	-277	60.5	168.07316755331007	-274.65682439129336	58.01362213418827	1400	1350	0	2020-05-31 07:30:32.897283
A3819RK0CXM0T9	74	60	1	1106	163.02878521990797	14	-152	56.5	161.04411426199334	-154.187565132976	52.958281398126644	1350	1300	0	2020-05-31 07:30:38.479251
A3819RK0CXM0T9	75	61	1	1112	277.06821455707586	9	-235	157.5	143.94459314310495	-223.99530182709032	163.07329725383164	1300	1250	0	2020-05-31 07:32:30.925872
A3819RK0CXM0T9	76	62	1	1108	267.76333908027505	11	-182	-175.5	225.04698012705413	-189.18196059293084	-189.49245774339707	1250	1200	0	2020-05-31 07:32:36.299737
A3819RK0CXM0T9	77	63	0	0	284.53960230528537	9	0	0	124.22288746098212	-160.02897618771686	235.27327102831106	1200	1400	0	2020-05-31 07:32:41.832909
A3819RK0CXM0T9	78	63	1	1001	155.63248238151664	6	87	-148.5	298.78893845116704	74.95018887151505	-136.39625640154978	1400	1350	0	2020-05-31 07:32:47.250513
A3819RK0CXM0T9	79	64	1	1309	206.47032289849375	5	108	161.5	55.11591648505065	118.08409768787662	169.36983235230613	1350	1300	0	2020-05-31 07:32:52.564639
A3819RK0CXM0T9	80	65	0	0	270.47585744695766	4	0	0	146.51912115587135	-225.59579083974762	149.21035023434465	1300	1500	0	2020-05-31 07:32:58.264029
A3819RK0CXM0T9	81	65	1	1064	186.91702221602628	2	43	-186.5	285.4439237241289	49.775092363010955	-180.1677367742632	1500	1450	0	2020-05-31 07:33:03.794715
A3819RK0CXM0T9	82	66	1	1287	295.2744012617816	3	185	-228.5	308.4148154849925	183.46886915722064	-231.3571829243135	1450	1400	0	2020-05-31 07:33:09.117301
A3819RK0CXM0T9	83	67	1	994	133.3690143463307	1	-79	92.5	129.47556675007218	-84.7892322198137	102.94697706725664	1400	1350	0	2020-05-31 07:33:14.536095
A3819RK0CXM0T9	84	68	1	1190	295.46485859585897	11	126	272.5	64.69235276940752	126.30488250116234	267.1077672428088	1350	1300	0	2020-05-31 07:33:20.133589
A3819RK0CXM0T9	85	69	1	1053	280.94845656358837	8	-267	93.5	159.94029618190277	-263.9049196180913	96.36508001777025	1300	1250	0	2020-05-31 07:33:25.184959
A3819RK0CXM0T9	86	70	1	1048	110.53183310605874	11	-109	36.5	162.3858157843513	-105.3496347139206	33.447579814227524	1250	1200	0	2020-05-31 07:33:30.561956
A3819RK0CXM0T9	87	71	1	1002	111.21293122712719	1	99	31.5	17.340892228772155	106.15811652163323	33.14770533097369	1200	1150	0	2020-05-31 07:33:36.003933
A3819RK0CXM0T9	88	72	1	1017	296.9282351303266	2	288	-59.5	349.13804654486256	291.60848747311746	-55.95414954452632	1150	1100	0	2020-05-31 07:33:41.359076
A3819RK0CXM0T9	89	73	1	923	115.62015601543632	3	-121	11.5	173.65004569936562	-114.91081525407452	12.787689966439931	1100	1050	0	2020-05-31 07:33:46.284213
A3819RK0CXM0T9	90	74	0	0	294.5074441421898	0	0	0	229.09250832873073	-192.85514847384042	-222.57925860757564	1050	1250	0	2020-05-31 07:33:52.142919
A3819RK0CXM0T9	91	74	1	937	166.73296083004345	11	-132	95.5	145.41945855899644	-137.27611022483376	94.63165320701152	1250	1200	0	2020-05-31 07:33:57.501774
A3819RK0CXM0T9	92	75	1	1150	266.78393214965854	8	215	-155.5	322.2751220536574	211.0148672855118	-163.2372268746056	1200	1150	0	2020-05-31 07:34:03.220474
A3819RK0CXM0T9	93	76	0	0	151.6535607703127	14	0	0	300.00599796317584	75.84052875735667	-131.3278976155466	1150	1350	0	2020-05-31 07:34:08.766633
A3819RK0CXM0T9	94	76	1	1079	281.9791201187968	11	39	283.5	80.03953871767892	48.773516561432125	277.7289474743361	1350	1300	0	2020-05-31 07:34:13.880069
A3819RK0CXM0T9	95	77	1	1015	120.90102724024514	11	-41	110.5	109.85684024708122	-41.06659140182193	113.71276734994318	1300	1250	0	2020-05-31 07:34:19.158542
A3819RK0CXM0T9	96	78	0	0	167.85910277510794	1	0	0	299.6328126717839	82.99621044070565	-145.905131633354	1250	1450	0	2020-05-31 07:34:24.627298
A3819RK0CXM0T9	97	78	1	1129	229.19577657285922	14	9	-226.5	269.33618368654663	-2.6553525069247694	-229.1803942354144	1450	1400	0	2020-05-31 07:34:29.780221
A3819RK0CXM0T9	98	79	1	1110	221.7502645109662	1	-182	-138.5	218.58141247852956	-173.3472434890044	-138.2892366941379	1400	1350	0	2020-05-31 07:34:34.928354
A3819RK0CXM0T9	99	80	1	985	102.51652100158961	1	67	63.5	44.253747524924904	73.42810420159293	71.53985317030903	1350	1300	0	2020-05-31 07:34:39.896679
A3819RK0CXM0T9	100	81	1	956	117.73119248103345	1	27	105.5	77.29354778467231	25.895689266234598	114.84792971766086	1300	1250	0	2020-05-31 07:34:45.508900
A3819RK0CXM0T9	101	82	1	1177	240.7862551935225	0	-214	99.5	153.56534215162748	-215.61027988848255	107.19248059696332	1250	1200	0	2020-05-31 07:34:51.029771
A3819RK0CXM0T9	102	83	0	0	178.39241226227574	1	0	0	354.27717507064995	177.5032910965182	-17.788603167715717	1200	1400	0	2020-05-31 07:34:56.550534
A3819RK0CXM0T9	103	83	1	1147	226.83661603240722	1	26	218.5	84.38759658613418	22.18424556689559	225.74921842979083	1400	1350	0	2020-05-31 07:35:02.385017
A3819RK0CXM0T9	104	84	1	1009	159.12389358984683	9	-49	-147.5	254.42921300425832	-42.713420630699055	-153.28397570919756	1350	1300	0	2020-05-31 07:35:07.421508
A3819RK0CXM0T9	105	85	1	1039	113.8962127016029	11	103	-48.5	332.210737368933	100.76037589185886	-53.100790181503704	1300	1250	0	2020-05-31 07:35:12.462326
A3819RK0CXM0T9	106	86	1	1230	221.56521078638525	0	-200	-115.5	210.37741284981917	-191.147207829368	-112.04413224195063	1250	1200	0	2020-05-31 07:35:17.708285
A3819RK0CXM0T9	107	87	1	1055	190.56716215327563	4	119	-141.5	312.10661272778816	127.77761644254343	-141.38148403314736	1200	1150	0	2020-05-31 07:35:23.315719
A3819RK0CXM0T9	108	88	1	1067	146.3955508285007	8	-136	-61.5	202.05008155003745	-135.6876036333257	-54.95936246560384	1150	1100	0	2020-05-31 07:35:28.657759
A3819RK0CXM0T9	109	89	1	926	176.29621446637952	11	179	22.5	6.307081567399306	175.2291613662684	19.367401530663827	1100	1050	0	2020-05-31 07:35:33.599532
A3819RK0CXM0T9	110	90	1	1050	215.43276801490236	9	58	-202.5	288.2419818329201	67.43711310570146	-204.60575092243025	1050	1000	0	2020-05-31 07:35:38.662805
A3819RK0CXM0T9	111	91	1	806	198.77767627422753	10	206	42.5	9.483638739629843	196.06092054225817	32.75179416618155	1000	950	0	2020-05-31 07:36:05.696074
A3819RK0CXM0T9	112	92	0	0	282.9909392032017	9	0	0	16.137897717349617	271.8398275529543	78.65735710720443	950	1150	0	2020-05-31 07:36:10.676553
A3819RK0CXM0T9	113	92	1	832	142.726856295922	0	-109	84.5	143.4120218037195	-114.60146701184637	85.07325823576677	1150	1100	0	2020-05-31 07:36:15.522792
A3819RK0CXM0T9	114	93	1	1070	164.42304367524133	7	-123	-94.5	215.3934298514014	-134.0367143392543	-95.23180403923605	1100	1050	0	2020-05-31 07:36:20.714725
A3819RK0CXM0T9	115	94	1	1008	152.2479015919287	0	113	-87.5	323.93242875070143	123.0655160032249	-89.63426972986169	1050	1000	0	2020-05-31 07:36:26.409404
A3819RK0CXM0T9	116	95	0	0	176.2980311316602	12	0	0	266.3879878192592	-11.10673304181526	-175.94782255554534	1000	1200	0	2020-05-31 07:36:31.961269
A3819RK0CXM0T9	117	95	0	0	284.6895606900315	14	0	0	276.02985675105765	29.905696890471816	-283.1144561116199	1200	1400	0	2020-05-31 07:36:37.522538
A3819RK0CXM0T9	118	95	1	1021	293.5678086258917	5	174	-241.5	306.12657850426416	173.0790976881847	-237.11955677432428	1400	1350	0	2020-05-31 07:36:42.556640
A3819RK0CXM0T9	119	96	0	0	182.69943781138326	5	0	0	213.2059457227129	-152.86598748438755	-100.05535691315369	1350	1550	0	2020-05-31 07:36:47.911451
A3819RK0CXM0T9	120	96	1	935	170.44749721688493	14	144	-76.5	332.7001887481034	151.4628408212267	-78.1751697015346	1550	1500	0	2020-05-31 07:36:53.402209
A3819RK0CXM0T9	121	97	1	783	104.30318589438573	5	-53	-99.5	242.1272969708589	-48.76264848792379	-92.20281286469502	1500	1450	0	2020-05-31 07:36:58.181456
A3819RK0CXM0T9	122	98	0	531	149.8838090857031	0	99	218.5	61.542325343748715	71.4210489329323	131.77325219997866	1450	1650	0	2020-05-31 07:37:02.757320
A3819RK0CXM0T9	123	98	1	1223	210.9213872616108	8	-2	210.5	94.0868402894158	-15.032019243989069	210.38505175465943	1650	1600	0	2020-05-31 07:37:08.038448
A3819RK0CXM0T9	124	99	1	1171	232.36119907157735	14	-25	229.5	97.96560662598407	-32.20029899432738	230.11924643249012	1600	1550	0	2020-05-31 07:37:13.226833
A3819RK0CXM0T9	125	100	0	0	143.47519895665636	6	0	0	238.74054609920273	-74.45133430007655	-122.64636780838792	1550	1750	0	2020-05-31 07:37:18.777056
A3819RK0CXM0T9	126	100	1	950	138.62656217675627	13	83	122.5	59.085972431846194	71.21957852027522	118.93315507603599	1750	1700	0	2020-05-31 07:37:24.321539
A3819RK0CXM0T9	127	101	1	812	145.59652381904252	11	-75	134.5	121.43032620637854	-75.9229579115618	124.23386096450609	1700	1650	0	2020-05-31 07:37:29.147511
A3819RK0CXM0T9	128	102	1	978	232.79900926991743	12	213	-55.5	342.8550415191529	222.4538857130999	-68.62687118176227	1650	1600	0	2020-05-31 07:37:34.152920
A3819RK0CXM0T9	129	103	1	1042	173.03571060373284	1	-148	97.5	150.6579268473552	-150.83690330496125	84.79142495269525	1600	1550	0	2020-05-31 07:37:39.235149
A3819RK0CXM0T9	130	104	1	1058	260.72335427543925	10	208	-145.5	325.3996592010819	214.60999441510037	-148.05140243100297	1550	1500	0	2020-05-31 07:37:44.289024
A3819RK0CXM0T9	131	105	1	1051	106.3254149376097	12	94	-65.5	323.4240733873735	85.38652918852364	-63.35798682717336	1500	1450	0	2020-05-31 07:37:49.702890
A3819RK0CXM0T9	132	106	0	0	282.5013582275761	11	0	0	209.20211974764527	-246.5965733811252	-137.8301396542592	1450	1650	0	2020-05-31 07:37:55.570810
A3819RK0CXM0T9	133	106	0	0	248.5945869274658	9	0	0	206.12865100046164	-223.1900771504711	-109.47811704264973	1650	1850	0	2020-05-31 07:38:01.702166
A3819RK0CXM0T9	134	106	1	1086	265.0542892088991	13	254	-88.5	339.6872134705834	248.5709570074507	-92.0122576640462	1850	1800	0	2020-05-31 07:38:07.372205
A3819RK0CXM0T9	135	107	1	1090	243.0248247030848	10	129	191.5	57.560126488076605	130.3619798770724	205.10197372159746	1800	1750	0	2020-05-31 07:38:12.434956
A3819RK0CXM0T9	136	108	1	1125	234.78185245141722	2	-142	-187.5	233.49188145899353	-139.68033664235142	-188.71121269282975	1750	1700	0	2020-05-31 07:38:17.950434
A3819RK0CXM0T9	137	109	1	894	104.28072759631699	1	-104	16.5	163.29603516770874	-99.88035279153507	29.973075822407026	1700	1650	0	2020-05-31 07:38:22.833967
A3819RK0CXM0T9	138	110	1	1123	183.17795112438367	3	140	93.5	35.619877347586836	148.90512914776951	106.68375833093418	1650	1600	0	2020-05-31 07:38:27.992061
A3819RK0CXM0T9	139	111	1	1199	276.77696519456805	9	-168	208.5	129.7535172632357	-176.99504925007963	212.78684405591673	1600	1550	0	2020-05-31 07:38:33.174215
A3819RK0CXM0T9	140	112	1	1092	112.59616928565927	13	-103	63.5	147.40350364419783	-94.86062211352781	60.65772588911753	1550	1500	0	2020-05-31 07:38:38.655187
A3819RK0CXM0T9	141	113	1	1162	207.17895750010797	10	111	188.5	59.50298572639887	105.14196642106847	178.51691048173126	1500	1450	0	2020-05-31 07:38:44.280618
A3819RK0CXM0T9	142	114	1	1318	243.46555955809453	2	-236	83.5	156.81914568970095	-223.80983645453162	95.83650555572173	1450	1400	0	2020-05-31 07:38:49.948741
A3819RK0CXM0T9	143	115	1	973	284.61649928121096	10	244	117.5	24.58707112680613	258.8103270530916	118.42198391246166	1400	1350	0	2020-05-31 07:38:55.364197
A3819RK0CXM0T9	144	116	1	1097	119.56448437270012	14	-17	116.5	96.96424419915024	-14.497183553482913	118.68233900764795	1350	1300	0	2020-05-31 07:39:00.475352
A3819RK0CXM0T9	145	117	1	1240	276.8204502431905	8	-116	252.5	113.54108935736153	-110.56392341999035	253.78175763994784	1300	1250	0	2020-05-31 07:39:05.785540
A3819RK0CXM0T9	146	118	1	1225	279.4415450553117	4	-96	-264.5	248.1992636501069	-103.77893621937214	-259.4561803081115	1250	1200	0	2020-05-31 07:39:11.361529
A3819RK0CXM0T9	147	119	1	1192	217.0027485597323	12	212	7.5	2.986361607568906	216.70805106817173	11.305462605001313	1200	1150	0	2020-05-31 07:39:16.558811
A3819RK0CXM0T9	148	120	1	1143	219.5351188071905	13	-207	-62.5	198.67541844204	-207.97609928421727	-70.29658964849325	1150	1100	0	2020-05-31 07:39:22.143359
A3819RK0CXM0T9	149	121	1	923	293.38656493045835	1	-217	-194.5	223.22195264020755	-213.79263601085233	-200.91885244850783	1100	1050	0	2020-05-31 07:39:31.230218
A3819RK0CXM0T9	150	122	0	0	261.8444662868616	8	0	0	171.07309984087465	-258.6727759301586	40.631508926415066	1050	1250	0	2020-05-31 07:39:36.715422
A3819RK0CXM0T9	151	122	1	1039	171.0019941875483	5	73	147.5	60.63488230690268	83.85480501884504	149.0303784178574	1250	1200	0	2020-05-31 07:39:42.118221
A3819RK0CXM0T9	152	123	1	1154	238.89663074643187	6	-115	-204.5	239.52119818321816	-121.17304018625885	-205.8851488427864	1200	1150	0	2020-05-31 07:39:47.701858
A3819RK0CXM0T9	153	124	1	970	108.0088751524381	2	-17	111.5	94.00423676118051	-7.542285550701395	107.74521353808085	1150	1100	0	2020-05-31 07:39:52.754346
A3819RK0CXM0T9	154	125	1	1037	176.05445889823778	1	171	66.5	22.395006772822093	162.77629775736997	67.07495349499193	1100	1050	0	2020-05-31 07:39:58.182738
A3819RK0CXM0T9	155	126	0	0	295.7425800244465	2	0	0	328.8370326949729	253.06660168767618	-153.03910856303105	1050	1250	0	2020-05-31 07:40:03.224996
A3819RK0CXM0T9	156	126	1	1052	164.7320898249073	1	117	108.5	42.00872908626415	122.40300545334154	110.24593268719971	1250	1200	0	2020-05-31 07:40:08.700858
A3819RK0CXM0T9	157	127	1	1192	236.05083333899293	3	-227	-10.5	183.23547713502646	-235.67457031906403	-13.322643317208001	1200	1150	0	2020-05-31 07:40:14.366519
A3819RK0CXM0T9	158	128	1	972	119.10860482012646	5	-52	106.5	118.31907115066824	-56.50288925900113	104.85362772733286	1150	1100	0	2020-05-31 07:40:19.366376
A3819RK0CXM0T9	159	129	0	0	178.17204290591775	2	0	0	302.96793692455066	96.95581368118374	-149.48192889673246	1100	1300	0	2020-05-31 07:40:24.462367
A3819RK0CXM0T9	160	129	1	1096	216.6945594567378	12	-217	-53.5	192.29673960604094	-211.72308683911234	-46.15047775990377	1300	1250	0	2020-05-31 07:40:30.040440
A3819RK0CXM0T9	161	130	1	1156	163.4084285320855	8	150	30.5	13.98425465637815	158.56535758948434	39.48850323631754	1250	1200	0	2020-05-31 07:40:35.590368
A3819RK0CXM0T9	162	131	1	978	127.89962784606641	1	-92	-82.5	219.95614374230914	-98.03969873919189	-82.13727700801131	1200	1150	0	2020-05-31 07:40:41.073423
A3819RK0CXM0T9	163	132	0	0	207.49938254483249	14	0	0	131.03252598876628	-136.2207220586048	156.5244665805288	1150	1350	0	2020-05-31 07:40:46.748983
A3819RK0CXM0T9	164	132	1	1170	182.83886670935988	12	120	-132.5	313.97459753520883	126.95222500594848	-131.57957191601625	1350	1300	0	2020-05-31 07:40:52.359435
A3819RK0CXM0T9	165	133	1	1175	165.5842923402974	1	127	111.5	43.388157554355715	120.33286542449345	113.74603012223247	1300	1250	0	2020-05-31 07:40:57.879350
A3819RK0CXM0T9	166	134	0	0	207.7145921059343	13	0	0	359.56164399598896	207.70851294631325	-1.5891580682503048	1250	1450	0	2020-05-31 07:41:03.164227
A3819RK0CXM0T9	167	134	1	961	124.01868370025034	7	-112	-7.5	184.37740280605945	-123.65691280581878	-9.465823898471434	1450	1400	0	2020-05-31 07:41:08.125848
A3819RK0CXM0T9	168	135	1	1040	158.7132793325436	9	-153	-49.5	197.09259744671778	-151.7030719447095	-46.648504788774396	1400	1350	0	2020-05-31 07:41:13.178098
A3819RK0CXM0T9	169	136	1	1103	262.9044468898403	13	-249	82.5	161.73828793160834	-249.66328841110237	82.38319376066684	1350	1300	0	2020-05-31 07:41:18.295716
A3819RK0CXM0T9	170	137	1	988	135.29115096895046	6	74	-116.5	305.06417579128686	77.72389918419411	-110.73703547643207	1300	1250	0	2020-05-31 07:41:23.678597
A3819RK0CXM0T9	171	138	1	1050	136.42750413797748	9	85	106.5	50.62831207734598	86.54259597246875	105.4648897390212	1250	1200	0	2020-05-31 07:41:29.082033
A3819RK0CXM0T9	172	139	0	0	277.1894582662984	4	0	0	112.32211099518172	-105.28020922929049	256.41777106628314	1200	1400	0	2020-05-31 07:41:34.293550
A3819RK0CXM0T9	173	139	1	1157	197.37872327296657	9	189	-15.5	356.54609214828486	197.0202019023179	-11.891191834135014	1400	1350	0	2020-05-31 07:41:39.925902
A3819RK0CXM0T9	174	140	1	1132	169.39703549182246	0	-92	151.5	123.00400395561334	-92.2701657665133	142.0618602681167	1350	1300	0	2020-05-31 07:41:45.542241
A3819RK0CXM0T9	175	141	1	1090	150.4477023262806	13	-37	-149.5	258.1255870911711	-30.95719994132492	-147.22826802978418	1300	1250	0	2020-05-31 07:41:51.056839
A3819RK0CXM0T9	176	142	1	1160	227.31619184616926	3	186	-174.5	315.47736737214416	162.07042650623364	-159.39205729123375	1250	1200	0	2020-05-31 07:41:56.767094
A3819RK0CXM0T9	177	143	1	984	292.59862995569694	1	-222	211.5	133.44151669830535	-201.19485834237136	212.44902265848148	1200	1150	0	2020-05-31 07:42:02.173238
A3819RK0CXM0T9	178	144	1	1064	296.81239547680906	7	151	-243.5	302.5661220177714	159.76596903204717	-250.14482454756615	1150	1100	0	2020-05-31 07:42:07.587418
A3819RK0CXM0T9	179	145	1	1057	145.9253415956962	9	108	107.5	44.392993341965735	104.2721546195082	102.0858613659404	1100	1050	0	2020-05-31 07:42:12.693517
A3819RK0CXM0T9	180	146	1	926	115.67012051698077	6	-4	-107.5	265.5927602030166	-8.888671961032177	-115.32808977513682	1050	1000	0	2020-05-31 07:42:17.619935
A3819RK0CXM0T9	181	147	0	0	258.2861228611307	5	0	0	98.20124427604172	-36.844626065310614	255.64466509736232	1000	1200	0	2020-05-31 07:42:22.998689
A3819RK0CXM0T9	182	147	1	1082	251.4034969084177	6	-27	-245.5	263.8036712168567	-27.13540121836687	-249.93476800657214	1200	1150	0	2020-05-31 07:42:28.581456
A3819RK0CXM0T9	183	148	1	1079	217.62222232106342	11	208	-32.5	351.4202706812437	215.18686062487853	-32.46608480195072	1150	1100	0	2020-05-31 07:42:33.663292
A3819RK0CXM0T9	184	149	0	0	252.93269752754256	0	0	0	105.37564732277659	-67.06417390684189	243.87977787580544	1100	1300	0	2020-05-31 07:42:39.366883
A3819RK0CXM0T9	185	149	1	1087	125.6128879043421	0	109	62.5	31.18826458345243	107.45810059826873	65.04886027811074	1300	1250	0	2020-05-31 07:42:45.249860
A3819RK0CXM0T9	186	150	1	1007	205.67724233165188	5	149	-135.5	318.63940255877696	154.37427910434337	-135.91066905937646	1250	1200	0	2020-05-31 07:42:50.287446
