A1GKD3NG1NNHRP	1	1	0	0	191.42147560396725	8	0	0	131.17391428586825	-126.02172188757969	144.08576242949803	1500	1700	0	2020-05-30 23:33:59.693829
A1GKD3NG1NNHRP	2	1	1	1221	174.27587156512274	12	86	150	59.27440210006691	89.04225191055384	149.8117378060899	1700	1650	0	2020-05-30 23:34:05.796505
A1GKD3NG1NNHRP	3	2	1	1267	103.27181931868634	2	4	-92	272.78794834948854	5.023108126230441	-103.14958579724687	1650	1600	0	2020-05-30 23:34:11.078630
A1GKD3NG1NNHRP	4	3	1	1018	171.34588194136592	10	-110	-139	233.8535336968465	-101.06861438278561	-138.36381913277867	1600	1550	0	2020-05-30 23:34:16.108068
A1GKD3NG1NNHRP	5	4	1	1498	262.5249420723508	4	-184	-169	222.10489312579753	-194.77213304068545	-176.0203437130853	1550	1500	0	2020-05-30 23:34:21.630466
A1GKD3NG1NNHRP	6	5	0	714	223.74351350220945	1	30	137	78.46961407168845	44.72355263850701	219.22810876733868	1500	1700	0	2020-05-30 23:34:27.193896
A1GKD3NG1NNHRP	7	5	1	1212	292.6018033937095	13	103	271	68.64554528539034	106.54701376447812	272.5133927114833	1700	1650	0	2020-05-30 23:34:33.258051
A1GKD3NG1NNHRP	8	6	0	0	178.46215766588813	3	0	0	357.2940433959437	178.26316741069868	-8.425251537462943	1650	1850	0	2020-05-30 23:34:40.886383
A1GKD3NG1NNHRP	9	6	1	1209	246.37834909403392	10	-140	-210	237.13558582181935	-133.6979172366307	-206.9472344074419	1850	1800	0	2020-05-30 23:34:46.801484
A1GKD3NG1NNHRP	10	7	1	1131	102.48146178788464	9	86	-39	335.3405984121977	93.13556649739435	-42.75764567175204	1800	1750	0	2020-05-30 23:34:52.622471
A1GKD3NG1NNHRP	11	8	1	1415	136.43137203889682	12	-52	120	114.07158840923627	-55.647322122864566	124.56682871844345	1750	1700	0	2020-05-30 23:34:58.744138
A1GKD3NG1NNHRP	12	9	1	1430	298.97700239077517	14	-268	-146	208.19274654229537	-263.50734799730975	-141.2484531242671	1700	1650	0	2020-05-30 23:35:04.853345
A1GKD3NG1NNHRP	13	10	1	1354	172.8185770734627	10	-130	-118	220.66509782598322	-131.08832177159923	-112.61488568036658	1650	1600	0	2020-05-30 23:35:11.343855
A1GKD3NG1NNHRP	14	11	1	1390	256.9437455637053	8	235	-111	333.2225304691001	229.38988155770744	-115.75996986543785	1600	1550	0	2020-05-30 23:35:17.733654
A1GKD3NG1NNHRP	15	12	0	0	211.82303666601672	7	0	0	98.25960259589094	-30.430176004823515	209.6258649373405	1550	1750	0	2020-05-30 23:35:25.037651
A1GKD3NG1NNHRP	16	12	1	975	217.5656213576956	5	191	-66	340.80715175823053	205.47276118980685	-71.52442943356333	1750	1700	0	2020-05-30 23:35:30.058413
A1GKD3NG1NNHRP	17	13	1	1204	127.89697097961188	1	-124	-37	196.6846162270375	-122.51245937581456	-36.71964710409224	1700	1650	0	2020-05-30 23:35:37.559214
A1GKD3NG1NNHRP	18	14	1	1431	202.43742240115853	14	121	-173	304.7302167738337	115.3312369716669	-166.3719200075851	1650	1600	0	2020-05-30 23:35:45.567390
A1GKD3NG1NNHRP	19	15	1	986	158.3513641569358	0	-121	-93	220.93702674694123	-119.62340151548865	-103.75642794654546	1600	1550	0	2020-05-30 23:35:50.588383
A1GKD3NG1NNHRP	20	16	1	872	135.66333733991456	7	136	-66	331.1772284002046	118.85670418684215	-65.403554704962	1550	1500	0	2020-05-30 23:35:55.433259
A1GKD3NG1NNHRP	21	17	0	0	296.27431529577825	5	0	0	33.93108242245157	245.82164111316732	165.37893053352167	1500	1700	0	2020-05-30 23:36:00.956394
A1GKD3NG1NNHRP	22	17	1	1269	280.1622581795028	3	-208	201	136.5372578195812	-203.3478843478028	192.7187817507962	1700	1650	0	2020-05-30 23:36:07.057423
A1GKD3NG1NNHRP	23	18	1	1302	251.43556937488475	7	154	-181	309.0797689339294	158.50542222521432	-195.18165044921363	1650	1600	0	2020-05-30 23:36:13.520988
A1GKD3NG1NNHRP	24	19	1	1237	255.66042756067816	8	-152	-215	237.79065967480193	-136.27064208116033	-216.3158947634155	1600	1550	0	2020-05-30 23:36:19.479975
A1GKD3NG1NNHRP	25	20	1	1018	163.37410827622602	3	132	109	40.157409705296494	124.86284669411906	105.35828762130176	1550	1500	0	2020-05-30 23:36:24.494525
A1GKD3NG1NNHRP	26	21	1	1128	105.19970462770894	6	-1	-102	276.6208806467203	12.129437963423841	-104.49810806157525	1500	1450	0	2020-05-30 23:36:29.641809
A1GKD3NG1NNHRP	27	22	1	1225	168.58167424001604	6	70	-153	294.29484611193766	69.35995846313824	-153.65212999356248	1450	1400	0	2020-05-30 23:36:34.861318
A1GKD3NG1NNHRP	28	23	0	0	138.72932442042833	7	0	0	301.6227556717835	72.73913339953464	-118.13062230612839	1400	1600	0	2020-05-30 23:36:40.273591
A1GKD3NG1NNHRP	29	23	1	1428	158.2041413969225	3	-9	156	97.55971799785897	-20.813254577212778	156.82907507551516	1600	1550	0	2020-05-30 23:36:45.748155
A1GKD3NG1NNHRP	30	24	1	1267	256.83776914100434	5	184	181	45.24481968905615	180.83406217125716	182.38607845986968	1550	1500	0	2020-05-30 23:36:50.975854
A1GKD3NG1NNHRP	31	25	1	1194	241.75411113455158	12	228	-77	341.86447060980703	229.7444672384884	-75.24978421072214	1500	1450	0	2020-05-30 23:36:56.188791
A1GKD3NG1NNHRP	32	26	1	1065	272.1242442560184	13	184	-184	316.65995162175153	197.91411493400972	-186.76618382832785	1450	1400	0	2020-05-30 23:37:01.251330
A1GKD3NG1NNHRP	33	27	1	1130	287.0807753976316	7	282	-25	355.95868048765675	286.36694479361046	-20.232264640387562	1400	1350	0	2020-05-30 23:37:06.388684
A1GKD3NG1NNHRP	34	28	1	1082	127.55323242311212	8	-82	109	126.62081982504938	-76.08761529336654	102.37432246688188	1350	1300	0	2020-05-30 23:37:11.476554
A1GKD3NG1NNHRP	35	29	1	1298	181.26918088800005	10	-114	139	126.84872406252241	-108.7079108690304	145.0555274861921	1300	1250	0	2020-05-30 23:37:16.776737
A1GKD3NG1NNHRP	36	30	1	1137	187.8825484850303	1	154	-94	330.9402418532928	164.23068830187455	-91.25860532093554	1250	1200	0	2020-05-30 23:37:21.919984
A1GKD3NG1NNHRP	37	31	1	1153	195.5735000450422	10	-204	25	174.30640820606587	-194.6086718378249	19.402545332659468	1200	1150	0	2020-05-30 23:37:52.033797
A1GKD3NG1NNHRP	38	32	1	1107	132.08335343220682	2	68	103	54.0514143585429	77.5407272558855	106.92730180139044	1150	1100	0	2020-05-30 23:37:57.140202
A1GKD3NG1NNHRP	39	33	0	0	277.3365236551928	2	0	0	14.709826280843945	268.2466024430927	70.42235178467647	1100	1300	0	2020-05-30 23:38:02.257692
A1GKD3NG1NNHRP	40	33	1	1031	258.1110061564834	7	253	-18	356.5214415360307	257.63545584239586	-15.660887330962632	1300	1250	0	2020-05-30 23:38:07.714305
A1GKD3NG1NNHRP	41	34	1	972	105.46787355004756	11	10	101	91.15397221464171	-2.1240441882901546	105.44648304924641	1250	1200	0	2020-05-30 23:38:14.019819
A1GKD3NG1NNHRP	42	35	0	0	140.14840729776768	3	0	0	189.1736923672007	-138.35584907717944	-22.343569415689263	1200	1400	0	2020-05-30 23:38:19.809338
A1GKD3NG1NNHRP	43	35	1	1318	246.13529185663432	5	-214	-134	213.29970897079824	-205.72237522514155	-135.13284659577266	1400	1350	0	2020-05-30 23:38:25.738987
A1GKD3NG1NNHRP	44	36	1	1122	148.52591775585012	2	70	119	58.26316896949048	78.12737500376394	126.31730491203014	1350	1300	0	2020-05-30 23:38:30.859659
A1GKD3NG1NNHRP	45	37	0	0	192.98503674027035	3	0	0	162.02955496935144	-183.5704142710288	59.540972531579996	1300	1500	0	2020-05-30 23:38:36.676521
A1GKD3NG1NNHRP	46	37	1	980	101.84679792198152	1	107	59	29.6952388474147	88.47153120165841	50.453527268119934	1500	1450	0	2020-05-30 23:38:42.439767
A1GKD3NG1NNHRP	47	38	1	1250	197.9078156962987	0	-178	114	144.72247625359958	-161.56485799796582	114.29916961105745	1450	1400	0	2020-05-30 23:38:47.703285
A1GKD3NG1NNHRP	48	39	1	1037	204.50832682169062	0	-135	-134	220.79357027530324	-154.82678720438034	-133.61258063287661	1400	1350	0	2020-05-30 23:38:53.476604
A1GKD3NG1NNHRP	49	40	1	1015	265.6184877124647	8	197	-181	313.14586827691875	181.6453511103324	-193.7992451859935	1350	1300	0	2020-05-30 23:38:59.047817
A1GKD3NG1NNHRP	50	41	1	1140	284.1093145720445	6	-259	-96	200.95290321840784	-265.322497315393	-101.59761338200931	1300	1250	0	2020-05-30 23:39:08.648550
A1GKD3NG1NNHRP	51	42	1	929	109.6689574479027	14	98	51	25.362148526435597	99.09889491641404	46.97541116430404	1250	1200	0	2020-05-30 23:39:13.581360
A1GKD3NG1NNHRP	52	43	1	971	250.9998135283365	13	-190	-151	218.74636287860255	-195.7608325269901	-157.09424827026425	1200	1150	0	2020-05-30 23:39:18.562263
A1GKD3NG1NNHRP	53	44	0	0	204.47549891121196	1	0	0	222.23608797277342	-151.38984868763922	-137.44578338138547	1150	1350	0	2020-05-30 23:39:23.716779
A1GKD3NG1NNHRP	54	44	1	1108	230.11868428721706	1	14	-221	275.99666637732327	24.040636818470983	-228.85946919330706	1350	1300	0	2020-05-30 23:39:28.824863
A1GKD3NG1NNHRP	55	45	1	964	175.24672834887264	2	175	11	3.9002028086759033	174.84086359889494	11.920076047415803	1300	1250	0	2020-05-30 23:39:33.824749
A1GKD3NG1NNHRP	56	46	1	896	209.4709226783117	11	122	163	52.758984042659506	126.76534370274412	166.7591529230956	1250	1200	0	2020-05-30 23:39:38.714882
A1GKD3NG1NNHRP	57	47	0	0	224.73569341194343	8	0	0	154.2623547263562	-202.44009183863568	97.59170615227396	1200	1400	0	2020-05-30 23:39:43.914956
A1GKD3NG1NNHRP	58	47	1	1217	203.43265952900322	11	52	-204	285.8843656528268	55.67886331932543	-195.66479280266856	1400	1350	0	2020-05-30 23:39:49.145116
A1GKD3NG1NNHRP	59	48	1	892	211.7915016049106	2	-14	-211	270.88476008883805	3.2703494451474686	-211.7662507732747	1350	1300	0	2020-05-30 23:39:54.046569
A1GKD3NG1NNHRP	60	49	1	1059	182.7499011976371	11	-174	35	165.32234597277835	-176.78615926118408	46.30529431312763	1300	1250	0	2020-05-30 23:39:59.094750
A1GKD3NG1NNHRP	61	50	1	1075	169.0455682475915	2	164	15	7.193490018948019	167.71499965080992	21.167971945369366	1250	1200	0	2020-05-30 23:40:04.175558
A1GKD3NG1NNHRP	62	51	1	1075	270.6673418729993	14	-260	31	172.0708045660944	-268.07957231842624	37.338356447020445	1200	1150	0	2020-05-30 23:40:09.260083
A1GKD3NG1NNHRP	63	52	0	0	218.15268440667796	2	0	0	122.36584771408688	-116.7822414065908	184.26204656926066	1150	1350	0	2020-05-30 23:40:14.420550
A1GKD3NG1NNHRP	64	52	1	975	140.26628145521607	2	124	-63	332.31432366620186	124.20716772691486	-65.17061606684359	1350	1300	0	2020-05-30 23:40:19.397242
A1GKD3NG1NNHRP	65	53	1	1138	118.83378614007674	11	-14	-109	266.80677369540825	-6.61945372477907	-118.64927964708005	1300	1250	0	2020-05-30 23:40:24.563081
A1GKD3NG1NNHRP	66	54	1	1099	291.2266698729237	8	245	158	31.897063966628167	247.25108320787967	153.8826666580842	1250	1200	0	2020-05-30 23:40:29.639203
A1GKD3NG1NNHRP	67	55	1	1042	197.66878645102372	10	187	7	1.645793830146003	197.5872439864174	5.677160458573088	1200	1150	0	2020-05-30 23:40:34.690551
A1GKD3NG1NNHRP	68	56	0	0	205.55353310922447	8	0	0	155.01972388020735	-186.3246616102627	86.80654036134689	1150	1350	0	2020-05-30 23:40:39.841761
A1GKD3NG1NNHRP	69	56	1	1030	110.5443461624846	8	70	-67	316.8666192841717	80.67129253510448	-75.5790647547773	1350	1300	0	2020-05-30 23:40:44.885559
A1GKD3NG1NNHRP	70	57	1	971	157.04068930323558	3	-94	-133	237.52826035285605	-84.31256305179377	-132.48837612588008	1300	1250	0	2020-05-30 23:40:49.876392
A1GKD3NG1NNHRP	71	58	0	0	278.94659024457513	10	0	0	27.39630910583431	247.66134338286264	128.3552071513684	1250	1450	0	2020-05-30 23:40:55.109081
A1GKD3NG1NNHRP	72	58	1	987	278.5871778662716	12	-271	-59	192.48032905113752	-272.0042347955932	-60.20391951324624	1450	1400	0	2020-05-30 23:41:00.114773
A1GKD3NG1NNHRP	73	59	1	961	231.74096062854431	3	139	-157	316.39578028677306	167.80851247739236	-159.82545470970945	1400	1350	0	2020-05-30 23:41:05.083352
A1GKD3NG1NNHRP	74	60	0	0	153.0367462212285	14	0	0	203.0317718849576	-140.83788755667493	-59.87432774198036	1350	1550	0	2020-05-30 23:41:10.436798
A1GKD3NG1NNHRP	75	60	1	742	133.66375549849715	5	128	-26	350.47080657157903	131.81937989071292	-22.12805050586107	1550	1500	0	2020-05-30 23:41:15.192117
A1GKD3NG1NNHRP	76	61	1	773	124.79750848431638	0	-116	-91	227.9729485304898	-83.54961045842245	-92.70318611643769	1500	1450	0	2020-05-30 23:41:22.144124
A1GKD3NG1NNHRP	77	62	1	1057	204.9193759459652	10	-36	-199	258.37678681610623	-41.28608538832662	-200.71723840116877	1450	1400	0	2020-05-30 23:41:27.223641
A1GKD3NG1NNHRP	78	63	1	843	186.7516733393025	3	-166	84	149.2361452123638	-160.47249138667362	95.52364630385249	1400	1350	0	2020-05-30 23:41:32.075754
A1GKD3NG1NNHRP	79	64	1	834	127.55184013304302	9	-117	81	140.66082908650145	-98.64948740636272	80.85635754711714	1350	1300	0	2020-05-30 23:41:36.908667
A1GKD3NG1NNHRP	80	65	1	1291	260.3193866175896	12	-185	189	132.50890511155032	-175.89905638714023	191.9002475534405	1300	1250	0	2020-05-30 23:41:42.193767
A1GKD3NG1NNHRP	81	66	0	0	129.50006276775193	2	0	0	252.61772949508654	-38.68756095808577	-123.58615975895556	1250	1450	0	2020-05-30 23:41:47.450855
A1GKD3NG1NNHRP	82	66	1	1010	236.39379683451943	5	152	195	50.68821134483756	149.76494436668452	182.9002149279326	1450	1400	0	2020-05-30 23:41:52.472079
A1GKD3NG1NNHRP	83	67	1	865	151.96699912080402	8	-162	76	161.80023470948004	-144.36459635413829	47.46400890452861	1400	1350	0	2020-05-30 23:41:59.381871
A1GKD3NG1NNHRP	84	68	1	1282	227.21368355225428	4	188	-85	335.7582814106431	207.17829869182015	-93.29099926866951	1350	1300	0	2020-05-30 23:42:04.674673
A1GKD3NG1NNHRP	85	69	1	795	147.65926210839484	7	-128	-127	235.49212037472657	-83.65186165489055	-121.67836179069268	1300	1250	0	2020-05-30 23:42:09.475389
A1GKD3NG1NNHRP	86	70	0	0	235.76903542163922	1	0	0	179.3599950269332	-235.7543267420405	2.6335311005146003	1250	1450	0	2020-05-30 23:42:14.722543
A1GKD3NG1NNHRP	87	70	1	954	236.8126639813638	12	212	-173	322.6244505849731	188.1888057701099	-143.7539954393274	1450	1400	0	2020-05-30 23:42:19.680596
A1GKD3NG1NNHRP	88	71	1	761	145.3711252348126	3	138	-35	346.1599719563558	141.1506232734909	-34.77449642396876	1400	1350	0	2020-05-30 23:42:24.444852
A1GKD3NG1NNHRP	89	72	1	970	178.03775692101726	5	-158	75	158.38179299462757	-165.51448481648885	65.59266883882313	1350	1300	0	2020-05-30 23:42:29.423127
A1GKD3NG1NNHRP	90	73	1	852	120.16731753429215	14	-96	-81	221.55297350780432	-89.92634295049533	-79.70845028563345	1300	1250	0	2020-05-30 23:42:34.324395
A1GKD3NG1NNHRP	91	74	1	795	172.67397517735446	10	6	-162	275.27245792223533	15.867345183498989	-171.94338911507276	1250	1200	0	2020-05-30 23:42:39.137322
A1GKD3NG1NNHRP	92	75	1	1098	177.83719625779298	0	165	-7	359.4040183466823	177.8275755016284	-1.849801082666022	1200	1150	0	2020-05-30 23:42:44.191797
A1GKD3NG1NNHRP	93	76	1	1001	203.67905368913952	11	-153	127	141.90298295840498	-160.28872343742094	125.66893828828726	1150	1100	0	2020-05-30 23:42:49.194565
A1GKD3NG1NNHRP	94	77	1	981	187.20179396037628	5	58	187	74.99769766998062	48.45865557097463	180.82110043420494	1100	1050	0	2020-05-30 23:42:54.180765
A1GKD3NG1NNHRP	95	78	1	1025	206.25489293734222	7	191	93	23.344578720017203	189.37052728849338	81.73055888143976	1050	1000	0	2020-05-30 23:42:59.209447
A1GKD3NG1NNHRP	96	79	0	0	138.67448285988448	9	0	0	49.61591771661808	89.84834956611232	105.63089641152384	1000	1200	0	2020-05-30 23:43:04.224674
A1GKD3NG1NNHRP	97	79	1	1091	295.6239848494397	4	-270	101	159.43028072800269	-276.7765819779499	103.86656866800273	1200	1150	0	2020-05-30 23:43:09.312888
A1GKD3NG1NNHRP	98	80	1	898	131.56689939420772	13	-36	-135	255.02136424070778	-34.00463033501157	-127.09655436708262	1150	1100	0	2020-05-30 23:43:14.221701
A1GKD3NG1NNHRP	99	81	1	1058	130.7856972859846	2	101	57	25.864868202299228	117.68429782048626	57.05527724128849	1100	1050	0	2020-05-30 23:43:19.287908
A1GKD3NG1NNHRP	100	82	0	0	142.41515548823008	10	0	0	295.5573455292252	61.43992749697215	-128.48039469858256	1050	1250	0	2020-05-30 23:43:24.334458
A1GKD3NG1NNHRP	101	82	1	970	193.37516088946253	11	-163	-117	218.18462804898684	-151.99728123484715	-119.54404772400969	1250	1200	0	2020-05-30 23:43:29.311150
A1GKD3NG1NNHRP	102	83	1	971	126.18866316143476	9	-115	-29	191.17173202254023	-123.79749717529053	-24.449098216580047	1200	1150	0	2020-05-30 23:43:34.294664
A1GKD3NG1NNHRP	103	84	1	924	165.30882078750818	10	153	-6	357.53193893109795	165.155477271906	-7.118606411752588	1150	1100	0	2020-05-30 23:43:39.243004
A1GKD3NG1NNHRP	104	85	1	1074	254.25763257671468	3	-224	-109	204.70663761895617	-230.98282843784713	-106.27265259871763	1100	1050	0	2020-05-30 23:43:44.310775
A1GKD3NG1NNHRP	105	86	0	0	253.19697649484314	11	0	0	107.34149859284359	-75.46949024131433	241.6879495317181	1050	1250	0	2020-05-30 23:43:49.359836
A1GKD3NG1NNHRP	106	86	1	952	169.59232164406342	8	160	64	24.228022989896036	154.6545479419143	69.59544785045637	1250	1200	0	2020-05-30 23:43:55.264400
A1GKD3NG1NNHRP	107	87	1	913	181.15074186754322	10	170	57	17.103173336462277	173.13966331141222	53.275212506118606	1200	1150	0	2020-05-30 23:44:00.185709
A1GKD3NG1NNHRP	108	88	0	0	293.9865357948539	14	0	0	0.10089598186024062	293.98607996810176	0.5177003455477149	1150	1350	0	2020-05-30 23:44:05.330803
A1GKD3NG1NNHRP	109	88	1	839	137.4310277461181	3	139	-74	327.86859263280127	116.38078616630317	-73.0944594252362	1350	1300	0	2020-05-30 23:44:10.189260
A1GKD3NG1NNHRP	110	89	1	1018	123.58298163535437	0	-96	105	124.1477501843917	-69.37069958013333	102.27638725359449	1300	1250	0	2020-05-30 23:44:15.245992
A1GKD3NG1NNHRP	111	90	1	867	122.59379015503336	7	84	83	44.65279224312498	87.21062101008441	86.15999633015184	1250	1200	0	2020-05-30 23:44:20.069975
A1GKD3NG1NNHRP	112	91	1	821	183.2761260253281	8	183	49	15.62410192660919	176.5039555634066	49.36083509547763	1200	1150	0	2020-05-30 23:44:27.291337
A1GKD3NG1NNHRP	113	92	1	953	151.18713841862888	7	-63	139	116.68859800189402	-67.90437378117376	135.07977955489966	1150	1100	0	2020-05-30 23:44:32.232052
A1GKD3NG1NNHRP	114	93	1	1050	244.9320421097802	9	-236	-87	203.6951793672982	-224.2833912477086	-98.43101981842112	1100	1050	0	2020-05-30 23:44:37.352973
A1GKD3NG1NNHRP	115	94	1	1035	221.1187408901203	3	-57	-214	260.02686452389645	-38.29476035634984	-217.77742973522737	1050	1000	0	2020-05-30 23:44:42.330639
A1GKD3NG1NNHRP	116	95	0	0	116.71712240814713	3	0	0	318.9354961895605	88.00126811068573	-76.67244272976835	1000	1200	0	2020-05-30 23:44:47.344742
A1GKD3NG1NNHRP	117	95	1	1043	190.9232375615079	6	-50	183	104.97470718179858	-49.33315533322944	184.4394817435666	1200	1150	0	2020-05-30 23:44:52.391072
A1GKD3NG1NNHRP	118	96	1	1114	183.46850639482756	11	-176	-1	181.63327963668235	-183.39396835791533	-5.229264640925565	1150	1100	0	2020-05-30 23:44:57.506197
A1GKD3NG1NNHRP	119	97	1	920	241.09569737471608	4	-244	90	161.41338745183307	-228.52084753538503	76.84632414312338	1100	1050	0	2020-05-30 23:45:02.434977
A1GKD3NG1NNHRP	120	98	0	0	137.00504236990952	9	0	0	66.45585448479903	54.727421970510186	125.5997249966831	1050	1250	0	2020-05-30 23:45:07.498363
A1GKD3NG1NNHRP	121	98	1	882	190.56270619995055	6	28	-172	287.36607331855475	56.87833776492651	-181.87633075072637	1250	1200	0	2020-05-30 23:45:12.385269
A1GKD3NG1NNHRP	122	99	1	1017	111.57893884749885	2	-86	55	145.69292914791663	-92.16741067432174	62.889013380119174	1200	1150	0	2020-05-30 23:45:17.408378
A1GKD3NG1NNHRP	123	100	1	1042	239.58781614418143	8	-221	35	173.12669047635822	-237.8659460339215	28.672519284597648	1150	1100	0	2020-05-30 23:45:22.463420
A1GKD3NG1NNHRP	124	101	1	954	145.45596371013457	0	55	120	64.0023181846489	63.758408036396744	130.73753395069193	1100	1050	0	2020-05-30 23:45:27.419146
A1GKD3NG1NNHRP	125	102	0	0	275.86057721675263	14	0	0	159.23409728375225	-257.93980198862255	97.80652643065355	1050	1250	0	2020-05-30 23:45:32.475962
A1GKD3NG1NNHRP	126	102	1	1019	218.2653215691201	14	-28	214	96.35229325809809	-24.149190139264775	216.9252572092264	1250	1200	0	2020-05-30 23:45:37.493457
A1GKD3NG1NNHRP	127	103	1	914	113.73109604020497	11	-23	121	104.57486223667738	-28.619834871735858	110.07119177341953	1200	1150	0	2020-05-30 23:45:42.419052
A1GKD3NG1NNHRP	128	104	1	948	143.607403713495	6	135	20	11.75439846748695	140.59593297533675	29.25525648708875	1150	1100	0	2020-05-30 23:45:47.368856
A1GKD3NG1NNHRP	129	105	1	947	139.69612686823552	0	96	104	45.09827965548797	98.6104955564154	98.94937103440493	1100	1050	0	2020-05-30 23:45:52.338449
A1GKD3NG1NNHRP	130	106	0	0	237.69710775763292	12	0	0	201.57512658139618	-221.0431474264809	-87.40618978160971	1050	1250	0	2020-05-30 23:45:57.370520
A1GKD3NG1NNHRP	131	106	1	1154	199.4996219629516	6	2	-193	275.76030486379267	20.023180325467134	-198.49224522135475	1250	1200	0	2020-05-30 23:46:02.543674
A1GKD3NG1NNHRP	132	107	1	994	208.18135498077805	9	-162	-109	213.8353039944516	-172.92408095783162	-115.9169477967826	1200	1150	0	2020-05-30 23:46:07.552697
A1GKD3NG1NNHRP	133	108	1	945	113.2459518535434	14	70	-62	318.4578192803643	84.7609373451596	-75.10145878466673	1150	1100	0	2020-05-30 23:46:12.535172
A1GKD3NG1NNHRP	134	109	0	0	251.53404951705457	8	0	0	326.34770636228274	209.38092096050184	-139.38797654094898	1100	1300	0	2020-05-30 23:46:17.588953
A1GKD3NG1NNHRP	135	109	1	1055	203.8625783000566	2	70	184	70.94205147376861	66.56608124180008	192.68862877517392	1300	1250	0	2020-05-30 23:46:22.664538
A1GKD3NG1NNHRP	136	110	1	882	232.48560042074544	4	90	-207	297.7425048762111	108.22175570265031	-205.7610410054109	1250	1200	0	2020-05-30 23:46:27.537100
A1GKD3NG1NNHRP	137	111	1	945	234.51084745151883	9	-181	-97	206.63861023371894	-209.6180603391098	-105.14564352410832	1200	1150	0	2020-05-30 23:46:32.495895
A1GKD3NG1NNHRP	138	112	1	992	286.9634724213929	1	-6	-259	269.2881329176093	-3.5652642478560015	-286.9413239583774	1150	1100	0	2020-05-30 23:46:37.502474
A1GKD3NG1NNHRP	139	113	1	1024	247.06754982509312	5	-58	241	103.87129762468608	-59.23240207118008	239.86224530228372	1100	1050	0	2020-05-30 23:46:42.565349
A1GKD3NG1NNHRP	140	114	1	882	124.39369891839998	10	-110	-51	207.08671574500613	-110.7499990640709	-56.641239727868204	1050	1000	0	2020-05-30 23:46:47.429998
A1GKD3NG1NNHRP	141	115	1	890	109.9088368798034	2	-143	37	165.96030290416098	-106.62562680773901	26.66323559000298	1000	950	0	2020-05-30 23:46:52.309568
A1GKD3NG1NNHRP	142	116	1	835	262.90529143273693	7	-24	-252	272.5477365215418	11.686597296815298	-262.6454182104733	950	900	0	2020-05-30 23:46:57.155189
A1GKD3NG1NNHRP	143	117	1	810	112.40603613192124	0	-69	-103	223.41627388088207	-81.64943877955724	-77.25597780025905	900	850	0	2020-05-30 23:47:01.973032
A1GKD3NG1NNHRP	144	118	1	794	140.3253891162177	11	68	105	51.16134828183992	88.00217847561264	109.30156181027027	850	800	0	2020-05-30 23:47:06.775074
A1GKD3NG1NNHRP	145	119	1	770	139.756779075115	3	105	99	45.38929194597139	98.14924498117017	99.49212535209378	800	750	0	2020-05-30 23:47:11.533573
A1GKD3NG1NNHRP	146	120	0	0	196.36909963227168	5	0	0	292.055823463116	73.7385161641283	-181.9985014342196	750	950	0	2020-05-30 23:47:16.308041
A1GKD3NG1NNHRP	147	120	1	781	242.3904400836861	8	-58	201	100.25592579958247	-43.15648314222257	238.5175955915162	950	900	0	2020-05-30 23:47:21.085085
A1GKD3NG1NNHRP	148	121	0	0	247.1688542348903	12	0	0	158.81128177427203	-230.45900100294884	89.3369540588399	900	1100	0	2020-05-30 23:47:29.097417
A1GKD3NG1NNHRP	149	121	1	1008	243.46156741610594	7	-103	-207	246.8045833083856	-95.8918139251181	-223.78180183128748	1100	1050	0	2020-05-30 23:47:34.108173
A1GKD3NG1NNHRP	150	122	1	931	149.38916593360744	4	-126	-95	214.4886998297959	-123.13220974718013	-84.59067218739509	1050	1000	0	2020-05-30 23:47:39.041773
A1GKD3NG1NNHRP	151	123	1	922	276.8767081498728	9	-140	-230	242.67352250383104	-127.10306395974241	-245.9787036471968	1000	950	0	2020-05-30 23:47:43.973729
A1GKD3NG1NNHRP	152	124	0	0	167.8902213002909	11	0	0	83.45235551817532	19.144418223849353	166.79513679700318	950	1150	0	2020-05-30 23:47:48.925803
A1GKD3NG1NNHRP	153	124	1	760	165.65697410596565	7	-164	91	153.82306718272704	-148.66653990913397	73.07867665325124	1150	1100	0	2020-05-30 23:47:55.999948
A1GKD3NG1NNHRP	154	125	1	840	208.29856077571174	3	178	-71	339.42536505398357	195.012279904556	-73.20178350054033	1100	1050	0	2020-05-30 23:48:00.841820
A1GKD3NG1NNHRP	155	126	1	905	229.66404321162116	6	-55	-219	258.13465304965905	-47.22176039302326	-224.75693112714742	1050	1000	0	2020-05-30 23:48:05.742738
A1GKD3NG1NNHRP	156	127	0	0	286.35750510443665	1	0	0	294.33880125198647	118.0169410260045	-260.9073060696117	1000	1200	0	2020-05-30 23:48:10.750877
A1GKD3NG1NNHRP	157	127	1	843	159.80328492896433	0	-80	132	120.53070923658315	-81.18008531544554	137.6476793203022	1200	1150	0	2020-05-30 23:48:15.608929
A1GKD3NG1NNHRP	158	128	1	852	223.5974665141371	10	-16	-221	270.4201383101316	1.6395800992207925	-223.5914551333277	1150	1100	0	2020-05-30 23:48:20.450185
A1GKD3NG1NNHRP	159	129	1	849	156.76912319426788	1	84	-87	324.8172169897651	128.13023805245405	-90.32829060555166	1100	1050	0	2020-05-30 23:48:25.329226
A1GKD3NG1NNHRP	160	130	1	900	260.4609015763946	5	237	-65	346.2684618993941	253.01656612372992	-61.82635778488428	1050	1000	0	2020-05-30 23:48:30.214725
A1GKD3NG1NNHRP	161	131	0	0	219.8176495552219	1	0	0	277.55542952753126	28.902785699542125	-217.90921971038463	1000	1200	0	2020-05-30 23:48:35.212608
A1GKD3NG1NNHRP	162	131	1	907	134.32128415803012	0	-126	52	158.54461503560418	-125.01317817772517	49.13158515422249	1200	1150	0	2020-05-30 23:48:41.232693
A1GKD3NG1NNHRP	163	132	0	347	194.87189757130216	11	-2	7	75.80585955216414	47.7841952034785	188.9225427306015	1150	1350	0	2020-05-30 23:48:45.583128
A1GKD3NG1NNHRP	164	132	1	906	118.52144547943264	8	-52	99	121.3726550753164	-61.70252618176793	101.19353389086858	1350	1300	0	2020-05-30 23:48:51.249446
A1GKD3NG1NNHRP	165	133	1	1198	298.85479651254155	0	101	276	69.39174193859033	105.18988302141176	279.73072392659043	1300	1250	0	2020-05-30 23:48:57.642143
A1GKD3NG1NNHRP	166	134	1	1067	193.57746822431136	3	181	-76	337.3325712457368	178.62502550091648	-74.60118275825933	1250	1200	0	2020-05-30 23:49:02.726068
A1GKD3NG1NNHRP	167	135	1	962	276.8640390894417	7	260	-83	345.4093591624138	267.935265926814	-69.74517484132764	1200	1150	0	2020-05-30 23:49:07.674493
A1GKD3NG1NNHRP	168	136	0	0	240.95729261727587	1	0	0	130.5214387457965	-156.55779112662213	183.1667953069018	1150	1350	0	2020-05-30 23:49:12.847635
A1GKD3NG1NNHRP	169	136	1	1204	104.90990942841746	12	-27	82	117.32971575593818	-48.16522662602244	93.19978562390932	1350	1300	0	2020-05-30 23:49:18.367837
A1GKD3NG1NNHRP	170	137	1	907	106.89850079766829	3	68	-77	314.0071354791114	74.26751427946743	-76.88709771826602	1300	1250	0	2020-05-30 23:49:23.263479
A1GKD3NG1NNHRP	171	138	1	1041	287.53820441776077	4	-52	-280	254.06021171529127	-78.9657604797806	-276.4825992203486	1250	1200	0	2020-05-30 23:49:28.329409
A1GKD3NG1NNHRP	172	139	1	1155	132.87527389215992	6	-118	22	168.930636217299	-130.4031913086651	25.511685723060488	1200	1150	0	2020-05-30 23:49:33.478950
A1GKD3NG1NNHRP	173	140	1	1097	117.83269557834642	1	85	-67	323.29291468489475	94.46667643144094	-70.4314644974581	1150	1100	0	2020-05-30 23:49:38.590594
A1GKD3NG1NNHRP	174	141	1	1083	259.4968805007434	1	196	-159	323.164474216145	207.69087068337592	-155.57356209972923	1100	1050	0	2020-05-30 23:49:43.685678
A1GKD3NG1NNHRP	175	142	0	0	161.99560365048188	11	0	0	202.3547958098031	-149.82105018183282	-61.61354172985639	1050	1250	0	2020-05-30 23:49:48.721393
A1GKD3NG1NNHRP	176	142	1	1004	217.36050382645186	5	-31	-225	262.44305768711996	-28.585396352571415	-215.47265195160008	1250	1200	0	2020-05-30 23:49:53.752254
A1GKD3NG1NNHRP	177	143	1	1067	161.62832847648644	7	43	139	72.7587596702941	47.90591944822006	154.36560318906427	1200	1150	0	2020-05-30 23:49:58.805361
A1GKD3NG1NNHRP	178	144	1	922	211.77181064318353	3	164	149	42.266278470937664	156.7168724373251	142.43286726228447	1150	1100	0	2020-05-30 23:50:03.739946
A1GKD3NG1NNHRP	179	145	0	0	125.00519060775864	8	0	0	152.92954920401797	-111.31057506406293	56.88807922394355	1100	1300	0	2020-05-30 23:50:08.842949
A1GKD3NG1NNHRP	180	145	0	0	235.05765364738548	4	0	0	117.25376191799346	-107.64048846233608	208.96321633676087	1300	1500	0	2020-05-30 23:50:14.553943
A1GKD3NG1NNHRP	181	145	1	972	250.5722533425146	8	-112	-222	235.95877409327477	-140.26765984706745	-207.63293993529228	1500	1450	0	2020-05-30 23:50:19.538199
A1GKD3NG1NNHRP	182	146	1	827	109.24441627672073	4	114	13	10.93904815576006	107.25940290587383	20.730725407396395	1450	1400	0	2020-05-30 23:50:24.360496
A1GKD3NG1NNHRP	183	147	1	1034	266.6740089605304	4	244	81	18.286253193181913	253.2071810058141	83.67287817548728	1400	1350	0	2020-05-30 23:50:29.403801
A1GKD3NG1NNHRP	184	148	1	873	151.61258809576344	8	14	-160	289.6092264591962	50.88167986536843	-142.8195768204548	1350	1300	0	2020-05-30 23:50:34.280253
A1GKD3NG1NNHRP	185	149	1	971	201.23994342192594	10	90	-181	297.9271980178901	94.25058273299071	-177.8042251549485	1300	1250	0	2020-05-30 23:50:39.275222
A1GKD3NG1NNHRP	186	150	0	0	158.17934680392037	2	0	0	105.62497045990703	-42.60395526339798	152.3338726325478	1250	1450	0	2020-05-30 23:50:44.516197
A1GKD3NG1NNHRP	187	150	1	895	160.5909662248028	5	70	-141	295.47076255594857	69.06221903101246	-144.98230352538965	1450	1400	0	2020-05-30 23:50:49.943454
