AY6605D273DW1	1	1	1	1189	133.41919766383987	1	11	-115.5	280.91864815769725	25.271601700379442	-131.00392533340423	1500	1450	0	2020-05-30 04:01:49.073971
AY6605D273DW1	2	2	1	1188	102.76275180847078	14	77	71.5	48.1736246035333	68.52996870554333	76.57562633414511	1450	1400	0	2020-05-30 04:01:54.418739
AY6605D273DW1	3	3	1	954	233.99916151375547	10	19	-223.5	275.646450752863	23.02311126643993	-232.86378837585235	1400	1350	0	2020-05-30 04:01:59.881659
AY6605D273DW1	4	4	1	1040	268.99000737306903	11	-254	-29.5	183.485880299276	-268.4923254577823	-16.355281618977152	1350	1300	0	2020-05-30 04:02:05.009420
AY6605D273DW1	5	5	1	866	105.8687143942219	3	25	87.5	82.86047465837291	13.157999548856125	105.04785450144914	1300	1250	0	2020-05-30 04:02:09.685673
AY6605D273DW1	6	6	1	1081	165.10285241801728	13	-152	-105.5	219.84239868228218	-126.76756073343931	-105.77777376301397	1250	1200	0	2020-05-30 04:02:14.985946
AY6605D273DW1	7	7	1	842	138.4629118119269	13	-109	60.5	154.00709918502594	-124.45716056679076	60.68272514554288	1200	1150	0	2020-05-30 04:02:20.051646
AY6605D273DW1	8	8	0	0	155.89589153123117	10	0	0	85.81493012578079	11.377019414610563	155.48019946461662	1150	1350	0	2020-05-30 04:02:25.449408
AY6605D273DW1	9	8	1	1083	239.1864029152398	4	175	-160.5	317.8475193269274	177.32357740477954	-160.51942012075233	1350	1300	0	2020-05-30 04:02:30.807102
AY6605D273DW1	10	9	0	0	171.22595352462065	11	0	0	307.6589113205406	104.61211793293302	-135.55305950808216	1300	1500	0	2020-05-30 04:02:44.760786
AY6605D273DW1	11	9	1	1084	151.89448605706545	1	-109	26.5	170.46940911056143	-149.79793812693617	25.149803726046226	1500	1450	0	2020-05-30 04:02:49.757501
AY6605D273DW1	12	10	1	1108	239.38922824252765	2	-57	215.5	104.63725625488311	-60.49331141201081	231.61986502233023	1450	1400	0	2020-05-30 04:02:55.075552
AY6605D273DW1	13	11	1	857	116.3069981938936	4	104	70.5	32.86582839509983	97.69132670510535	63.116737205520536	1400	1350	0	2020-05-30 04:02:59.778522
AY6605D273DW1	14	12	1	837	206.34017814232615	11	199	75.5	20.61409619463973	193.1288243245421	72.64658512846316	1350	1300	0	2020-05-30 04:03:05.901080
AY6605D273DW1	15	13	1	865	296.1074269245708	4	-296	114.5	156.48667337097115	-271.52082869970155	118.13571797774527	1300	1250	0	2020-05-30 04:03:11.354112
AY6605D273DW1	16	14	1	1097	186.6041499994938	4	-89	-131.5	234.6778222606686	-107.88957213021374	-152.2529113764101	1250	1200	0	2020-05-30 04:03:16.495799
AY6605D273DW1	17	15	1	1042	267.40140977516677	6	231	-124.5	330.57154487207293	232.89858003389764	-131.38403772125753	1200	1150	0	2020-05-30 04:03:21.523761
AY6605D273DW1	18	16	1	1059	135.0995561087641	12	4	124.5	83.47986197823076	15.340881837339257	134.2257330217939	1150	1100	0	2020-05-30 04:03:26.532242
AY6605D273DW1	19	17	1	819	198.32657460743246	3	-180	-49.5	193.41326619384665	-192.91666068384123	-46.006436790009516	1100	1050	0	2020-05-30 04:03:31.504655
AY6605D273DW1	20	18	1	869	215.41132527454639	12	177	42.5	8.07539527446778	213.27532254227253	30.260136335219002	1050	1000	0	2020-05-30 04:03:36.125788
AY6605D273DW1	21	19	0	0	258.2882250559238	8	0	0	116.55030957605695	-115.45056296249774	231.04972346701024	1000	1200	0	2020-05-30 04:03:41.348564
AY6605D273DW1	22	19	1	831	242.46781392221536	10	270	6.5	5.954333943525709	241.15967365416668	25.152586173868492	1200	1150	0	2020-05-30 04:03:46.272201
AY6605D273DW1	23	20	1	936	228.33290939136805	14	68	-231.5	288.00348359964573	70.57195248426049	-217.1532109679384	1150	1100	0	2020-05-30 04:03:51.282053
AY6605D273DW1	24	21	1	935	189.28853466638026	2	201	-13.5	358.72042124309155	189.24133216201884	-4.2270033936465055	1100	1050	0	2020-05-30 04:03:55.939685
AY6605D273DW1	25	22	0	0	277.6168669034048	4	0	0	282.824582149319	61.621742772522765	-270.6914952615612	1050	1250	0	2020-05-30 04:04:01.426555
AY6605D273DW1	26	22	0	922	272.0538547648795	9	-112	-209.5	232.83839557507127	-164.33826651263593	-216.809211178981	1250	1450	0	2020-05-30 04:04:05.960063
AY6605D273DW1	27	22	1	955	107.25038716895368	13	-34	-96.5	251.07400335730458	-34.786303716723	-101.45224798701292	1450	1400	0	2020-05-30 04:04:11.130673
AY6605D273DW1	28	23	1	1072	166.3102752828363	5	-45	179.5	98.8118699287894	-25.47716480645441	164.3472596001453	1400	1350	0	2020-05-30 04:04:16.171312
AY6605D273DW1	29	24	1	1120	224.90112819488192	12	122	194.5	57.59180902967061	120.53519608030517	189.87307331270827	1350	1300	0	2020-05-30 04:04:21.306802
AY6605D273DW1	30	25	1	905	134.27437510662583	7	135	47.5	25.177757467337365	121.51727208299572	57.12407894909157	1300	1250	0	2020-05-30 04:04:26.321619
AY6605D273DW1	31	26	1	877	133.16344306048032	9	116	87.5	37.43593807666283	105.73623412940968	80.94659572738338	1250	1200	0	2020-05-30 04:04:31.295080
AY6605D273DW1	32	27	1	863	204.9508688664157	13	-164	-94.5	211.11405122531295	-175.46671560187286	-105.90698921690762	1200	1150	0	2020-05-30 04:04:35.933041
AY6605D273DW1	33	28	1	1003	299.1525984805603	0	30	290.5	81.8985612458418	42.15840672752545	296.16709121688024	1150	1100	0	2020-05-30 04:04:41.868789
AY6605D273DW1	34	29	1	1082	146.07301227008554	2	124	-17.5	356.1903172416797	145.75022801824738	-9.705459612272701	1100	1050	0	2020-05-30 04:04:46.698810
AY6605D273DW1	35	30	0	0	181.7345398546005	7	0	0	68.10046583212664	67.78339210449538	168.6204457679187	1050	1250	0	2020-05-30 04:04:54.133813
AY6605D273DW1	36	30	1	930	169.5370330093342	13	5	150.5	85.83010978119384	12.32772997491174	169.0882391985727	1250	1200	0	2020-05-30 04:04:59.315106
AY6605D273DW1	37	31	0	0	231.8049336304732	0	0	0	57.07841901022978	125.98381684896577	194.58058779743246	1200	1400	0	2020-05-30 04:05:38.918218
AY6605D273DW1	38	31	1	1099	227.60969431004554	0	185	141.5	37.22818968557709	181.2302034117956	137.70180214954186	1400	1350	0	2020-05-30 04:05:44.046923
AY6605D273DW1	39	32	1	1015	136.26290179376036	5	-137	-25.5	193.41815910238884	-132.54324889016712	-31.620651145970946	1350	1300	0	2020-05-30 04:05:49.232467
AY6605D273DW1	40	33	1	886	184.30838094205532	2	63	174.5	76.00116303686998	44.584602770984894	178.83453939671514	1300	1250	0	2020-05-30 04:05:53.949746
AY6605D273DW1	41	34	1	875	127.34054474864082	9	19	120.5	78.87426171264924	24.57198313691175	124.94731682433168	1250	1200	0	2020-05-30 04:05:58.896553
AY6605D273DW1	42	35	1	1067	221.72705873310554	4	172	120.5	40.16720656309886	169.43613176979372	143.01848071253983	1200	1150	0	2020-05-30 04:06:03.927640
AY6605D273DW1	43	36	1	916	285.58924342626653	8	281	22.5	0.8928219405334037	285.5545707387204	4.450066405400321	1150	1100	0	2020-05-30 04:06:08.939115
AY6605D273DW1	44	37	1	905	139.01498063215118	12	-151	67.5	160.27201305449333	-130.85560387025478	46.92521471350267	1100	1050	0	2020-05-30 04:06:14.005629
AY6605D273DW1	45	38	1	933	241.60876602955042	13	224	17.5	5.413784326412268	240.53102060778716	22.795261518533096	1050	1000	0	2020-05-30 04:06:18.955173
AY6605D273DW1	46	39	1	945	289.8837706620682	5	33	-272.5	273.00215756227897	15.182245393336403	-289.48592352319145	1000	950	0	2020-05-30 04:06:23.846817
AY6605D273DW1	47	40	1	903	117.7912871414855	7	-72	-112.5	234.9036943912742	-67.72439468260208	-96.37527531126968	950	900	0	2020-05-30 04:06:28.910244
AY6605D273DW1	48	41	0	0	234.1756835376072	0	0	0	86.93853017157177	12.506692507806893	233.84147066510835	900	1100	0	2020-05-30 04:06:33.537300
AY6605D273DW1	49	41	1	827	108.83144241926823	11	-129	40.5	161.9942993746502	-103.50150589605973	33.64106324577763	1100	1050	0	2020-05-30 04:06:38.507653
AY6605D273DW1	50	42	1	865	298.83101105674734	7	53	289.5	80.14969585512677	51.12239417144082	294.42566801041255	1050	1000	0	2020-05-30 04:06:43.316159
AY6605D273DW1	51	43	1	889	287.9360441922821	11	-133	-219.5	232.64329142312846	-174.71251538533318	-228.8726775148785	1000	950	0	2020-05-30 04:06:48.436559
AY6605D273DW1	52	44	0	0	130.27753875270162	7	0	0	329.1753371216979	111.87445667537031	-66.75584653835469	950	1150	0	2020-05-30 04:06:53.135890
AY6605D273DW1	53	44	1	811	133.94041618482345	14	-99	21.5	169.4539687669881	-131.67791916747365	24.514499617328376	1150	1100	0	2020-05-30 04:06:58.226595
AY6605D273DW1	54	45	1	829	182.7280178215613	9	159	60.5	20.615071190101773	171.0273862992517	64.33631659213451	1100	1050	0	2020-05-30 04:07:02.827776
AY6605D273DW1	55	46	1	828	188.02202058212907	5	-152	89.5	153.1222169830732	-167.71054666454665	85.00266325983843	1050	1000	0	2020-05-30 04:07:07.940339
AY6605D273DW1	56	47	1	888	184.82849328671767	13	139	-59.5	336.65196607020897	169.69371100600964	-73.25036775093439	1000	950	0	2020-05-30 04:07:12.827181
AY6605D273DW1	57	48	1	778	165.24720343754416	10	-165	21.5	172.2774920431483	-163.74849200778326	22.20517077407987	950	900	0	2020-05-30 04:07:17.569406
AY6605D273DW1	58	49	1	820	135.28197361105185	6	-120	-54.5	208.9082836454669	-118.4251154518952	-65.39651683619414	900	850	0	2020-05-30 04:07:22.496897
AY6605D273DW1	59	50	0	0	258.0200645875103	11	0	0	106.82218138571417	-74.67162342038127	246.9787488540416	850	1050	0	2020-05-30 04:07:27.453712
AY6605D273DW1	60	50	0	0	272.3945256678747	13	0	0	325.3467528370129	224.07399611022717	-154.88583499151994	1050	1250	0	2020-05-30 04:07:32.415046
AY6605D273DW1	61	50	1	834	219.81315956980427	5	166	-116.5	317.6398144067363	162.42515976371013	-148.10770606485497	1250	1200	0	2020-05-30 04:07:37.367681
AY6605D273DW1	62	51	1	790	234.7059490878783	4	207	-158.5	321.7180122248563	184.23740423927217	-145.40791387134587	1200	1150	0	2020-05-30 04:07:41.960874
AY6605D273DW1	63	52	1	984	148.52603953461198	4	156	-50.5	344.6283915355485	143.21279907018848	-39.37103760785258	1150	1100	0	2020-05-30 04:07:47.021972
AY6605D273DW1	64	53	1	951	145.77358005619038	12	-120	-86.5	210.8637794963032	-125.13049272813593	-74.7816583930342	1100	1050	0	2020-05-30 04:07:52.059408
AY6605D273DW1	65	54	1	878	239.01582990419743	9	-229	-105.5	203.17409379725598	-219.73044700968623	-94.05901127332623	1050	1000	0	2020-05-30 04:07:57.047971
AY6605D273DW1	66	55	1	796	184.73730504069982	12	-176	-60.5	196.0413358806551	-177.54411248085233	-51.04860426188972	1000	950	0	2020-05-30 04:08:01.956899
AY6605D273DW1	67	56	1	945	230.09054849092743	3	-215	-34.5	189.18714956523874	-227.1389696634429	-36.736207821240804	950	900	0	2020-05-30 04:08:06.617944
AY6605D273DW1	68	57	1	893	186.9947576777505	6	-125	196.5	124.91233117212798	-107.02128343671413	153.34107176656596	900	850	0	2020-05-30 04:08:11.730917
AY6605D273DW1	69	58	1	809	168.9957960268764	6	-37	149.5	108.90006698719147	-54.7408688637602	159.88438432441808	850	800	0	2020-05-30 04:08:16.570664
AY6605D273DW1	70	59	0	0	286.205663421566	3	0	0	19.887607128822083	269.13685218640387	97.36034392796952	800	1000	0	2020-05-30 04:08:21.418923
AY6605D273DW1	71	59	1	800	149.698130886471	7	-141	-3.5	183.88303364875483	-149.3544802184295	-10.137535676176617	1000	950	0	2020-05-30 04:08:25.971701
AY6605D273DW1	72	60	0	0	139.6968280303407	1	0	0	331.9016416451838	123.23221032900798	-65.7953349346724	950	1150	0	2020-05-30 04:08:31.251364
AY6605D273DW1	73	60	1	789	176.62936733922186	0	-121	-136.5	235.52644024397213	-99.97679090658268	-145.61103902752436	1150	1100	0	2020-05-30 04:08:35.776856
AY6605D273DW1	74	61	1	884	202.68422246906596	5	66	-210.5	289.2139334675943	66.70262668403907	-191.39397490866722	1100	1050	0	2020-05-30 04:08:47.441232
AY6605D273DW1	75	62	1	849	212.7221613289232	3	128	-129.5	312.7803347190312	144.47864363323046	-156.13020032764456	1050	1000	0	2020-05-30 04:08:52.155946
AY6605D273DW1	76	63	1	982	140.9382016905364	4	33	-141.5	282.21039030235505	29.808717517008684	-137.74983504800832	1000	950	0	2020-05-30 04:08:57.361507
AY6605D273DW1	77	64	1	931	213.4165419118466	12	-215	-101.5	205.79623490901616	-192.14902220380253	-92.87288962734809	950	900	0	2020-05-30 04:09:02.114799
AY6605D273DW1	78	65	0	0	104.63477607467962	0	0	0	80.95160860405271	16.455764748844867	103.33268684559123	900	1100	0	2020-05-30 04:09:07.127242
AY6605D273DW1	79	65	1	1025	105.64634264873192	14	57	111.5	63.95964811327855	46.379170669228394	94.92166371849925	1100	1050	0	2020-05-30 04:09:12.293546
AY6605D273DW1	80	66	1	941	194.0241356757778	3	118	-112.5	313.881149896115	134.49068801661875	-139.84856117082205	1050	1000	0	2020-05-30 04:09:17.164289
AY6605D273DW1	81	67	0	0	264.637691639074	4	0	0	76.29505460153271	62.698491965739045	257.1031056624555	1000	1200	0	2020-05-30 04:09:22.154348
AY6605D273DW1	82	67	1	896	249.4195163284362	4	259	-124.5	330.31125549278477	216.67792416449365	-123.53449844184007	1200	1150	0	2020-05-30 04:09:27.224550
AY6605D273DW1	83	68	1	837	163.14799075434837	0	116	-124.5	304.63103089339467	92.71528441647342	-134.24285054614037	1150	1100	0	2020-05-30 04:09:31.977173
AY6605D273DW1	84	69	1	1008	124.0119281492202	7	98	-70.5	324.9474544235562	101.51934860852387	-71.22345246748682	1100	1050	0	2020-05-30 04:09:37.057453
AY6605D273DW1	85	70	1	873	160.50522957066713	13	-69	-155.5	246.77820883015212	-63.28584029149798	-147.50196994661314	1050	1000	0	2020-05-30 04:09:41.810566
AY6605D273DW1	86	71	0	0	229.09679606643917	1	0	0	268.97874574827165	-4.083262162953926	-229.06040456180156	1000	1200	0	2020-05-30 04:09:46.842623
AY6605D273DW1	87	71	1	1088	275.15688600928434	1	157	215.5	52.232345404484434	168.52283041267762	217.51176416007067	1200	1150	0	2020-05-30 04:09:52.018319
AY6605D273DW1	88	72	1	809	171.66323661955266	7	60	-138.5	289.60424034528535	57.5966703570264	-161.7123692562958	1150	1100	0	2020-05-30 04:09:56.997552
AY6605D273DW1	89	73	1	977	248.56425736773295	13	-154	-178.5	229.08476725288992	-162.79510796336848	-187.83488191485569	1100	1050	0	2020-05-30 04:10:01.978276
AY6605D273DW1	90	74	1	846	168.02355663434588	3	-76	194.5	109.89710608534617	-57.18380271892223	157.99344382175678	1050	1000	0	2020-05-30 04:10:06.940459
AY6605D273DW1	91	75	0	0	293.0542249361944	10	0	0	328.21765569056817	249.11221914946617	-154.34986564095848	1000	1200	0	2020-05-30 04:10:11.810880
AY6605D273DW1	92	75	1	864	125.02160434916263	14	128	-88.5	320.06328844655457	95.86081441405963	-80.25650013495341	1200	1150	0	2020-05-30 04:10:16.759170
AY6605D273DW1	93	76	1	806	215.45913723826948	4	-163	-81.5	206.67451622844385	-192.52806820754773	-96.72426154657005	1150	1100	0	2020-05-30 04:10:21.390653
AY6605D273DW1	94	77	1	862	196.2023168952396	4	-102	173.5	125.18373390149178	-113.05183542109131	160.35782382840728	1100	1050	0	2020-05-30 04:10:26.287783
AY6605D273DW1	95	78	1	1040	231.9057364595228	5	111	231.5	61.71127368190718	109.90359657069124	204.2093780012573	1050	1000	0	2020-05-30 04:10:31.435322
AY6605D273DW1	96	79	1	825	126.25242210871468	6	-40	-85.5	249.2286289173836	-44.77413559581684	-118.0463928714659	1000	950	0	2020-05-30 04:10:36.285312
AY6605D273DW1	97	80	1	794	179.5970350551351	6	-159	129.5	142.62487454767435	-142.7218545564059	109.0209485951005	950	900	0	2020-05-30 04:10:41.142164
AY6605D273DW1	98	81	1	847	247.23492408055697	8	246	82.5	15.588532275206033	238.14072652737119	66.43870900412333	900	850	0	2020-05-30 04:10:45.866753
AY6605D273DW1	99	82	0	0	182.43568690072777	2	0	0	214.15764270785328	-150.96477963495354	-102.43249076689627	850	1050	0	2020-05-30 04:10:50.768616
AY6605D273DW1	100	82	1	754	128.086861011866	13	-122	-4.5	180.13983125202364	-128.08647956188366	-0.31259769071527993	1050	1000	0	2020-05-30 04:10:55.862536
AY6605D273DW1	101	83	1	786	108.9894849982004	13	112	-54.5	342.0888156209657	103.70724295361383	-33.51888421670783	1000	950	0	2020-05-30 04:11:00.528057
AY6605D273DW1	102	84	0	0	241.89112085513676	10	0	0	42.17553124428116	179.26342793977793	162.4067047625634	950	1150	0	2020-05-30 04:11:05.589059
AY6605D273DW1	103	84	1	840	267.63473234999816	7	-241	-24.5	193.5369527585261	-260.1996141952223	-62.64591553096351	1150	1100	0	2020-05-30 04:11:10.374044
AY6605D273DW1	104	85	1	687	115.11613918348154	4	142	-17.5	353.24189108383933	114.31629063659703	-13.546630414969218	1100	1050	0	2020-05-30 04:11:14.826742
AY6605D273DW1	105	86	0	1001	293.18080518979673	2	-181	-158.5	222.2096591476623	-217.1564847669754	-196.97219513268342	1050	1250	0	2020-05-30 04:11:20.012164
AY6605D273DW1	106	86	0	0	299.1827002596531	8	0	0	82.60775993752245	38.493231253216045	296.6960722394953	1250	1450	0	2020-05-30 04:11:25.431460
AY6605D273DW1	107	86	1	699	103.41357299507989	9	-91	22.5	164.5034789532605	-99.65414606954828	27.63002444367091	1450	1400	0	2020-05-30 04:11:30.915279
AY6605D273DW1	108	87	1	799	188.27049801470093	0	102	-137.5	300.71020529382906	96.14900216051333	-161.86769228675968	1400	1350	0	2020-05-30 04:11:35.463580
AY6605D273DW1	109	88	0	874	168.1041753040399	9	25	276.5	71.09384919112617	54.46894347637807	159.03505258658706	1350	1550	0	2020-05-30 04:11:40.712157
AY6605D273DW1	110	88	1	878	113.42980162673624	8	87	-111.5	311.11883739546016	74.59404220919733	-85.45202609636137	1550	1500	0	2020-05-30 04:11:45.526748
AY6605D273DW1	111	89	1	1009	246.5339583489176	11	-123	268.5	113.50697111533427	-98.33269331551345	226.07448782315757	1500	1450	0	2020-05-30 04:11:50.645681
AY6605D273DW1	112	90	1	862	172.2210382613174	13	52	170.5	70.97410562426676	56.14327329299489	162.81283390370135	1450	1400	0	2020-05-30 04:11:55.446325
AY6605D273DW1	113	91	1	801	265.751988899999	10	-133	178.5	128.21423209405484	-164.39513191009127	208.80220355295316	1400	1350	0	2020-05-30 04:12:18.503972
AY6605D273DW1	114	92	1	1106	269.03362945807635	11	72	-260.5	285.69653795761496	72.78497036923643	-259.00085302511053	1350	1300	0	2020-05-30 04:12:23.831131
AY6605D273DW1	115	93	1	903	298.9405910470109	1	-160	-225.5	234.3140578574516	-174.38458561467152	-242.80752310325047	1300	1250	0	2020-05-30 04:12:28.752428
AY6605D273DW1	116	94	1	718	124.918501182714	0	125	15.5	4.453929550351008	124.54125966615213	9.700854524411087	1250	1200	0	2020-05-30 04:12:33.234274
AY6605D273DW1	117	95	1	1029	288.5696404536946	0	40	265.5	72.95972364367061	84.56356468421588	275.9011433819603	1200	1150	0	2020-05-30 04:12:38.540586
AY6605D273DW1	118	96	1	923	227.15083060087653	12	-198	-37.5	198.39183769515455	-215.548186303763	-71.66923484889725	1150	1100	0	2020-05-30 04:12:43.519383
AY6605D273DW1	119	97	1	712	112.97690892069103	9	-101	44.5	159.47972757165581	-105.8083229538236	39.602787060678985	1100	1050	0	2020-05-30 04:12:47.999987
AY6605D273DW1	120	98	1	746	110.8380903471347	0	91	-39.5	331.28473934193164	97.20702533352417	-53.25294825272291	1050	1000	0	2020-05-30 04:12:53.143242
AY6605D273DW1	121	99	1	798	177.5149018564208	2	153	-74.5	335.70320498436985	161.79174918312776	-73.0408808637915	1000	950	0	2020-05-30 04:12:57.830521
AY6605D273DW1	122	100	1	645	110.30221577697002	12	146	28.5	12.480290718356093	107.69581885016906	23.836723925506682	950	900	0	2020-05-30 04:13:02.518753
AY6605D273DW1	123	101	1	822	239.15941719610575	10	-11	210.5	95.40665938516271	-22.53456291802359	238.09540169367952	900	850	0	2020-05-30 04:13:07.086551
AY6605D273DW1	124	102	0	0	218.20873298444172	4	0	0	253.53460185572018	-61.84826413700557	-209.2602288393917	850	1050	0	2020-05-30 04:13:12.022410
AY6605D273DW1	125	102	1	779	284.00457598609825	1	-28	-291.5	268.20031295573864	-8.91924881502591	-283.8644855941284	1050	1000	0	2020-05-30 04:13:17.027153
AY6605D273DW1	126	103	0	765	178.44023026543164	6	4	226.5	92.9068835160461	-9.049226170385088	178.21062617840016	1000	1200	0	2020-05-30 04:13:21.736234
AY6605D273DW1	127	103	0	769	212.61683889283842	4	110	-113.5	323.6533722655803	171.25143146266296	-126.01137806869686	1200	1400	0	2020-05-30 04:13:27.729252
AY6605D273DW1	128	103	1	859	230.1300059949805	4	-29	240.5	90.58326547240668	-2.3426606546380433	230.11808186300132	1400	1350	0	2020-05-30 04:13:32.536570
AY6605D273DW1	129	104	1	766	109.43241866589415	1	-63	44.5	150.07957134699058	-94.84715203080505	54.584539997263796	1350	1300	0	2020-05-30 04:13:37.404353
AY6605D273DW1	130	105	1	871	188.84412553925065	10	159	84.5	33.1994301993598	158.01905339292614	103.40252663976749	1300	1250	0	2020-05-30 04:13:42.229188
AY6605D273DW1	131	106	1	779	127.93687229670047	6	-87	121.5	130.1283388394054	-82.45555544756336	97.82088053629475	1250	1200	0	2020-05-30 04:13:47.236257
AY6605D273DW1	132	107	1	833	210.77864610181223	14	-141	78.5	150.74345530606135	-183.89176161190875	103.0119297158437	1200	1150	0	2020-05-30 04:13:51.864757
AY6605D273DW1	133	108	1	719	103.2123407418029	3	77	10.5	2.4597889481235935	103.11723968270739	4.429690917107335	1150	1100	0	2020-05-30 04:13:56.790383
AY6605D273DW1	134	109	1	753	106.76650654179039	12	40	110.5	76.55290285945063	24.82827852652727	103.83950839900656	1100	1050	0	2020-05-30 04:14:01.569994
AY6605D273DW1	135	110	1	813	247.0144528137312	8	-213	146.5	142.73584499692012	-196.58705486642106	149.56493492063504	1050	1000	0	2020-05-30 04:14:06.302479
AY6605D273DW1	136	111	1	850	189.30043037863538	8	-196	1.5	183.03108433649845	-189.03559799340607	-10.00977686124702	1000	950	0	2020-05-30 04:14:11.273121
AY6605D273DW1	137	112	1	788	174.3190524355805	1	-89	198.5	114.4501668622588	-72.15094255252326	158.68639995545033	950	900	0	2020-05-30 04:14:16.132282
AY6605D273DW1	138	113	1	821	268.8137753561024	6	-178	182.5	134.79022444771766	-189.38283584660428	190.7747030082847	900	850	0	2020-05-30 04:14:20.782969
AY6605D273DW1	139	114	0	0	221.5375016555912	8	0	0	306.6832984501224	132.3445996766437	-177.66195872000847	850	1050	0	2020-05-30 04:14:25.939739
AY6605D273DW1	140	114	1	770	190.90769581873678	10	-199	8.5	177.7943972772707	-190.76626334984394	7.347182477475298	1050	1000	0	2020-05-30 04:14:30.496607
AY6605D273DW1	141	115	1	780	277.77183582429916	9	257	-67.5	345.49618865445296	268.9195204179195	-69.56640220248259	1000	950	0	2020-05-30 04:14:35.452428
AY6605D273DW1	142	116	0	0	203.80582731477858	7	0	0	36.31767263156536	164.21565677543555	120.70639302569562	950	1150	0	2020-05-30 04:14:40.251561
AY6605D273DW1	143	116	1	754	211.40109629973662	3	202	-54.5	344.37882784246744	203.5926012238629	-56.92518110319585	1150	1100	0	2020-05-30 04:14:45.119382
AY6605D273DW1	144	117	1	794	136.03879272392865	5	-42	-126.5	250.8897437094811	-44.53733839567066	-128.54173880266885	1100	1050	0	2020-05-30 04:14:49.979515
AY6605D273DW1	145	118	1	949	231.36191626970438	0	144	115.5	35.9736022709305	187.23835706615483	135.90487093241657	1050	1000	0	2020-05-30 04:14:55.017660
AY6605D273DW1	146	119	1	851	228.0699669907865	0	5	215.5	87.0038055381236	11.921132328623617	227.75819732159343	1000	950	0	2020-05-30 04:14:59.707216
AY6605D273DW1	147	120	0	0	250.4174785052373	10	0	0	304.1625755078782	140.620188390909	-207.20732650615003	950	1150	0	2020-05-30 04:15:04.914242
AY6605D273DW1	148	120	1	1012	276.5780620178219	8	23	-241.5	278.4835336896921	40.802225740407756	-273.55182829614375	1150	1100	0	2020-05-30 04:15:09.897266
AY6605D273DW1	149	121	1	996	143.1973502537533	11	-127	-67.5	207.9757574296779	-126.46418902295372	-67.17358122404028	1100	1050	0	2020-05-30 04:15:26.325919
AY6605D273DW1	150	122	1	965	119.9026562136782	2	79	-63.5	337.7400149795966	110.96685108471804	-45.420314039397745	1050	1000	0	2020-05-30 04:15:31.294709
AY6605D273DW1	151	123	1	987	170.25324222697935	2	-159	32.5	173.34052695357542	-169.10453094379793	19.743963712400664	1000	950	0	2020-05-30 04:15:36.034182
AY6605D273DW1	152	124	0	0	277.706271383899	9	0	0	107.34668400386855	-82.7988758495437	265.07568602948027	950	1150	0	2020-05-30 04:15:41.274514
AY6605D273DW1	153	124	1	1098	130.38793311246087	1	96	-41.5	335.84599598784183	118.97232624929548	-53.35352554584156	1150	1100	0	2020-05-30 04:15:46.146920
AY6605D273DW1	154	125	1	1048	202.60292594324375	12	219	-59.5	347.0709251892625	197.4664920241461	-45.33133715699718	1100	1050	0	2020-05-30 04:15:51.288491
AY6605D273DW1	155	126	1	1026	218.53029765066393	5	257	-63.5	341.83539493764766	207.63980042981711	-68.12638452724094	1050	1000	0	2020-05-30 04:15:56.514344
AY6605D273DW1	156	127	1	953	119.26609837177202	5	159	43.5	22.061458946212397	110.53361299520445	44.796457661868395	1000	950	0	2020-05-30 04:16:01.408545
AY6605D273DW1	157	128	0	0	176.17823009870523	13	0	0	50.18699013006642	112.80412537046435	135.3292210134858	950	1150	0	2020-05-30 04:16:06.415919
AY6605D273DW1	158	128	1	1078	187.57907809058742	8	7	179.5	86.00363061901008	13.07299777984826	187.1229736466444	1150	1100	0	2020-05-30 04:16:11.523960
AY6605D273DW1	159	129	1	1006	143.97686696649976	7	-155	-27.5	189.52354896485224	-141.9925320758178	-23.821399123204884	1100	1050	0	2020-05-30 04:16:16.526522
AY6605D273DW1	160	130	1	934	193.20918092815748	8	3	206.5	86.56813974057205	11.565782116515658	192.86269799772785	1050	1000	0	2020-05-30 04:16:21.511353
AY6605D273DW1	161	131	0	0	148.4734767197844	14	0	0	344.96727825188833	143.39239611405281	-38.50966146216983	1000	1200	0	2020-05-30 04:16:26.497896
AY6605D273DW1	162	131	1	1026	156.6981007381262	0	147	79.5	26.472301022531106	140.26829957185188	69.85054695675015	1200	1150	0	2020-05-30 04:16:31.455924
AY6605D273DW1	163	132	0	0	256.23528068350095	6	0	0	109.31636808584804	-84.75853145407292	241.81089804370157	1150	1350	0	2020-05-30 04:16:37.023324
AY6605D273DW1	164	132	1	1127	145.87454673271347	7	37	-167.5	289.7261428247497	49.23627662195523	-137.31413783322137	1350	1300	0	2020-05-30 04:16:41.782943
AY6605D273DW1	165	133	0	1106	299.88338480576186	14	148	-201.5	303.8935028761061	167.23026496754977	-248.9258583623721	1300	1500	0	2020-05-30 04:16:47.109288
AY6605D273DW1	166	133	1	1123	102.24748526141454	7	24	-62.5	292.1735984459718	38.58964375882988	-94.68573090413247	1500	1450	0	2020-05-30 04:16:52.089057
AY6605D273DW1	167	134	1	1066	205.33624781661595	3	168	69.5	25.264849645512307	185.69471848607725	87.63815489718638	1450	1400	0	2020-05-30 04:16:57.478432
AY6605D273DW1	168	135	1	1089	203.93628282176425	3	143	130.5	48.57075404151631	134.94355025153789	152.90600281437378	1400	1350	0	2020-05-30 04:17:02.265735
AY6605D273DW1	169	136	1	1014	128.27136645777915	0	40	139.5	69.34549359469418	45.24541277239791	120.02664735799799	1350	1300	0	2020-05-30 04:17:07.456080
AY6605D273DW1	170	137	1	1129	240.67821342008858	6	146	-144.5	318.96195482805604	181.5372662361192	-158.01969302147782	1300	1250	0	2020-05-30 04:17:12.466490
AY6605D273DW1	171	138	1	1219	277.9971381866627	10	-169	-230.5	233.44839260947415	-165.56024890525154	-223.32087413048873	1250	1200	0	2020-05-30 04:17:17.897685
AY6605D273DW1	172	139	1	1099	188.9483072232685	11	-110	-132.5	229.1930190029391	-123.48014344291798	-143.01789041184693	1200	1150	0	2020-05-30 04:17:22.767012
AY6605D273DW1	173	140	1	1154	226.7940854761879	6	-48	260.5	98.38851231397447	-33.08578225857735	224.36775218225642	1150	1100	0	2020-05-30 04:17:28.142231
AY6605D273DW1	174	141	1	1013	214.44019352427813	4	-33	-236.5	254.34939295962494	-57.84962494756532	-206.48975154267555	1100	1050	0	2020-05-30 04:17:33.246638
AY6605D273DW1	175	142	0	0	227.02833648019313	8	0	0	106.53272431464114	-64.60384757739838	217.64238659590202	1050	1250	0	2020-05-30 04:17:38.052743
AY6605D273DW1	176	142	1	1197	227.74596777705227	12	228	-3.5	356.0228007888912	227.19749417242468	-15.79634389588859	1250	1200	0	2020-05-30 04:17:43.530886
AY6605D273DW1	177	143	0	0	260.49163009931453	13	0	0	154.80038065777288	-235.7006107187861	110.91037579320232	1200	1400	0	2020-05-30 04:17:48.769130
AY6605D273DW1	178	143	1	1318	293.47563525750013	12	213	-198.5	313.9600750981563	203.71815209805848	-211.25071123086323	1400	1350	0	2020-05-30 04:17:53.834083
AY6605D273DW1	179	144	1	1012	133.13347228868463	7	-90	-130.5	229.9243187383986	-85.71118393658853	-101.87303073841596	1350	1300	0	2020-05-30 04:17:59.524768
AY6605D273DW1	180	145	1	973	281.0813236808292	7	-276	44.5	176.28400008019037	-280.4903666785208	18.21715462732949	1300	1250	0	2020-05-30 04:18:04.523943
AY6605D273DW1	181	146	1	991	211.11314806302272	11	-184	9.5	172.87983762302258	-209.48512392072868	26.1676162650842	1250	1200	0	2020-05-30 04:18:09.510739
AY6605D273DW1	182	147	1	1024	240.91270761447615	9	-239	-0.5	184.38155691181643	-240.20861513786923	-18.40526836764667	1200	1150	0	2020-05-30 04:18:14.527248
AY6605D273DW1	183	148	1	984	156.2798409390977	5	-94	-75.5	218.3645808412365	-122.53547405200638	-96.99714574563394	1150	1100	0	2020-05-30 04:18:19.542330
AY6605D273DW1	184	149	1	1054	266.2693633878972	11	199	-166.5	316.5759784099298	193.38785508822698	-183.03144916481153	1100	1050	0	2020-05-30 04:18:24.538896
AY6605D273DW1	185	150	0	0	281.42131869422485	9	0	0	116.90556355548532	-127.3491417781364	250.95847207051725	1050	1250	0	2020-05-30 04:18:29.758560
AY6605D273DW1	186	150	0	0	172.22392555455386	14	0	0	31.84720774999585	146.2970308816257	90.87496513694607	1250	1450	0	2020-05-30 04:18:35.104415
AY6605D273DW1	187	150	1	1086	228.010832696736	11	-167	-81.5	204.86266117409792	-206.87837934670398	-95.86592713754031	1450	1400	0	2020-05-30 04:18:40.106249
