A3T9WZOUQGE2UW	1	1	0	0	169.35743268685388	0	0	0	334.27863478282774	152.5766938210831	-73.50028917568764	1500	1700	0	2020-06-02 03:34:54.721007
A3T9WZOUQGE2UW	2	1	1	1030	259.29035476297577	9	62	-253.5	283.2325005501832	59.35236284390968	-252.4059925951734	1700	1650	0	2020-06-02 03:34:59.787581
A3T9WZOUQGE2UW	3	2	1	1084	139.7966890866743	13	-124	54.5	159.7674174175673	-131.170745359344	48.3461460870503	1650	1600	0	2020-06-02 03:35:05.370829
A3T9WZOUQGE2UW	4	3	1	928	280.5192557296632	11	-1	-270.5	272.8763122169558	14.076466186820358	-280.1658543342059	1600	1550	0	2020-06-02 03:35:10.607085
A3T9WZOUQGE2UW	5	4	1	855	171.74873708039297	11	88	-148.5	299.8364292304409	85.44939252131937	-148.98332123579283	1550	1500	0	2020-06-02 03:35:15.471449
A3T9WZOUQGE2UW	6	5	1	897	120.58035937977935	1	-54	100.5	120.42055628936706	-61.055042593265874	103.98030987687636	1500	1450	0	2020-06-02 03:35:20.778501
A3T9WZOUQGE2UW	7	6	1	1008	294.7511085550493	2	93	282.5	73.55131712058355	83.46068089234984	282.68804491774284	1450	1400	0	2020-06-02 03:35:27.071417
A3T9WZOUQGE2UW	8	7	1	994	243.2310533625845	4	42	241.5	82.51053248232449	31.703692896942464	241.1560100361772	1400	1350	0	2020-06-02 03:35:31.595359
A3T9WZOUQGE2UW	9	8	1	839	158.76815014698363	10	3	-162.5	274.1111677813268	11.38238378622997	-158.3596124030307	1350	1300	0	2020-06-02 03:35:36.795351
A3T9WZOUQGE2UW	10	9	1	923	212.8018172236341	6	95	-197.5	292.7478446639968	82.28541299172095	-196.2491381445098	1300	1250	0	2020-06-02 03:35:42.002477
A3T9WZOUQGE2UW	11	10	1	808	202.53094522573653	12	-86	-178.5	245.18342822570546	-85.0051993649221	-183.82845224545665	1250	1200	0	2020-06-02 03:35:47.470497
A3T9WZOUQGE2UW	12	11	1	1023	290.46939985621344	14	-221	-152.5	213.501802064633	-242.21327176092058	-160.32842304376115	1200	1150	0	2020-06-02 03:35:52.510147
A3T9WZOUQGE2UW	13	12	1	859	174.67850930436884	7	91	153.5	57.65904169951604	93.44539598209222	147.58231459950224	1150	1100	0	2020-06-02 03:35:57.702034
A3T9WZOUQGE2UW	14	13	1	832	158.6861669275183	5	129	114.5	41.97931966541793	117.96512138548992	106.1391996891574	1100	1050	0	2020-06-02 03:36:03.247154
A3T9WZOUQGE2UW	15	14	1	760	121.8541245657811	6	24	133.5	81.51685141598458	17.97574043138104	120.52095431764765	1050	1000	0	2020-06-02 03:36:08.010546
A3T9WZOUQGE2UW	16	15	1	784	189.40704306077984	5	-73	-170.5	246.02829235652734	-76.95333321092254	-173.06996408607947	1000	950	0	2020-06-02 03:36:13.361800
A3T9WZOUQGE2UW	17	16	1	709	275.9930741265703	11	268	19.5	3.474817988046075	275.4856700782058	16.727897279588905	950	900	0	2020-06-02 03:36:18.469313
A3T9WZOUQGE2UW	18	17	1	857	206.41624254939953	3	100	170.5	56.52365463866418	113.85768582559712	172.17459907504406	900	850	0	2020-06-02 03:36:23.371029
A3T9WZOUQGE2UW	19	18	1	771	109.61456719044604	0	-103	-29.5	192.54705421361066	-106.99674405848893	-23.812813803308142	850	800	0	2020-06-02 03:36:28.195263
A3T9WZOUQGE2UW	20	19	0	0	126.96533398349503	11	0	0	88.67235533360368	2.94174833999102	126.93124969937307	800	1000	0	2020-06-02 03:36:33.033887
A3T9WZOUQGE2UW	21	19	1	761	242.8502724519682	3	212	124.5	30.39803728579008	209.4658891509809	122.88326213192819	1000	950	0	2020-06-02 03:36:38.171672
A3T9WZOUQGE2UW	22	20	1	848	243.035969282074	11	-145	-190.5	235.02437474871098	-139.3149985651225	-199.14269642564634	950	900	0	2020-06-02 03:36:43.041149
A3T9WZOUQGE2UW	23	21	1	741	232.77088948501103	10	-118	-206.5	243.2252323440112	-104.85965759697088	-207.8141939336417	900	850	0	2020-06-02 03:36:47.827443
A3T9WZOUQGE2UW	24	22	1	794	107.13234177721169	11	-49	-102.5	250.4010354165185	-35.935888358745	-100.92547043505476	850	800	0	2020-06-02 03:36:52.643460
A3T9WZOUQGE2UW	25	23	0	0	237.10113558061332	6	0	0	69.11361340060681	84.53035402884416	221.52103227769288	800	1000	0	2020-06-02 03:36:57.479568
A3T9WZOUQGE2UW	26	23	1	822	202.87617757702003	1	-187	91.5	152.38830991586002	-179.77041379199613	94.02840928845414	1000	950	0	2020-06-02 03:37:02.662897
A3T9WZOUQGE2UW	27	24	1	854	244.02742733692716	14	228	-63.5	345.64017123049626	236.4033478660377	-60.521421087152554	950	900	0	2020-06-02 03:37:07.516203
A3T9WZOUQGE2UW	28	25	1	852	146.84403289796407	13	77	-123.5	301.4627420402977	76.64436256691694	-125.25498666500003	900	850	0	2020-06-02 03:37:12.731744
A3T9WZOUQGE2UW	29	26	1	629	183.79562431632525	7	205	69.5	23.006830040520914	169.1762022347657	71.83483914681943	850	800	0	2020-06-02 03:37:17.385798
A3T9WZOUQGE2UW	30	27	1	802	140.32609775543716	0	-57	-117.5	242.95610676557044	-63.80248083303921	-124.9826273960432	800	750	0	2020-06-02 03:37:22.199569
A3T9WZOUQGE2UW	31	28	0	0	197.52370705329363	6	0	0	104.6291690110179	-49.8869788918928	191.12013024565258	750	950	0	2020-06-02 03:37:26.979219
A3T9WZOUQGE2UW	32	28	1	869	203.63550657378138	14	-63	191.5	112.54957408960641	-78.09068538816585	188.06718053176385	950	900	0	2020-06-02 03:37:32.193798
A3T9WZOUQGE2UW	33	29	1	802	168.66590339916723	11	-119	110.5	140.16153712124853	-129.5107282723356	108.05164613196075	900	850	0	2020-06-02 03:37:37.022370
A3T9WZOUQGE2UW	34	30	1	757	100.51129216615928	4	66	-106.5	303.8928917340206	56.04933116996977	-83.43256155908247	850	800	0	2020-06-02 03:37:41.808598
A3T9WZOUQGE2UW	35	31	0	0	183.58516629435266	4	0	0	40.23464760140581	140.14993874604326	118.58122934429987	800	1000	0	2020-06-02 03:37:52.575070
A3T9WZOUQGE2UW	36	31	1	751	149.63326756280134	0	17	-144.5	273.84053679341673	10.022410644916985	-149.297240585302	1000	950	0	2020-06-02 03:37:57.765789
A3T9WZOUQGE2UW	37	32	1	853	187.06481010821526	7	104	-137.5	311.01504467529423	122.76262426272459	-141.14737427579635	950	900	0	2020-06-02 03:38:02.960458
A3T9WZOUQGE2UW	38	33	1	655	125.93311839487265	2	-76	116.5	123.44450051847099	-69.40539160512344	105.08112068681258	900	850	0	2020-06-02 03:38:07.624073
A3T9WZOUQGE2UW	39	34	1	747	283.55176019216606	6	-138	-272.5	241.48812582981427	-135.35084645995548	-249.16209396826235	850	800	0	2020-06-02 03:38:12.405417
A3T9WZOUQGE2UW	40	35	1	803	156.4384682776312	0	-131	-33.5	196.27452021810896	-150.1699806148735	-43.8402928728805	800	750	0	2020-06-02 03:38:17.521652
A3T9WZOUQGE2UW	41	36	0	0	172.39963076649195	4	0	0	125.51636491552738	-100.15305898331056	140.32461460737483	750	950	0	2020-06-02 03:38:22.291936
A3T9WZOUQGE2UW	42	36	1	802	135.36647938394782	12	14	-140.5	275.8216041921016	13.730414762076283	-134.66833128566688	950	900	0	2020-06-02 03:38:27.115153
A3T9WZOUQGE2UW	43	37	1	760	155.90170302061466	14	-85	129.5	124.22001100190927	-87.6747849530719	128.91265681910573	900	850	0	2020-06-02 03:38:31.894572
A3T9WZOUQGE2UW	44	38	1	741	214.86047328486734	9	12	-209.5	270.9012631474616	3.3796178781049395	-214.83389202636343	850	800	0	2020-06-02 03:38:36.653222
A3T9WZOUQGE2UW	45	39	1	781	201.4947984230742	2	-91	188.5	119.4376931355398	-99.03001717036673	175.4799404228078	800	750	0	2020-06-02 03:38:41.458099
A3T9WZOUQGE2UW	46	40	0	0	141.60066998316898	14	0	0	91.16229849133008	-2.8723050562967405	141.5715352863912	750	950	0	2020-06-02 03:38:46.512757
A3T9WZOUQGE2UW	47	40	1	878	229.57311428886064	10	-170	136.5	143.5962207297738	-184.7729893021339	136.24520992915598	950	900	0	2020-06-02 03:38:51.729518
A3T9WZOUQGE2UW	48	41	1	797	180.2255399382998	0	-125	124.5	136.10142248573345	-129.86481572154068	124.9654947722049	900	850	0	2020-06-02 03:38:56.532657
A3T9WZOUQGE2UW	49	42	0	0	273.80526994181434	12	0	0	144.9511410318604	-224.15414220244455	157.23945554915943	850	1050	0	2020-06-02 03:39:01.406224
A3T9WZOUQGE2UW	50	42	1	859	287.35583114173005	8	243	-147.5	328.82477320392655	245.85824729062114	-148.75179303234717	1050	1000	0	2020-06-02 03:39:06.651491
A3T9WZOUQGE2UW	51	43	1	808	295.81780196638636	14	-261	-156.5	206.87674757853657	-263.8638790300353	-133.73116803291245	1000	950	0	2020-06-02 03:39:11.470687
A3T9WZOUQGE2UW	52	44	1	894	180.65895492329315	2	45	182.5	82.57210165898509	23.35530853960872	179.1429249426171	950	900	0	2020-06-02 03:39:16.390812
A3T9WZOUQGE2UW	53	45	1	800	197.9406279729444	13	80	183.5	61.883829086639636	93.28166465564482	174.5824253508795	900	850	0	2020-06-02 03:39:21.465421
A3T9WZOUQGE2UW	54	46	1	833	234.67173815679715	9	41	-228.5	279.2946889375094	37.90238233558058	-231.59066065543283	850	800	0	2020-06-02 03:39:26.335999
A3T9WZOUQGE2UW	55	47	0	0	294.29847469187126	8	0	0	220.80133064497937	-222.77802415019812	-192.30586096553515	800	1000	0	2020-06-02 03:39:31.174876
A3T9WZOUQGE2UW	56	47	1	909	252.58059354286533	10	-19	246.5	95.58574031154501	-24.584984109979775	251.38125385712075	1000	950	0	2020-06-02 03:39:36.128904
A3T9WZOUQGE2UW	57	48	1	782	272.23484305809075	6	196	-156.5	320.29430664793506	209.44008654437846	-173.91566899835837	950	900	0	2020-06-02 03:39:41.263767
A3T9WZOUQGE2UW	58	49	0	0	239.4250411586219	4	0	0	274.67572140508344	19.517015887857237	-238.62823895055027	900	1100	0	2020-06-02 03:39:46.449313
A3T9WZOUQGE2UW	59	49	1	684	194.38938658100977	6	186	-9.5	358.9328639161234	194.35567148933552	-3.620300439294512	1100	1050	0	2020-06-02 03:39:51.172301
A3T9WZOUQGE2UW	60	50	1	770	298.0498551072592	14	-227	-173.5	218.97724351300866	-231.70272071360245	-187.4768394852349	1050	1000	0	2020-06-02 03:39:55.971040
A3T9WZOUQGE2UW	61	51	1	786	185.5494092723109	11	175	48.5	18.552426200845773	175.90694853310302	59.03667283202689	1000	950	0	2020-06-02 03:40:00.775303
A3T9WZOUQGE2UW	62	52	1	750	183.39608651826703	0	44	-155.5	286.1512170949009	51.01591101592965	-176.15760379112345	950	900	0	2020-06-02 03:40:05.965802
A3T9WZOUQGE2UW	63	53	1	715	118.74853170386825	10	-35	121.5	108.74529032897256	-38.161221382568876	112.44969970798131	900	850	0	2020-06-02 03:40:10.701894
A3T9WZOUQGE2UW	64	54	1	692	120.46955999728311	11	95	-70.5	324.34017692794896	97.88061611841044	-70.23033443049638	850	800	0	2020-06-02 03:40:15.436655
A3T9WZOUQGE2UW	65	55	0	0	285.7135229167323	10	0	0	150.37408749654352	-248.36260868801787	141.2382093598352	800	1000	0	2020-06-02 03:40:20.915784
A3T9WZOUQGE2UW	66	55	1	947	241.07259683915134	4	212	119.5	30.305353808164817	208.12964148313563	121.64723294376009	1000	950	0	2020-06-02 03:40:25.868491
A3T9WZOUQGE2UW	67	56	1	706	134.47176997067493	13	-46	-125.5	247.41920815043747	-51.63525003897882	-124.16302941076401	950	900	0	2020-06-02 03:40:30.915083
A3T9WZOUQGE2UW	68	57	1	871	238.10759988582592	8	-227	0.5	178.4928250153691	-238.02522396005057	6.262737592804376	900	850	0	2020-06-02 03:40:36.021818
A3T9WZOUQGE2UW	69	58	1	844	271.1397363420908	6	239	-107.5	334.1497864772792	244.0086789934061	-118.22233798885651	850	800	0	2020-06-02 03:40:41.651351
A3T9WZOUQGE2UW	70	59	1	720	108.96842223164724	0	-25	113.5	104.58491983582584	-27.439845094095528	105.45696726564155	800	750	0	2020-06-02 03:40:46.698500
A3T9WZOUQGE2UW	71	60	0	0	119.83211101227376	5	0	0	249.66894104776065	-41.63494945562346	-112.36665792611961	750	950	0	2020-06-02 03:40:52.222692
A3T9WZOUQGE2UW	72	60	1	840	176.93649113107813	7	-116	-117.5	225.02520249652795	-125.05794759658819	-125.16801363250553	950	900	0	2020-06-02 03:40:57.665246
A3T9WZOUQGE2UW	73	61	0	0	292.5588069414805	13	0	0	335.2493456017231	265.68388452573737	-122.48562781950015	900	1100	0	2020-06-02 03:41:05.778114
A3T9WZOUQGE2UW	74	61	1	895	285.157180676566	0	-182	-203.5	226.00650559726802	-198.06353045500802	-205.1473996791229	1100	1050	0	2020-06-02 03:41:11.245953
A3T9WZOUQGE2UW	75	62	1	687	124.99980562966604	6	-73	97.5	130.3673806156774	-80.96065415534785	95.23824802143541	1050	1000	0	2020-06-02 03:41:15.977908
A3T9WZOUQGE2UW	76	63	1	765	295.73897510202016	0	-38	-289.5	264.2190588598275	-29.78841314292177	-294.2349262695031	1000	950	0	2020-06-02 03:41:20.764233
A3T9WZOUQGE2UW	77	64	1	744	104.64858833232297	4	-107	13.5	174.26381391713073	-104.12457564877616	10.459435257713245	950	900	0	2020-06-02 03:41:25.525500
A3T9WZOUQGE2UW	78	65	1	768	191.957178783264	10	83	-171.5	298.67195862692	92.09993183054381	-168.41959815662534	900	850	0	2020-06-02 03:41:30.362045
A3T9WZOUQGE2UW	79	66	0	0	283.5748886659595	12	0	0	349.7978547680245	279.0912795749759	-50.22723511317343	850	1050	0	2020-06-02 03:41:35.213533
A3T9WZOUQGE2UW	80	66	1	761	202.49884641410353	4	-95	-192.5	246.96945372469682	-79.22196815796413	-186.35896157743852	1050	1000	0	2020-06-02 03:41:39.997022
A3T9WZOUQGE2UW	81	67	1	992	167.747072658737	12	148	49.5	16.054352897255395	161.20490053356068	46.39030534002122	1000	950	0	2020-06-02 03:41:45.019586
A3T9WZOUQGE2UW	82	68	1	824	289.1589117180233	3	124	-253.5	298.31065508717853	137.13417485374282	-254.57237539280396	950	900	0	2020-06-02 03:41:50.002790
A3T9WZOUQGE2UW	83	69	1	738	262.3941181140814	13	265	33.5	7.856347847148992	259.9312583610035	35.866616061900245	900	850	0	2020-06-02 03:41:54.873274
A3T9WZOUQGE2UW	84	70	0	0	274.2304835401628	14	0	0	63.15203367162922	123.84924038754868	244.67064343336878	850	1050	0	2020-06-02 03:41:59.765242
A3T9WZOUQGE2UW	85	70	1	745	107.16148945370874	7	115	58.5	26.79778340134365	95.65269492485224	48.31300834713643	1050	1000	0	2020-06-02 03:42:04.892964
A3T9WZOUQGE2UW	86	71	1	753	115.35359675478732	5	-110	71.5	138.4433585870766	-86.31913135295623	76.52097651452947	1000	950	0	2020-06-02 03:42:09.657939
A3T9WZOUQGE2UW	87	72	1	948	235.6499425593657	3	-230	-5.5	182.18555317427607	-235.47852229058074	-8.9867106372033	950	900	0	2020-06-02 03:42:14.617467
A3T9WZOUQGE2UW	88	73	0	0	264.6155050793636	13	0	0	73.28940923083974	76.08689732538838	253.4406233889952	900	1100	0	2020-06-02 03:42:19.550794
A3T9WZOUQGE2UW	89	73	1	723	152.69212665965068	8	47	-143.5	293.36676613607193	60.56006250324285	-140.169056404936	1100	1050	0	2020-06-02 03:42:24.623721
A3T9WZOUQGE2UW	90	74	1	740	114.10728594249377	10	-79	-97.5	235.56498569154573	-64.52437673395906	-94.11204764670758	1050	1000	0	2020-06-02 03:42:29.645979
A3T9WZOUQGE2UW	91	75	1	952	296.6689264508875	14	-297	-44.5	188.99460687932088	-293.0208067704114	-46.38166363056989	1000	950	0	2020-06-02 03:42:34.624424
A3T9WZOUQGE2UW	92	76	1	909	223.43799473838845	12	201	67.5	16.620010018095883	214.1033679894754	63.90841343888443	950	900	0	2020-06-02 03:42:39.576126
A3T9WZOUQGE2UW	93	77	1	862	250.74565642012772	12	-180	137.5	146.09217696318436	-208.10287822338094	139.88057866875377	900	850	0	2020-06-02 03:42:45.107157
A3T9WZOUQGE2UW	94	78	1	744	258.2418281790234	14	-229	55.5	166.97559089659	-251.5983358086562	58.19896252991897	850	800	0	2020-06-02 03:42:50.172173
A3T9WZOUQGE2UW	95	79	1	717	130.18746019193222	8	107	-82.5	321.53138476296334	101.93014602423088	-80.98777761307508	800	750	0	2020-06-02 03:42:55.267359
A3T9WZOUQGE2UW	96	80	0	0	252.72915875710763	0	0	0	170.8436966268747	-249.50886141790323	40.21636184461336	750	950	0	2020-06-02 03:43:00.061621
A3T9WZOUQGE2UW	97	80	1	693	106.67393352874414	7	101	62.5	37.06037913725026	85.12589124673508	64.28771837562721	950	900	0	2020-06-02 03:43:05.079411
A3T9WZOUQGE2UW	98	81	1	743	282.7999043259532	3	-179	212.5	129.0236928756356	-178.0626129759943	219.70319011550455	900	850	0	2020-06-02 03:43:09.827320
A3T9WZOUQGE2UW	99	82	0	0	259.97601130165606	10	0	0	284.03497777782854	63.04787286187198	-252.2151704000218	850	1050	0	2020-06-02 03:43:14.708865
A3T9WZOUQGE2UW	100	82	1	843	256.4563666931859	9	261	96.5	23.538572155151343	235.11699768925553	102.4200440102446	1050	1000	0	2020-06-02 03:43:19.855210
A3T9WZOUQGE2UW	101	83	1	861	239.93911988867836	10	-171	-185.5	224.82132548720736	-170.19083863961282	-169.1326689202853	1000	950	0	2020-06-02 03:43:25.083283
A3T9WZOUQGE2UW	102	84	1	932	257.6352209354517	3	-126	214.5	127.62931738462984	-157.29930951978983	204.04125634551545	950	900	0	2020-06-02 03:43:30.690300
A3T9WZOUQGE2UW	103	85	1	868	272.07036160904573	8	-231	82.5	163.1766327795638	-260.4261692991359	78.74320294637961	900	850	0	2020-06-02 03:43:35.994162
A3T9WZOUQGE2UW	104	86	1	771	229.58039049899588	4	228	15.5	6.7665455971499	227.98124224404174	27.050118050296803	850	800	0	2020-06-02 03:43:40.875716
A3T9WZOUQGE2UW	105	87	1	751	176.80951576753426	14	119	101.5	33.09251628332922	148.1292510844509	96.53667613456375	800	750	0	2020-06-02 03:43:46.004438
A3T9WZOUQGE2UW	106	88	1	751	291.25364178237965	11	266	56.5	14.456858560835206	282.03135503759427	72.71175026883328	750	700	0	2020-06-02 03:43:51.187019
A3T9WZOUQGE2UW	107	89	0	0	244.60010238000933	0	0	0	68.91973004362606	87.9766690872002	228.2308388028058	700	900	0	2020-06-02 03:43:56.049792
A3T9WZOUQGE2UW	108	89	1	787	210.79978015623695	1	-49	206.5	103.22388657844071	-48.221869395576505	205.21013285389637	900	850	0	2020-06-02 03:44:00.847078
A3T9WZOUQGE2UW	109	90	1	775	161.2883822928147	1	-88	150.5	120.18369432523345	-81.09159935698618	139.42056798176938	850	800	0	2020-06-02 03:44:05.643096
A3T9WZOUQGE2UW	110	91	0	0	220.91032656813954	5	0	0	76.9320969905109	49.94907350004361	215.18936414453503	800	1000	0	2020-06-02 03:44:12.999803
A3T9WZOUQGE2UW	111	91	1	760	168.0856070995252	3	50	-140.5	288.0725389153004	52.14365566377555	-159.7930239029025	1000	950	0	2020-06-02 03:44:17.963348
A3T9WZOUQGE2UW	112	92	1	772	278.1447298984716	9	-270	63.5	166.63174999961802	-270.6081620466443	64.30951254698503	950	900	0	2020-06-02 03:44:23.077834
A3T9WZOUQGE2UW	113	93	1	740	160.4716921736879	9	76	-140.5	294.61187439098217	66.83152046755148	-145.89280949067398	900	850	0	2020-06-02 03:44:27.849585
A3T9WZOUQGE2UW	114	94	1	728	185.96404055571384	8	216	-23.5	351.7121073475617	184.02188257363196	-26.806176785651317	850	800	0	2020-06-02 03:44:33.012637
A3T9WZOUQGE2UW	115	95	0	0	214.42048219559325	10	0	0	73.02295091045961	62.60833968417572	205.07642230881052	800	1000	0	2020-06-02 03:44:38.159567
A3T9WZOUQGE2UW	116	95	1	811	277.06574039862187	11	247	118.5	23.69533408958599	253.70780268013115	111.34529788839835	1000	950	0	2020-06-02 03:44:43.667013
A3T9WZOUQGE2UW	117	96	1	663	112.99458736076899	7	124	9.5	6.1681975974199865	112.34043418999201	12.140989203295126	950	900	0	2020-06-02 03:44:48.647065
A3T9WZOUQGE2UW	118	97	1	760	246.13601173683	2	-41	-238.5	260.2653475948963	-41.618030798354205	-242.5919944808158	900	850	0	2020-06-02 03:44:53.715477
A3T9WZOUQGE2UW	119	98	0	0	260.6078476030125	1	0	0	280.01425775078764	45.31794206995963	-256.6373596318719	850	1050	0	2020-06-02 03:44:58.606191
A3T9WZOUQGE2UW	120	98	1	741	217.28959724034377	1	-109	-201.5	240.5963870737413	-106.6802158309985	-189.2989715215653	1050	1000	0	2020-06-02 03:45:03.373092
A3T9WZOUQGE2UW	121	99	1	849	293.98571934286235	9	-73	283.5	107.25090329050221	-87.18341455034927	280.7608509120924	1000	950	0	2020-06-02 03:45:08.525695
A3T9WZOUQGE2UW	122	100	1	860	101.66328038417905	4	-69	68.5	136.18223822213545	-73.35469548888356	70.38828899899023	950	900	0	2020-06-02 03:45:13.441206
A3T9WZOUQGE2UW	123	101	1	650	248.77127383954374	9	-103	-266.5	251.2449939667377	-79.98548702060809	-235.56202697766335	900	850	0	2020-06-02 03:45:18.712408
A3T9WZOUQGE2UW	124	102	1	665	108.49490617476536	8	-53	95.5	119.00471469222916	-52.60718243407464	94.88745450384434	850	800	0	2020-06-02 03:45:23.374178
A3T9WZOUQGE2UW	125	103	1	697	182.13030995958633	12	-151	37.5	164.54132464319218	-175.54137235994224	48.54561150055779	800	750	0	2020-06-02 03:45:28.681429
A3T9WZOUQGE2UW	126	104	0	718	289.22472887234426	12	335	75.5	15.192681047209833	279.11631840839567	75.79594045477717	750	950	0	2020-06-02 03:45:33.408434
A3T9WZOUQGE2UW	127	104	1	874	218.25646789776343	5	-11	202.5	92.01343921756927	-7.668203416296498	218.1217193118873	950	900	0	2020-06-02 03:45:38.332815
A3T9WZOUQGE2UW	128	105	1	686	291.90876485306944	10	189	-231.5	310.17950096146103	188.33497510292568	-223.02615127160527	900	850	0	2020-06-02 03:45:43.036852
A3T9WZOUQGE2UW	129	106	1	743	243.4392612061648	11	62	-238.5	286.1219531389838	67.59888590710356	-233.86548381649166	850	800	0	2020-06-02 03:45:47.806564
A3T9WZOUQGE2UW	130	107	0	0	196.9751908522785	14	0	0	82.23630277258074	26.608946077275288	195.16964364354462	800	1000	0	2020-06-02 03:45:52.679268
A3T9WZOUQGE2UW	131	107	1	847	281.6967384807284	3	-38	-280.5	264.67172065416275	-26.1589320275434	-280.47952286371685	1000	950	0	2020-06-02 03:45:57.518630
A3T9WZOUQGE2UW	132	108	1	667	188.44011605071702	9	144	33.5	15.547409134244496	181.54490341810757	50.50866638625191	950	900	0	2020-06-02 03:46:02.315715
A3T9WZOUQGE2UW	133	109	1	815	201.31977295978612	11	142	158.5	45.246650808873206	141.74044172779864	142.9660734698563	900	850	0	2020-06-02 03:46:07.444291
A3T9WZOUQGE2UW	134	110	1	771	199.05180896181253	9	211	48.5	13.673164928565091	193.41066855979466	47.052480680864974	850	800	0	2020-06-02 03:46:12.630965
A3T9WZOUQGE2UW	135	111	0	0	228.79657559645406	3	0	0	197.9562697750885	-217.65237310644522	-70.53593045956563	800	1000	0	2020-06-02 03:46:17.716025
A3T9WZOUQGE2UW	136	111	1	926	278.73518347648417	9	-2	294.5	92.92374694490972	-14.217408520208982	278.3723545947743	1000	950	0	2020-06-02 03:46:22.957712
A3T9WZOUQGE2UW	137	112	1	780	224.23836729556754	1	203	27.5	10.38699563328727	220.5636426037664	40.42925832537452	950	900	0	2020-06-02 03:46:27.762128
A3T9WZOUQGE2UW	138	113	1	684	179.5478879825931	5	34	202.5	81.77188432371598	25.695926094057086	177.69964395343777	900	850	0	2020-06-02 03:46:32.845976
A3T9WZOUQGE2UW	139	114	1	807	283.40423817178396	9	258	60.5	11.548926524597878	277.6664646784495	56.73884565886601	850	800	0	2020-06-02 03:46:37.954037
A3T9WZOUQGE2UW	140	115	0	0	264.75195663805357	2	0	0	118.4762923185268	-126.23243167614436	232.72080211447653	800	1000	0	2020-06-02 03:46:43.251902
A3T9WZOUQGE2UW	141	115	1	786	178.04403931276408	6	-12	-165.5	263.6403611348483	-19.721735265932878	-176.9483910435626	1000	950	0	2020-06-02 03:46:48.334487
A3T9WZOUQGE2UW	142	116	1	661	128.01284138110242	1	102	72.5	35.13475385098551	104.68900236396055	73.67157078888673	950	900	0	2020-06-02 03:46:53.013242
A3T9WZOUQGE2UW	143	117	1	726	120.93286442031257	14	34	123.5	68.31619894141318	44.68276496199018	112.37530072152529	900	850	0	2020-06-02 03:46:57.772361
A3T9WZOUQGE2UW	144	118	1	803	181.7914404821143	14	-133	-114.5	221.52505974906802	-136.10104069917526	-120.5181917934531	850	800	0	2020-06-02 03:47:02.920640
A3T9WZOUQGE2UW	145	119	1	693	150.6259288152302	7	-113	51.5	156.35981068411573	-137.98565467011989	60.39974781991404	800	750	0	2020-06-02 03:47:07.636798
A3T9WZOUQGE2UW	146	120	0	0	242.10650660678004	3	0	0	294.24336511815915	99.41214371935372	-220.75503668650776	750	950	0	2020-06-02 03:47:12.660778
A3T9WZOUQGE2UW	147	120	1	661	108.68456617989155	11	16	-104.5	280.15900834662006	19.169844953207654	-106.98061492710352	950	900	0	2020-06-02 03:47:17.672608
A3T9WZOUQGE2UW	148	121	1	863	225.44622114549585	10	-182	-138.5	212.8529646082063	-189.38958925903074	-122.30119422589239	900	850	0	2020-06-02 03:47:24.696077
A3T9WZOUQGE2UW	149	122	0	776	258.08381545525805	8	-290	-134.5	207.43993420554875	-229.04794557229195	-118.92978781220494	850	1050	0	2020-06-02 03:47:30.023070
A3T9WZOUQGE2UW	150	122	1	695	235.17936803282248	5	234	121.5	27.53563985708545	208.53905795384165	108.72348622097267	1050	1000	0	2020-06-02 03:47:34.750707
A3T9WZOUQGE2UW	151	123	1	840	153.399035381145	10	-149	60.5	154.18773443914043	-138.09373543286574	66.79359467840803	1000	950	0	2020-06-02 03:47:39.613996
A3T9WZOUQGE2UW	152	124	1	832	118.23443716411234	11	97	-53.5	332.2292761981151	104.61609625758761	-55.08951384190637	950	900	0	2020-06-02 03:47:44.784062
A3T9WZOUQGE2UW	153	125	1	798	132.49218244254587	2	151	7.5	3.0610666843283685	132.3031408916399	7.075119687732038	900	850	0	2020-06-02 03:47:49.606339
A3T9WZOUQGE2UW	154	126	0	0	143.4205167987889	4	0	0	24.179638520519468	130.83762315898304	58.7448806700604	850	1050	0	2020-06-02 03:47:54.485110
A3T9WZOUQGE2UW	155	126	1	764	121.44016693920996	12	-68	87.5	134.30809891056657	-84.82795351103717	86.90185526991067	1050	1000	0	2020-06-02 03:47:59.265270
A3T9WZOUQGE2UW	156	127	1	827	168.64954303988998	8	-106	-120.5	225.047956566637	-119.15337881017787	-119.3530086997473	1000	950	0	2020-06-02 03:48:04.140358
A3T9WZOUQGE2UW	157	128	1	831	200.04460852937794	2	-145	105.5	145.5042069424053	-164.87031986766675	113.29440863699018	950	900	0	2020-06-02 03:48:09.032515
A3T9WZOUQGE2UW	158	129	1	679	144.15898791374036	6	-57	124.5	115.29018482453613	-61.585149422522676	130.34217723714568	900	850	0	2020-06-02 03:48:13.693875
A3T9WZOUQGE2UW	159	130	1	819	120.964467605048	11	-104	-104.5	226.90610387075586	-82.64243843664907	-88.33249567524612	850	800	0	2020-06-02 03:48:18.786160
A3T9WZOUQGE2UW	160	131	1	796	169.277307079941	2	168	25.5	9.262654008774502	167.0700734986802	27.246967416250985	800	750	0	2020-06-02 03:48:24.044203
A3T9WZOUQGE2UW	161	132	0	0	270.83339313181943	0	0	0	239.65080425744958	-136.84365625351697	-233.718935001989	750	950	0	2020-06-02 03:48:29.710885
A3T9WZOUQGE2UW	162	132	1	795	220.52920230350557	1	6	208.5	85.81582638352353	16.090409036440533	219.94141903166062	950	900	0	2020-06-02 03:48:34.542701
A3T9WZOUQGE2UW	163	133	1	721	193.46492073688222	9	175	-91.5	330.25092234088174	167.9675602120463	-95.99778264179191	900	850	0	2020-06-02 03:48:39.262641
A3T9WZOUQGE2UW	164	134	0	0	290.56815227863194	10	0	0	238.66754495115245	-151.09632092602592	-248.19297516496638	850	1050	0	2020-06-02 03:48:44.125227
A3T9WZOUQGE2UW	165	134	1	841	262.045675020919	5	180	187.5	48.62586136171604	173.20517449763653	196.6415605217076	1050	1000	0	2020-06-02 03:48:49.079856
A3T9WZOUQGE2UW	166	135	1	707	133.8001697412646	12	-8	133.5	95.10112135822459	-11.896680296116065	133.27023081214807	1000	950	0	2020-06-02 03:48:53.812323
A3T9WZOUQGE2UW	167	136	1	720	297.52546767051484	2	266	25.5	3.5317541784800977	296.96041061040967	18.328077985851884	950	900	0	2020-06-02 03:48:58.747921
A3T9WZOUQGE2UW	168	137	1	826	193.24233956730237	5	104	159.5	59.76918791540151	97.29455304364069	166.96218658571402	900	850	0	2020-06-02 03:49:03.731501
A3T9WZOUQGE2UW	169	138	1	648	109.35330703676378	0	72	96.5	50.870741177241825	69.00981271602392	84.82801134516849	850	800	0	2020-06-02 03:49:08.387792
A3T9WZOUQGE2UW	170	139	1	810	215.03584620782937	10	118	-157.5	310.19180270411755	138.77304036183716	-164.26338126024666	800	750	0	2020-06-02 03:49:13.457648
A3T9WZOUQGE2UW	171	140	0	0	183.86341145512023	3	0	0	55.497898166716304	104.14694151063784	151.52283209435672	750	950	0	2020-06-02 03:49:18.764968
A3T9WZOUQGE2UW	172	140	1	708	129.5255751992119	5	-67	109.5	114.55500523095299	-53.82650738183599	117.81163666531353	950	900	0	2020-06-02 03:49:23.496483
A3T9WZOUQGE2UW	173	141	1	827	220.18315743935494	2	-104	-208.5	244.2070637339323	-95.8061174595477	-198.2468427927444	900	850	0	2020-06-02 03:49:28.626880
A3T9WZOUQGE2UW	174	142	0	0	277.41199827094124	11	0	0	299.32100559881627	135.84924759271044	-241.87269112731838	850	1050	0	2020-06-02 03:49:33.814506
A3T9WZOUQGE2UW	175	142	1	720	122.60414761880587	5	111	20.5	14.138393798913853	118.8902904031296	29.94788575498198	1050	1000	0	2020-06-02 03:49:38.895507
A3T9WZOUQGE2UW	176	143	1	796	108.34553660619673	2	14	119.5	83.62973708767488	12.021277669038374	107.67657213009984	1000	950	0	2020-06-02 03:49:43.915024
A3T9WZOUQGE2UW	177	144	1	661	138.46661065543273	9	148	-5.5	359.71033522699787	138.4648411160144	-0.700029370869022	950	900	0	2020-06-02 03:49:48.767276
A3T9WZOUQGE2UW	178	145	1	676	160.7716605257373	7	143	54.5	20.359801308887047	150.7276627331168	55.93477018111999	900	850	0	2020-06-02 03:49:53.962246
A3T9WZOUQGE2UW	179	146	1	758	243.5344686202527	4	89	-208.5	296.26960500251016	107.78727182006453	-218.38255754463628	850	800	0	2020-06-02 03:49:59.277128
A3T9WZOUQGE2UW	180	147	0	0	239.54525158098056	6	0	0	110.15113816094312	-82.52279461421932	224.88200444689798	800	1000	0	2020-06-02 03:50:04.420042
A3T9WZOUQGE2UW	181	147	1	671	117.80331548249748	6	112	-76.5	325.5747494732623	97.17176520444339	-66.59781667383214	1000	950	0	2020-06-02 03:50:09.454801
A3T9WZOUQGE2UW	182	148	1	691	114.1960252043813	7	-110	27.5	169.34373045472717	-112.22662551598067	21.11673975251682	950	900	0	2020-06-02 03:50:14.200617
A3T9WZOUQGE2UW	183	149	1	688	125.96750783034042	5	143	-64.5	329.11724562278596	108.10776391783615	-64.65697494990219	900	850	0	2020-06-02 03:50:19.008447
A3T9WZOUQGE2UW	184	150	0	0	297.89670572306545	6	0	0	158.75179419804041	-277.645454847122	107.96040331246178	850	1050	0	2020-06-02 03:50:23.894113
A3T9WZOUQGE2UW	185	150	1	885	249.41055256347352	0	-254	21.5	176.79060900831848	-249.0193774065356	13.963287796166549	1050	1000	0	2020-06-02 03:50:29.015885
