ABEU56A0TRZ7S	1	1	0	0	173.2474213339305	2	0	0	348.96730290033287	170.04548575171697	-33.154212014750904	1500	1700	0	2020-05-31 00:44:28.386995
ABEU56A0TRZ7S	2	1	0	0	135.92305157731843	2	0	0	312.3467955586416	91.55999297519293	-100.45816859008026	1700	1900	0	2020-05-31 00:44:34.090841
ABEU56A0TRZ7S	3	1	0	0	201.32505256804302	13	0	0	181.30393536480878	-201.2729191805999	-4.5813530801477995	1900	2000	0	2020-05-31 00:44:40.494367
ABEU56A0TRZ7S	4	1	0	0	255.00648531993738	6	0	0	121.30793995315561	-132.5109366884156	217.87418207118105	2000	2000	0	2020-05-31 00:44:46.509237
ABEU56A0TRZ7S	5	1	0	0	245.40231896164067	10	0	0	1.692669809465226	245.29523700173422	7.248783071237905	2000	2000	0	2020-05-31 00:44:52.571053
ABEU56A0TRZ7S	6	1	1	1501	117.42496073144642	11	114	-16	355.3676826547917	117.0413902383495	-9.483373548274693	2000	1950	0	2020-05-31 00:44:58.080649
ABEU56A0TRZ7S	7	2	1	969	139.5915972146728	3	-98	82	142.54964254791327	-110.81904547350884	84.88199557788344	1950	1900	0	2020-05-31 00:45:03.054535
ABEU56A0TRZ7S	8	3	1	868	162.26516607521702	6	-117	121	133.95472771453169	-112.62659131445753	116.81282057335967	1900	1850	0	2020-05-31 00:45:07.926678
ABEU56A0TRZ7S	9	4	1	1131	139.85447879528627	8	76	107	51.84776612736708	86.3955280835658	109.97767030749002	1850	1800	0	2020-05-31 00:45:13.061062
ABEU56A0TRZ7S	10	5	1	963	199.32519567402647	14	192	48	13.383645451591839	193.9119197908613	46.137847733845504	1800	1750	0	2020-05-31 00:45:18.030574
ABEU56A0TRZ7S	11	6	1	1185	163.4314904479149	12	-165	-19	185.67997573523138	-162.6290778478135	-16.17513858972223	1750	1700	0	2020-05-31 00:45:23.609965
ABEU56A0TRZ7S	12	7	1	1298	289.19379916561815	5	220	181	39.17405055544539	224.19189902542405	182.67743672171983	1700	1650	0	2020-05-31 00:45:28.910733
ABEU56A0TRZ7S	13	8	1	1147	202.3095159337514	7	-192	93	151.05469166828135	-177.03743271071727	97.9126531994056	1650	1600	0	2020-05-31 00:45:34.430781
ABEU56A0TRZ7S	14	9	1	1125	139.27586653963485	5	12	137	83.48993237153817	15.790790752739678	138.37780865358928	1600	1550	0	2020-05-31 00:45:39.835924
ABEU56A0TRZ7S	15	10	0	0	297.97949705278285	2	0	0	233.3748181838125	-177.767911124046	-239.1450405892263	1550	1750	0	2020-05-31 00:45:45.395051
ABEU56A0TRZ7S	16	10	1	1213	240.00170974710807	5	230	41	10.695831090742507	235.8319928265422	44.543145836333295	1750	1700	0	2020-05-31 00:45:50.611250
ABEU56A0TRZ7S	17	11	1	1011	172.4270519451838	13	-55	-166	252.90317208161645	-50.691382235378676	-164.80737850464658	1700	1650	0	2020-05-31 00:45:55.629462
ABEU56A0TRZ7S	18	12	1	915	279.5533096533585	14	-284	8	178.15152538242592	-279.407837894022	9.017375534736415	1650	1600	0	2020-05-31 00:46:00.548865
ABEU56A0TRZ7S	19	13	1	995	126.13851544202812	8	-126	28	167.00256297071076	-122.90686261821537	28.36949416654974	1600	1550	0	2020-05-31 00:46:05.550611
ABEU56A0TRZ7S	20	14	1	1274	267.4767147448315	2	-260	53	167.23549797253503	-260.86640995144955	59.09745417300336	1550	1500	0	2020-05-31 00:46:10.836135
ABEU56A0TRZ7S	21	15	1	1115	196.05271457864114	12	32	-199	281.44502464030836	38.90227041561218	-192.15431363923298	1500	1450	0	2020-05-31 00:46:15.946760
ABEU56A0TRZ7S	22	16	1	989	199.1484619148946	4	196	10	4.666451373132743	198.4883233485182	16.201709087695114	1450	1400	0	2020-05-31 00:46:20.948710
ABEU56A0TRZ7S	23	17	1	1375	255.1218354391847	9	224	120	27.447765285138416	226.40313418384417	117.59579817999747	1400	1350	0	2020-05-31 00:46:26.331161
ABEU56A0TRZ7S	24	18	0	0	255.08380524468416	13	0	0	146.43720822491167	-212.55634569121108	141.02321654432055	1350	1550	0	2020-05-31 00:46:31.689590
ABEU56A0TRZ7S	25	18	1	882	133.5649641410712	13	70	-120	304.0834552736359	74.84978727674749	-110.62146713288196	1550	1500	0	2020-05-31 00:46:36.898171
ABEU56A0TRZ7S	26	19	1	1003	164.1413147014033	2	126	-111	321.3110242683424	128.12061738219364	-102.60350185793202	1500	1450	0	2020-05-31 00:46:41.909733
ABEU56A0TRZ7S	27	20	1	1021	228.40190038694098	4	-37	-229	261.18657608820126	-34.995137464523886	-225.70504747170628	1450	1400	0	2020-05-31 00:46:46.935259
ABEU56A0TRZ7S	28	21	1	921	120.1788886558555	4	3	-124	272.45795875591597	5.154029787372818	-120.06831911669033	1400	1350	0	2020-05-31 00:46:51.874132
ABEU56A0TRZ7S	29	22	1	1197	250.0411897256258	9	194	153	37.37554266202493	198.70118571020015	151.78417360438786	1350	1300	0	2020-05-31 00:46:57.061858
ABEU56A0TRZ7S	30	23	0	0	178.20615265140287	10	0	0	173.56543020279992	-177.08353991747396	19.97129773228338	1300	1500	0	2020-05-31 00:47:02.373343
ABEU56A0TRZ7S	31	23	1	1044	192.41520807279932	11	144	114	39.83701115828229	147.74984155200823	123.26230818484261	1500	1450	0	2020-05-31 00:47:08.411991
ABEU56A0TRZ7S	32	24	1	1266	294.5270370666093	10	-44	-295	262.4480978674212	-38.70799549931735	-291.9723730897509	1450	1400	0	2020-05-31 00:47:13.700533
ABEU56A0TRZ7S	33	25	0	0	263.15235027522164	13	0	0	191.80436960131064	-257.5871491734237	-53.83326142898375	1400	1600	0	2020-05-31 00:47:19.094660
ABEU56A0TRZ7S	34	25	1	1391	269.7511101387915	11	248	106	24.379950146800038	245.69690869126435	111.3494071859699	1600	1550	0	2020-05-31 00:47:25.381623
ABEU56A0TRZ7S	35	26	1	1417	129.419218586972	3	-115	60	150.1064609552439	-112.20037403497322	64.50124189559874	1550	1500	0	2020-05-31 00:47:30.807890
ABEU56A0TRZ7S	36	27	1	1076	297.6143205798774	11	-216	-213	224.18841444437757	-213.40481404764586	-207.44317090594168	1500	1450	0	2020-05-31 00:47:35.902466
ABEU56A0TRZ7S	37	28	1	995	137.84018785213075	2	42	129	70.95709620723565	44.973956047398524	130.29681755345126	1450	1400	0	2020-05-31 00:47:40.883376
ABEU56A0TRZ7S	38	29	1	1084	242.07880727135455	9	-240	-75	197.3801415295092	-231.02643726284822	-72.31136989130324	1400	1350	0	2020-05-31 00:47:45.989890
ABEU56A0TRZ7S	39	30	1	886	168.19392576732645	5	-34	-177	258.0188387527501	-34.915388210297515	-164.52997395960756	1350	1300	0	2020-05-31 00:47:51.172394
ABEU56A0TRZ7S	40	31	1	1005	146.1676011452758	0	100	105	47.16898916077582	99.37033780298744	107.19376656076881	1300	1250	0	2020-05-31 00:48:01.371241
ABEU56A0TRZ7S	41	32	1	966	155.59219734440092	9	78	122	55.78817857553453	87.48233710719957	128.6692370721195	1250	1200	0	2020-05-31 00:48:06.634328
ABEU56A0TRZ7S	42	33	1	857	101.82970458355895	7	99	13	9.73446575727345	100.36355413214562	17.21759964509464	1200	1150	0	2020-05-31 00:48:11.504222
ABEU56A0TRZ7S	43	34	1	1131	265.08117439277055	10	224	135	31.267337325563602	226.5794205599037	137.58559225510757	1150	1100	0	2020-05-31 00:48:16.636028
ABEU56A0TRZ7S	44	35	1	1097	292.28800521336166	9	32	-302	277.5198703463636	38.25173720024474	-289.7741924201835	1100	1050	0	2020-05-31 00:48:21.744780
ABEU56A0TRZ7S	45	36	1	899	135.54420276462884	0	112	71	31.56025398893864	115.49588922171974	70.94314960574457	1050	1000	0	2020-05-31 00:48:26.644369
ABEU56A0TRZ7S	46	37	0	0	288.56628356623037	11	0	0	31.50343211147171	246.03417130684866	150.79020711100011	1000	1200	0	2020-05-31 00:48:31.765283
ABEU56A0TRZ7S	47	37	1	1107	200.6628296553592	7	-93	-181	243.89986063478167	-88.2798770163141	-180.20053973082366	1200	1150	0	2020-05-31 00:48:36.764577
ABEU56A0TRZ7S	48	38	1	1107	276.5226940173138	2	-202	-198	225.17039133808169	-194.9487204350592	-196.11169446855047	1150	1100	0	2020-05-31 00:48:41.989677
ABEU56A0TRZ7S	49	39	1	1002	294.89696657635943	1	256	-137	332.0824983589135	260.57764038926325	-138.07068561103853	1100	1050	0	2020-05-31 00:48:46.988321
ABEU56A0TRZ7S	50	40	0	0	272.79892274508296	1	0	0	281.6280849465956	54.9848216551595	-267.20015276647587	1050	1250	0	2020-05-31 00:48:52.020725
ABEU56A0TRZ7S	51	40	1	1011	100.59214394124379	9	-101	-10	186.79401895882242	-99.88577210039199	-11.900082125954498	1250	1200	0	2020-05-31 00:48:57.073409
ABEU56A0TRZ7S	52	41	1	848	264.8694464466565	9	-215	-173	217.13210862577176	-211.1660444838141	-159.8897286195023	1200	1150	0	2020-05-31 00:49:01.996940
ABEU56A0TRZ7S	53	42	1	1074	123.0270436406692	10	-99	71	136.80561169226507	-89.69110321137661	84.20902250762275	1150	1100	0	2020-05-31 00:49:06.979186
ABEU56A0TRZ7S	54	43	1	1099	265.6585233566304	9	-184	-194	225.21195136470496	-187.15275958020106	-188.54255650526432	1100	1050	0	2020-05-31 00:49:12.085351
ABEU56A0TRZ7S	55	44	1	891	129.88428262178186	2	-4	132	91.35300439975312	-3.0668519584692544	129.84807003278772	1050	1000	0	2020-05-31 00:49:16.983236
ABEU56A0TRZ7S	56	45	0	0	294.10777423169486	9	0	0	247.0305404704955	-114.77273977611918	-270.7888496002094	1000	1200	0	2020-05-31 00:49:21.989068
ABEU56A0TRZ7S	57	45	1	1154	279.0075171723384	3	-68	270	103.01363106009518	-62.827709929760125	271.84163313159854	1200	1150	0	2020-05-31 00:49:27.777342
ABEU56A0TRZ7S	58	46	0	0	242.37216127447718	11	0	0	197.98721633434917	-230.5263284351763	-74.84568430483084	1150	1350	0	2020-05-31 00:49:32.948137
ABEU56A0TRZ7S	59	46	1	1014	147.6885280840337	6	-63	-138	247.98459669071386	-55.36190763107259	-136.9195402821562	1350	1300	0	2020-05-31 00:49:38.358538
ABEU56A0TRZ7S	60	47	1	1267	173.9321705665988	1	74	160	65.26863326347015	72.76702409742863	157.97898645710026	1300	1250	0	2020-05-31 00:49:43.163182
ABEU56A0TRZ7S	61	48	0	0	173.9343041604351	0	0	0	277.8443485767181	23.738971091202803	-172.30671320440706	1250	1450	0	2020-05-31 00:49:48.727004
ABEU56A0TRZ7S	62	48	1	1074	236.88406776633073	7	115	200	60.33077759602512	117.25571701394132	205.82798252198384	1450	1400	0	2020-05-31 00:49:53.501854
ABEU56A0TRZ7S	63	49	1	1284	296.7817864660146	7	-157	-247	237.38274336851794	-159.97265246313307	-249.9763573657891	1400	1350	0	2020-05-31 00:49:58.850277
ABEU56A0TRZ7S	64	50	1	1167	267.60393458846556	14	-266	46	169.5305609217201	-263.1488562735957	48.62658993931424	1350	1300	0	2020-05-31 00:50:04.316400
ABEU56A0TRZ7S	65	51	1	1179	199.89968509323336	7	117	-166	307.29128282897636	121.11269592427115	-159.03332665302858	1300	1250	0	2020-05-31 00:50:09.489733
ABEU56A0TRZ7S	66	52	1	1219	192.18830762719014	6	19	193	83.05969805041389	23.223096498618343	190.7800654618279	1250	1200	0	2020-05-31 00:50:14.724605
ABEU56A0TRZ7S	67	53	1	1004	245.73728996875766	7	228	-8	0.7973134615395505	245.71349709014606	3.4195071165404713	1200	1150	0	2020-05-31 00:50:19.805222
ABEU56A0TRZ7S	68	54	0	0	254.35207736414463	9	0	0	65.57839923179614	105.16128959724693	231.59465112497693	1150	1350	0	2020-05-31 00:50:24.989648
ABEU56A0TRZ7S	69	54	1	1267	212.16660151325618	13	-210	41	169.71748738896608	-208.75911355374484	37.87214419516682	1350	1300	0	2020-05-31 00:50:30.604531
ABEU56A0TRZ7S	70	55	1	1161	213.64483303837176	2	119	-182	303.26571780762464	117.18902467255187	-178.6360746889882	1300	1250	0	2020-05-31 00:50:35.777755
ABEU56A0TRZ7S	71	56	1	964	201.91846074442935	4	173	77	26.334436134143296	180.9633572539697	89.57303232989152	1250	1200	0	2020-05-31 00:50:41.046085
ABEU56A0TRZ7S	72	57	1	1089	186.34573037139597	0	-23	-195	264.38121242004655	-18.24496784576725	-185.450404086796	1200	1150	0	2020-05-31 00:50:45.779755
ABEU56A0TRZ7S	73	58	0	0	178.31442581145845	11	0	0	118.49424101019102	-85.06853890758101	156.714320151668	1150	1350	0	2020-05-31 00:50:51.679554
ABEU56A0TRZ7S	74	58	1	1112	199.10997911825382	14	194	-22	354.4970716659691	198.19234065480623	-19.09397523410748	1350	1300	0	2020-05-31 00:50:56.680867
ABEU56A0TRZ7S	75	59	1	1075	155.27364867533925	5	109	-113	315.7020425740862	111.13208806498338	-108.44152790914308	1300	1250	0	2020-05-31 00:51:01.913803
ABEU56A0TRZ7S	76	60	1	1020	160.71916993409752	3	-73	-151	244.54342771938397	-69.08141497415949	-145.11516009526122	1250	1200	0	2020-05-31 00:51:06.794936
ABEU56A0TRZ7S	77	61	0	0	268.13061799693287	4	0	0	354.60796287528973	266.9441491315354	-25.196220983665718	1200	1400	0	2020-05-31 00:51:15.022235
ABEU56A0TRZ7S	78	61	1	1145	234.5322145261252	5	108	-215	298.05548280522305	110.30668078477419	-206.9729350054599	1400	1350	0	2020-05-31 00:51:20.155090
ABEU56A0TRZ7S	79	62	1	877	131.53779417645003	0	92	-88	317.343124848713	96.73615831309391	-89.13084186537321	1350	1300	0	2020-05-31 00:51:25.059162
ABEU56A0TRZ7S	80	63	1	1036	225.50494301074306	8	24	-219	275.3689231671791	21.10011722775491	-224.51562167308867	1300	1250	0	2020-05-31 00:51:30.077370
ABEU56A0TRZ7S	81	64	1	1051	298.90940473633987	2	236	-183	324.5468287276739	243.4885713236314	-173.37862577206536	1250	1200	0	2020-05-31 00:51:35.133080
ABEU56A0TRZ7S	82	65	1	1170	184.81877643652876	13	-198	49	166.58190700799864	-179.77371320794995	42.88813545633997	1200	1150	0	2020-05-31 00:51:40.331297
ABEU56A0TRZ7S	83	66	0	0	294.1116313800467	5	0	0	272.45893601348206	12.618376200241096	-293.84082135588585	1150	1350	0	2020-05-31 00:51:45.919650
ABEU56A0TRZ7S	84	66	1	990	203.39569776836555	9	84	-196	293.95851880547184	82.59393741707405	-185.87106114891785	1350	1300	0	2020-05-31 00:51:51.065298
ABEU56A0TRZ7S	85	67	0	0	224.5730427372519	4	0	0	1.7191802230300102	224.47195636946313	6.737382869735505	1300	1500	0	2020-05-31 00:51:56.363985
ABEU56A0TRZ7S	86	67	1	1011	186.2141850882723	2	84	-171	297.4727969289838	85.90571020818035	-165.21480466870236	1500	1450	0	2020-05-31 00:52:01.371717
ABEU56A0TRZ7S	87	68	1	1200	244.14691997070724	6	216	-110	335.0450375317357	221.35329209744188	-103.00698330116995	1450	1400	0	2020-05-31 00:52:06.596034
ABEU56A0TRZ7S	88	69	1	819	158.21159521891386	13	-9	-162	265.55285837227234	-12.267624850359145	-157.73526632381325	1400	1350	0	2020-05-31 00:52:11.430883
ABEU56A0TRZ7S	89	70	1	979	256.78702812925644	13	77	-251	287.93534825380937	79.07593193370596	-244.30836007855203	1350	1300	0	2020-05-31 00:52:16.399812
ABEU56A0TRZ7S	90	71	1	1154	102.12432469105903	6	77	-62	322.1219535069688	80.60871038662243	-62.70257971894361	1300	1250	0	2020-05-31 00:52:21.555901
ABEU56A0TRZ7S	91	72	1	1171	176.9930753097484	2	-83	-161	241.82315521069506	-83.57516749826324	-156.01839662437092	1250	1200	0	2020-05-31 00:52:26.742634
ABEU56A0TRZ7S	92	73	1	1042	196.0780903971973	13	176	-75	337.9647912685619	181.75526837537942	-73.56384948876236	1200	1150	0	2020-05-31 00:52:31.779443
ABEU56A0TRZ7S	93	74	1	932	185.30004998877996	14	139	-107	323.4607384596319	148.87915351651998	-110.32273643292588	1150	1100	0	2020-05-31 00:52:36.721363
ABEU56A0TRZ7S	94	75	0	0	260.43714333117646	10	0	0	159.31463549811804	-243.64787825907635	91.99574471873179	1100	1300	0	2020-05-31 00:52:42.148644
ABEU56A0TRZ7S	95	75	1	974	178.6093526254254	2	76	-158	297.433445126838	82.28853455642758	-158.5241241131115	1300	1250	0	2020-05-31 00:52:47.117796
ABEU56A0TRZ7S	96	76	1	1052	258.866488047296	6	-216	166	138.97940159969573	-195.30794972642758	169.9019229073058	1250	1200	0	2020-05-31 00:52:52.173964
ABEU56A0TRZ7S	97	77	1	1058	286.87037905926627	4	256	-131	333.3462358170163	256.38572045477713	-128.68945849793604	1200	1150	0	2020-05-31 00:52:57.244543
ABEU56A0TRZ7S	98	78	0	0	255.89853905176957	7	0	0	23.99930468867052	233.77621105103793	104.08047576491282	1150	1350	0	2020-05-31 00:53:02.451255
ABEU56A0TRZ7S	99	78	1	855	164.7377780252238	6	-159	-47	196.77486448896462	-157.72756004655838	-47.54526590994348	1350	1300	0	2020-05-31 00:53:07.252264
ABEU56A0TRZ7S	100	79	0	0	154.77262502829745	10	0	0	183.29870649895074	-154.51618472933896	-8.90584722745465	1300	1500	0	2020-05-31 00:53:12.558922
ABEU56A0TRZ7S	101	79	1	947	215.8105876159944	0	-41	-220	259.223576495111	-40.351637787591265	-212.00461092867727	1500	1450	0	2020-05-31 00:53:17.505408
ABEU56A0TRZ7S	102	80	1	922	112.53268689748546	4	-18	-115	263.94799216211936	-11.864451218981005	-111.9054977096296	1450	1400	0	2020-05-31 00:53:22.436765
ABEU56A0TRZ7S	103	81	1	1018	108.11080195866016	0	-103	-32	195.3801515609778	-104.2390666193974	-28.67337598646986	1400	1350	0	2020-05-31 00:53:27.461734
ABEU56A0TRZ7S	104	82	1	979	252.60266845302618	9	236	-68	342.7932929845687	241.2971177824677	-74.72488915658144	1350	1300	0	2020-05-31 00:53:32.462540
ABEU56A0TRZ7S	105	83	1	827	169.63062018891327	4	98	-152	305.3318075549022	98.0991876552221	-138.38748746566964	1300	1250	0	2020-05-31 00:53:37.275822
ABEU56A0TRZ7S	106	84	1	1188	212.79272994872534	10	-196	94	151.96294677056835	-187.82018389909092	100.02161985862267	1250	1200	0	2020-05-31 00:53:42.470438
ABEU56A0TRZ7S	107	85	1	963	208.55810066407568	7	-116	-182	238.6633563234552	-108.46386813235392	-178.13497877276674	1200	1150	0	2020-05-31 00:53:47.435209
ABEU56A0TRZ7S	108	86	1	1005	161.10103522081704	12	49	-155	288.48571186086116	51.08000853149027	-152.788665409584	1150	1100	0	2020-05-31 00:53:52.462729
ABEU56A0TRZ7S	109	87	0	0	204.77286007123237	0	0	0	130.3477546251278	-132.57511400280546	156.06333127578577	1100	1300	0	2020-05-31 00:53:57.568138
ABEU56A0TRZ7S	110	87	1	1007	193.39341971136088	12	8	-203	275.078234272014	17.118394684271333	-192.63430470995579	1300	1250	0	2020-05-31 00:54:02.563472
ABEU56A0TRZ7S	111	88	1	1123	124.15991483196684	9	120	-31	344.8867367271458	119.86550911967507	-32.37196587423062	1250	1200	0	2020-05-31 00:54:07.700114
ABEU56A0TRZ7S	112	89	1	1146	268.5876829390598	12	-248	135	149.21967519071737	-230.7532616735228	137.44917480146478	1200	1150	0	2020-05-31 00:54:12.846887
ABEU56A0TRZ7S	113	90	1	901	259.18487171789695	12	239	-77	342.18849739032436	246.76162313393505	-79.28113947042208	1150	1100	0	2020-05-31 00:54:17.748711
ABEU56A0TRZ7S	114	91	1	849	149.30129192655968	11	118	54	24.303814593813023	136.0695958866413	61.448684657899086	1100	1050	0	2020-05-31 00:54:24.838987
ABEU56A0TRZ7S	115	92	1	883	231.5760893851943	8	129	189	54.769424923890526	133.58890310605042	189.15995914004046	1050	1000	0	2020-05-31 00:54:29.725664
ABEU56A0TRZ7S	116	93	0	0	154.0397904465986	6	0	0	271.2405943739425	3.3350792518322825	-154.0036827066678	1000	1200	0	2020-05-31 00:54:34.749039
ABEU56A0TRZ7S	117	93	1	1135	232.38103689544764	4	-248	-10	181.63397524010466	-232.28654665955577	-6.6262017462058695	1200	1150	0	2020-05-31 00:54:39.873505
ABEU56A0TRZ7S	118	94	1	835	185.44320790435958	0	-169	90	150.30103830231357	-161.08347951816336	91.87652575158127	1150	1100	0	2020-05-31 00:54:44.712406
ABEU56A0TRZ7S	119	95	1	874	171.55674891065172	9	23	173	81.32413875320444	25.878366903484025	169.5937151642155	1100	1050	0	2020-05-31 00:54:49.899993
ABEU56A0TRZ7S	120	96	0	0	266.58092270854013	9	0	0	302.85352585007786	144.6183466309512	-223.94401570452087	1050	1250	0	2020-05-31 00:54:54.589345
ABEU56A0TRZ7S	121	96	1	938	124.23707004584159	10	-126	-35	195.143761553224	-119.9227365645409	-32.45592131564093	1250	1200	0	2020-05-31 00:54:59.593191
ABEU56A0TRZ7S	122	97	1	1083	241.92796831663088	4	-124	-216	239.2469211702451	-123.70726978211836	-207.90779989424865	1200	1150	0	2020-05-31 00:55:04.676840
ABEU56A0TRZ7S	123	98	1	1073	169.04853302865996	8	166	17	4.19599567269108	168.59541420994447	12.36902690267888	1150	1100	0	2020-05-31 00:55:09.760346
ABEU56A0TRZ7S	124	99	0	0	272.19390005373475	7	0	0	112.71594759981099	-105.11115991981916	251.079993800328	1100	1300	0	2020-05-31 00:55:14.867236
ABEU56A0TRZ7S	125	99	1	965	243.85863770122435	6	-112	217	115.16725732228777	-103.70384680574513	220.70919178681152	1300	1250	0	2020-05-31 00:55:20.109832
ABEU56A0TRZ7S	126	100	1	1148	246.58046693712868	8	-228	-109	204.24101709948437	-224.83858573130993	-101.23999724060057	1250	1200	0	2020-05-31 00:55:25.269297
ABEU56A0TRZ7S	127	101	1	1057	272.22369140826436	5	-120	245	113.59867246441951	-108.97871161104277	249.45816999957952	1200	1150	0	2020-05-31 00:55:30.333646
ABEU56A0TRZ7S	128	102	1	819	150.90721153041594	2	44	-159	288.422929898548	47.691018022378174	-143.17315841970833	1150	1100	0	2020-05-31 00:55:35.153365
ABEU56A0TRZ7S	129	103	1	1011	228.54437562187272	8	142	169	46.67245645392626	156.81986744581732	166.25300238692813	1100	1050	0	2020-05-31 00:55:40.164147
ABEU56A0TRZ7S	130	104	0	0	275.4753167279	14	0	0	208.09721370541246	-243.0104873718624	-129.7403297114152	1050	1250	0	2020-05-31 00:55:45.222683
ABEU56A0TRZ7S	131	104	1	908	152.1201633501468	11	-155	5	176.8247350705342	-151.88662387438484	8.42600651058938	1250	1200	0	2020-05-31 00:55:50.141970
ABEU56A0TRZ7S	132	105	1	827	179.37597476718406	10	-146	-106	213.1652471493705	-150.15496207797193	-98.12862827452685	1200	1150	0	2020-05-31 00:55:54.969658
ABEU56A0TRZ7S	133	106	1	900	132.19119686373605	1	116	63	29.20153862482156	115.39088228235151	64.49385098106265	1150	1100	0	2020-05-31 00:55:59.885294
ABEU56A0TRZ7S	134	107	1	1059	210.53059619959004	10	-207	-59	195.37260514647116	-202.9982882098067	-55.81063447088814	1100	1050	0	2020-05-31 00:56:04.931996
ABEU56A0TRZ7S	135	108	0	0	227.2890516752296	13	0	0	34.880147944915166	186.4565885139841	129.97789662535703	1050	1250	0	2020-05-31 00:56:09.989839
ABEU56A0TRZ7S	136	108	1	812	129.62102582238236	13	119	-6	355.8955434801941	129.28857624899493	-9.277628293617902	1250	1200	0	2020-05-31 00:56:14.803460
ABEU56A0TRZ7S	137	109	1	1138	154.73401620004438	11	-146	-36	191.94370282916324	-151.38424393357	-32.0222806504623	1200	1150	0	2020-05-31 00:56:19.956402
ABEU56A0TRZ7S	138	110	1	859	124.06551157834294	1	88	-95	314.55594976307157	87.04503591402393	-88.4048238837804	1150	1100	0	2020-05-31 00:56:24.813036
ABEU56A0TRZ7S	139	111	1	947	251.42060052955273	4	88	-235	292.5069632921147	96.24272749241837	-232.2706519891418	1100	1050	0	2020-05-31 00:56:29.762721
ABEU56A0TRZ7S	140	112	0	0	257.0662359939285	6	0	0	122.72526413867166	-138.97291864162207	216.2627512363496	1050	1250	0	2020-05-31 00:56:34.834657
ABEU56A0TRZ7S	141	112	1	1108	261.1055690096682	11	39	-263	279.83567160834457	44.60282833808131	-257.2677707605565	1250	1200	0	2020-05-31 00:56:40.628612
ABEU56A0TRZ7S	142	113	1	1003	238.83397710892874	7	107	212	64.82495361709623	101.59643396155022	216.1477115954843	1200	1150	0	2020-05-31 00:56:45.636914
ABEU56A0TRZ7S	143	114	0	0	137.30425007582397	9	0	0	330.12844806999294	119.0625768742558	-68.38537765448355	1150	1350	0	2020-05-31 00:56:50.806421
ABEU56A0TRZ7S	144	114	1	1028	210.38698389828627	11	165	-138	322.2141823108261	166.270242933272	-128.90651383358596	1350	1300	0	2020-05-31 00:56:56.143942
ABEU56A0TRZ7S	145	115	1	1123	282.9803688387789	13	-254	-93	199.972137192105	-265.9615993005333	-96.65566121875068	1300	1250	0	2020-05-31 00:57:01.268929
ABEU56A0TRZ7S	146	116	1	914	169.3412960597506	1	-119	-127	228.70736766313513	-111.74917770745594	-127.23441292709899	1250	1200	0	2020-05-31 00:57:06.189766
ABEU56A0TRZ7S	147	117	1	874	115.6731199087612	14	-124	-19	186.63206982683892	-114.8990674210087	-13.359452653800732	1200	1150	0	2020-05-31 00:57:11.071595
ABEU56A0TRZ7S	148	118	1	739	123.81303946044949	13	-56	-114	243.38795596817198	-55.46168408507461	-110.69629776502104	1150	1100	0	2020-05-31 00:57:15.854867
ABEU56A0TRZ7S	149	119	1	809	134.87990351150188	10	-101	85	141.29838353830593	-105.26199875527026	84.33563890383198	1100	1050	0	2020-05-31 00:57:20.628930
ABEU56A0TRZ7S	150	120	1	867	151.76179772666524	11	132	-83	329.36239589103945	130.57702689782485	-77.33875675076489	1050	1000	0	2020-05-31 00:57:25.501181
ABEU56A0TRZ7S	151	121	0	0	210.2111487298917	14	0	0	82.89276006082416	26.00876696429124	208.59595176162418	1000	1200	0	2020-05-31 00:57:45.107379
ABEU56A0TRZ7S	152	121	1	756	130.06721568389975	6	86	74	41.45795148320516	97.47780902517295	86.11363041594522	1200	1150	0	2020-05-31 00:57:49.875349
ABEU56A0TRZ7S	153	122	0	0	230.3149282193392	7	0	0	266.12520029722833	-15.563870864782615	-229.78845072018686	1150	1350	0	2020-05-31 00:57:55.042551
ABEU56A0TRZ7S	154	122	1	830	206.17895861880686	6	-98	189	113.27284689151973	-81.46340878905477	189.4029461376011	1350	1300	0	2020-05-31 00:57:59.867166
ABEU56A0TRZ7S	155	123	1	755	183.66250984177935	11	137	-152	312.9345892826411	125.10410228694752	-134.46516691083482	1300	1250	0	2020-05-31 00:58:04.623071
ABEU56A0TRZ7S	156	124	1	875	292.5116979115566	14	81	286	73.8749112022082	81.2408343295999	281.0035947324024	1250	1200	0	2020-05-31 00:58:09.508005
ABEU56A0TRZ7S	157	125	1	860	292.06186269400325	9	-194	-222	227.3057111241657	-198.0431804804167	-214.66026717930805	1200	1150	0	2020-05-31 00:58:14.363561
ABEU56A0TRZ7S	158	126	0	0	191.29017079547754	9	0	0	84.15586678455445	19.477661360953057	190.2959541106195	1150	1350	0	2020-05-31 00:58:19.564065
ABEU56A0TRZ7S	159	126	1	744	137.1789104059383	8	-116	-59	206.71004616501045	-122.54090439019132	-61.65857776006872	1350	1300	0	2020-05-31 00:58:24.276861
ABEU56A0TRZ7S	160	127	1	724	112.42446429334794	4	70	87	47.452590260461704	76.02142734860048	82.8251335980071	1300	1250	0	2020-05-31 00:58:28.995891
ABEU56A0TRZ7S	161	128	1	886	173.83519519774345	14	155	83	28.31111281804077	153.0419652585064	82.44290120593575	1250	1200	0	2020-05-31 00:58:34.193909
ABEU56A0TRZ7S	162	129	1	1083	275.1813847112627	2	25	-276	275.76653542971115	27.64890550540754	-273.7888465879518	1200	1150	0	2020-05-31 00:58:39.286328
ABEU56A0TRZ7S	163	130	1	1098	221.85176286301896	0	-68	205	110.47687808557467	-77.61025919206719	207.83371322663064	1150	1100	0	2020-05-31 00:58:44.730238
ABEU56A0TRZ7S	164	131	1	867	107.43732184499204	9	83	57	33.512752310112084	89.57725914399757	59.31857019073797	1100	1050	0	2020-05-31 00:58:49.595934
ABEU56A0TRZ7S	165	132	1	892	176.18146229805527	6	101	-137	309.476015524132	112.00827309627073	-135.99284692759508	1050	1000	0	2020-05-31 00:58:54.494787
ABEU56A0TRZ7S	166	133	1	995	166.76271570286173	11	162	-67	337.55237504314664	154.126931946661	-63.67646501889703	1000	950	0	2020-05-31 00:58:59.493197
ABEU56A0TRZ7S	167	134	0	0	214.39777633945806	13	0	0	79.70599477050679	38.31272649424636	210.9467740636992	950	1150	0	2020-05-31 00:59:04.447719
ABEU56A0TRZ7S	168	134	1	815	111.4417805014364	3	66	85	52.92226167441608	67.1880320802642	88.91028504347358	1150	1100	0	2020-05-31 00:59:09.270552
ABEU56A0TRZ7S	169	135	1	803	161.00528464466453	6	120	97	40.280519307685346	122.8290310798823	104.09481642947814	1100	1050	0	2020-05-31 00:59:14.077289
ABEU56A0TRZ7S	170	136	1	796	177.21220088558934	0	162	48	16.76073679347196	169.68375488899179	51.1036933057389	1050	1000	0	2020-05-31 00:59:18.879664
ABEU56A0TRZ7S	171	137	1	922	237.21501329561133	9	23	-248	274.41350563611303	18.25465577856021	-236.51158549898423	1000	950	0	2020-05-31 00:59:23.811655
ABEU56A0TRZ7S	172	138	1	915	138.50141917120305	5	136	-41	344.9087612156417	133.72484508882417	-36.0597964277015	950	900	0	2020-05-31 00:59:28.725004
ABEU56A0TRZ7S	173	139	0	0	246.3226285982234	8	0	0	134.1057929456489	-171.43695316805213	176.87342493431115	900	1100	0	2020-05-31 00:59:33.628794
ABEU56A0TRZ7S	174	139	1	746	101.95951793979398	7	39	-97	292.0071044158543	38.20642932492726	-94.5304821565748	1100	1050	0	2020-05-31 00:59:38.379648
ABEU56A0TRZ7S	175	140	1	767	135.61284589041134	13	-141	-4	181.40321547047395	-135.57217791144316	-3.320925600559839	1050	1000	0	2020-05-31 00:59:43.166647
ABEU56A0TRZ7S	176	141	1	947	264.5792906320801	8	250	-92	340.09868302430976	248.77869554897723	-90.0630982829482	1000	950	0	2020-05-31 00:59:48.141547
ABEU56A0TRZ7S	177	142	1	894	234.4847524929615	0	-225	99	156.27750354214484	-214.67189370996002	94.3349203776896	950	900	0	2020-05-31 00:59:53.045786
ABEU56A0TRZ7S	178	143	1	778	147.55532832402054	5	-101	-99	225.40154926380418	-103.60358334641808	-105.06603844530973	900	850	0	2020-05-31 00:59:57.815785
ABEU56A0TRZ7S	179	144	0	0	287.8230564418574	9	0	0	291.64274840429425	106.15436915329452	-267.53198262861713	850	1050	0	2020-05-31 01:00:02.663418
ABEU56A0TRZ7S	180	144	1	1022	201.49618603970603	12	-175	101	149.18228514169988	-173.04523510297503	103.22819186977905	1050	1000	0	2020-05-31 01:00:07.989509
ABEU56A0TRZ7S	181	145	1	779	234.80869256418572	9	166	161	42.90135767559026	172.0036527285183	159.84325306921644	1000	950	0	2020-05-31 01:00:12.774008
ABEU56A0TRZ7S	182	146	1	897	269.1023688512232	10	204	176	41.65442313665865	201.0644404001875	178.85518088078757	950	900	0	2020-05-31 01:00:17.676994
ABEU56A0TRZ7S	183	147	1	851	119.74765793723705	11	-92	-60	212.6755828690547	-100.79650543360248	-64.64956360121296	900	850	0	2020-05-31 01:00:22.535558
ABEU56A0TRZ7S	184	148	0	0	198.41984128692766	11	0	0	93.94394208755558	-13.64740174428729	197.94994782004764	850	1050	0	2020-05-31 01:00:27.391628
ABEU56A0TRZ7S	185	148	1	938	241.22872813474666	11	141	181	50.9309581615716	152.03594990570994	187.28686343087702	1050	1000	0	2020-05-31 01:00:32.332560
ABEU56A0TRZ7S	186	149	1	835	122.21956779233092	0	-83	94	129.9752676731917	-78.52080203472764	93.65952380386784	1000	950	0	2020-05-31 01:00:37.195805
ABEU56A0TRZ7S	187	150	1	826	151.39113457498485	6	-21	147	97.00015537443657	-18.4503456496258	150.26263798200307	950	900	0	2020-05-31 01:00:42.055259
