AQC8WQHV3U67X	1	1	0	0	283.17648058293736	12	0	0	2.1487806476604376	282.97736044521724	10.617562375437519	1500	1700	0	2020-05-31 21:14:37.192420
AQC8WQHV3U67X	2	1	1	1286	184.24105464190026	7	75	-164.5	291.8072663268026	68.44289584828287	-171.05652932133512	1700	1650	0	2020-05-31 21:14:43.450923
AQC8WQHV3U67X	3	2	0	324	270.951081505885	1	-1	-1.5	3.4336890921450536	270.4646658092168	16.228158180070693	1650	1850	0	2020-05-31 21:14:47.772637
AQC8WQHV3U67X	4	2	1	1053	235.00633314577772	9	-231	-30.5	188.18779969625322	-232.6108147078522	-33.46917237658433	1850	1800	0	2020-05-31 21:14:53.489796
AQC8WQHV3U67X	5	3	0	112	291.8994867510462	9	2	-1.5	59.58025062350754	147.79776933289122	251.71636765563275	1800	2000	0	2020-05-31 21:14:57.324639
AQC8WQHV3U67X	6	3	1	1322	295.27995468431766	1	41	-292.5	277.69442558426573	39.53496525891732	-292.62132212186606	2000	1950	0	2020-05-31 21:15:02.958076
AQC8WQHV3U67X	7	4	1	1293	224.21151904857277	13	95	202.5	65.66014904225712	92.4083667581739	204.28288970727658	1950	1900	0	2020-05-31 21:15:08.695187
AQC8WQHV3U67X	8	5	1	1343	274.0088777108666	9	180	-205.5	312.30013699033594	184.41188807113397	-202.66504533936828	1900	1850	0	2020-05-31 21:15:14.324569
AQC8WQHV3U67X	9	6	1	827	271.2397100830854	0	259	90.5	19.78439520959708	255.22924127858963	91.80966573466924	1850	1800	0	2020-05-31 21:15:19.792689
AQC8WQHV3U67X	10	7	1	1063	242.69605869554547	11	215	116.5	30.159590325655614	209.84213737452797	121.93299097636121	1800	1750	0	2020-05-31 21:15:25.095651
AQC8WQHV3U67X	11	8	1	1165	238.37233343537144	11	205	-127.5	328.8642370093189	204.03348943550426	-123.25463291980495	1750	1700	0	2020-05-31 21:15:30.331426
AQC8WQHV3U67X	12	9	1	1051	287.35666002801605	13	259	142.5	29.521942714150295	250.04829640225154	141.59696158035507	1700	1650	0	2020-05-31 21:15:35.106992
AQC8WQHV3U67X	13	10	0	0	205.40108945245595	8	0	0	170.72558406656103	-202.71604088639015	33.103086194541	1650	1850	0	2020-05-31 21:15:41.050685
AQC8WQHV3U67X	14	10	1	1135	122.21169349026107	8	-100	59.5	146.307373078978	-101.68324723015058	67.79539260517333	1850	1800	0	2020-05-31 21:15:45.922897
AQC8WQHV3U67X	15	11	1	941	197.71361086060102	14	29	-208.5	276.95740601321165	23.949335521458572	-196.25774187944225	1800	1750	0	2020-05-31 21:15:51.129815
AQC8WQHV3U67X	16	12	0	0	206.56288148477265	7	0	0	27.075758211265768	183.92471865049427	94.0208587316068	1750	1950	0	2020-05-31 21:15:56.889669
AQC8WQHV3U67X	17	12	1	1374	239.63092560976955	13	-224	-87.5	201.7800474485721	-222.52489471814917	-88.91373200620667	1950	1900	0	2020-05-31 21:16:02.078604
AQC8WQHV3U67X	18	13	1	1078	197.87000755863286	5	-71	179.5	109.63636213790872	-66.49409110167132	186.36275309142667	1900	1850	0	2020-05-31 21:16:07.329882
AQC8WQHV3U67X	19	14	1	1158	162.32071081103527	1	144	75.5	25.248783621385556	146.8132720459127	69.23782426804419	1850	1800	0	2020-05-31 21:16:12.554253
AQC8WQHV3U67X	20	15	1	949	154.98195892978947	12	-61	146.5	111.57637026984888	-56.99323080911651	144.12209835987585	1800	1750	0	2020-05-31 21:16:17.245285
AQC8WQHV3U67X	21	16	1	1613	248.99238535185617	5	243	60.5	13.180324484181538	242.43324411431772	56.7743790051012	1750	1700	0	2020-05-31 21:16:23.123582
AQC8WQHV3U67X	22	17	1	1053	129.0232499697834	7	-127	15.5	171.52598528279316	-127.61467701767113	19.01297563351646	1700	1650	0	2020-05-31 21:16:27.928259
AQC8WQHV3U67X	23	18	1	1152	248.12392022976834	4	-241	-28.5	185.9990714984269	-246.7650917044115	-25.93201315559247	1650	1600	0	2020-05-31 21:16:33.336099
AQC8WQHV3U67X	24	19	1	1382	278.22579292569503	14	-211	-173.5	218.4711412977929	-217.82898444686592	-173.08993438088416	1600	1550	0	2020-05-31 21:16:38.474333
AQC8WQHV3U67X	25	20	1	1438	257.534811192349	10	158	-209.5	307.3614822753284	156.28284935903523	-204.6945284371323	1550	1500	0	2020-05-31 21:16:44.195067
AQC8WQHV3U67X	26	21	1	806	139.5766552322985	12	-74	-132.5	236.7283895817206	-76.57295551756235	-116.69715150397347	1500	1450	0	2020-05-31 21:16:48.743741
AQC8WQHV3U67X	27	22	1	1190	288.02675116860246	12	-59	-280.5	258.3222447416304	-58.29866020951757	-282.0650201753405	1450	1400	0	2020-05-31 21:16:54.173620
AQC8WQHV3U67X	28	23	0	0	175.64001147576835	12	0	0	93.99151115686549	-12.226068585194	175.21397455156986	1400	1600	0	2020-05-31 21:16:59.603318
AQC8WQHV3U67X	29	23	1	1227	220.52881849922426	12	206	90.5	22.861019406126914	203.20626411080957	85.67481552236747	1600	1550	0	2020-05-31 21:17:04.590823
AQC8WQHV3U67X	30	24	1	1192	286.71462488623877	0	-225	-179.5	218.64356995652327	-223.93726044752592	-179.0457469668396	1550	1500	0	2020-05-31 21:17:10.042529
AQC8WQHV3U67X	31	25	1	1073	133.63224231745903	11	-81	100.5	130.94689157281698	-87.57711864166424	100.93475356494389	1500	1450	0	2020-05-31 21:17:14.882515
AQC8WQHV3U67X	32	26	1	1032	149.18321899766687	12	91	-129.5	299.8760579481244	74.31195781950417	-129.35751139975625	1450	1400	0	2020-05-31 21:17:20.601370
AQC8WQHV3U67X	33	27	0	0	137.04133601511126	11	0	0	52.75788394160213	82.93528581697959	109.09659088744493	1400	1600	0	2020-05-31 21:17:25.765651
AQC8WQHV3U67X	34	27	0	0	188.82051509666624	3	0	0	322.6818322126508	150.1654227103978	-114.47066324424745	1600	1800	0	2020-05-31 21:17:31.590393
AQC8WQHV3U67X	35	27	1	1171	255.45322181145136	8	-229	106.5	154.2029099137983	-229.99497713844443	111.16950582303132	1800	1750	0	2020-05-31 21:17:36.788882
AQC8WQHV3U67X	36	28	1	1037	212.1010879688131	7	193	-57.5	344.5407748648158	204.42735351086736	-56.536082762224105	1750	1700	0	2020-05-31 21:17:41.854326
AQC8WQHV3U67X	37	29	1	1223	179.95270462048342	14	146	-107.5	322.65525731330763	143.06240334989852	-109.16100332984254	1700	1650	0	2020-05-31 21:17:46.841366
AQC8WQHV3U67X	38	30	1	983	163.27553690985738	12	-116	-123.5	228.82479382507066	-107.494703422077	-122.89747633455256	1650	1600	0	2020-05-31 21:17:52.062872
AQC8WQHV3U67X	39	31	1	1027	152.1012762787509	0	147	12.5	6.448086140599729	151.13908628286086	17.081418067796587	1600	1550	0	2020-05-31 21:21:23.232594
AQC8WQHV3U67X	40	32	1	1205	293.59720757940374	8	-197	219.5	129.34707092175884	-186.14544503511163	227.04447491869016	1550	1500	0	2020-05-31 21:21:28.205823
AQC8WQHV3U67X	41	33	1	909	127.83243595313327	7	60	112.5	61.942958879033576	60.12603140152469	112.80953873505018	1500	1450	0	2020-05-31 21:21:33.336289
AQC8WQHV3U67X	42	34	1	1174	256.8812699428779	7	-240	39.5	169.97730201813312	-252.9609751423531	44.70717954082457	1450	1400	0	2020-05-31 21:21:38.597382
AQC8WQHV3U67X	43	35	1	1135	211.68965565499516	4	81	198.5	67.20100457426693	82.02961947375319	195.15033138665606	1400	1350	0	2020-05-31 21:21:43.470326
AQC8WQHV3U67X	44	36	1	1065	156.62178470248836	9	76	129.5	59.00498302726548	80.65450633010695	134.25808747349024	1350	1300	0	2020-05-31 21:21:52.172465
AQC8WQHV3U67X	45	37	1	1080	131.24677310560057	9	81	103.5	52.32306021512578	80.21914878532256	103.87783025646657	1300	1250	0	2020-05-31 21:21:58.539861
AQC8WQHV3U67X	46	38	1	1206	241.97398456872662	1	-94	222.5	113.2698138071798	-95.5946211864691	222.29052523281737	1250	1200	0	2020-05-31 21:22:03.997990
AQC8WQHV3U67X	47	39	0	0	143.64381838951317	0	0	0	121.02523725737292	-74.0362625703724	123.09418502159359	1200	1400	0	2020-05-31 21:22:08.956339
AQC8WQHV3U67X	48	39	1	1276	251.47040971538664	13	-232	-84.5	199.46278180560506	-237.1009193674146	-83.78854932239354	1400	1350	0	2020-05-31 21:22:14.880421
AQC8WQHV3U67X	49	40	0	0	157.25252489557477	3	0	0	299.1500183211888	76.59738793733901	-137.336072272401	1350	1550	0	2020-05-31 21:22:22.825775
AQC8WQHV3U67X	50	40	1	1434	247.5758951003841	11	-175	163.5	136.47157224889966	-179.50063186336538	170.50908185609632	1550	1500	0	2020-05-31 21:22:26.686738
AQC8WQHV3U67X	51	41	1	990	146.97981264717393	6	19	139.5	83.77660782446851	15.93338027592211	146.1136294764496	1500	1450	0	2020-05-31 21:22:32.473107
AQC8WQHV3U67X	52	42	1	1288	173.99498502662664	14	1	172.5	85.44301719213752	13.82399352522964	173.44495385404107	1450	1400	0	2020-05-31 21:22:38.034138
AQC8WQHV3U67X	53	43	1	1084	220.39232886411992	13	-221	20.5	174.3267639623365	-219.3128154054496	21.7868680880379	1400	1350	0	2020-05-31 21:22:42.875918
AQC8WQHV3U67X	54	44	1	933	143.4357885996441	1	-67	-131.5	243.63468036988132	-63.69882040136652	-128.51570227282053	1350	1300	0	2020-05-31 21:22:48.064700
AQC8WQHV3U67X	55	45	1	1132	224.98760924689248	7	116	186.5	58.36773537019302	117.99822789939128	191.56158938376893	1300	1250	0	2020-05-31 21:22:53.877021
AQC8WQHV3U67X	56	46	1	985	164.7768421924215	12	74	148.5	62.21972477228708	76.79953415192192	145.78490757603805	1250	1200	0	2020-05-31 21:22:58.369217
AQC8WQHV3U67X	57	47	1	1175	204.06493186916154	2	209	-2.5	359.6101265232494	204.06020755440986	-1.3885645885997857	1200	1150	0	2020-05-31 21:23:03.806745
AQC8WQHV3U67X	58	48	0	0	209.58156681143353	7	0	0	143.42482127868445	-168.3098618475036	124.88484116180642	1150	1350	0	2020-05-31 21:23:09.018366
AQC8WQHV3U67X	59	48	1	1042	164.3295368744516	5	-57	163.5	109.58641266268157	-55.087887830040174	154.82093302843987	1350	1300	0	2020-05-31 21:23:16.653725
AQC8WQHV3U67X	60	49	1	1036	202.00923310590917	8	184	82.5	26.302944472941583	181.09393635077407	89.51377814068256	1300	1250	0	2020-05-31 21:23:19.042366
AQC8WQHV3U67X	61	50	1	1108	197.87542322563098	9	-175	90.5	151.56973040228738	-174.01108836081983	94.20628558756331	1250	1200	0	2020-05-31 21:23:24.190329
AQC8WQHV3U67X	62	51	0	0	291.66803665740787	11	0	0	283.18498891576115	66.52825169723343	-283.97928680397905	1200	1400	0	2020-05-31 21:23:29.154439
AQC8WQHV3U67X	63	51	1	1098	153.62816310880055	11	-100	-113.5	228.89080621123423	-101.00992662558521	-115.75235299240408	1400	1350	0	2020-05-31 21:23:34.567174
AQC8WQHV3U67X	64	52	1	960	115.34159761098253	8	-109	32.5	163.61088360414038	-110.65499044913268	32.54469585287545	1350	1300	0	2020-05-31 21:23:39.223175
AQC8WQHV3U67X	65	53	1	1244	236.7672902859987	3	67	-226.5	289.16660774005186	77.7345379212891	-223.64277623821891	1300	1250	0	2020-05-31 21:23:44.754431
AQC8WQHV3U67X	66	54	1	1183	265.92252813572713	2	-268	-66.5	194.5972459399621	-257.3388908205367	-67.01855147160738	1250	1200	0	2020-05-31 21:24:00.723578
AQC8WQHV3U67X	67	55	1	1120	177.79629349454927	13	172	-57.5	341.26189269660784	168.37252618801506	-57.11579821263189	1200	1150	0	2020-05-31 21:24:00.883651
AQC8WQHV3U67X	68	56	1	1120	290.39196364890586	11	-168	-227.5	232.77496890282862	-175.6717592008621	-231.22916245824567	1150	1100	0	2020-05-31 21:24:02.067650
AQC8WQHV3U67X	69	57	0	0	226.51030681115037	13	0	0	43.96004874697588	163.0475545113588	157.23362890789917	1100	1300	0	2020-05-31 21:24:05.303605
AQC8WQHV3U67X	70	57	1	1007	295.12814736048483	5	-126	-266.5	246.0409643254202	-119.84663814080322	-269.69873320202936	1300	1250	0	2020-05-31 21:24:10.101156
AQC8WQHV3U67X	71	58	1	1081	246.7308992169302	13	-256	18.5	176.67767288402942	-246.31622085652182	14.298810137774744	1250	1200	0	2020-05-31 21:24:18.038468
AQC8WQHV3U67X	72	59	1	1071	107.27876708576302	13	-87	57.5	143.79633759051146	-86.56565719121028	63.36498135796502	1200	1150	0	2020-05-31 21:24:20.253232
AQC8WQHV3U67X	73	60	0	0	263.83958995896603	12	0	0	158.2762714202556	-245.10153454549254	97.6553480008138	1150	1350	0	2020-05-31 21:24:25.741508
AQC8WQHV3U67X	74	60	1	952	129.75330805835262	5	-49	119.5	112.48446729956446	-49.62194135315842	119.88988234388029	1350	1300	0	2020-05-31 21:24:31.636754
AQC8WQHV3U67X	75	61	1	1117	210.24373401670215	0	213	12.5	4.17079811242437	209.6869402662191	15.291003076216644	1300	1250	0	2020-05-31 21:36:58.225021
AQC8WQHV3U67X	76	62	1	993	177.503388921613	12	107	-159.5	309.4903730808133	112.88302490442138	-136.98494722809946	1250	1200	0	2020-05-31 21:37:02.965837
AQC8WQHV3U67X	77	63	0	0	256.83780352614144	4	0	0	277.1897090859907	32.1445449297447	-254.81833833417966	1200	1400	0	2020-05-31 21:37:08.379701
AQC8WQHV3U67X	78	63	1	1259	209.51612138554708	4	173	-128.5	324.0522697070129	169.6143797858335	-122.99580192148973	1400	1350	0	2020-05-31 21:37:14.029539
AQC8WQHV3U67X	79	64	1	1152	281.68460687928564	10	218	-175.5	320.9949185284472	218.89433199737647	-177.2892810413535	1350	1300	0	2020-05-31 21:37:18.961112
AQC8WQHV3U67X	80	65	1	1232	144.17259305852158	0	-83	120.5	126.80623367772672	-86.37534503714086	115.4341212940651	1300	1250	0	2020-05-31 21:37:24.461207
AQC8WQHV3U67X	81	66	0	0	211.06435146556367	5	0	0	134.29320782182248	-147.39266102711122	151.0746965409035	1250	1450	0	2020-05-31 21:37:29.434328
AQC8WQHV3U67X	82	66	1	853	103.08381894456193	13	-3	102.5	89.59002385106251	0.7376031329387543	103.08117999816214	1450	1400	0	2020-05-31 21:37:34.540041
AQC8WQHV3U67X	83	67	1	1198	250.65688369829752	4	247	-35.5	353.2257471317408	248.90695156590206	-29.56692083243595	1400	1350	0	2020-05-31 21:37:39.750246
AQC8WQHV3U67X	84	68	1	1175	166.16244890635042	8	-94	117.5	127.38856070289317	-100.89670029994944	132.0220257954622	1350	1300	0	2020-05-31 21:37:44.969457
AQC8WQHV3U67X	85	69	1	1029	192.57506988490363	14	-36	191.5	101.78390058074547	-39.32787217347911	188.51651389595025	1300	1250	0	2020-05-31 21:37:49.770797
AQC8WQHV3U67X	86	70	1	1237	281.95391665144786	11	17	278.5	87.4674825855976	12.458521800406734	281.67853370400877	1250	1200	0	2020-05-31 21:37:55.219231
AQC8WQHV3U67X	87	71	0	0	238.5856335786696	4	0	0	273.15008178275195	13.110663527072933	-238.2251352229967	1200	1400	0	2020-05-31 21:38:00.467139
AQC8WQHV3U67X	88	71	1	982	107.37723876610899	1	-43	-94.5	244.48492850094362	-46.25258501764305	-96.90495232040352	1400	1350	0	2020-05-31 21:38:05.448914
AQC8WQHV3U67X	89	72	1	1190	144.30351163653316	5	47	-129.5	289.5976603767337	48.40128837728475	-135.94417513837797	1350	1300	0	2020-05-31 21:38:10.369815
AQC8WQHV3U67X	90	73	1	1024	199.2282994854296	3	-141	125.5	138.83303351266312	-149.97797745838776	131.14313399239538	1300	1250	0	2020-05-31 21:38:15.731103
AQC8WQHV3U67X	91	74	1	1137	221.15466023710346	3	226	-0.5	0.6034595433652346	221.1423939495971	2.329236533686186	1250	1200	0	2020-05-31 21:38:20.559828
AQC8WQHV3U67X	92	75	0	0	108.83746595398497	3	0	0	8.667835771129448	107.59439457353334	16.40244651384844	1200	1400	0	2020-05-31 21:38:26.050368
AQC8WQHV3U67X	93	75	1	1075	163.22315874407752	2	61	144.5	66.40086578055812	65.34397355155257	149.57260668614535	1400	1350	0	2020-05-31 21:38:30.861791
AQC8WQHV3U67X	94	76	1	1079	125.12715951605205	7	-123	21.5	172.83361515020465	-124.14967402260638	15.609756200405927	1350	1300	0	2020-05-31 21:38:36.211259
AQC8WQHV3U67X	95	77	1	1167	162.68649223944198	2	-164	-44.5	200.46079046139593	-152.4228665027433	-56.86971535238166	1300	1250	0	2020-05-31 21:38:41.129229
AQC8WQHV3U67X	96	78	1	1245	137.3051759777704	12	-78	113.5	127.64232736854491	-83.85643171027601	108.72354947805151	1250	1200	0	2020-05-31 21:38:46.721078
AQC8WQHV3U67X	97	79	1	996	136.78905671734532	8	-64	-116.5	240.05204482690752	-68.28689404939875	-118.52487561143991	1200	1150	0	2020-05-31 21:38:51.699151
AQC8WQHV3U67X	98	80	1	960	177.14837224991476	8	152	-90.5	327.2698833941944	149.02194007809481	-95.7810376126459	1150	1100	0	2020-05-31 21:38:56.924859
AQC8WQHV3U67X	99	81	0	0	217.87503095442733	5	0	0	90.30497988915405	-1.1597222269347103	217.8719444025527	1100	1300	0	2020-05-31 21:39:01.769678
AQC8WQHV3U67X	100	81	1	1227	270.47792125602007	13	-185	-201.5	227.4303664750421	-182.97445857560106	-199.19501348162166	1300	1250	0	2020-05-31 21:39:07.701230
AQC8WQHV3U67X	101	82	1	1095	220.63125718323738	9	183	-123.5	327.65156895121805	186.39146000945692	-118.05242598862107	1250	1200	0	2020-05-31 21:39:12.601631
AQC8WQHV3U67X	102	83	1	1006	103.15241654300218	0	-77	-76.5	222.41845298424295	-76.15104739374402	-69.58044998055689	1200	1150	0	2020-05-31 21:39:17.844786
AQC8WQHV3U67X	103	84	1	1076	240.3268292194019	13	-125	-199.5	237.2970903182476	-129.84451340893025	-202.2310242773094	1150	1100	0	2020-05-31 21:39:22.972537
AQC8WQHV3U67X	104	85	0	0	273.4663414260085	11	0	0	161.4045412919069	-259.1896722582065	87.20409214944996	1100	1300	0	2020-05-31 21:39:27.761090
AQC8WQHV3U67X	105	85	1	1193	282.7274520116053	4	269	66.5	13.844433590859984	274.51393743380356	67.65286598189567	1300	1250	0	2020-05-31 21:39:33.212326
AQC8WQHV3U67X	106	86	1	1110	244.09669960331337	1	150	169.5	46.64153510762649	167.58718108221464	177.4760138558087	1250	1200	0	2020-05-31 21:39:38.331077
AQC8WQHV3U67X	107	87	1	1166	263.8524678738514	6	-258	53.5	167.19452445918228	-257.2899760742351	58.48070634697673	1200	1150	0	2020-05-31 21:39:43.307592
AQC8WQHV3U67X	108	88	0	0	183.82150233505766	11	0	0	178.83783803703557	-183.78368947957037	3.7282974659299546	1150	1350	0	2020-05-31 21:39:48.682472
AQC8WQHV3U67X	109	88	1	1052	216.16868676528742	0	115	177.5	57.484533635406756	116.19656038146992	182.28346193043504	1350	1300	0	2020-05-31 21:39:53.500541
AQC8WQHV3U67X	110	89	1	1175	193.94140376158705	5	-43	-184.5	256.50456470512034	-45.25969719687747	-188.58639373682792	1300	1250	0	2020-05-31 21:39:58.958847
AQC8WQHV3U67X	111	90	1	1068	105.23238872936483	14	-66	-78.5	228.25613168827812	-70.0639159924596	-78.51689826712283	1250	1200	0	2020-05-31 21:40:03.749430
AQC8WQHV3U67X	112	91	0	0	194.55098420918927	6	0	0	145.83374053469828	-160.9737085250623	109.25909857056527	1200	1400	0	2020-05-31 21:44:34.361692
AQC8WQHV3U67X	113	91	1	1190	231.99342789285598	6	126	-191.5	306.67296905696105	138.55733697824337	-186.07206924999593	1400	1350	0	2020-05-31 21:44:39.561441
AQC8WQHV3U67X	114	92	1	1070	226.95216409894394	11	-51	-220.5	255.93534845775125	-55.15314461120214	-220.14862122822802	1350	1300	0	2020-05-31 21:44:44.678926
AQC8WQHV3U67X	115	93	1	996	153.93493813872766	10	124	-95.5	319.1147694066925	116.37823362402884	-100.75749063134151	1300	1250	0	2020-05-31 21:44:49.406054
AQC8WQHV3U67X	116	94	0	0	256.68478920509256	4	0	0	212.05476170554624	-217.5509411585735	-136.23020593936462	1250	1450	0	2020-05-31 21:44:54.940094
AQC8WQHV3U67X	117	94	1	1188	294.7883582351374	8	136	256.5	62.155038106052785	137.68993993030455	260.6562038259532	1450	1400	0	2020-05-31 21:45:00.762255
AQC8WQHV3U67X	118	95	1	1136	129.84217290806495	11	120	-38.5	341.54116955835434	123.16197590901048	-41.111039340743496	1400	1350	0	2020-05-31 21:45:05.678922
AQC8WQHV3U67X	119	96	1	1326	168.69332023764213	0	-167	-41.5	192.83215300789433	-164.48018315734524	-37.466059858568535	1350	1300	0	2020-05-31 21:45:11.250162
AQC8WQHV3U67X	120	97	1	1223	226.26124786630197	10	131	-177.5	308.39175644097566	140.5161581848923	-177.33967851266243	1300	1250	0	2020-05-31 21:45:16.771347
AQC8WQHV3U67X	121	98	1	1039	279.89403879547956	13	100	-265.5	289.7550823104466	94.60424161166773	-263.4211654790226	1250	1200	0	2020-05-31 21:45:22.080176
AQC8WQHV3U67X	122	99	1	1133	284.26288034805265	7	125	-254.5	296.03705063805876	124.7778352746274	-255.4131495595895	1200	1150	0	2020-05-31 21:45:27.384754
AQC8WQHV3U67X	123	100	0	0	264.2237859042023	12	0	0	273.4062664523095	15.69900180985182	-263.75699114852677	1150	1350	0	2020-05-31 21:45:33.136832
AQC8WQHV3U67X	124	100	1	1038	164.02482819797427	7	176	30.5	12.24349638216676	160.29411371990332	34.78421153520201	1350	1300	0	2020-05-31 21:45:38.390959
AQC8WQHV3U67X	125	101	1	1149	112.26886532689679	7	49	96.5	63.32350684830786	50.40338053439266	100.31847961614098	1300	1250	0	2020-05-31 21:45:43.254937
AQC8WQHV3U67X	126	102	1	1087	236.71823310156648	12	9	-232.5	270.8189421635024	3.383354636189756	-236.69405314484212	1250	1200	0	2020-05-31 21:45:48.599432
AQC8WQHV3U67X	127	103	0	0	156.1979283501006	6	0	0	123.85035425158551	-87.00626181187002	129.72163746417746	1200	1400	0	2020-05-31 21:45:53.579331
AQC8WQHV3U67X	128	103	1	1310	189.78014508958051	1	54	181.5	72.89241438167528	55.82703011722367	181.38314744901973	1400	1350	0	2020-05-31 21:45:59.560726
AQC8WQHV3U67X	129	104	1	1069	262.8332388773876	13	-232	121.5	152.25065186114296	-232.6055594264524	122.3763260712014	1350	1300	0	2020-05-31 21:46:04.628721
AQC8WQHV3U67X	130	105	0	0	281.3409025904878	3	0	0	352.3369579995894	278.8283651054934	-37.515947049595255	1300	1500	0	2020-05-31 21:46:09.971435
AQC8WQHV3U67X	131	105	1	963	122.1698308703858	14	-116	-12.5	189.24724385766908	-120.58212368925118	-19.632091622870973	1500	1450	0	2020-05-31 21:46:14.677502
AQC8WQHV3U67X	132	106	1	1094	250.07401452080714	2	-106	-225.5	245.75614781929337	-102.68564653443167	-228.01901397549858	1450	1400	0	2020-05-31 21:46:20.019589
AQC8WQHV3U67X	133	107	1	1126	213.19203783568184	1	-95	-182.5	240.47056022864516	-105.07610936248088	-185.49893864325682	1400	1350	0	2020-05-31 21:46:26.400922
AQC8WQHV3U67X	134	108	1	1045	186.48347050516662	6	187	-26.5	351.74913758065236	184.55322240544712	-26.76178004948337	1350	1300	0	2020-05-31 21:46:29.971913
AQC8WQHV3U67X	135	109	1	1133	266.03320479668474	6	-196	182.5	137.3604193999907	-195.70182490783262	180.20671958098242	1300	1250	0	2020-05-31 21:46:35.361964
AQC8WQHV3U67X	136	110	1	1014	111.57161785648833	11	101	-6.5	354.3610228330246	111.03169892313362	-10.963017164853646	1250	1200	0	2020-05-31 21:46:40.389850
AQC8WQHV3U67X	137	111	1	991	193.38371421113948	4	145	112.5	38.48636217783437	151.37232229188305	120.34816561152047	1200	1150	0	2020-05-31 21:46:45.139178
AQC8WQHV3U67X	138	112	1	1118	260.8727408057991	1	-91	-247.5	250.22857499779357	-88.24506587487988	-245.4941857646892	1150	1100	0	2020-05-31 21:46:50.507516
AQC8WQHV3U67X	139	113	0	0	109.48137159454205	2	0	0	19.043878913744877	103.48934314214951	35.722913966089486	1100	1300	0	2020-05-31 21:46:55.620944
AQC8WQHV3U67X	140	113	1	1080	176.71155817330805	9	116	114.5	43.346080295878544	128.5083473802224	121.29542219573878	1300	1250	0	2020-05-31 21:47:00.460380
AQC8WQHV3U67X	141	114	1	1230	257.29650302197126	4	-138	-220.5	239.98282774521613	-128.71502923660137	-222.78674044017097	1250	1200	0	2020-05-31 21:47:05.996902
AQC8WQHV3U67X	142	115	1	967	170.9715150015111	13	136	116.5	41.614607062208144	127.8232292730695	113.54506153997296	1200	1150	0	2020-05-31 21:47:10.671553
AQC8WQHV3U67X	143	116	0	0	192.66141967980633	11	0	0	108.99784803285385	-62.71758087862459	182.16730684118832	1150	1350	0	2020-05-31 21:47:16.068643
AQC8WQHV3U67X	144	116	1	1325	198.9630899517707	13	-139	-132.5	223.7820634542748	-143.64674880559025	-137.66598243843708	1350	1300	0	2020-05-31 21:47:21.427922
AQC8WQHV3U67X	145	117	1	1045	169.90765558230828	5	-13	162.5	94.13250188759713	-12.244097180884594	169.46590662933164	1300	1250	0	2020-05-31 21:47:26.240238
AQC8WQHV3U67X	146	118	1	1174	148.34512768630557	13	-65	-138.5	244.97118971841024	-62.7609563016006	-134.41480302546623	1250	1200	0	2020-05-31 21:47:31.687774
AQC8WQHV3U67X	147	119	1	1031	222.6669414090539	5	-106	190.5	118.42684845011782	-105.99755911190864	195.81900893115682	1200	1150	0	2020-05-31 21:47:36.448242
AQC8WQHV3U67X	148	120	0	0	188.24537099353122	0	0	0	92.20886177653013	-7.255421196598286	188.1054984942018	1150	1350	0	2020-05-31 21:47:41.907541
AQC8WQHV3U67X	149	120	1	1177	269.13468125622273	2	-256	48.5	168.44837047923204	-263.6832655253274	53.89445367371587	1350	1300	0	2020-05-31 21:47:46.818820
AQC8WQHV3U67X	150	121	1	1080	203.77160162845476	7	-3	-204.5	270.5589629199792	1.987911914099454	-203.76190477232845	1300	1250	0	2020-05-31 21:47:56.227596
AQC8WQHV3U67X	151	122	1	1205	249.77986046524276	12	237	6.5	1.7989865221908463	249.65674792337535	7.841358961325606	1250	1200	0	2020-05-31 21:48:01.169355
AQC8WQHV3U67X	152	123	1	1063	108.08446947542842	2	9	-109.5	277.31955502234956	13.770300179954683	-107.20369104997624	1200	1150	0	2020-05-31 21:48:06.499462
AQC8WQHV3U67X	153	124	0	0	191.3291083388907	11	0	0	152.4205762229319	-169.58836305936947	88.58111995565682	1150	1350	0	2020-05-31 21:48:14.159247
AQC8WQHV3U67X	154	124	1	1121	298.0423743935883	9	-238	-177.5	217.37668151614722	-236.84287396918512	-180.92736107118947	1350	1300	0	2020-05-31 21:48:19.270856
AQC8WQHV3U67X	155	125	1	1053	238.167064158924	8	-228	-50.5	192.23849610953673	-232.75440514126564	-50.48700166792042	1300	1250	0	2020-05-31 21:48:24.087720
AQC8WQHV3U67X	156	126	1	1045	198.51747190450635	10	164	-108.5	327.51416326531347	167.45429924758233	-106.62196919424073	1250	1200	0	2020-05-31 21:48:29.379369
AQC8WQHV3U67X	157	127	1	1180	123.4638960893013	12	-73	-88.5	228.3636368480736	-82.02949577617613	-92.27402375672199	1200	1150	0	2020-05-31 21:48:34.588739
AQC8WQHV3U67X	158	128	0	0	112.80273402341562	2	0	0	130.5463923225101	-73.32894405374596	85.71652563607581	1150	1350	0	2020-05-31 21:48:39.728842
AQC8WQHV3U67X	159	128	0	0	279.3864115540578	12	0	0	356.948281560484	278.9902099133464	-14.873793516123623	1350	1550	0	2020-05-31 21:48:45.107472
AQC8WQHV3U67X	160	128	1	994	214.10184350512748	3	-96	-181.5	241.75931935039128	-101.30793549577403	-188.61681154626217	1550	1500	0	2020-05-31 21:48:50.091771
AQC8WQHV3U67X	161	129	1	892	148.27318412272197	7	-136	93.5	142.59656733339094	-117.7849896210562	90.06460653252361	1500	1450	0	2020-05-31 21:48:55.297385
AQC8WQHV3U67X	162	130	1	1118	280.23190154963635	5	51	-270.5	279.1582405364582	44.6021804543476	-276.65965398815	1450	1400	0	2020-05-31 21:49:00.187753
AQC8WQHV3U67X	163	131	1	1134	290.1730887287082	3	24	-290.5	273.4858181701365	17.64295316852575	-289.63623327521015	1400	1350	0	2020-05-31 21:49:05.539812
AQC8WQHV3U67X	164	132	1	1085	221.99481185448178	1	-214	98.5	154.00140870655895	-199.53000781317846	97.3112145252525	1350	1300	0	2020-05-31 21:49:10.647865
AQC8WQHV3U67X	165	133	1	967	200.15052598957035	6	28	214.5	83.79687978343127	21.62696387351993	198.97866088481734	1300	1250	0	2020-05-31 21:49:15.622025
AQC8WQHV3U67X	166	134	1	970	255.85583537916284	6	241	79.5	18.30119474468141	242.91437345817056	80.34186744776171	1250	1200	0	2020-05-31 21:49:20.633665
AQC8WQHV3U67X	167	135	1	903	236.99239586647565	2	196	-118.5	329.339365189426	203.86153156666535	-120.85475433687253	1200	1150	0	2020-05-31 21:49:25.268422
AQC8WQHV3U67X	168	136	0	0	142.3714193621169	14	0	0	350.0264823438613	140.21988947626434	-24.657729953261605	1150	1350	0	2020-05-31 21:49:30.680843
AQC8WQHV3U67X	169	136	1	1148	299.21433977930326	0	-159	247.5	124.34908296672094	-168.8267622400145	247.03591941480485	1350	1300	0	2020-05-31 21:49:35.836732
AQC8WQHV3U67X	170	137	1	1047	259.2373876991892	8	185	-187.5	314.27866149782034	180.98624355898218	-185.60173173628664	1300	1250	0	2020-05-31 21:49:40.937846
AQC8WQHV3U67X	171	138	1	1199	120.08024671937378	4	-83	70.5	142.17811385503165	-94.85388854612239	73.63426838005162	1250	1200	0	2020-05-31 21:49:45.888827
AQC8WQHV3U67X	172	139	1	1171	249.16581722714167	0	-85	-229.5	249.323773883864	-87.97712798119346	-233.11720105271098	1200	1150	0	2020-05-31 21:49:51.353457
AQC8WQHV3U67X	173	140	1	958	196.9740801617989	6	67	-185.5	288.7606903730424	63.35004334587602	-186.50887449036415	1150	1100	0	2020-05-31 21:49:56.021336
AQC8WQHV3U67X	174	141	0	0	196.394842927129	6	0	0	125.40839186190412	-113.79128085900153	160.07023061406358	1100	1300	0	2020-05-31 21:50:01.401281
AQC8WQHV3U67X	175	141	0	0	213.8072181310922	7	0	0	170.1832256286777	-210.67665805086412	36.45370046340592	1300	1500	0	2020-05-31 21:50:06.478577
AQC8WQHV3U67X	176	141	1	1048	148.85949011505647	11	164	-0.5	2.0889882229234225	148.7605607686567	5.42617333941678	1500	1450	0	2020-05-31 21:50:13.258476
AQC8WQHV3U67X	177	142	1	1087	261.1092334584837	11	110	231.5	64.0615007533659	114.21078122578321	234.80615249408015	1450	1400	0	2020-05-31 21:50:18.430226
AQC8WQHV3U67X	178	143	1	1111	194.74084163778858	11	-30	195.5	98.99224569613862	-30.438147726531497	192.3473799269751	1400	1350	0	2020-05-31 21:50:23.511037
AQC8WQHV3U67X	179	144	1	1181	269.79090197631734	0	233	128.5	27.49975599243311	239.30798327816288	124.57455570273326	1350	1300	0	2020-05-31 21:50:28.496039
AQC8WQHV3U67X	180	145	1	1024	167.89666294831767	3	-156	-56.5	200.854794423948	-156.89702134493697	-59.7713486736528	1300	1250	0	2020-05-31 21:50:33.704224
AQC8WQHV3U67X	181	146	1	1171	108.92817350949757	3	-121	-29.5	195.48882243731651	-104.97218209961164	-29.089310224912218	1250	1200	0	2020-05-31 21:50:38.895252
AQC8WQHV3U67X	182	147	1	1143	238.25165919591754	6	180	-133.5	323.14199340339053	190.63099100981435	-142.91143542846288	1200	1150	0	2020-05-31 21:50:44.097976
AQC8WQHV3U67X	183	148	1	1062	190.25021343298062	12	85	-176.5	297.09303507419014	86.64692725118877	-169.3737102068142	1150	1100	0	2020-05-31 21:50:48.904144
AQC8WQHV3U67X	184	149	0	0	192.03135573896316	6	0	0	6.679172888418012	190.7280377619096	22.335111336991524	1100	1300	0	2020-05-31 21:50:54.262786
AQC8WQHV3U67X	185	149	1	934	212.60459096035862	4	126	156.5	52.423924914194224	129.64931460422451	168.4985677092723	1300	1250	0	2020-05-31 21:50:58.950851
AQC8WQHV3U67X	186	150	1	1005	204.37157368383606	10	39	200.5	78.97329028393499	39.08945239999606	200.59849162213575	1250	1200	0	2020-05-31 21:51:04.303343
