AW5O1RK3W60FC	1	1	1	987	170.38266340185356	7	-116	-107	221.51367424999202	-127.58212229890088	-112.9294206910565	1500	1450	0	2020-05-30 17:10:25.343014
AW5O1RK3W60FC	2	2	1	1038	187.04100191243688	11	110	137	49.654449251365584	121.08957859456957	142.5540260820359	1450	1400	0	2020-05-30 17:10:30.711841
AW5O1RK3W60FC	3	3	1	1232	238.302330271139	10	11	229	84.76742674570502	21.73287137656126	237.30925585485463	1400	1350	0	2020-05-30 17:10:35.938079
AW5O1RK3W60FC	4	4	1	1080	118.11129945518819	13	48	-107	295.91623762320194	51.621335420634914	-106.23331298789208	1350	1300	0	2020-05-30 17:10:42.020001
AW5O1RK3W60FC	5	5	1	1076	282.6600581193855	2	183	-198	310.14031220715384	182.22010065936894	-216.0845745807503	1300	1250	0	2020-05-30 17:10:47.110320
AW5O1RK3W60FC	6	6	1	944	219.03760186022862	9	-137	181	130.14041217295141	-141.20543490990138	167.44699513752295	1250	1200	0	2020-05-30 17:10:52.646032
AW5O1RK3W60FC	7	7	1	1072	114.75748217132424	13	-47	107	115.16296807432951	-48.794237248857	103.86723316621107	1200	1150	0	2020-05-30 17:10:57.731259
AW5O1RK3W60FC	8	8	1	977	223.49316713390687	1	29	-226	277.36874927302136	28.66404734817569	-221.6473959810175	1150	1100	0	2020-05-30 17:11:02.721607
AW5O1RK3W60FC	9	9	0	0	150.17734764735295	14	0	0	0.46064168819751394	150.17249416663756	1.207369937141425	1100	1300	0	2020-05-30 17:11:08.205812
AW5O1RK3W60FC	10	9	1	1154	192.0650775808159	4	-174	64	161.04237360163742	-181.6472937268367	62.39595105326269	1300	1250	0	2020-05-30 17:11:13.636795
AW5O1RK3W60FC	11	10	0	0	277.7469471547511	11	0	0	303.38607608071345	152.83799030704506	-231.91359462672236	1250	1450	0	2020-05-30 17:11:18.897373
AW5O1RK3W60FC	12	10	1	1147	152.01090562039002	13	141	-48	340.57120899015746	143.35474015298286	-50.56415630861337	1450	1400	0	2020-05-30 17:11:24.069609
AW5O1RK3W60FC	13	11	1	1171	224.73117386256587	14	-160	-158	224.6765874081421	-159.80338037445065	-158.00943049876943	1400	1350	0	2020-05-30 17:11:29.224828
AW5O1RK3W60FC	14	12	1	1312	235.8438675683572	14	-59	-229	255.1014205455723	-60.637541683996844	-227.91537554127927	1350	1300	0	2020-05-30 17:11:34.555909
AW5O1RK3W60FC	15	13	0	0	299.4977002211077	4	0	0	75.49987176628504	74.98888435060641	289.9578239357991	1300	1500	0	2020-05-30 17:11:40.170789
AW5O1RK3W60FC	16	13	1	1111	262.4333264615923	7	-105	249	112.22491132909533	-99.26364886629293	242.93616209087926	1500	1450	0	2020-05-30 17:11:45.836259
AW5O1RK3W60FC	17	14	1	905	162.65948404236735	1	160	-48	344.09606789517284	156.43328661187334	-44.572800997207345	1450	1400	0	2020-05-30 17:11:50.725931
AW5O1RK3W60FC	18	15	1	1129	244.10771488558387	13	217	-135	329.806082163804	210.9891804839508	-122.76865310563741	1400	1350	0	2020-05-30 17:11:55.874010
AW5O1RK3W60FC	19	16	1	1064	148.30157964896318	11	-42	136	106.5552684616182	-42.25706780789927	142.15378555162144	1350	1300	0	2020-05-30 17:12:00.949890
AW5O1RK3W60FC	20	17	1	1025	118.52114369007718	4	93	-76	317.7958797208254	87.79528260419599	-79.61940626539035	1300	1250	0	2020-05-30 17:12:05.984687
AW5O1RK3W60FC	21	18	1	908	211.75396836022307	4	-55	199	102.65000636314711	-46.37304222229291	206.61385256403258	1250	1200	0	2020-05-30 17:12:10.901451
AW5O1RK3W60FC	22	19	0	0	256.3002712006952	9	0	0	184.56606015807918	-255.48682805691723	-20.403668958427716	1200	1400	0	2020-05-30 17:12:16.109414
AW5O1RK3W60FC	23	19	1	1131	237.61331178751428	8	109	-202	297.7498750542395	110.63574961924866	-210.28508469412992	1400	1350	0	2020-05-30 17:12:21.546705
AW5O1RK3W60FC	24	20	1	1102	159.48036967475775	1	-139	10	176.4739533616106	-159.17846418773854	9.808407130121882	1350	1300	0	2020-05-30 17:12:26.655764
AW5O1RK3W60FC	25	21	1	840	174.83603680061162	11	-104	106	140.53389007212436	-134.97354007070402	111.12957862300601	1300	1250	0	2020-05-30 17:12:31.500710
AW5O1RK3W60FC	26	22	1	842	118.79218235413829	3	-67	-53	205.2466121323986	-107.44519665032165	-50.666678450758496	1250	1200	0	2020-05-30 17:12:36.341960
AW5O1RK3W60FC	27	23	1	975	226.80189768194583	2	-209	-94	202.07162160043168	-210.1806888083788	-85.22428553040065	1200	1150	0	2020-05-30 17:12:41.342955
AW5O1RK3W60FC	28	24	1	1060	202.80414752392335	6	188	103	30.882820907038663	174.05034086713948	104.09611470625511	1150	1100	0	2020-05-30 17:12:46.414210
AW5O1RK3W60FC	29	25	0	0	265.522149356608	13	0	0	10.747512942829074	260.86449079772535	49.51493956167459	1100	1300	0	2020-05-30 17:12:51.531672
AW5O1RK3W60FC	30	25	1	739	128.31191457701482	13	-89	-26	191.65775143903198	-125.66510602387179	-25.927370680965947	1300	1250	0	2020-05-30 17:12:56.282976
AW5O1RK3W60FC	31	26	0	0	207.11233116315145	11	0	0	290.8032796489586	73.55811326742358	-193.6097148708499	1250	1450	0	2020-05-30 17:13:01.532073
AW5O1RK3W60FC	32	26	0	0	277.10636569030123	4	0	0	195.86465023294093	-266.55142608235343	-75.75140368039814	1450	1650	0	2020-05-30 17:13:06.992164
AW5O1RK3W60FC	33	26	1	867	219.02802699432658	5	-165	-124	214.2164628036556	-181.11844508076013	-123.16405912665893	1650	1600	0	2020-05-30 17:13:11.870853
AW5O1RK3W60FC	34	27	1	762	167.4803073854315	14	170	18	10.227526551333668	164.81911526667133	29.73739404571852	1600	1550	0	2020-05-30 17:13:16.649320
AW5O1RK3W60FC	35	28	1	806	227.37032876706928	6	-163	-189	225.25364782946542	-160.06177845691263	-161.48527326309167	1550	1500	0	2020-05-30 17:13:21.453892
AW5O1RK3W60FC	36	29	1	906	278.973639195931	11	209	104	24.912880425270025	253.01495796479128	117.51477529356212	1500	1450	0	2020-05-30 17:13:26.382466
AW5O1RK3W60FC	37	30	1	798	182.32703198714916	7	163	-25	346.8761487644762	177.5649292179939	-41.39858095456576	1450	1400	0	2020-05-30 17:13:31.215851
AW5O1RK3W60FC	38	31	0	0	272.1906284362692	3	0	0	96.099122098773	-28.91993739039168	270.64991304241533	1400	1600	0	2020-05-30 17:13:43.863493
AW5O1RK3W60FC	39	31	1	956	143.13369509590328	3	-71	76	147.37980559293513	-120.55613672740957	77.1587491420716	1600	1550	0	2020-05-30 17:13:48.833386
AW5O1RK3W60FC	40	32	1	936	237.1736573284538	14	207	-62	342.5122831108094	226.2118215920423	-71.27100043190676	1550	1500	0	2020-05-30 17:13:53.768394
AW5O1RK3W60FC	41	33	0	0	245.88589219213458	7	0	0	226.90237770008753	-167.99993077357624	-179.54357476444437	1500	1700	0	2020-05-30 17:13:59.275468
AW5O1RK3W60FC	42	33	1	676	125.37796323204664	6	125	3	3.9891231953984363	125.07420685321328	8.722181163909326	1700	1650	0	2020-05-30 17:14:03.999562
AW5O1RK3W60FC	43	34	1	766	126.10041119903718	11	36	-107	297.7573155115893	58.72843071214824	-111.58980746759386	1650	1600	0	2020-05-30 17:14:08.743189
AW5O1RK3W60FC	44	35	0	1044	157.6175165505505	5	-61	85	140.32590106015076	-121.31634843739207	100.62616521253477	1600	1800	0	2020-05-30 17:14:13.798786
AW5O1RK3W60FC	45	35	1	770	252.95470560305495	14	228	-136	326.09172049712237	209.93512371012324	-141.11458790480683	1800	1750	0	2020-05-30 17:14:18.570580
AW5O1RK3W60FC	46	36	1	925	243.20872313578406	5	-155	-191	226.84838355262553	-166.33805397680746	-177.4320568796607	1750	1700	0	2020-05-30 17:14:26.229225
AW5O1RK3W60FC	47	37	1	924	136.6877641939349	12	117	-45	340.90825337344745	129.16939555365173	-44.708076816622416	1700	1650	0	2020-05-30 17:14:31.165382
AW5O1RK3W60FC	48	38	1	908	262.07765415101346	10	233	-99	339.33134875644714	245.2096262778322	-92.50370795802776	1650	1600	0	2020-05-30 17:14:36.082981
AW5O1RK3W60FC	49	39	1	906	184.71448567676063	8	-108	-175	245.2680293708751	-77.27972893779057	-167.77152533768006	1600	1550	0	2020-05-30 17:14:40.998924
AW5O1RK3W60FC	50	40	1	874	255.03735218376627	10	234	22	5.369200492825543	253.91835257951337	23.864643978328488	1550	1500	0	2020-05-30 17:14:45.880898
AW5O1RK3W60FC	51	41	1	867	266.3487519468009	8	-136	231	121.03393322652225	-137.31493749591993	228.22415648679717	1500	1450	0	2020-05-30 17:14:50.761571
AW5O1RK3W60FC	52	42	1	846	135.57813878775994	3	-22	-120	255.34031955265718	-34.31173667272066	-131.1645395816071	1450	1400	0	2020-05-30 17:14:55.603731
AW5O1RK3W60FC	53	43	1	988	155.28887722148235	5	-148	-25	186.1107868531965	-154.4065134894455	-16.530698132332507	1400	1350	0	2020-05-30 17:15:00.603181
AW5O1RK3W60FC	54	44	1	835	224.0603435443041	13	210	-25	353.35831617247635	222.55664850693063	-25.914778690046873	1350	1300	0	2020-05-30 17:15:05.443374
AW5O1RK3W60FC	55	45	1	788	143.77763613917983	13	-95	79	148.85580735203496	-123.0547388567899	74.36087612890017	1300	1250	0	2020-05-30 17:15:10.249663
AW5O1RK3W60FC	56	46	1	842	217.90837345942958	5	116	-174	305.7677586829178	127.36770204791863	-176.8092975461609	1250	1200	0	2020-05-30 17:15:15.098596
AW5O1RK3W60FC	57	47	1	795	144.9195229717236	10	145	-66	335.5068583102077	131.878345987571	-60.081361485359494	1200	1150	0	2020-05-30 17:15:19.949764
AW5O1RK3W60FC	58	48	1	739	120.90034547662839	14	89	-36	344.34491642994135	116.41537608610743	-32.62443481653384	1150	1100	0	2020-05-30 17:15:24.655117
AW5O1RK3W60FC	59	49	1	708	154.2690334284297	8	144	56	20.210929050093604	144.7702479507268	53.29643499547643	1100	1050	0	2020-05-30 17:15:29.367371
AW5O1RK3W60FC	60	50	1	814	132.00819847698457	0	-36	117	107.74898790131519	-40.24236604154268	125.72476462701151	1050	1000	0	2020-05-30 17:15:34.195104
AW5O1RK3W60FC	61	51	1	892	184.35666743326982	3	-117	125	138.35757808413018	-137.77090145469825	122.50126341985651	1000	950	0	2020-05-30 17:15:39.086084
AW5O1RK3W60FC	62	52	1	710	119.6724916574642	5	-121	-17	189.06020142330047	-118.17938916159721	-18.84508521863458	950	900	0	2020-05-30 17:15:43.799488
AW5O1RK3W60FC	63	53	1	875	215.77839372423355	13	-90	-181	244.0581852736294	-94.39402198572756	-194.03629508823428	900	850	0	2020-05-30 17:15:48.695865
AW5O1RK3W60FC	64	54	0	0	284.46567556493045	6	0	0	20.215091639852805	266.94316999607264	98.29580137045596	850	1050	0	2020-05-30 17:15:53.558341
AW5O1RK3W60FC	65	54	1	950	192.69457374470224	4	126	140	47.418283875496726	130.3850560994956	141.8835293350989	1050	1000	0	2020-05-30 17:15:58.515820
AW5O1RK3W60FC	66	55	0	0	106.41306945972606	8	0	0	212.11115278437032	-90.13383497408765	-56.56529982864422	1000	1200	0	2020-05-30 17:16:03.512325
AW5O1RK3W60FC	67	55	1	718	193.1071751637421	1	181	19	2.3330255698926194	192.9471080401864	7.860954054618017	1200	1150	0	2020-05-30 17:16:08.241687
AW5O1RK3W60FC	68	56	1	697	162.25852740491393	9	100	-119	306.3591777771803	96.1941994398288	-130.6694520909216	1150	1100	0	2020-05-30 17:16:12.954857
AW5O1RK3W60FC	69	57	1	786	177.60028959889644	10	126	-128	310.1304833366097	114.46880402784615	-135.78938018139135	1100	1050	0	2020-05-30 17:16:17.738594
AW5O1RK3W60FC	70	58	0	737	244.62049763348216	3	244	192	33.72603619707326	203.45133395719535	135.81878579007477	1050	1250	0	2020-05-30 17:16:22.480766
AW5O1RK3W60FC	71	58	1	827	213.22504301501806	0	-168	-106	208.60646753278004	-187.19643497670324	-102.09022333587686	1250	1200	0	2020-05-30 17:16:27.392293
AW5O1RK3W60FC	72	59	1	702	122.76856788794746	7	103	-42	344.1734897182818	118.1146458108007	-33.482110241839074	1200	1150	0	2020-05-30 17:16:32.105442
AW5O1RK3W60FC	73	60	1	690	177.62073058450545	14	-22	-171	259.0041508617045	-33.87900154478922	-174.35979234818342	1150	1100	0	2020-05-30 17:16:36.801452
AW5O1RK3W60FC	74	61	1	768	236.89525118717535	13	124	-242	294.65823792770465	98.83382742881089	-215.29336866426456	1100	1050	0	2020-05-30 17:16:46.379384
AW5O1RK3W60FC	75	62	1	712	100.67993781591773	7	-61	-4	182.78910992715615	-100.5606727703326	-4.899078545517003	1050	1000	0	2020-05-30 17:16:51.092195
AW5O1RK3W60FC	76	63	0	775	193.16327173105788	2	-126	37	164.62232202198481	-186.24779283901046	51.22313157591542	1000	1200	0	2020-05-30 17:16:55.882297
AW5O1RK3W60FC	77	63	0	741	234.36324402000764	3	-352	174	147.1722920857685	-196.93649753653256	127.05174570081655	1200	1400	0	2020-05-30 17:17:00.632987
AW5O1RK3W60FC	78	63	1	853	260.85670178433145	10	-110	-242	246.14777311406382	-105.48500945984662	-238.57730748136066	1400	1350	0	2020-05-30 17:17:05.489935
AW5O1RK3W60FC	79	64	1	843	239.66380097980408	7	211	-55	343.0275058907308	229.22524512605585	-69.96087833201321	1350	1300	0	2020-05-30 17:17:10.340423
AW5O1RK3W60FC	80	65	1	744	236.7825154552745	12	-161	-121	214.5483942379106	-195.02532359015774	-134.27986738108424	1300	1250	0	2020-05-30 17:17:15.092321
AW5O1RK3W60FC	81	66	1	944	277.8834832933335	6	151	235	56.093946633839806	155.0125209023591	230.63032899150977	1250	1200	0	2020-05-30 17:17:20.053029
AW5O1RK3W60FC	82	67	1	906	160.97364733670022	4	-160	79	144.48147480902617	-131.02091370658093	93.52024010006073	1200	1150	0	2020-05-30 17:17:24.967488
AW5O1RK3W60FC	83	68	1	677	175.2408765051873	1	167	86	32.516501426911105	147.76953249959118	94.19941646931031	1150	1100	0	2020-05-30 17:17:29.652288
AW5O1RK3W60FC	84	69	1	848	254.3344572927012	7	-9	-233	270.31562222844013	1.4010316794061175	-254.3305983884089	1100	1050	0	2020-05-30 17:17:34.536165
AW5O1RK3W60FC	85	70	1	786	112.83395150207821	1	-42	-83	233.80046030103355	-66.63963976004801	-91.05305609491845	1050	1000	0	2020-05-30 17:17:39.306209
AW5O1RK3W60FC	86	71	0	743	279.31382896672227	9	-195	20	175.02921176259144	-278.26333083591766	24.201937198332573	1000	1200	0	2020-05-30 17:17:44.062573
AW5O1RK3W60FC	87	71	0	0	287.0701112972332	10	0	0	173.7511904001199	-285.36451290055965	31.246497039383584	1200	1400	0	2020-05-30 17:17:49.270501
AW5O1RK3W60FC	88	71	0	0	276.3784430253837	8	0	0	79.7686098607608	49.09142145437487	271.9835952934004	1400	1600	0	2020-05-30 17:17:54.676287
AW5O1RK3W60FC	89	71	1	716	155.6019084154835	6	-141	-86	207.05600997490606	-138.57319286185353	-70.7772853577478	1600	1550	0	2020-05-30 17:17:59.400161
AW5O1RK3W60FC	90	72	1	893	246.30849460855933	2	-51	257	100.51382463831703	-44.94459212671154	242.1731986717321	1550	1500	0	2020-05-30 17:18:04.336003
AW5O1RK3W60FC	91	73	1	736	239.2443865215958	2	-69	-229	253.49704059851555	-67.96092522308469	-229.38872928920685	1500	1450	0	2020-05-30 17:18:09.052767
AW5O1RK3W60FC	92	74	1	871	208.7230138764109	7	-56	182	111.6419189954278	-76.97802879690713	194.00948328418113	1450	1400	0	2020-05-30 17:18:13.916832
AW5O1RK3W60FC	93	75	1	742	193.59369688190014	1	45	-163	291.6649820710044	71.47069310048882	-179.91792434367616	1400	1350	0	2020-05-30 17:18:18.667821
AW5O1RK3W60FC	94	76	0	770	255.76328807048938	12	187	18	3.32650232267806	255.33234826421273	14.84087108329282	1350	1550	0	2020-05-30 17:18:23.455215
AW5O1RK3W60FC	95	76	0	765	209.4854072652123	5	-59	153	130.33735748994067	-135.59716201885024	159.67950873391845	1550	1750	0	2020-05-30 17:18:28.221302
AW5O1RK3W60FC	96	76	1	814	118.6690336438188	4	35	111	74.80352367758685	31.106693597179483	114.51948812062072	1750	1700	0	2020-05-30 17:18:33.039319
AW5O1RK3W60FC	97	77	1	899	271.56659683523617	4	-263	-45	188.9176397822076	-268.28395084247046	-42.09677228751163	1700	1650	0	2020-05-30 17:18:37.946059
AW5O1RK3W60FC	98	78	1	793	239.01643290702893	14	-179	135	144.00386157958837	-193.37782438361984	140.47730149834933	1650	1600	0	2020-05-30 17:18:42.747006
AW5O1RK3W60FC	99	79	1	987	253.46274979944613	13	290	-13	355.319517456703	252.6175125741152	-20.682308303556816	1600	1550	0	2020-05-30 17:18:47.753770
AW5O1RK3W60FC	100	80	1	776	130.58012097203218	13	-113	45	160.47723893255397	-123.07291443772274	43.63743490256425	1550	1500	0	2020-05-30 17:18:53.798253
AW5O1RK3W60FC	101	81	1	775	118.54048038392318	7	-108	-56	208.24344539203324	-104.42762926336319	-56.095594622794124	1500	1450	0	2020-05-30 17:18:58.986944
AW5O1RK3W60FC	102	82	1	804	107.6797271098513	7	-35	91	109.0091694055029	-35.07338338524817	101.8075704864989	1450	1400	0	2020-05-30 17:19:03.395733
AW5O1RK3W60FC	103	83	1	852	120.47814592233159	13	-118	-3	179.096911510826	-120.46318064955643	1.8988819539283206	1400	1350	0	2020-05-30 17:19:08.261103
AW5O1RK3W60FC	104	84	1	880	296.9820786174594	10	-266	94	161.76888580150157	-282.07426117513995	92.91106609250475	1350	1300	0	2020-05-30 17:19:13.148038
AW5O1RK3W60FC	105	85	1	897	176.85735390671007	0	29	-164	286.5432928023678	50.358318668666065	-169.53631873952077	1300	1250	0	2020-05-30 17:19:18.063985
AW5O1RK3W60FC	106	86	1	913	273.99972022235727	2	-103	-235	247.61219185538343	-104.35926954136637	-253.34756668008973	1250	1200	0	2020-05-30 17:19:22.974555
AW5O1RK3W60FC	107	87	1	925	129.11483842991663	7	-15	128	93.17888008577165	-7.159865034565359	128.91616591983444	1200	1150	0	2020-05-30 17:19:27.909774
AW5O1RK3W60FC	108	88	1	793	160.3603770211809	10	-77	-137	241.06387252071437	-77.58785165874167	-140.3409270076138	1150	1100	0	2020-05-30 17:19:32.747926
AW5O1RK3W60FC	109	89	1	884	266.90320340717494	11	88	-276	291.2949305728812	96.93091468126646	-248.67995047463083	1100	1050	0	2020-05-30 17:19:37.600476
AW5O1RK3W60FC	110	90	1	803	221.98172402197122	0	-41	223	107.60914606011858	-67.1543648017664	211.58019067917928	1050	1000	0	2020-05-30 17:19:42.412912
AW5O1RK3W60FC	111	91	1	828	196.0624513323574	0	-24	191	98.20387763405306	-27.977311662753408	194.05606111270572	1000	950	0	2020-05-30 17:19:53.561232
AW5O1RK3W60FC	112	92	1	789	244.71463060076877	6	188	84	23.538889182317142	224.3517339691352	97.7320310600015	950	900	0	2020-05-30 17:19:58.363426
AW5O1RK3W60FC	113	93	1	727	276.8531461365976	6	62	-258	285.67990669249684	74.82311165848833	-266.55049519270017	900	850	0	2020-05-30 17:20:03.103902
AW5O1RK3W60FC	114	94	0	0	104.39728211173818	10	0	0	325.06172996677515	85.58171140485805	-59.78765077617146	850	1050	0	2020-05-30 17:20:07.950032
AW5O1RK3W60FC	115	94	1	912	155.54935406743516	6	-97	138	118.31049966023815	-73.76921144414433	136.94416743222558	1050	1000	0	2020-05-30 17:20:12.882599
AW5O1RK3W60FC	116	95	1	928	103.28124937091326	11	-21	87	103.7290717859855	-24.511850251565882	100.33038258105857	1000	950	0	2020-05-30 17:20:17.831288
AW5O1RK3W60FC	117	96	1	830	121.7730866949862	1	107	19	11.565736864369747	119.30052313057874	24.414541240721128	950	900	0	2020-05-30 17:20:22.701714
AW5O1RK3W60FC	118	97	1	809	251.86712107436483	6	86	256	73.75162968392783	70.47285038443552	241.80699749383126	900	850	0	2020-05-30 17:20:27.482703
AW5O1RK3W60FC	119	98	1	842	115.47765150567915	13	95	-42	334.7393893329952	104.43523194224194	-49.278497607346075	850	800	0	2020-05-30 17:20:32.335423
AW5O1RK3W60FC	120	99	0	0	248.88553177132485	7	0	0	73.91618897987573	68.95203746662418	239.1435227103097	800	1000	0	2020-05-30 17:20:37.130410
AW5O1RK3W60FC	121	99	0	0	284.7924133580989	4	0	0	119.31319537975145	-139.4296035046209	248.3266082659578	1000	1200	0	2020-05-30 17:20:42.198132
AW5O1RK3W60FC	122	99	1	905	234.1892647692177	4	129	189	58.787146801404546	121.36129867106266	200.28990717961767	1200	1150	0	2020-05-30 17:20:47.056580
AW5O1RK3W60FC	123	100	1	1134	280.6321695404467	7	-56	-244	249.11116391433228	-100.0610741752575	-262.1873300063747	1150	1100	0	2020-05-30 17:20:52.207528
AW5O1RK3W60FC	124	101	1	1018	169.66794658079078	8	-46	-169	259.3325518382774	-31.406949737905787	-166.73576582456067	1100	1050	0	2020-05-30 17:20:57.686786
AW5O1RK3W60FC	125	102	0	866	255.0453268212194	2	181	17	7.798958211786884	252.68623609553129	34.609028030501555	1050	1250	0	2020-05-30 17:21:02.571010
AW5O1RK3W60FC	126	102	1	776	227.0352974120918	2	-64	-239	252.6023866014464	-67.88379095544506	-216.64906461029184	1250	1200	0	2020-05-30 17:21:07.345655
AW5O1RK3W60FC	127	103	1	976	180.3446606294684	7	94	-131	310.8128031941732	117.87142060777558	-136.49368051841444	1200	1150	0	2020-05-30 17:21:12.330187
AW5O1RK3W60FC	128	104	1	890	169.1891778321554	14	-131	-18	187.9519037282332	-167.5623472547002	-23.405932538909074	1150	1100	0	2020-05-30 17:21:17.848112
AW5O1RK3W60FC	129	105	1	894	104.94994775046243	5	45	94	65.92815846550697	42.80717270493847	95.82294870141683	1100	1050	0	2020-05-30 17:21:22.755955
AW5O1RK3W60FC	130	106	1	864	189.35794700150277	10	-82	-160	247.5134936738502	-72.42294621810122	-174.9609926632618	1050	1000	0	2020-05-30 17:21:27.633256
AW5O1RK3W60FC	131	107	1	931	255.60605180402754	10	-235	34	173.51729686668713	-253.97170287741943	28.85875701389435	1000	950	0	2020-05-30 17:21:32.588772
AW5O1RK3W60FC	132	108	0	0	266.39254774479014	13	0	0	168.7099287589949	-261.2374787936676	52.15332364757171	950	1150	0	2020-05-30 17:21:37.550423
AW5O1RK3W60FC	133	108	1	882	147.99510171813162	2	60	-124	295.6016577760154	63.95043599967701	-133.46494621439496	1150	1100	0	2020-05-30 17:21:42.906389
AW5O1RK3W60FC	134	109	1	1063	267.75016435429427	13	-160	187	132.04241752341534	-179.30708856282715	198.84445806427206	1100	1050	0	2020-05-30 17:21:47.976194
AW5O1RK3W60FC	135	110	0	0	276.65799600181305	12	0	0	157.94882094331737	-256.4201509663545	103.86699634692025	1050	1250	0	2020-05-30 17:21:54.178435
AW5O1RK3W60FC	136	110	1	970	229.94781401362326	8	-11	-243	266.99955526491635	-12.03632116187912	-229.63258510614727	1250	1200	0	2020-05-30 17:21:59.159184
AW5O1RK3W60FC	137	111	1	1069	228.17549569638746	13	107	186	59.077494673516206	117.25442522080986	195.74334369891005	1200	1150	0	2020-05-30 17:22:04.224733
AW5O1RK3W60FC	138	112	1	780	149.26991881352762	3	117	-72	328.76097397823014	127.62745490117496	-77.41279879997674	1150	1100	0	2020-05-30 17:22:09.022349
AW5O1RK3W60FC	139	113	1	904	141.90111662327894	13	122	-35	346.4761375703719	137.9665691943271	-33.18362071384563	1100	1050	0	2020-05-30 17:22:13.938861
AW5O1RK3W60FC	140	114	1	1024	274.4538641800738	4	5	-268	274.79082532898315	22.921913477783	-273.4949898003461	1050	1000	0	2020-05-30 17:22:18.981425
AW5O1RK3W60FC	141	115	1	712	116.91490548238991	5	115	13	359.6549475663268	116.91278534746827	-0.7040925031361344	1000	950	0	2020-05-30 17:22:24.921149
AW5O1RK3W60FC	142	116	1	822	115.79021775086088	5	-97	-46	207.52070103817985	-102.68785349385918	-53.50307721631988	950	900	0	2020-05-30 17:22:29.748220
AW5O1RK3W60FC	143	117	0	0	293.74176940159765	10	0	0	125.5705121988945	-170.87088656267986	238.92962816792976	900	1100	0	2020-05-30 17:22:34.662166
AW5O1RK3W60FC	144	117	0	0	224.48228571467976	10	0	0	38.87817976634727	174.7554731499449	140.90003975807105	1100	1300	0	2020-05-30 17:22:39.777934
AW5O1RK3W60FC	145	117	1	1077	267.71681782449957	14	71	216	75.24141797382558	68.2000010275219	258.8842490494976	1300	1250	0	2020-05-30 17:22:44.859039
AW5O1RK3W60FC	146	118	1	876	105.3316166476891	0	-100	-7	184.93511502562762	-104.9411269981937	-9.061419864718662	1250	1200	0	2020-05-30 17:22:49.763878
AW5O1RK3W60FC	147	119	1	923	247.54903582963883	2	198	-150	321.69387032743634	194.2542188186438	-153.44648451933415	1200	1150	0	2020-05-30 17:22:54.683553
AW5O1RK3W60FC	148	120	1	870	201.0522636339877	4	68	-186	291.54779588004004	73.84192234078199	-187.0010246425629	1150	1100	0	2020-05-30 17:22:59.553357
AW5O1RK3W60FC	149	121	0	0	263.38828425577384	4	0	0	46.85384523380989	180.12116933169406	192.1711545518305	1100	1300	0	2020-05-30 17:23:10.903907
AW5O1RK3W60FC	150	121	1	1104	139.57895209964136	11	41	128	72.88642316470059	41.073451881055135	133.39885839019996	1300	1250	0	2020-05-30 17:23:16.012812
AW5O1RK3W60FC	151	122	1	1139	148.1966804989404	3	70	-119	300.2779625889175	74.72009981680473	-127.98110327025532	1250	1200	0	2020-05-30 17:23:21.199300
AW5O1RK3W60FC	152	123	1	1042	297.9381183063319	3	4	289	91.30153598371179	-6.7674065328627355	297.86125049884686	1200	1150	0	2020-05-30 17:23:26.218113
AW5O1RK3W60FC	153	124	1	735	112.50149673383802	8	-60	-74	228.37250861834588	-74.73305012564227	-84.09255606932166	1150	1100	0	2020-05-30 17:23:30.954406
AW5O1RK3W60FC	154	125	0	0	200.1420920700038	13	0	0	344.980254942569	193.3045528546882	-51.86720412560265	1100	1300	0	2020-05-30 17:23:36.062169
AW5O1RK3W60FC	155	125	1	916	268.69583555868905	0	268	130	28.72507662642162	235.62902449724368	129.13719394914622	1300	1250	0	2020-05-30 17:23:41.986053
AW5O1RK3W60FC	156	126	0	832	211.23911629542562	2	-143	22	171.1587030856335	-208.72914303506118	32.46704638739591	1250	1450	0	2020-05-30 17:23:46.842583
AW5O1RK3W60FC	157	126	1	1135	185.60943265011267	12	-71	-172	250.25628423409	-62.70136970885494	-174.69802438874402	1450	1400	0	2020-05-30 17:23:52.371304
AW5O1RK3W60FC	158	127	1	757	219.83585694450682	0	-177	-163	224.7969691878162	-155.9972847617108	-154.89561370645515	1400	1350	0	2020-05-30 17:23:57.142455
AW5O1RK3W60FC	159	128	1	744	174.40929737456275	13	-143	-118	219.5181711384976	-134.54331110758568	-110.98063095376631	1350	1300	0	2020-05-30 17:24:01.902247
AW5O1RK3W60FC	160	129	0	0	103.95445397558301	4	0	0	83.12721310231937	12.439741651787456	103.20746740909007	1300	1500	0	2020-05-30 17:24:07.211037
AW5O1RK3W60FC	161	129	0	0	227.21336454699286	9	0	0	107.02779134278573	-66.53614520061316	217.25297330671356	1500	1700	0	2020-05-30 17:24:12.716414
AW5O1RK3W60FC	162	129	1	1202	227.49368612302646	2	190	131	35.730482063679474	184.67322315566625	132.85020841210442	1700	1650	0	2020-05-30 17:24:17.921218
AW5O1RK3W60FC	163	130	1	1402	242.03534870911506	13	218	-127	328.2074439477775	205.72064300208032	-127.51520328005418	1650	1600	0	2020-05-30 17:24:23.331047
AW5O1RK3W60FC	164	131	1	857	287.53688553408415	0	31	-282	279.08750527145907	45.41436184628289	-283.92780117617207	1600	1550	0	2020-05-30 17:24:28.199702
AW5O1RK3W60FC	165	132	1	1001	296.57071727626936	4	201	-210	314.6618882058249	208.46600470244456	-210.94102310636794	1550	1500	0	2020-05-30 17:24:33.219099
AW5O1RK3W60FC	166	133	1	1008	190.49372613903142	5	-89	150	123.63895412615807	-105.52546752563488	158.59456296427214	1500	1450	0	2020-05-30 17:24:38.226940
AW5O1RK3W60FC	167	134	1	731	130.49481032808998	7	-85	-71	218.75125778497775	-101.7690846003543	-81.68199888696473	1450	1400	0	2020-05-30 17:24:42.968456
AW5O1RK3W60FC	168	135	1	875	135.3005618872112	5	98	-84	324.039843168046	109.51573054977966	-79.45153748759758	1400	1350	0	2020-05-30 17:24:47.859054
AW5O1RK3W60FC	169	136	1	886	238.29070983653895	8	6	-218	271.8979688257772	7.892128065140152	-238.15998133398696	1350	1300	0	2020-05-30 17:24:52.745380
AW5O1RK3W60FC	170	137	1	855	200.23715304179473	9	-53	-200	257.0946956497583	-44.72103721755432	-195.17926705587672	1300	1250	0	2020-05-30 17:24:57.618220
AW5O1RK3W60FC	171	138	1	1005	283.22535011406046	14	-242	57	164.1638578987893	-272.47582879551663	77.28856105161002	1250	1200	0	2020-05-30 17:25:02.632551
AW5O1RK3W60FC	172	139	1	808	192.32436752232846	9	-172	70	160.8178129562778	-181.64624313393497	63.19260002714762	1200	1150	0	2020-05-30 17:25:07.442726
AW5O1RK3W60FC	173	140	1	763	108.93494737471391	9	60	94	57.90496614777471	57.879877547801044	92.28619904722073	1150	1100	0	2020-05-30 17:25:12.219484
AW5O1RK3W60FC	174	141	1	1003	220.9360821800061	5	164	-147	318.26663651402123	164.87370384012817	-147.06941963266232	1100	1050	0	2020-05-30 17:25:17.244561
AW5O1RK3W60FC	175	142	0	0	290.310102014432	2	0	0	302.42348905416287	155.65640689947276	-245.05313367262966	1050	1250	0	2020-05-30 17:25:22.305049
AW5O1RK3W60FC	176	142	1	1017	207.5967545867623	9	82	-200	290.8275840916021	73.81247457330325	-194.03126323436095	1250	1200	0	2020-05-30 17:25:27.323914
AW5O1RK3W60FC	177	143	1	1092	263.1342671718427	0	229	130	28.99304023878863	230.15791002053834	127.54206762884341	1200	1150	0	2020-05-30 17:25:32.465391
AW5O1RK3W60FC	178	144	1	994	281.7866611256775	12	-239	167	140.04256468145496	-215.99560592071828	180.96856249442655	1150	1100	0	2020-05-30 17:25:37.429035
AW5O1RK3W60FC	179	145	1	975	157.18935468107884	4	-169	98	142.97381616046005	-125.49375618586728	94.65627492890313	1100	1050	0	2020-05-30 17:25:42.418715
AW5O1RK3W60FC	180	146	1	967	163.91274786218793	11	-131	64	157.9361870830771	-151.90877204296376	61.572021959101406	1050	1000	0	2020-05-30 17:25:47.398035
AW5O1RK3W60FC	181	147	1	995	202.12075059897387	4	142	-103	327.28040325989366	170.04943364573003	-109.25194707399524	1000	950	0	2020-05-30 17:25:52.426371
AW5O1RK3W60FC	182	148	0	866	142.85798613875818	13	132	104	54.29434578844865	83.37497053703821	116.00438996680097	950	1150	0	2020-05-30 17:25:57.282193
AW5O1RK3W60FC	183	148	1	1006	261.62930581267767	8	-224	-63	195.90347666323106	-251.61536149626207	-71.6910281634248	1150	1100	0	2020-05-30 17:26:02.286602
AW5O1RK3W60FC	184	149	1	965	133.9623392165828	5	96	-51	335.0542393805558	121.46465164323602	-56.4999710580998	1100	1050	0	2020-05-30 17:26:07.259044
AW5O1RK3W60FC	185	150	1	986	249.61539484067913	2	123	200	56.9290809590416	136.20930478804578	209.17664934362386	1050	1000	0	2020-05-30 17:26:12.300034
