A1P2RQ166VS5BT	1	1	0	0	218.7620244802041	6	0	0	296.6727931010548	98.20112004494926	-195.482386358963	1500	1700	0	2020-05-30 22:56:57.931604
A1P2RQ166VS5BT	2	1	1	886	166.88092543422988	12	-128	-94	219.85024888790437	-128.11813222543347	-106.9345008350969	1700	1650	0	2020-05-30 22:57:02.830342
A1P2RQ166VS5BT	3	2	0	0	147.01911001361407	11	0	0	175.14136237343908	-146.49082622475814	12.452170139492427	1650	1850	0	2020-05-30 22:57:08.894018
A1P2RQ166VS5BT	4	2	1	624	101.51097209695776	11	79	-31	346.6460875399193	98.76631606856647	-23.445516976884214	1850	1800	0	2020-05-30 22:57:13.971687
A1P2RQ166VS5BT	5	3	1	941	227.82674479364368	0	-222	70	158.40807849937678	-211.83977323433845	83.83875070211927	1800	1750	0	2020-05-30 22:57:19.324665
A1P2RQ166VS5BT	6	4	1	947	274.985733927703	0	-78	-267	256.7045428958255	-63.239177204675386	-267.6153215535933	1750	1700	0	2020-05-30 22:57:24.603890
A1P2RQ166VS5BT	7	5	1	1076	279.4623317448147	8	-268	-72	194.48169683290368	-270.58313576982954	-69.88534539669153	1700	1650	0	2020-05-30 22:57:29.704389
A1P2RQ166VS5BT	8	6	1	1229	293.40635872801477	13	-236	191	140.4617624973357	-226.27495799021523	186.7804452520628	1650	1600	0	2020-05-30 22:57:35.358108
A1P2RQ166VS5BT	9	7	0	0	239.1389684386467	7	0	0	155.67577010232074	-217.9104035392323	98.50128047527609	1600	1800	0	2020-05-30 22:57:41.532998
A1P2RQ166VS5BT	10	7	1	976	147.5296922070781	9	-65	-145	248.22445765316428	-54.72930563051434	-137.00260285088365	1800	1750	0	2020-05-30 22:57:46.722956
A1P2RQ166VS5BT	11	8	1	1139	195.425346868759	13	148	117	35.69657797235721	158.7085156842034	114.02926487569641	1750	1700	0	2020-05-30 22:57:52.307736
A1P2RQ166VS5BT	12	9	1	911	195.3339413213884	2	-131	139	130.7800091344564	-127.58362246403706	147.91135152888592	1700	1650	0	2020-05-30 22:57:58.308060
A1P2RQ166VS5BT	13	10	1	1194	171.73488052575996	14	67	-157	292.9749216828151	67.03296453119918	-158.11214645104292	1650	1600	0	2020-05-30 22:58:03.510272
A1P2RQ166VS5BT	14	11	1	1036	201.335685875127	13	-133	149	127.42489241969463	-122.35590815680783	159.89086948894433	1600	1550	0	2020-05-30 22:58:08.605348
A1P2RQ166VS5BT	15	12	1	1103	128.13023938265036	11	85	-91	313.7558528118143	88.6131876523242	-92.5476159517319	1550	1500	0	2020-05-30 22:58:14.084268
A1P2RQ166VS5BT	16	13	1	886	110.11433068804845	1	-66	-90	231.35596587399732	-68.76420191037442	-86.00378107098634	1500	1450	0	2020-05-30 22:58:18.992213
A1P2RQ166VS5BT	17	14	1	966	106.57612857604329	7	92	28	19.021174221548456	100.75687949062798	34.735031561355754	1450	1400	0	2020-05-30 22:58:23.973356
A1P2RQ166VS5BT	18	15	1	970	152.82262998899907	13	130	-78	328.67533025698486	130.5464488809521	-79.45049352475714	1400	1350	0	2020-05-30 22:58:30.041123
A1P2RQ166VS5BT	19	16	1	907	274.47254880468387	1	-37	-273	261.7831392650629	-39.2276699946042	-271.65487287021745	1350	1300	0	2020-05-30 22:58:35.291895
A1P2RQ166VS5BT	20	17	1	872	222.30851322966612	14	-223	-52	193.34950171135063	-216.30168251771428	-51.32891187615962	1300	1250	0	2020-05-30 22:58:40.260862
A1P2RQ166VS5BT	21	18	0	0	256.5359730845106	13	0	0	134.55341579262213	-179.97894563407303	182.80668646103766	1250	1450	0	2020-05-30 22:58:45.482045
A1P2RQ166VS5BT	22	18	1	1139	271.10924137396734	4	267	47	9.88179880378854	267.08703574238706	46.526724543136915	1450	1400	0	2020-05-30 22:58:51.015621
A1P2RQ166VS5BT	23	19	1	1168	262.59805841326363	0	27	258	83.57715586485858	29.375569604029213	260.94983462890843	1400	1350	0	2020-05-30 22:58:56.819719
A1P2RQ166VS5BT	24	20	1	1111	241.97225723558768	9	165	-178	315.3452880129272	172.1282313008135	-170.06600266055253	1350	1300	0	2020-05-30 22:59:04.003592
A1P2RQ166VS5BT	25	21	1	1096	139.32081877389626	7	104	95	46.239456231263134	96.36068367837274	100.62260772244693	1300	1250	0	2020-05-30 22:59:09.073615
A1P2RQ166VS5BT	26	22	1	1161	138.3248585466955	0	126	-15	353.88910315963415	137.53885744924898	-14.725120832050612	1250	1200	0	2020-05-30 22:59:14.263061
A1P2RQ166VS5BT	27	23	1	968	190.69347057282408	4	-28	172	99.49808304497013	-31.467208187274384	188.07927724235665	1200	1150	0	2020-05-30 22:59:19.237063
A1P2RQ166VS5BT	28	24	1	922	149.92111314847529	4	-12	147	99.90255461044809	-25.7823869723435	147.68753735399025	1150	1100	0	2020-05-30 22:59:24.549972
A1P2RQ166VS5BT	29	25	0	0	215.93423556403613	8	0	0	275.1920168961875	19.540714126791304	-215.04826104862988	1100	1300	0	2020-05-30 22:59:29.677805
A1P2RQ166VS5BT	30	25	0	0	205.61206223021838	10	0	0	118.09162847026761	-96.81922222518901	181.3900723365881	1300	1500	0	2020-05-30 22:59:35.414085
A1P2RQ166VS5BT	31	25	1	1043	199.33724111062196	11	88	-183	296.0938760873624	87.67712681308255	-179.01971156103698	1500	1450	0	2020-05-30 22:59:40.671593
A1P2RQ166VS5BT	32	26	1	1075	267.25740035939236	12	203	-167	323.2424876823978	214.12004305498397	-159.93475297443126	1450	1400	0	2020-05-30 22:59:46.194262
A1P2RQ166VS5BT	33	27	0	0	286.02449693539387	13	0	0	19.943876524350898	268.87080473597354	97.56281672735321	1400	1600	0	2020-05-30 22:59:51.685110
A1P2RQ166VS5BT	34	27	1	1325	256.848471809967	7	37	-253	279.12352096356796	40.72676833928583	-253.59902959544928	1600	1550	0	2020-05-30 22:59:57.851178
A1P2RQ166VS5BT	35	28	1	1207	112.03002631722656	2	98	-46	339.07026563589164	104.63819722210935	-40.01967614493428	1550	1500	0	2020-05-30 23:00:03.418654
A1P2RQ166VS5BT	36	29	1	1102	244.2762502459414	11	-206	122	147.6679258041918	-206.40428824120468	130.64515387054925	1500	1450	0	2020-05-30 23:00:08.524010
A1P2RQ166VS5BT	37	30	0	0	271.8543432057696	2	0	0	40.61537729099338	206.36371370447853	176.97118857581424	1450	1650	0	2020-05-30 23:00:14.089355
A1P2RQ166VS5BT	38	30	1	1187	278.7697574895709	13	-136	-242	239.37619508137482	-142.00503232709264	-239.88986740705735	1650	1600	0	2020-05-30 23:00:19.373812
A1P2RQ166VS5BT	39	31	1	1217	275.2211725874049	13	-268	-45	188.71312557554828	-272.0449026549419	-41.69250268152913	1600	1550	0	2020-05-30 23:00:30.737068
A1P2RQ166VS5BT	40	32	0	0	269.1552499059525	3	0	0	328.4458075136302	229.35945772483504	-140.85023146628245	1550	1750	0	2020-05-30 23:00:36.308991
A1P2RQ166VS5BT	41	32	1	936	159.26116210219095	13	-169	-1	180.54404369530312	-159.25398252415235	-1.5122183497522454	1750	1700	0	2020-05-30 23:00:41.949649
A1P2RQ166VS5BT	42	33	1	1326	277.59544502359824	10	42	266	79.93565417821081	48.510929051168404	273.3238388074521	1700	1650	0	2020-05-30 23:00:47.297147
A1P2RQ166VS5BT	43	34	1	1096	207.6310527545247	3	197	-60	345.1591981588159	200.70473700657993	-53.181412270377024	1650	1600	0	2020-05-30 23:00:52.790559
A1P2RQ166VS5BT	44	35	1	1338	273.10606559868495	8	45	-266	282.21021471986546	57.76167268171288	-266.9279158046304	1600	1550	0	2020-05-30 23:00:58.144314
A1P2RQ166VS5BT	45	36	1	893	129.30157834823714	9	95	-80	323.631109115841	104.11568410960027	-76.67347967671247	1550	1500	0	2020-05-30 23:01:03.422775
A1P2RQ166VS5BT	46	37	1	1200	172.80465055401623	13	163	31	12.265535344434317	168.86013212233658	36.71107506901293	1500	1450	0	2020-05-30 23:01:08.644855
A1P2RQ166VS5BT	47	38	1	1082	207.98944850428822	3	-203	46	166.0828859087663	-201.88385227380778	50.02520245041816	1450	1400	0	2020-05-30 23:01:13.732598
A1P2RQ166VS5BT	48	39	1	1156	228.03603898930325	5	166	156	44.66521164939102	162.18525652470467	160.3008972025633	1400	1350	0	2020-05-30 23:01:18.902957
A1P2RQ166VS5BT	49	40	0	0	293.0104131450775	8	0	0	273.89884420616255	19.92329137596079	-292.3322846902093	1350	1550	0	2020-05-30 23:01:24.273244
A1P2RQ166VS5BT	50	40	1	1176	266.1126186502286	2	161	-215	307.17911534991964	160.81417990245376	-212.0252941212044	1550	1500	0	2020-05-30 23:01:29.898158
A1P2RQ166VS5BT	51	41	1	1171	299.59532193906944	10	284	-14	357.20525456508346	299.2389871960077	-14.607719523669042	1500	1450	0	2020-05-30 23:01:35.085141
A1P2RQ166VS5BT	52	42	1	1184	276.653730047826	6	87	-253	289.4832345206404	92.2725996537296	-260.8122959189576	1450	1400	0	2020-05-30 23:01:40.283166
A1P2RQ166VS5BT	53	43	1	1352	239.33938868341036	14	221	-103	335.7820421950269	218.27551014702257	-98.17914567465749	1400	1350	0	2020-05-30 23:01:45.651947
A1P2RQ166VS5BT	54	44	1	1276	281.56929539303485	3	182	-222	308.56686342032583	175.53804358098157	-220.15372666364638	1350	1300	0	2020-05-30 23:01:50.939284
A1P2RQ166VS5BT	55	45	1	1044	229.06585681825865	1	167	149	44.394277044775464	163.6773040899075	160.25263456724488	1300	1250	0	2020-05-30 23:01:56.005640
A1P2RQ166VS5BT	56	46	1	1229	283.4769518540842	12	-275	-98	198.29303896267055	-269.1510524763138	-88.97692500516827	1250	1200	0	2020-05-30 23:02:01.251635
A1P2RQ166VS5BT	57	47	1	1082	164.42114513999164	6	155	3	2.0833318657403055	164.31246467903526	5.97720003404457	1200	1150	0	2020-05-30 23:02:06.898503
A1P2RQ166VS5BT	58	48	0	0	106.26076520099429	8	0	0	32.41509944237366	89.7039233413889	56.96100734944091	1150	1350	0	2020-05-30 23:02:12.068300
A1P2RQ166VS5BT	59	48	1	1002	220.06184442454065	2	75	-211	290.5013210810104	77.07203491732227	-206.12403257561647	1350	1300	0	2020-05-30 23:02:17.084363
A1P2RQ166VS5BT	60	49	1	1212	187.11360262480557	14	169	-49	344.2089308860309	180.05201442549617	-50.919273252419536	1300	1250	0	2020-05-30 23:02:22.729037
A1P2RQ166VS5BT	61	50	1	994	144.17616435792175	6	131	78	31.23057995211581	123.28325850822223	74.75295673454876	1250	1200	0	2020-05-30 23:02:28.449035
A1P2RQ166VS5BT	62	51	1	1139	165.4246657590366	1	57	-152	291.5237842211106	60.692229409336264	-153.88883432794427	1200	1150	0	2020-05-30 23:02:33.605712
A1P2RQ166VS5BT	63	52	0	0	123.71885023639378	7	0	0	93.6724006161126	-7.924390890670926	123.46480442955023	1150	1350	0	2020-05-30 23:02:38.821695
A1P2RQ166VS5BT	64	52	0	0	298.02966487548156	1	0	0	294.32009299453034	122.7387347932835	-271.5821866896573	1350	1550	0	2020-05-30 23:02:44.887586
A1P2RQ166VS5BT	65	52	1	812	135.15460816683017	13	-76	-111	235.7087657843157	-76.14605975878185	-111.66264232921152	1550	1500	0	2020-05-30 23:02:49.722000
A1P2RQ166VS5BT	66	53	1	1113	124.06303184834132	0	63	105	62.80919163102797	56.69125215158522	110.35278791624586	1500	1450	0	2020-05-30 23:02:54.839131
A1P2RQ166VS5BT	67	54	1	930	227.2476277601184	12	-205	28	170.97374480126507	-224.43351867448686	35.65220916002389	1450	1400	0	2020-05-30 23:02:59.775235
A1P2RQ166VS5BT	68	55	0	0	146.47868571114674	1	0	0	221.59220981792205	-109.54970313306039	-97.23614508567913	1400	1600	0	2020-05-30 23:03:05.667296
A1P2RQ166VS5BT	69	55	1	1092	104.79787151114212	11	-97	49	151.23314319930356	-91.86426396093988	50.43362846534657	1600	1550	0	2020-05-30 23:03:11.151200
A1P2RQ166VS5BT	70	56	1	1132	216.91757950762818	4	208	-72	342.8099662569485	207.22782444424516	-64.10822939025304	1550	1500	0	2020-05-30 23:03:16.286524
A1P2RQ166VS5BT	71	57	0	0	211.11001725309055	8	0	0	90.39097327089931	-1.440555205239295	211.10510222469955	1500	1700	0	2020-05-30 23:03:21.809035
A1P2RQ166VS5BT	72	57	1	991	119.93919333724862	3	77	-82	316.51859221438315	87.02760290712031	-82.53245683142171	1700	1650	0	2020-05-30 23:03:27.178801
A1P2RQ166VS5BT	73	58	0	0	210.36371161047387	14	0	0	293.8274849111099	84.98360692226497	-192.43356702253527	1650	1850	0	2020-05-30 23:03:32.843327
A1P2RQ166VS5BT	74	58	1	1457	165.91681616230113	2	40	163	77.81651876522113	35.015581303892056	162.17983521814713	1850	1800	0	2020-05-30 23:03:38.728637
A1P2RQ166VS5BT	75	59	1	1176	296.5229397020646	4	285	-77	346.1081857422477	287.84987874230177	-71.19200150014332	1800	1750	0	2020-05-30 23:03:44.574247
A1P2RQ166VS5BT	76	60	1	1307	232.3303747681043	6	231	8	2.864375208435579	232.0401061461591	11.610003426657746	1750	1700	0	2020-05-30 23:03:50.608053
A1P2RQ166VS5BT	77	61	1	1176	283.7911031998166	7	-237	-148	212.01931051423537	-240.61780607885427	-150.46747706121687	1700	1650	0	2020-05-30 23:03:59.250040
A1P2RQ166VS5BT	78	62	1	1070	255.6212317630067	12	-96	224	113.30583384556195	-101.13373274435756	234.76409910637878	1650	1600	0	2020-05-30 23:04:04.324996
A1P2RQ166VS5BT	79	63	1	1177	156.9326062621509	8	121	112	43.75120025828281	113.36018586443689	108.52332085322311	1600	1550	0	2020-05-30 23:04:09.497244
A1P2RQ166VS5BT	80	64	1	1511	243.43255568485128	11	-67	227	105.74741000694108	-66.06685140333714	234.29592466132993	1550	1500	0	2020-05-30 23:04:15.029273
A1P2RQ166VS5BT	81	65	1	1268	231.2798027895908	13	-89	213	112.52802878293286	-88.6114666601946	213.6313533981406	1500	1450	0	2020-05-30 23:04:21.003520
A1P2RQ166VS5BT	82	66	1	1208	139.5467112037598	2	27	-133	281.9644041402215	28.928586103993435	-136.51527941519726	1450	1400	0	2020-05-30 23:04:26.225344
A1P2RQ166VS5BT	83	67	1	1003	249.08794331196177	13	203	-149	325.2260288475096	204.60292731575473	-142.06493457995558	1400	1350	0	2020-05-30 23:04:31.279036
A1P2RQ166VS5BT	84	68	0	0	256.9268799347534	4	0	0	197.68112402800762	-244.79006330692562	-78.03362441408534	1350	1550	0	2020-05-30 23:04:36.609865
A1P2RQ166VS5BT	85	68	1	1259	225.52994705475248	0	-33	-219	261.82809710069	-32.05762578574113	-223.23992843463475	1550	1500	0	2020-05-30 23:04:44.241361
A1P2RQ166VS5BT	86	69	1	1379	299.35970238341963	11	-300	48	170.3038029462599	-295.08324432497477	50.4193447967825	1500	1450	0	2020-05-30 23:04:50.511491
A1P2RQ166VS5BT	87	70	1	1083	183.05332534531186	13	118	148	48.720016333328516	120.76744945518779	137.56359646383655	1450	1400	0	2020-05-30 23:04:57.345765
A1P2RQ166VS5BT	88	71	1	997	252.5617489863899	6	-250	38	169.4935003610147	-248.32735639331418	46.05389362227837	1400	1350	0	2020-05-30 23:05:03.339670
A1P2RQ166VS5BT	89	72	0	0	221.68515265149728	12	0	0	98.50723862198906	-32.79485118458111	219.2459911649443	1350	1550	0	2020-05-30 23:05:08.702687
A1P2RQ166VS5BT	90	72	1	1201	279.2426189697542	14	-205	-188	223.24603085667027	-203.40547119524496	-191.3182023146979	1550	1500	0	2020-05-30 23:05:13.924004
A1P2RQ166VS5BT	91	73	1	912	145.74562793985996	1	-144	16	172.55960979870795	-144.5184676156705	18.873276917443068	1500	1450	0	2020-05-30 23:05:19.243043
A1P2RQ166VS5BT	92	74	1	1272	238.91433842311872	6	-138	187	128.66820689329833	-149.27594920346266	186.53887555563784	1450	1400	0	2020-05-30 23:05:24.553819
A1P2RQ166VS5BT	93	75	0	0	297.73855531167965	7	0	0	282.6182137669011	65.0420189961223	-290.547385264425	1400	1600	0	2020-05-30 23:05:30.484906
A1P2RQ166VS5BT	94	75	1	889	199.1983770720232	11	-55	-204	254.7296480585598	-52.46365312569449	-192.16544572017816	1600	1550	0	2020-05-30 23:05:35.816693
A1P2RQ166VS5BT	95	76	1	1267	134.07695299126635	9	70	117	62.01299858635466	62.918457722397854	118.39720014112277	1550	1500	0	2020-05-30 23:05:41.086361
A1P2RQ166VS5BT	96	77	1	927	103.83231276880113	14	-105	-50	206.28935644666933	-93.09280396729437	-45.98781386873096	1500	1450	0	2020-05-30 23:05:46.431927
A1P2RQ166VS5BT	97	78	1	1075	252.49348201691274	6	120	216	61.75121304864919	119.50542185744233	222.4216999478688	1450	1400	0	2020-05-30 23:05:51.522717
A1P2RQ166VS5BT	98	79	1	1058	175.5975318555535	0	167	-68	339.622060357423	164.60795862159588	-61.14501739465859	1400	1350	0	2020-05-30 23:05:56.609647
A1P2RQ166VS5BT	99	80	1	1039	269.67647171037163	2	-149	209	123.16535021146983	-147.52842524947567	225.74490722398312	1350	1300	0	2020-05-30 23:06:03.990300
A1P2RQ166VS5BT	100	81	1	1007	254.80534085776756	0	153	-200	308.874095896383	159.91867057995438	-198.37283213581225	1300	1250	0	2020-05-30 23:06:09.015106
A1P2RQ166VS5BT	101	82	0	0	281.48891644467324	12	0	0	99.66515724080662	-47.25915211252502	277.4933920344797	1250	1450	0	2020-05-30 23:06:14.278820
A1P2RQ166VS5BT	102	82	1	1405	177.61551409182374	10	-185	36	167.09525619756232	-173.12942698676846	39.66701850827768	1450	1400	0	2020-05-30 23:06:19.710643
A1P2RQ166VS5BT	103	83	1	862	103.60819521542535	13	38	98	66.41170793458421	41.4600390740532	94.95116258253856	1400	1350	0	2020-05-30 23:06:24.618284
A1P2RQ166VS5BT	104	84	1	1037	270.2011554725646	2	266	3	359.78139189562626	270.19918874623824	-1.0309314156340148	1350	1300	0	2020-05-30 23:06:29.647282
A1P2RQ166VS5BT	105	85	1	1008	186.94093468044753	8	179	-24	350.57352113374765	184.41659202138797	-30.61753821613167	1300	1250	0	2020-05-30 23:06:34.672110
A1P2RQ166VS5BT	106	86	1	965	258.8997169721742	1	146	-214	304.0528460661208	144.97279120892196	-214.50397026014744	1250	1200	0	2020-05-30 23:06:39.898904
A1P2RQ166VS5BT	107	87	1	1101	182.48028318108408	5	-84	161	119.1903462470911	-88.99792857280367	159.30606535721975	1200	1150	0	2020-05-30 23:06:45.018134
A1P2RQ166VS5BT	108	88	0	0	218.70323331359003	10	0	0	155.90364786753452	-199.64547132842793	89.29048123886705	1150	1350	0	2020-05-30 23:06:50.178928
A1P2RQ166VS5BT	109	88	1	1147	299.2861194759098	3	-138	-274	244.85055399914933	-127.1908444572146	-270.9145075428948	1350	1300	0	2020-05-30 23:06:55.357359
A1P2RQ166VS5BT	110	89	1	1068	222.82220508913642	9	-180	124	144.86629667701868	-182.2265257431812	128.2311522070783	1300	1250	0	2020-05-30 23:07:00.422791
A1P2RQ166VS5BT	111	90	1	934	152.0971208815468	7	-56	-140	248.62843614141264	-55.42641944000611	-141.63843478560602	1250	1200	0	2020-05-30 23:07:05.355110
A1P2RQ166VS5BT	112	91	1	906	121.61710233849288	5	-108	-67	214.8972486760627	-99.7478358450624	-69.5779334662789	1200	1150	0	2020-05-30 23:07:12.970460
A1P2RQ166VS5BT	113	92	0	0	263.35686978419255	14	0	0	103.92222725167683	-63.36487507691417	255.6202915830729	1150	1350	0	2020-05-30 23:07:18.133026
A1P2RQ166VS5BT	114	92	1	930	280.1155234470607	3	153	-226	305.8095520169253	163.8935990940099	-227.1642459808162	1350	1300	0	2020-05-30 23:07:23.662320
A1P2RQ166VS5BT	115	93	1	1197	274.9279330864257	4	-107	246	110.67549113363852	-97.07008801834988	257.2212401868943	1300	1250	0	2020-05-30 23:07:29.322376
A1P2RQ166VS5BT	116	94	1	904	117.92149270812916	10	-122	22	168.11098441165743	-115.39189973412034	24.29378353126733	1250	1200	0	2020-05-30 23:07:34.240370
A1P2RQ166VS5BT	117	95	1	954	236.02211877417628	14	230	-71	343.25373140105086	226.01245083894264	-68.00597485828658	1200	1150	0	2020-05-30 23:07:39.212551
A1P2RQ166VS5BT	118	96	1	1136	154.17632058462556	2	-84	-139	238.2404903910605	-81.15148535444386	-131.09071002088865	1150	1100	0	2020-05-30 23:07:44.355545
A1P2RQ166VS5BT	119	97	0	0	138.71842686397542	1	0	0	68.92385044368808	49.884313965473616	129.43862318415688	1100	1300	0	2020-05-30 23:07:49.480490
A1P2RQ166VS5BT	120	97	1	1204	258.5367854067826	3	260	44	11.431339198474335	253.40816919811672	51.24030827514023	1300	1250	0	2020-05-30 23:07:54.693557
A1P2RQ166VS5BT	121	98	0	0	252.24588063777497	11	0	0	274.06939479275405	17.900537999642854	-251.60992635039253	1250	1450	0	2020-05-30 23:07:59.967720
A1P2RQ166VS5BT	122	98	1	844	217.04694330629195	11	-156	-159	223.3686489282131	-157.78238880714176	-149.04393104355728	1450	1400	0	2020-05-30 23:08:05.806867
A1P2RQ166VS5BT	123	99	1	1043	211.89092637626305	7	-222	-45	191.22049585733842	-207.8407607919067	-41.230848087716446	1400	1350	0	2020-05-30 23:08:10.867276
A1P2RQ166VS5BT	124	100	1	1007	141.13912458328653	3	118	71	31.782906097544572	119.97529446493964	74.33828896462106	1350	1300	0	2020-05-30 23:08:15.889036
A1P2RQ166VS5BT	125	101	1	1001	245.29510027260088	9	-186	147	142.7889741788282	-195.35634310390907	148.3427970169535	1300	1250	0	2020-05-30 23:08:20.906712
A1P2RQ166VS5BT	126	102	1	920	199.3471748890519	9	-33	194	98.81282225309683	-30.5413803523674	196.993706047727	1250	1200	0	2020-05-30 23:08:25.833398
A1P2RQ166VS5BT	127	103	1	1144	288.64542829111275	0	45	-297	279.7938498605022	49.099662360499224	-284.4387569046189	1200	1150	0	2020-05-30 23:08:31.306448
A1P2RQ166VS5BT	128	104	1	1147	243.72505292402616	6	241	-74	344.34753745259684	234.68673556241896	-65.75741459238333	1150	1100	0	2020-05-30 23:08:36.211673
A1P2RQ166VS5BT	129	105	1	918	111.19189054581229	1	45	90	57.21942372237226	60.201871465437236	93.4846040544157	1100	1050	0	2020-05-30 23:08:41.212883
A1P2RQ166VS5BT	130	106	1	888	210.1333754460714	3	-113	-181	238.89963946062093	-108.54202415221918	-179.92960976253653	1050	1000	0	2020-05-30 23:08:46.107305
A1P2RQ166VS5BT	131	107	0	0	137.5790202018196	11	0	0	61.64028974013562	65.35079577423775	121.06717264133391	1000	1200	0	2020-05-30 23:08:51.125915
A1P2RQ166VS5BT	132	107	0	0	187.58547004408513	7	0	0	54.409954151695345	109.17131059491149	152.54485738513023	1200	1400	0	2020-05-30 23:08:56.343822
A1P2RQ166VS5BT	133	107	0	0	186.3850024091997	12	0	0	314.92530144591325	131.62216248264446	-131.96581173345513	1400	1600	0	2020-05-30 23:09:02.221227
A1P2RQ166VS5BT	134	107	1	919	184.6120561425231	6	157	-79	334.2424210556128	166.26914330549909	-80.2258266247566	1600	1550	0	2020-05-30 23:09:07.569598
A1P2RQ166VS5BT	135	108	1	921	126.26905877014116	13	-117	-37	196.3194731044539	-121.18165899835179	-35.48070919675286	1550	1500	0	2020-05-30 23:09:12.479347
A1P2RQ166VS5BT	136	109	1	859	190.35452582282497	7	180	69	21.386302736775864	177.24728757990238	69.41357609862732	1500	1450	0	2020-05-30 23:09:17.355633
A1P2RQ166VS5BT	137	110	1	862	183.90680460129457	1	119	-147	309.7681751899157	117.64203063627546	-141.35793365224453	1450	1400	0	2020-05-30 23:09:22.271680
A1P2RQ166VS5BT	138	111	1	865	205.5370737538048	14	-133	-154	229.5634802018937	-133.3124080107893	-156.43941497474938	1400	1350	0	2020-05-30 23:09:27.139187
A1P2RQ166VS5BT	139	112	1	922	113.15422252355995	9	-60	94	122.60033561214694	-60.96474767651032	95.326688894825	1350	1300	0	2020-05-30 23:09:32.052083
A1P2RQ166VS5BT	140	113	1	953	190.36416509020995	14	-191	-9	182.15916163778914	-190.22901110614967	-7.172076691523757	1300	1250	0	2020-05-30 23:09:37.028549
A1P2RQ166VS5BT	141	114	1	975	122.30726398142484	13	-104	-77	220.24418227838513	-93.35689881811523	-79.01617724039892	1250	1200	0	2020-05-30 23:09:42.008027
A1P2RQ166VS5BT	142	115	1	1085	296.2388028705419	8	25	297	86.94911936273441	15.766644668366679	295.8189332042039	1200	1150	0	2020-05-30 23:09:47.097817
A1P2RQ166VS5BT	143	116	1	1042	178.04925432384837	9	83	155	56.95561068092293	97.08823270599068	149.24949592982162	1150	1100	0	2020-05-30 23:09:52.201735
A1P2RQ166VS5BT	144	117	1	968	251.6596101841457	14	198	-185	313.11330978829415	171.99509249717605	-183.71240446666638	1100	1050	0	2020-05-30 23:09:57.175442
A1P2RQ166VS5BT	145	118	0	0	200.11240701694516	14	0	0	80.89977276141839	31.65017519615994	197.59362806570434	1050	1250	0	2020-05-30 23:10:02.605415
A1P2RQ166VS5BT	146	118	1	1092	192.6155321365913	10	-146	-128	219.9087109712552	-147.74913782482355	-123.57562661092813	1250	1200	0	2020-05-30 23:10:07.722391
A1P2RQ166VS5BT	147	119	1	1046	121.4116440311464	14	71	-102	300.47621250341314	61.57763004586687	-104.63738712468006	1200	1150	0	2020-05-30 23:10:12.788170
A1P2RQ166VS5BT	148	120	1	1044	206.52301815997652	6	-180	92	152.4788001038799	-183.1528572724336	95.42949178765204	1150	1100	0	2020-05-30 23:10:18.321867
A1P2RQ166VS5BT	149	121	1	810	139.50076277440488	6	-134	46	161.4792036920788	-132.27579821617047	44.31225587707918	1100	1050	0	2020-05-30 23:10:26.418834
A1P2RQ166VS5BT	150	122	0	0	224.42162895132833	10	0	0	233.76127628792847	-132.66705284427812	-181.0097252381242	1050	1250	0	2020-05-30 23:10:31.492762
A1P2RQ166VS5BT	151	122	0	0	175.57559478141297	14	0	0	27.015059817266263	156.41804387917642	79.75076822112108	1250	1450	0	2020-05-30 23:10:37.367088
A1P2RQ166VS5BT	152	122	1	918	114.45078319184657	11	-59	106	113.7160285633483	-46.032553490940195	104.78542738535164	1450	1400	0	2020-05-30 23:10:42.582402
A1P2RQ166VS5BT	153	123	1	1010	256.2309701775648	3	227	-125	329.91116946748923	221.70363443602557	-128.45936538841084	1400	1350	0	2020-05-30 23:10:47.613788
A1P2RQ166VS5BT	154	124	1	868	184.19173829450045	14	181	-61	343.8793841050741	176.94919203870364	-51.14274037240991	1350	1300	0	2020-05-30 23:10:53.429967
A1P2RQ166VS5BT	155	125	1	964	178.8253628763244	11	90	148	56.90319398218428	97.64853021900791	149.8107971873743	1300	1250	0	2020-05-30 23:10:58.410984
A1P2RQ166VS5BT	156	126	1	886	135.86093231759145	7	136	-63	330.14226187381	117.82732305535438	-67.63811700375993	1250	1200	0	2020-05-30 23:11:03.322760
A1P2RQ166VS5BT	157	127	1	742	103.46890382250726	10	94	-14	350.412939544961	102.02382344191086	-17.232339032326877	1200	1150	0	2020-05-30 23:11:08.735075
A1P2RQ166VS5BT	158	128	0	0	179.93097205331844	6	0	0	83.5706040124451	20.148450171843546	178.79931392408864	1150	1350	0	2020-05-30 23:11:13.898005
A1P2RQ166VS5BT	159	128	1	1130	177.66361835637377	1	111	143	50.79847976851701	112.29226583396259	137.67646248126044	1350	1300	0	2020-05-30 23:11:19.076701
A1P2RQ166VS5BT	160	129	1	951	263.3930641770015	2	136	-220	302.80462338854005	142.70005039259038	-221.38789911488433	1300	1250	0	2020-05-30 23:11:24.034307
A1P2RQ166VS5BT	161	130	1	958	114.53141886511342	2	-120	-38	203.89001296958563	-104.71888918094895	-46.38318829020049	1250	1200	0	2020-05-30 23:11:29.007774
A1P2RQ166VS5BT	162	131	1	1008	226.9680760903006	2	-161	-181	232.53817371382252	-138.04940952959367	-180.1578976694139	1200	1150	0	2020-05-30 23:11:34.388228
A1P2RQ166VS5BT	163	132	1	909	159.47571851666544	9	-124	-90	215.19965024607873	-130.31533094680827	-91.92616230774863	1150	1100	0	2020-05-30 23:11:39.493647
A1P2RQ166VS5BT	164	133	1	905	299.2713971714113	4	286	-97	340.7837221939628	282.5968630120202	-98.50067096570508	1100	1050	0	2020-05-30 23:11:44.486735
A1P2RQ166VS5BT	165	134	1	812	184.1093224288245	3	-117	-123	224.23755558864448	-131.90576545252824	-128.4410823902674	1050	1000	0	2020-05-30 23:11:49.803968
A1P2RQ166VS5BT	166	135	0	0	280.22714592950103	1	0	0	52.64665034643148	170.02188681096104	222.75504780146875	1000	1200	0	2020-05-30 23:11:54.815779
A1P2RQ166VS5BT	167	135	1	869	242.16346052681513	2	-109	-206	243.7340173154829	-107.16674080563872	-217.15992097857145	1200	1150	0	2020-05-30 23:11:59.711877
A1P2RQ166VS5BT	168	136	1	991	239.04818011942575	7	187	127	31.897166647203647	202.9513834550669	126.31218615827937	1150	1100	0	2020-05-30 23:12:05.214373
A1P2RQ166VS5BT	169	137	1	711	132.43978104851814	3	82	92	44.178300155091875	94.98244649097444	92.29642713977938	1100	1050	0	2020-05-30 23:12:09.938685
A1P2RQ166VS5BT	170	138	1	1024	199.92223139397493	4	182	47	14.402611932015166	193.63904014801795	49.727464605591415	1050	1000	0	2020-05-30 23:12:14.978555
A1P2RQ166VS5BT	171	139	1	939	189.0157774071356	3	-80	-175	239.8320551524187	-94.98729582335355	-163.41474150452447	1000	950	0	2020-05-30 23:12:19.948754
A1P2RQ166VS5BT	172	140	1	902	257.9555304960203	3	98	241	69.94453201012414	88.46061228556776	242.3133834263921	950	900	0	2020-05-30 23:12:25.202346
A1P2RQ166VS5BT	173	141	1	855	295.37206690860006	9	-213	-189	219.77513315238687	-227.0115291499776	-188.97201788319714	900	850	0	2020-05-30 23:12:30.073286
A1P2RQ166VS5BT	174	142	0	0	166.48884499175836	7	0	0	341.8762130488932	158.22877883385476	-51.78985475396524	850	1050	0	2020-05-30 23:12:34.941556
A1P2RQ166VS5BT	175	142	1	926	201.7280368600149	6	-82	181	118.39659942525194	-95.93620594791321	177.4554739750654	1050	1000	0	2020-05-30 23:12:39.892701
A1P2RQ166VS5BT	176	143	0	0	297.32924889354405	3	0	0	332.94119629956754	264.7836238899516	-135.25647772769963	1000	1200	0	2020-05-30 23:12:45.002773
A1P2RQ166VS5BT	177	143	1	951	241.57779057247674	10	244	57	13.090040198512902	235.3004766380159	54.71302031328526	1200	1150	0	2020-05-30 23:12:49.868058
A1P2RQ166VS5BT	178	144	1	853	156.43462205109955	12	-163	-52	196.79496800800803	-149.76188416372892	-45.201427278352604	1150	1100	0	2020-05-30 23:12:54.725537
A1P2RQ166VS5BT	179	145	1	946	174.95310084698295	3	53	163	71.91681788760916	54.304990027509874	166.31162182507464	1100	1050	0	2020-05-30 23:12:59.684867
A1P2RQ166VS5BT	180	146	1	849	147.73658857794584	10	-75	-126	238.80858032022496	-76.51261798893364	-126.38005733947404	1050	1000	0	2020-05-30 23:13:04.551963
A1P2RQ166VS5BT	181	147	1	829	170.41668894325102	14	31	-155	280.39905024090984	30.760696530017707	-167.6175033204138	1000	950	0	2020-05-30 23:13:09.389448
A1P2RQ166VS5BT	182	148	1	836	155.7454600789164	8	133	-104	323.90318226403775	125.84585271220092	-91.75766829171485	950	900	0	2020-05-30 23:13:14.691063
A1P2RQ166VS5BT	183	149	0	0	183.465695171085	6	0	0	250.539679375791	-61.12232402688673	-172.98474733386684	900	1100	0	2020-05-30 23:13:20.733549
A1P2RQ166VS5BT	184	149	1	782	233.6618855742095	11	180	-135	325.9188876271971	193.52931294958825	-130.93617452543552	1100	1050	0	2020-05-30 23:13:25.973277
A1P2RQ166VS5BT	185	150	0	0	265.2424547487269	12	0	0	331.3802262737165	232.83452650991788	-127.04976609987443	1050	1250	0	2020-05-30 23:13:31.573618
A1P2RQ166VS5BT	186	150	1	1156	261.43084943132783	10	-106	234	117.79760609920028	-121.91819319826944	231.2618498621315	1250	1200	0	2020-05-30 23:13:36.938536
