A39BQUWQEGX369	1	1	0	1265	168.37714392370353	8	-61	-214.5	246.07724582780213	-68.27771267140041	-153.91236645658225	1500	1700	0	2020-05-31 21:06:48.112373
A39BQUWQEGX369	2	1	1	1191	177.59382371561978	1	19	156.5	73.76470695203366	49.65213848022279	170.51167516119068	1700	1650	0	2020-05-31 21:06:56.824052
A39BQUWQEGX369	3	2	1	1292	101.00306100750088	5	23	-94.5	287.510772977394	30.39031770668359	-96.32261895615056	1650	1600	0	2020-05-31 21:07:03.527491
A39BQUWQEGX369	4	3	0	0	230.55330809131945	14	0	0	88.33370132097245	6.704097996689733	230.45581559574853	1600	1800	0	2020-05-31 21:07:10.931410
A39BQUWQEGX369	5	3	1	1610	280.77572676390764	4	4	-285.5	271.0129938284723	4.963878024786226	-280.731844746469	1800	1750	0	2020-05-31 21:07:22.100300
A39BQUWQEGX369	6	4	0	0	270.61921533542215	7	0	0	97.94728201002096	-37.4163252790236	268.02010803552383	1750	1950	0	2020-05-31 21:07:36.716843
A39BQUWQEGX369	7	4	1	1378	225.90829618226226	5	135	181.5	50.72099396179533	143.02192884032212	174.86934023655084	1950	1900	0	2020-05-31 21:07:44.241548
A39BQUWQEGX369	8	5	1	1492	286.8749323368933	0	-180	234.5	127.98255734224514	-176.54901587679853	226.1142892349598	1900	1850	0	2020-05-31 21:07:50.593534
A39BQUWQEGX369	9	6	1	1586	107.47749961126685	3	34	-90.5	286.39492752067656	30.336225691874596	-103.10735344029307	1850	1800	0	2020-05-31 21:07:56.953053
A39BQUWQEGX369	10	7	1	1720	294.44584963940315	3	211	-197.5	316.6984669504439	214.28426473268343	-201.9421012514311	1800	1750	0	2020-05-31 21:08:02.690849
A39BQUWQEGX369	11	8	1	1380	167.63310664886723	10	-22	-160.5	258.80880505052414	-32.53483657644826	-164.44556197627924	1750	1700	0	2020-05-31 21:08:08.375224
A39BQUWQEGX369	12	9	1	1444	254.85307298558797	12	252	-25.5	352.486505043021	252.66492765508409	-33.32451264832771	1700	1650	0	2020-05-31 21:08:14.397225
A39BQUWQEGX369	13	10	1	1578	104.39534967889203	10	-96	33.5	159.95977221096234	-98.07444659735414	35.77418006329249	1650	1600	0	2020-05-31 21:08:20.697034
A39BQUWQEGX369	14	11	1	1500	139.5765649733559	2	-52	-117.5	247.29746857387565	-53.869128783414666	-128.76231767826067	1600	1550	0	2020-05-31 21:08:28.695474
A39BQUWQEGX369	15	12	1	1545	265.6949046993211	7	-113	243.5	111.13146774939008	-95.78544336363282	247.82843102197458	1550	1500	0	2020-05-31 21:08:37.820949
A39BQUWQEGX369	16	13	0	0	284.2736049953796	8	0	0	357.08740490932075	283.9063835988233	-14.444647759877457	1500	1700	0	2020-05-31 21:08:44.302369
A39BQUWQEGX369	17	13	1	1535	124.10205663241368	5	50	118.5	67.52044034984097	47.45089451712382	114.6722855354318	1700	1650	0	2020-05-31 21:08:50.885930
A39BQUWQEGX369	18	14	0	0	143.377484804906	8	0	0	71.0377515552394	46.58981000544773	135.59680214753345	1650	1850	0	2020-05-31 21:08:56.551881
A39BQUWQEGX369	19	14	1	1171	104.1051394945927	2	-3	-106.5	274.1122327373983	7.465420971269678	-103.83712033232786	1850	1800	0	2020-05-31 21:09:01.755439
A39BQUWQEGX369	20	15	1	1459	155.93146619438875	3	-142	42.5	164.63248975960371	-150.35626661924803	41.32330139102399	1800	1750	0	2020-05-31 21:09:08.801630
A39BQUWQEGX369	21	16	0	0	266.42107461089586	6	0	0	257.82551904377294	-56.18539201173692	-260.4292432145668	1750	1950	0	2020-05-31 21:09:14.951469
A39BQUWQEGX369	22	16	1	1310	184.26554056929405	3	55	179.5	73.11398901151524	53.523348949408934	176.32084550198243	1950	1900	0	2020-05-31 21:09:24.200639
A39BQUWQEGX369	23	17	0	1572	283.6508030364761	2	-5	-277.5	285.3727918374651	75.19533592962927	-273.50217461231995	1900	2000	0	2020-05-31 21:09:30.484540
A39BQUWQEGX369	24	17	1	1741	210.80870382187805	9	-176	126.5	145.94106462739143	-174.64698755588563	118.06243833122637	2000	1950	0	2020-05-31 21:09:39.222827
A39BQUWQEGX369	25	18	1	1558	269.9039350826002	3	117	238.5	62.39791274211731	125.05413647542939	239.18527781503846	1950	1900	0	2020-05-31 21:09:45.513929
A39BQUWQEGX369	26	19	1	1353	109.68077495746344	0	-100	46.5	162.33117319687244	-104.5067771088044	33.289727148182166	1900	1850	0	2020-05-31 21:09:51.784008
A39BQUWQEGX369	27	20	1	1225	108.95485979749839	6	-83	68.5	146.9051057401635	-91.2788271605451	59.49232879697905	1850	1800	0	2020-05-31 21:09:57.780414
A39BQUWQEGX369	28	21	0	98	209.8538997002127	6	4	-0.5	76.51371837567932	48.940561363250325	204.0673434747384	1800	2000	0	2020-05-31 21:10:06.200722
A39BQUWQEGX369	29	21	1	1663	148.82534961008173	9	4	-155.5	269.43832909504425	-1.4589125181708293	-148.81819868829007	2000	1950	0	2020-05-31 21:10:17.931898
A39BQUWQEGX369	30	22	1	1608	175.7950665300242	5	-57	164.5	109.53345330180025	-58.77834316678337	165.67743295592035	1950	1900	0	2020-05-31 21:10:29.628449
A39BQUWQEGX369	31	23	1	1594	157.80937512745226	13	146	-50.5	337.1188387726943	145.39187604076847	-61.35960608953392	1900	1850	0	2020-05-31 21:10:45.033586
A39BQUWQEGX369	32	24	0	37	135.07881229332014	11	6	2.5	325.7397819746911	111.64120198285042	-76.04293228432485	1850	2000	0	2020-05-31 21:10:50.571372
A39BQUWQEGX369	33	24	1	1544	271.671515482204	0	131	-255.5	297.51109760614753	125.4906176792819	-240.9512755701237	2000	1950	0	2020-05-31 21:10:56.134494
A39BQUWQEGX369	34	25	0	0	180.8274304033435	8	0	0	351.9807550175551	179.05916710917973	-25.22645953047879	1950	2000	0	2020-05-31 21:11:03.322321
A39BQUWQEGX369	35	25	1	1514	137.73375670062507	11	54	118.5	65.7580936651849	56.552110326045074	125.58840134557731	2000	1950	0	2020-05-31 21:11:12.607546
A39BQUWQEGX369	36	26	1	1707	156.8092542620813	10	131	-89.5	326.4560399291638	130.694571004736	-86.64912770546562	1950	1900	0	2020-05-31 21:11:19.361391
A39BQUWQEGX369	37	27	1	1769	228.6261280090102	8	-226	-89.5	199.4053183572629	-215.6382941748512	-75.96072994483818	1900	1850	0	2020-05-31 21:11:26.474926
A39BQUWQEGX369	38	28	1	1688	237.8855753417137	0	57	-222.5	286.73485820299345	68.49753300221433	-227.8105241824194	1850	1800	0	2020-05-31 21:11:32.927779
A39BQUWQEGX369	39	29	1	1388	132.84154008430153	13	-120	61.5	152.93207477179024	-118.2910985208718	60.449075945745356	1800	1750	0	2020-05-31 21:11:39.510626
A39BQUWQEGX369	40	30	0	0	127.56694274204116	2	0	0	90.91552606669333	-2.0382983251919558	127.55065746788108	1750	1950	0	2020-05-31 21:11:45.714404
A39BQUWQEGX369	41	30	1	1338	253.9992445634839	14	-169	187.5	128.68365033852993	-158.75459026862958	198.2740434536504	1950	1900	0	2020-05-31 21:11:51.819820
A39BQUWQEGX369	42	31	1	1788	176.98013322084836	14	58	166.5	68.86520782945611	63.81253493726993	165.07552192784047	1900	1850	0	2020-05-31 21:14:15.070534
A39BQUWQEGX369	43	32	1	1687	221.1738574110646	1	-74	-207.5	252.10214308403383	-67.97137640109908	-210.47034753672557	1850	1800	0	2020-05-31 21:14:25.883731
A39BQUWQEGX369	44	33	1	1735	119.272666077666	9	-102	27.5	167.43695945853585	-116.4169534683593	25.943434977278688	1800	1750	0	2020-05-31 21:14:32.953022
A39BQUWQEGX369	45	34	1	1521	239.52203489670708	8	96	213.5	66.64620225809156	94.94837924419998	219.89909158511531	1750	1700	0	2020-05-31 21:14:43.870425
A39BQUWQEGX369	46	35	0	0	299.0531572715909	5	0	0	249.25090711384127	-105.94742595838036	-279.6568143401845	1700	1900	0	2020-05-31 21:14:51.183141
A39BQUWQEGX369	47	35	1	1664	120.54558738488575	12	56	103.5	64.93087219311823	51.07654216551539	109.18985977819302	1900	1850	0	2020-05-31 21:14:57.747661
A39BQUWQEGX369	48	36	1	1568	208.84218965122938	14	112	-176.5	300.8267642822026	107.01993758028088	-179.33709359369257	1850	1800	0	2020-05-31 21:15:04.376033
A39BQUWQEGX369	49	37	1	1675	270.94952128911234	8	-173	203.5	128.41666058584684	-168.36143166415098	212.29241958863383	1800	1750	0	2020-05-31 21:15:10.981642
A39BQUWQEGX369	50	38	1	1371	133.82033517649984	12	-135	10.5	177.34553818847942	-133.67674585788126	6.197557873726551	1750	1700	0	2020-05-31 21:15:17.226112
A39BQUWQEGX369	51	39	1	1648	283.7728892355947	2	260	-96.5	339.6105839179003	265.99348569915276	-98.86616322449102	1700	1650	0	2020-05-31 21:15:24.235272
A39BQUWQEGX369	52	40	0	0	219.67081987126	8	0	0	4.738328552071653	218.92006195590363	18.145952059202465	1650	1850	0	2020-05-31 21:15:29.910870
A39BQUWQEGX369	53	40	1	1790	250.99527276358054	0	-228	-69.5	198.13556520403102	-238.52650589443053	-78.12639077455457	1850	1800	0	2020-05-31 21:15:38.640250
A39BQUWQEGX369	54	41	1	1286	136.38798762694515	6	-29	-128.5	260.33842157892497	-22.889770334953052	-134.45349226755266	1800	1750	0	2020-05-31 21:15:44.964122
A39BQUWQEGX369	55	42	1	1280	102.88250051451739	6	-40	90.5	117.44463073335515	-47.41764033221955	91.30375839714341	1750	1700	0	2020-05-31 21:15:51.443278
A39BQUWQEGX369	56	43	0	32	293.4444742334383	14	-6	1.5	116.32694685473075	-130.14050258377304	263.0078117573355	1700	1900	0	2020-05-31 21:15:56.180924
A39BQUWQEGX369	57	43	1	1851	173.36618037434235	10	-87	158.5	116.91919194402045	-78.4886607635855	154.58124928052496	1900	1850	0	2020-05-31 21:16:02.101509
A39BQUWQEGX369	58	44	1	1436	162.95319586197334	6	152	25.5	7.862058742386502	161.42147848501193	22.29013964387577	1850	1800	0	2020-05-31 21:16:08.264225
A39BQUWQEGX369	59	45	0	0	290.19915138770523	6	0	0	40.0184520033237	222.24536207113508	186.60800225074576	1800	2000	0	2020-05-31 21:16:14.086466
A39BQUWQEGX369	60	45	0	0	289.24397104696516	9	0	0	131.21805104715466	-190.59051051653688	217.57144134298383	2000	2000	0	2020-05-31 21:16:20.491612
A39BQUWQEGX369	61	45	1	1837	231.39866106314298	10	-239	-37.5	190.23679387527568	-227.71518446588868	-41.12341310593781	2000	1950	0	2020-05-31 21:16:26.839658
A39BQUWQEGX369	62	46	1	1608	120.77594454298684	12	63	96.5	57.34858627437145	65.16182665429447	101.68955269508422	1950	1900	0	2020-05-31 21:16:33.114458
A39BQUWQEGX369	63	47	1	1557	120.32903048888053	5	3	130.5	88.0778754806174	4.035969165873066	120.26132600003238	1900	1850	0	2020-05-31 21:16:39.656105
A39BQUWQEGX369	64	48	1	1797	236.98537145079874	7	160	165.5	47.41783912379909	160.35538186033935	174.49417695183354	1850	1800	0	2020-05-31 21:16:46.272221
A39BQUWQEGX369	65	49	0	0	261.8629828529598	7	0	0	32.84155300369815	220.0103429572929	142.01292469512725	1800	2000	0	2020-05-31 21:16:57.747973
A39BQUWQEGX369	66	49	1	1731	237.8445225571153	14	233	53.5	11.404465325769166	233.14846495535448	47.02988623613686	2000	1950	0	2020-05-31 21:17:05.071053
A39BQUWQEGX369	67	50	1	1542	200.2609892683632	2	184	69.5	20.368466020315637	187.7394089212896	69.70206711876119	1950	1900	0	2020-05-31 21:17:10.643238
A39BQUWQEGX369	68	51	1	1460	298.8918644607968	9	-58	278.5	103.7637734223309	-71.11216944090924	290.3091558980852	1900	1850	0	2020-05-31 21:17:16.117949
A39BQUWQEGX369	69	52	1	1312	139.9730552111269	0	111	72.5	28.891947055422147	122.55095110685976	67.6292877970872	1850	1800	0	2020-05-31 21:17:21.431457
A39BQUWQEGX369	70	53	1	1588	158.72384307527176	1	106	-126.5	310.46611048361325	103.01148322460021	-120.75550788453256	1800	1750	0	2020-05-31 21:17:27.047212
A39BQUWQEGX369	71	54	1	1565	233.9627642596711	13	27	-228.5	278.1064318324127	32.99164336325641	-231.6249695698159	1750	1700	0	2020-05-31 21:17:32.620596
A39BQUWQEGX369	72	55	1	1622	241.36788882903386	6	66	225.5	72.01439161044671	74.52911746552154	229.57323103444648	1700	1650	0	2020-05-31 21:17:38.275820
A39BQUWQEGX369	73	56	1	1387	139.3741601668795	14	-121	60.5	146.93624364156557	-116.80446577440239	76.03863029657651	1650	1600	0	2020-05-31 21:17:45.255406
A39BQUWQEGX369	74	57	0	0	252.24885549172197	7	0	0	90.81663559423707	-3.5951761412237215	252.22323407132262	1600	1800	0	2020-05-31 21:17:51.781684
A39BQUWQEGX369	75	57	1	1572	245.26421506222076	2	-245	59.5	166.15525226733385	-238.13872311651892	58.68972433502499	1800	1750	0	2020-05-31 21:17:59.419554
A39BQUWQEGX369	76	58	1	1615	165.49616315336334	1	-158	27.5	169.6454820293893	-162.8009686061428	29.74600207399922	1750	1700	0	2020-05-31 21:18:04.993321
A39BQUWQEGX369	77	59	1	1395	158.09832207922477	0	149	-9.5	356.77502891478224	157.84794821733166	-8.894081618968645	1700	1650	0	2020-05-31 21:18:10.408823
A39BQUWQEGX369	78	60	1	1395	113.71733309718527	4	-15	-108.5	266.64410167027205	-6.656784286195398	-113.52232850722915	1650	1600	0	2020-05-31 21:18:16.239952
A39BQUWQEGX369	79	61	0	0	245.57057037749445	4	0	0	341.6396595302781	233.06962201752864	-77.35280426806962	1600	1800	0	2020-05-31 21:18:25.678220
A39BQUWQEGX369	80	61	1	1797	293.14035318164804	8	203	-189.5	316.6014552968508	212.99347142862135	-201.4076656739917	1800	1750	0	2020-05-31 21:18:31.505937
A39BQUWQEGX369	81	62	1	1545	124.87200160720838	9	53	97.5	57.143779472069546	67.7471493467815	104.8968090114067	1750	1700	0	2020-05-31 21:18:37.052795
A39BQUWQEGX369	82	63	1	1323	162.29111777777007	11	50	-149.5	290.00791646847586	55.52790204036091	-152.49609504690315	1700	1650	0	2020-05-31 21:18:42.631251
A39BQUWQEGX369	83	64	1	1569	135.2699518908799	13	-142	3.5	184.37235707191758	-134.87626899388331	-10.312708027021415	1650	1600	0	2020-05-31 21:18:48.210682
A39BQUWQEGX369	84	65	1	1512	151.67927216882703	0	-15	-150.5	266.5460431848792	-9.138132168751666	-151.4037520873625	1600	1550	0	2020-05-31 21:18:54.083871
A39BQUWQEGX369	85	66	0	0	291.67259941556347	11	0	0	220.1418811201896	-222.96922531222748	-188.03624600990338	1550	1750	0	2020-05-31 21:19:03.697599
A39BQUWQEGX369	86	66	1	1568	277.4933079743465	7	273	-32.5	355.8695955339532	276.77257510515017	-19.986936739019136	1750	1700	0	2020-05-31 21:19:09.280909
A39BQUWQEGX369	87	67	1	1484	160.5435293962255	1	136	73.5	26.88347029670024	143.19327211919853	72.59415713949628	1700	1650	0	2020-05-31 21:19:14.773369
A39BQUWQEGX369	88	68	1	1397	204.06967611951467	0	60	-190.5	290.7830126086949	72.40999913181754	-190.79104994012113	1650	1600	0	2020-05-31 21:19:20.182576
A39BQUWQEGX369	89	69	1	1421	258.38427856393986	2	-34	-248.5	261.94802280071855	-36.19224460953649	-255.83697316676327	1600	1550	0	2020-05-31 21:19:25.605886
A39BQUWQEGX369	90	70	0	0	133.5211377653112	14	0	0	38.08242424174558	105.09772724937272	82.35509672849442	1550	1750	0	2020-05-31 21:19:35.136885
A39BQUWQEGX369	91	70	0	0	281.04409921507636	1	0	0	60.47629593247551	138.4939219327421	244.55105661456713	1750	1950	0	2020-05-31 21:19:42.037589
A39BQUWQEGX369	92	70	1	1667	222.12343667275917	7	-132	-183.5	232.87868839402353	-134.05251879605282	-177.11223369307714	1950	1900	0	2020-05-31 21:19:48.888257
A39BQUWQEGX369	93	71	1	1609	225.251842150505	0	-209	93.5	155.84307305574617	-205.5260934299129	92.1814369145694	1900	1850	0	2020-05-31 21:19:55.271278
A39BQUWQEGX369	94	72	0	0	186.24937041827326	11	0	0	26.135818700312335	167.20581378825258	82.04293885893753	1850	2000	0	2020-05-31 21:20:01.160797
A39BQUWQEGX369	95	72	1	1299	221.1312854621664	12	150	160.5	49.116157105734686	144.7365386294056	167.18367084057195	2000	1950	0	2020-05-31 21:20:07.942417
A39BQUWQEGX369	96	73	0	0	280.609934204772	6	0	0	176.38734044707988	-280.0523146870663	17.681521790356758	1950	2000	0	2020-05-31 21:20:23.028928
A39BQUWQEGX369	97	73	1	1654	222.63951425922778	13	-115	215.5	115.61617467773567	-96.25603887281807	200.75639040912105	2000	1950	0	2020-05-31 21:20:29.750158
A39BQUWQEGX369	98	74	1	1849	110.84627444349331	13	39	-103.5	289.4431465568614	36.89754690655632	-104.52496156555485	1950	1900	0	2020-05-31 21:20:36.703698
A39BQUWQEGX369	99	75	1	1692	200.7586515883851	6	57	188.5	76.44973166691517	47.03742696448499	195.17048099583948	1900	1850	0	2020-05-31 21:20:42.406977
A39BQUWQEGX369	100	76	1	1656	249.4974183959212	10	200	-155.5	320.1676469748682	191.59454465999968	-159.81393006479985	1850	1800	0	2020-05-31 21:20:49.443137
A39BQUWQEGX369	101	77	1	1795	262.450343191392	1	-249	-50.5	192.13278290102994	-256.58802644840324	-55.16128465321433	1800	1750	0	2020-05-31 21:20:55.258534
A39BQUWQEGX369	102	78	1	1395	102.7227136974393	6	66	-87.5	302.77181921866503	55.60326195893984	-86.37264132172639	1750	1700	0	2020-05-31 21:21:00.791662
A39BQUWQEGX369	103	79	1	1447	149.0252714401116	0	91	113.5	53.12169021668353	89.43266575248725	119.2070879780344	1700	1650	0	2020-05-31 21:21:06.287086
A39BQUWQEGX369	104	80	1	1282	212.03707544328884	2	51	218.5	74.5342369210417	56.54233958146728	204.35920629420394	1650	1600	0	2020-05-31 21:21:15.271764
A39BQUWQEGX369	105	81	1	1463	175.62339287772434	10	173	-26.5	352.35459682682665	174.06217546184612	-23.365256244539825	1600	1550	0	2020-05-31 21:21:20.983368
A39BQUWQEGX369	106	82	0	0	268.8617684359898	11	0	0	192.5850792721647	-262.40197105057376	-58.582046014983625	1550	1750	0	2020-05-31 21:21:35.574677
A39BQUWQEGX369	107	82	1	1489	233.8980118578976	1	-109	200.5	120.64228246312388	-119.21231473671695	201.23792874652418	1750	1700	0	2020-05-31 21:21:44.869676
A39BQUWQEGX369	108	83	1	1523	208.15495609523333	7	-155	122.5	139.29791013321073	-157.80446832703365	135.74327063626674	1700	1650	0	2020-05-31 21:21:51.540873
A39BQUWQEGX369	109	84	0	0	216.04695735964472	12	0	0	259.9890932738257	-37.55666128240261	-212.7575732557575	1650	1850	0	2020-05-31 21:21:57.221768
A39BQUWQEGX369	110	84	0	0	271.70990782343347	13	0	0	167.53585106946556	-265.30604395847575	58.64279195708573	1850	2000	0	2020-05-31 21:22:03.080266
A39BQUWQEGX369	111	84	1	1436	231.14215270669374	5	234	8.5	5.523375510486357	230.06896256103124	22.247858862716022	2000	1950	0	2020-05-31 21:22:14.020840
A39BQUWQEGX369	112	85	1	1691	241.4355096319312	8	246	-45.5	350.03972543185	237.7965727343477	-41.759972545829385	1950	1900	0	2020-05-31 21:22:20.723827
A39BQUWQEGX369	113	86	1	1647	273.6163583897235	14	100	247.5	70.73951168896387	90.25603882313759	258.30168221366637	1900	1850	0	2020-05-31 21:22:27.223376
A39BQUWQEGX369	114	87	1	1657	126.11898803454275	12	106	-66.5	321.4914642107412	98.69005130459192	-78.52561949041952	1850	1800	0	2020-05-31 21:22:34.248106
A39BQUWQEGX369	115	88	0	0	162.91147388498518	11	0	0	144.90593242961125	-133.29567475468755	93.6611521126596	1800	2000	0	2020-05-31 21:22:40.081539
A39BQUWQEGX369	116	88	1	1395	114.31302428813184	10	129	-40.5	336.75847791932483	105.03647771578258	-45.10882254017421	2000	1950	0	2020-05-31 21:22:46.255210
A39BQUWQEGX369	117	89	1	1636	244.43386676356909	2	216	-87.5	336.798653899515	224.66554270048775	-96.2980225346583	1950	1900	0	2020-05-31 21:22:55.378202
A39BQUWQEGX369	118	90	1	1591	212.22964141049096	3	-85	-193.5	244.79685218185543	-90.37353638211121	-192.02615606999169	1900	1850	0	2020-05-31 21:23:02.003886
A39BQUWQEGX369	119	91	1	1458	231.76433403307865	11	121	193.5	58.26595849910426	121.90272210952844	197.115278129534	1850	1800	0	2020-05-31 21:23:39.801087
A39BQUWQEGX369	120	92	0	0	274.2421644951501	13	0	0	210.9622052095892	-235.16453618298732	-141.090062402798	1800	2000	0	2020-05-31 21:23:53.172236
A39BQUWQEGX369	121	92	1	1287	136.50783757244565	0	-14	-133.5	260.2779415084472	-23.051922407639356	-134.54738418868416	2000	1950	0	2020-05-31 21:23:59.865324
A39BQUWQEGX369	122	93	0	0	174.10323744563559	13	0	0	291.18187588541844	62.90865910392843	-162.34049987232726	1950	2000	0	2020-05-31 21:24:05.825844
A39BQUWQEGX369	123	93	1	1362	115.95319873728975	7	23	114.5	77.6823251119394	24.73650228676287	113.28393421852186	2000	1950	0	2020-05-31 21:24:11.907118
A39BQUWQEGX369	124	94	0	0	206.65335012383355	0	0	0	213.61065825767184	-172.10468832321797	-114.39223476517861	1950	2000	0	2020-05-31 21:24:17.882539
A39BQUWQEGX369	125	94	1	1423	139.79291701575724	4	8	-160.5	271.48232785679903	3.616249244585125	-139.74613550712388	2000	1950	0	2020-05-31 21:24:24.111600
A39BQUWQEGX369	126	95	1	1522	118.13863366969386	9	94	-3.5	350.586016369667	116.54757454649021	-19.323551243817214	1950	1900	0	2020-05-31 21:24:29.655379
A39BQUWQEGX369	127	96	1	1418	142.6366444485244	10	-88	-42.5	199.60047027319706	-134.37152121378864	-47.848789182455974	1900	1850	0	2020-05-31 21:24:35.139721
A39BQUWQEGX369	128	97	0	0	211.10406678040326	4	0	0	107.306620514352	-62.80033436306883	201.54663235864726	1850	2000	0	2020-05-31 21:24:41.732875
A39BQUWQEGX369	129	97	1	1328	104.9746148116824	3	115	22.5	11.921848412959086	102.7103420560546	21.68537271040903	2000	1950	0	2020-05-31 21:24:47.817404
A39BQUWQEGX369	130	98	1	1819	247.80085887889913	13	-201	-117.5	210.6599147871388	-213.1605901307921	-126.36387330330038	1950	1900	0	2020-05-31 21:24:53.650403
A39BQUWQEGX369	131	99	1	1773	175.1025518930438	9	-165	9.5	175.89204640187828	-174.65268687372898	12.543629747536283	1900	1850	0	2020-05-31 21:24:59.483113
A39BQUWQEGX369	132	100	1	1561	294.4855472664404	8	-290	28.5	173.65835948199458	-292.6835731230375	32.52788915294804	1850	1800	0	2020-05-31 21:25:09.028166
A39BQUWQEGX369	133	101	1	1269	217.66368017082874	9	-213	-35.5	187.26331739641773	-215.91705759218556	-27.519118921972368	1800	1750	0	2020-05-31 21:25:19.300930
A39BQUWQEGX369	134	102	1	1539	206.69326389446167	12	117	-174.5	304.82672591060094	118.04180678658744	-169.67096743374668	1750	1700	0	2020-05-31 21:25:25.658833
A39BQUWQEGX369	135	103	1	1588	223.35331367480643	11	-4	219.5	90.89063828550997	-3.471791515840448	223.32632937740908	1700	1650	0	2020-05-31 21:25:31.276313
A39BQUWQEGX369	136	104	0	0	218.80622382108422	13	0	0	158.2727770231038	-203.2615270228027	80.99947663535144	1650	1850	0	2020-05-31 21:25:36.933351
A39BQUWQEGX369	137	104	1	1568	165.43598381852487	3	-136	-85.5	209.727371045781	-143.66373606340022	-82.03533191441909	1850	1800	0	2020-05-31 21:25:43.222855
A39BQUWQEGX369	138	105	1	1768	227.09737874866272	4	-77	205.5	109.2470451285264	-74.86082414281744	214.40400286182097	1800	1750	0	2020-05-31 21:25:49.683861
A39BQUWQEGX369	139	106	1	1313	223.96542691136074	0	212	67.5	19.359610074202802	211.30165488386015	74.24367377043063	1750	1700	0	2020-05-31 21:25:55.011984
A39BQUWQEGX369	140	107	1	1518	210.82952978555994	13	-177	103.5	149.64756506145454	-181.93185654490307	106.53586346261578	1700	1650	0	2020-05-31 21:26:00.591520
A39BQUWQEGX369	141	108	1	1306	103.22457314682971	0	-40	108.5	114.27100321443521	-42.430776081676505	94.10070001042409	1650	1600	0	2020-05-31 21:26:07.331685
A39BQUWQEGX369	142	109	0	0	165.05393872418716	14	0	0	323.7098949729444	133.03851054287287	-97.69113266259961	1600	1800	0	2020-05-31 21:26:13.390959
A39BQUWQEGX369	143	109	0	489	162.88437042874722	1	2	-5.5	170.4393285053747	-160.6219516153707	27.053775877663572	1800	2000	0	2020-05-31 21:26:20.406238
A39BQUWQEGX369	144	109	1	1440	236.4032917449899	6	206	103.5	26.302163252050484	211.92838831470368	104.7514896037234	2000	1950	0	2020-05-31 21:26:25.877446
A39BQUWQEGX369	145	110	0	0	100.6161923766129	13	0	0	350.3871802947639	99.20341008762244	-16.801833095069874	1950	2000	0	2020-05-31 21:26:32.337207
A39BQUWQEGX369	146	110	1	1712	164.8778240660002	7	31	150.5	82.8915413802868	20.40329670471019	163.61052029841625	2000	1950	0	2020-05-31 21:26:38.056684
A39BQUWQEGX369	147	111	1	1426	144.58930872465015	2	14	135.5	86.92752687961227	7.749853219065203	144.38146685968783	1950	1900	0	2020-05-31 21:26:43.504253
A39BQUWQEGX369	148	112	1	1663	140.00734969121248	12	2	-148.5	275.2115589661423	12.717356209252836	-139.4285724613303	1900	1850	0	2020-05-31 21:26:49.193885
A39BQUWQEGX369	149	113	1	1514	113.92989410188838	11	101	39.5	23.058276464119494	104.82768833602567	44.62260109174013	1850	1800	0	2020-05-31 21:26:54.716957
A39BQUWQEGX369	150	114	0	0	129.14617676397225	1	0	0	29.394057420759108	112.52050776726851	63.386672925365254	1800	2000	0	2020-05-31 21:27:00.533981
A39BQUWQEGX369	151	114	1	1352	109.49586682929873	9	86	-60.5	324.9099882161103	89.59498691021652	-62.94508061205142	2000	1950	0	2020-05-31 21:27:05.900314
A39BQUWQEGX369	152	115	1	1612	242.6324240042324	2	199	-113.5	331.5322988191629	213.2947567280001	-115.65396634146565	1950	1900	0	2020-05-31 21:27:12.203805
A39BQUWQEGX369	153	116	1	1353	107.35137827623271	11	99	34.5	7.428722819080651	106.45032142800494	13.879750922881822	1900	1850	0	2020-05-31 21:27:17.568240
A39BQUWQEGX369	154	117	1	1463	113.04385110559232	12	103	4.5	5.830425974050177	112.45906444363125	11.4835141505778	1850	1800	0	2020-05-31 21:27:27.357175
A39BQUWQEGX369	155	118	0	0	198.290573485309	0	0	0	107.96566068780241	-61.162120294323664	188.62223244950584	1800	2000	0	2020-05-31 21:27:33.178699
A39BQUWQEGX369	156	118	1	1498	177.97109167637677	10	171	39.5	9.966051714962294	175.28559124827305	30.800502807984323	2000	1950	0	2020-05-31 21:27:44.046592
A39BQUWQEGX369	157	119	1	1798	216.6783796378072	5	77	-198.5	291.4983226542973	79.40698998635389	-201.60369575921172	1950	1900	0	2020-05-31 21:27:50.570466
A39BQUWQEGX369	158	120	1	1210	118.8883478411074	6	-43	-122.5	249.23548660142086	-42.14923659664122	-111.16600697474254	1900	1850	0	2020-05-31 21:27:56.861232
A39BQUWQEGX369	159	121	0	0	175.68449942629815	2	0	0	153.274689550701	-156.91661876307805	79.0077090835557	1850	2000	0	2020-05-31 21:29:01.768506
A39BQUWQEGX369	160	121	1	1620	129.31680854822707	5	99	59.5	30.908078155463627	110.95285092769953	66.42515972216026	2000	1950	0	2020-05-31 21:29:08.201782
A39BQUWQEGX369	161	122	1	1619	295.64306147229354	2	174	225.5	53.095376352855716	177.5291516952336	236.406895193607	1950	1900	0	2020-05-31 21:29:14.642504
A39BQUWQEGX369	162	123	1	1739	127.8162692147668	13	-129	-44.5	197.09079134902635	-122.17193612509001	-37.563502225280715	1900	1850	0	2020-05-31 21:29:20.402421
A39BQUWQEGX369	163	124	1	1369	137.64021943135822	7	-29	128.5	105.91124975399596	-37.73379731075473	132.36687858230744	1850	1800	0	2020-05-31 21:29:26.462580
A39BQUWQEGX369	164	125	0	0	298.75547809477985	3	0	0	346.04686079157636	289.9401789618426	-72.038380848095	1800	2000	0	2020-05-31 21:29:32.276063
A39BQUWQEGX369	165	125	1	1369	151.90084533452836	8	-79	-121.5	237.90633454016387	-80.70566642853711	-128.68745944990135	2000	1950	0	2020-05-31 21:29:38.086370
A39BQUWQEGX369	166	126	1	1516	113.97352758646981	7	-50	-88.5	244.2712743663663	-49.477138240594094	-102.67413394825854	1950	1900	0	2020-05-31 21:29:43.753164
A39BQUWQEGX369	167	127	1	1640	251.3170282951347	4	73	239.5	70.00208121438602	85.94690766737526	236.163879061793	1900	1850	0	2020-05-31 21:29:49.408962
A39BQUWQEGX369	168	128	1	1538	157.1700656054453	1	139	19.5	5.225004059910505	156.51698491663166	14.313034445109098	1850	1800	0	2020-05-31 21:29:55.239999
A39BQUWQEGX369	169	129	1	1217	156.5523793377713	14	-136	-13.5	184.69370309105432	-156.0273630848441	-12.810520875736263	1800	1750	0	2020-05-31 21:30:01.187550
A39BQUWQEGX369	170	130	1	1413	203.7379317242706	3	-80	189.5	114.11361329027866	-83.23658910060595	185.95917578377367	1750	1700	0	2020-05-31 21:30:06.591672
A39BQUWQEGX369	171	131	0	0	281.2002067769447	5	0	0	344.3469451456816	270.77137380086776	-75.87107104415477	1700	1900	0	2020-05-31 21:30:13.227574
A39BQUWQEGX369	172	131	0	0	296.3418773551677	3	0	0	258.7245706608666	-57.94242352182837	-290.6220635650403	1900	2000	0	2020-05-31 21:30:21.018512
A39BQUWQEGX369	173	131	1	1386	299.15589509131723	13	-81	277.5	106.97135959807898	-87.32170338925604	286.12789043552885	2000	1950	0	2020-05-31 21:30:27.474412
A39BQUWQEGX369	174	132	1	1508	232.5109217542644	0	6	-244.5	272.4396262726322	9.897210080767314	-232.300180730956	1950	1900	0	2020-05-31 21:30:32.994020
A39BQUWQEGX369	175	133	1	1707	170.83675246204928	2	-133	81.5	149.5470179393441	-147.26903068590553	86.58538325036919	1900	1850	0	2020-05-31 21:30:39.985329
A39BQUWQEGX369	176	134	0	0	269.063841758535	11	0	0	358.7879820425734	269.00364376826957	-5.6912723758284915	1850	2000	0	2020-05-31 21:30:47.795491
A39BQUWQEGX369	177	134	0	0	253.99347409883669	4	0	0	302.69785955216656	137.20953094666956	-213.74337300181108	2000	2000	0	2020-05-31 21:30:58.485262
A39BQUWQEGX369	178	134	1	1399	183.8975940047112	8	108	-160.5	305.7923053756922	107.55227736688165	-149.16713013904555	2000	1950	0	2020-05-31 21:31:13.001928
A39BQUWQEGX369	179	135	1	1873	257.20276125188036	9	-2	-255.5	269.3855734575628	-2.758129407317863	-257.18797234272887	1950	1900	0	2020-05-31 21:31:18.893502
A39BQUWQEGX369	180	136	0	0	288.70319360537644	12	0	0	337.8528431125627	267.40228753361157	-108.83726668625592	1900	2000	0	2020-05-31 21:31:25.166374
A39BQUWQEGX369	181	136	1	1361	150.61079252976688	12	151	-3.5	1.2731934047622318	150.57360890507312	3.3465097858177715	2000	1950	0	2020-05-31 21:31:30.538124
A39BQUWQEGX369	182	137	1	1837	178.79996512899697	6	164	-54.5	338.3234124463449	166.15587195998955	-66.04281750005892	1950	1900	0	2020-05-31 21:31:36.394412
A39BQUWQEGX369	183	138	1	1527	153.7564504938103	3	142	-35.5	348.32959913608585	150.57791109941883	-31.10206998563048	1900	1850	0	2020-05-31 21:31:41.934176
A39BQUWQEGX369	184	139	1	1464	142.04779588195458	9	77	117.5	60.64915519476101	69.62559950980103	123.8137803631818	1850	1800	0	2020-05-31 21:31:53.015896
A39BQUWQEGX369	185	140	0	0	105.71219220656043	8	0	0	244.14892088978132	-46.09406342744507	-95.13361602432364	1800	2000	0	2020-05-31 21:31:58.840245
A39BQUWQEGX369	186	140	1	1664	276.00617172055365	9	-129	236.5	117.6972239939358	-128.28743331026658	244.3803209804334	2000	1950	0	2020-05-31 21:32:05.899346
A39BQUWQEGX369	187	141	1	1826	276.6979685668281	4	88	257.5	69.95431054054289	94.84358974901232	259.93549063667786	1950	1900	0	2020-05-31 21:32:11.729944
A39BQUWQEGX369	188	142	1	1663	119.65060428646295	3	-96	-80.5	224.23785469836884	-85.7236565139408	-83.47288074575863	1900	1850	0	2020-05-31 21:32:18.612650
A39BQUWQEGX369	189	143	1	1703	226.04608260430106	12	217	-53.5	344.55496208882175	217.88273652326308	-60.199207518744124	1850	1800	0	2020-05-31 21:32:25.324098
A39BQUWQEGX369	190	144	1	1357	197.7199800218954	8	110	177.5	54.47866185326098	114.87651628004272	160.92413276827003	1800	1750	0	2020-05-31 21:32:31.469887
A39BQUWQEGX369	191	145	0	0	299.47286064255127	14	0	0	88.24562948847999	9.168288964272614	299.3324852716466	1750	1950	0	2020-05-31 21:32:37.926995
A39BQUWQEGX369	192	145	1	1670	194.16202771478754	14	-97	156.5	126.13902647859378	-114.50639089861808	156.80299566555098	1950	1900	0	2020-05-31 21:32:49.086056
A39BQUWQEGX369	193	146	1	1358	119.29838809301106	4	138	-54.5	340.3301697211305	112.33707846914483	-40.15577421253237	1900	1850	0	2020-05-31 21:33:02.438351
A39BQUWQEGX369	194	147	1	1446	190.84312559015933	5	-167	-65.5	202.62654589101763	-176.15432505559903	-73.42174302771411	1850	1800	0	2020-05-31 21:33:08.771688
A39BQUWQEGX369	195	148	1	1640	289.2392371519337	7	133	256.5	64.59383076640628	124.093002971162	261.266650994404	1800	1750	0	2020-05-31 21:33:14.619154
A39BQUWQEGX369	196	149	1	1686	104.71950946758275	10	-111	-35.5	196.04545537275965	-100.63992197309229	-28.94446006373326	1750	1700	0	2020-05-31 21:33:21.267956
A39BQUWQEGX369	197	150	1	1685	155.12731652522032	14	-71	-131.5	241.10381627348855	-74.96125334049428	-135.81345599732794	1700	1650	0	2020-05-31 21:33:27.020053
